{"frames": [

{
	"filename": "mo_wind0001.png",
	"frame": {"x":2,"y":2,"w":82,"h":255},
	"rotated": false,
	"trimmed": false,
	"spriteSourceSize": {"x":0,"y":0,"w":82,"h":255},
	"sourceSize": {"w":82,"h":255},
	"pivot": {"x":0.5,"y":0.5}
},
{
	"filename": "mo_wind0002.png",
	"frame": {"x":86,"y":2,"w":82,"h":255},
	"rotated": false,
	"trimmed": false,
	"spriteSourceSize": {"x":0,"y":0,"w":82,"h":255},
	"sourceSize": {"w":82,"h":255},
	"pivot": {"x":0.5,"y":0.5}
},
{
	"filename": "mo_wind0003.png",
	"frame": {"x":170,"y":2,"w":82,"h":255},
	"rotated": false,
	"trimmed": false,
	"spriteSourceSize": {"x":0,"y":0,"w":82,"h":255},
	"sourceSize": {"w":82,"h":255},
	"pivot": {"x":0.5,"y":0.5}
},
{
	"filename": "mo_wind0004.png",
	"frame": {"x":254,"y":2,"w":82,"h":255},
	"rotated": false,
	"trimmed": false,
	"spriteSourceSize": {"x":0,"y":0,"w":82,"h":255},
	"sourceSize": {"w":82,"h":255},
	"pivot": {"x":0.5,"y":0.5}
},
{
	"filename": "mo_wind0005.png",
	"frame": {"x":338,"y":2,"w":82,"h":255},
	"rotated": false,
	"trimmed": false,
	"spriteSourceSize": {"x":0,"y":0,"w":82,"h":255},
	"sourceSize": {"w":82,"h":255},
	"pivot": {"x":0.5,"y":0.5}
},
{
	"filename": "mo_wind0006.png",
	"frame": {"x":2,"y":259,"w":82,"h":255},
	"rotated": false,
	"trimmed": false,
	"spriteSourceSize": {"x":0,"y":0,"w":82,"h":255},
	"sourceSize": {"w":82,"h":255},
	"pivot": {"x":0.5,"y":0.5}
},
{
	"filename": "mo_wind0007.png",
	"frame": {"x":86,"y":259,"w":82,"h":255},
	"rotated": false,
	"trimmed": false,
	"spriteSourceSize": {"x":0,"y":0,"w":82,"h":255},
	"sourceSize": {"w":82,"h":255},
	"pivot": {"x":0.5,"y":0.5}
},
{
	"filename": "mo_wind0008.png",
	"frame": {"x":170,"y":259,"w":82,"h":255},
	"rotated": false,
	"trimmed": false,
	"spriteSourceSize": {"x":0,"y":0,"w":82,"h":255},
	"sourceSize": {"w":82,"h":255},
	"pivot": {"x":0.5,"y":0.5}
},
{
	"filename": "mo_wind0009.png",
	"frame": {"x":254,"y":259,"w":82,"h":255},
	"rotated": false,
	"trimmed": false,
	"spriteSourceSize": {"x":0,"y":0,"w":82,"h":255},
	"sourceSize": {"w":82,"h":255},
	"pivot": {"x":0.5,"y":0.5}
},
{
	"filename": "mo_wind0010.png",
	"frame": {"x":338,"y":259,"w":82,"h":255},
	"rotated": false,
	"trimmed": false,
	"spriteSourceSize": {"x":0,"y":0,"w":82,"h":255},
	"sourceSize": {"w":82,"h":255},
	"pivot": {"x":0.5,"y":0.5}
},
{
	"filename": "mo_wind0011.png",
	"frame": {"x":2,"y":516,"w":82,"h":255},
	"rotated": false,
	"trimmed": false,
	"spriteSourceSize": {"x":0,"y":0,"w":82,"h":255},
	"sourceSize": {"w":82,"h":255},
	"pivot": {"x":0.5,"y":0.5}
},
{
	"filename": "mo_wind0012.png",
	"frame": {"x":86,"y":516,"w":82,"h":255},
	"rotated": false,
	"trimmed": false,
	"spriteSourceSize": {"x":0,"y":0,"w":82,"h":255},
	"sourceSize": {"w":82,"h":255},
	"pivot": {"x":0.5,"y":0.5}
},
{
	"filename": "mo_wind0013.png",
	"frame": {"x":170,"y":516,"w":82,"h":255},
	"rotated": false,
	"trimmed": false,
	"spriteSourceSize": {"x":0,"y":0,"w":82,"h":255},
	"sourceSize": {"w":82,"h":255},
	"pivot": {"x":0.5,"y":0.5}
},
{
	"filename": "mo_wind0014.png",
	"frame": {"x":254,"y":516,"w":82,"h":255},
	"rotated": false,
	"trimmed": false,
	"spriteSourceSize": {"x":0,"y":0,"w":82,"h":255},
	"sourceSize": {"w":82,"h":255},
	"pivot": {"x":0.5,"y":0.5}
},
{
	"filename": "mo_wind0015.png",
	"frame": {"x":338,"y":516,"w":82,"h":255},
	"rotated": false,
	"trimmed": false,
	"spriteSourceSize": {"x":0,"y":0,"w":82,"h":255},
	"sourceSize": {"w":82,"h":255},
	"pivot": {"x":0.5,"y":0.5}
},
{
	"filename": "mo_wind0016.png",
	"frame": {"x":2,"y":773,"w":82,"h":255},
	"rotated": false,
	"trimmed": false,
	"spriteSourceSize": {"x":0,"y":0,"w":82,"h":255},
	"sourceSize": {"w":82,"h":255},
	"pivot": {"x":0.5,"y":0.5}
},
{
	"filename": "mo_wind0017.png",
	"frame": {"x":86,"y":773,"w":82,"h":255},
	"rotated": false,
	"trimmed": false,
	"spriteSourceSize": {"x":0,"y":0,"w":82,"h":255},
	"sourceSize": {"w":82,"h":255},
	"pivot": {"x":0.5,"y":0.5}
},
{
	"filename": "mo_wind0018.png",
	"frame": {"x":170,"y":773,"w":82,"h":255},
	"rotated": false,
	"trimmed": false,
	"spriteSourceSize": {"x":0,"y":0,"w":82,"h":255},
	"sourceSize": {"w":82,"h":255},
	"pivot": {"x":0.5,"y":0.5}
},
{
	"filename": "mo_wind0019.png",
	"frame": {"x":254,"y":773,"w":82,"h":255},
	"rotated": false,
	"trimmed": false,
	"spriteSourceSize": {"x":0,"y":0,"w":82,"h":255},
	"sourceSize": {"w":82,"h":255},
	"pivot": {"x":0.5,"y":0.5}
},
{
	"filename": "mo_wind0020.png",
	"frame": {"x":338,"y":773,"w":82,"h":255},
	"rotated": false,
	"trimmed": false,
	"spriteSourceSize": {"x":0,"y":0,"w":82,"h":255},
	"sourceSize": {"w":82,"h":255},
	"pivot": {"x":0.5,"y":0.5}
},
{
	"filename": "mo_wind0021.png",
	"frame": {"x":2,"y":1030,"w":82,"h":255},
	"rotated": false,
	"trimmed": false,
	"spriteSourceSize": {"x":0,"y":0,"w":82,"h":255},
	"sourceSize": {"w":82,"h":255},
	"pivot": {"x":0.5,"y":0.5}
},
{
	"filename": "mo_wind0022.png",
	"frame": {"x":86,"y":1030,"w":82,"h":255},
	"rotated": false,
	"trimmed": false,
	"spriteSourceSize": {"x":0,"y":0,"w":82,"h":255},
	"sourceSize": {"w":82,"h":255},
	"pivot": {"x":0.5,"y":0.5}
},
{
	"filename": "mo_wind0023.png",
	"frame": {"x":170,"y":1030,"w":82,"h":255},
	"rotated": false,
	"trimmed": false,
	"spriteSourceSize": {"x":0,"y":0,"w":82,"h":255},
	"sourceSize": {"w":82,"h":255},
	"pivot": {"x":0.5,"y":0.5}
},
{
	"filename": "mo_wind0024.png",
	"frame": {"x":254,"y":1030,"w":82,"h":255},
	"rotated": false,
	"trimmed": false,
	"spriteSourceSize": {"x":0,"y":0,"w":82,"h":255},
	"sourceSize": {"w":82,"h":255},
	"pivot": {"x":0.5,"y":0.5}
},
{
	"filename": "mo_wind0025.png",
	"frame": {"x":338,"y":1030,"w":82,"h":255},
	"rotated": false,
	"trimmed": false,
	"spriteSourceSize": {"x":0,"y":0,"w":82,"h":255},
	"sourceSize": {"w":82,"h":255},
	"pivot": {"x":0.5,"y":0.5}
},
{
	"filename": "mo_wind0026.png",
	"frame": {"x":2,"y":1287,"w":82,"h":255},
	"rotated": false,
	"trimmed": false,
	"spriteSourceSize": {"x":0,"y":0,"w":82,"h":255},
	"sourceSize": {"w":82,"h":255},
	"pivot": {"x":0.5,"y":0.5}
},
{
	"filename": "mo_wind0027.png",
	"frame": {"x":86,"y":1287,"w":82,"h":255},
	"rotated": false,
	"trimmed": false,
	"spriteSourceSize": {"x":0,"y":0,"w":82,"h":255},
	"sourceSize": {"w":82,"h":255},
	"pivot": {"x":0.5,"y":0.5}
},
{
	"filename": "mo_wind0028.png",
	"frame": {"x":170,"y":1287,"w":82,"h":255},
	"rotated": false,
	"trimmed": false,
	"spriteSourceSize": {"x":0,"y":0,"w":82,"h":255},
	"sourceSize": {"w":82,"h":255},
	"pivot": {"x":0.5,"y":0.5}
},
{
	"filename": "mo_wind0029.png",
	"frame": {"x":254,"y":1287,"w":82,"h":255},
	"rotated": false,
	"trimmed": false,
	"spriteSourceSize": {"x":0,"y":0,"w":82,"h":255},
	"sourceSize": {"w":82,"h":255},
	"pivot": {"x":0.5,"y":0.5}
},
{
	"filename": "mo_wind0030.png",
	"frame": {"x":338,"y":1287,"w":82,"h":255},
	"rotated": false,
	"trimmed": false,
	"spriteSourceSize": {"x":0,"y":0,"w":82,"h":255},
	"sourceSize": {"w":82,"h":255},
	"pivot": {"x":0.5,"y":0.5}
},
{
	"filename": "mo_wind0031.png",
	"frame": {"x":2,"y":1544,"w":82,"h":255},
	"rotated": false,
	"trimmed": false,
	"spriteSourceSize": {"x":0,"y":0,"w":82,"h":255},
	"sourceSize": {"w":82,"h":255},
	"pivot": {"x":0.5,"y":0.5}
},
{
	"filename": "mo_wind0032.png",
	"frame": {"x":86,"y":1544,"w":82,"h":255},
	"rotated": false,
	"trimmed": false,
	"spriteSourceSize": {"x":0,"y":0,"w":82,"h":255},
	"sourceSize": {"w":82,"h":255},
	"pivot": {"x":0.5,"y":0.5}
}],
"meta": {
	"app": "http://www.codeandweb.com/texturepacker",
	"version": "1.0",
	"image": "mo_wind.png",
	"format": "RGBA8888",
	"size": {"w":422,"h":1801},
	"scale": "1",
	"smartupdate": "$TexturePacker:SmartUpdate:5106c1a067271894e0a7c4ad6944afa9:e70c59a8355ac4f78f2d7e3357f6ae87:7c169ec206982ce3398ffc22676b3019$"
}
}
