{"frames": [

{
	"filename": "pie50000",
	"frame": {"x":0,"y":0,"w":358,"h":359},
	"rotated": false,
	"trimmed": false,
	"spriteSourceSize": {"x":0,"y":0,"w":358,"h":359},
	"sourceSize": {"w":358,"h":359}
}
,{
	"filename": "pie50001",
	"frame": {"x":358,"y":0,"w":358,"h":359},
	"rotated": false,
	"trimmed": false,
	"spriteSourceSize": {"x":0,"y":0,"w":358,"h":359},
	"sourceSize": {"w":358,"h":359}
}
,{
	"filename": "pie50002",
	"frame": {"x":716,"y":0,"w":358,"h":359},
	"rotated": false,
	"trimmed": false,
	"spriteSourceSize": {"x":0,"y":0,"w":358,"h":359},
	"sourceSize": {"w":358,"h":359}
}
,{
	"filename": "pie50003",
	"frame": {"x":1074,"y":0,"w":358,"h":359},
	"rotated": false,
	"trimmed": false,
	"spriteSourceSize": {"x":0,"y":0,"w":358,"h":359},
	"sourceSize": {"w":358,"h":359}
}
,{
	"filename": "pie50004",
	"frame": {"x":1432,"y":0,"w":358,"h":359},
	"rotated": false,
	"trimmed": false,
	"spriteSourceSize": {"x":0,"y":0,"w":358,"h":359},
	"sourceSize": {"w":358,"h":359}
}
,{
	"filename": "pie50005",
	"frame": {"x":1790,"y":0,"w":358,"h":359},
	"rotated": false,
	"trimmed": false,
	"spriteSourceSize": {"x":0,"y":0,"w":358,"h":359},
	"sourceSize": {"w":358,"h":359}
}
,{
	"filename": "pie50006",
	"frame": {"x":2148,"y":0,"w":358,"h":359},
	"rotated": false,
	"trimmed": false,
	"spriteSourceSize": {"x":0,"y":0,"w":358,"h":359},
	"sourceSize": {"w":358,"h":359}
}
,{
	"filename": "pie50007",
	"frame": {"x":2506,"y":0,"w":358,"h":359},
	"rotated": false,
	"trimmed": false,
	"spriteSourceSize": {"x":0,"y":0,"w":358,"h":359},
	"sourceSize": {"w":358,"h":359}
}
,{
	"filename": "pie50008",
	"frame": {"x":2864,"y":0,"w":358,"h":359},
	"rotated": false,
	"trimmed": false,
	"spriteSourceSize": {"x":0,"y":0,"w":358,"h":359},
	"sourceSize": {"w":358,"h":359}
}
,{
	"filename": "pie50009",
	"frame": {"x":3222,"y":0,"w":358,"h":359},
	"rotated": false,
	"trimmed": false,
	"spriteSourceSize": {"x":0,"y":0,"w":358,"h":359},
	"sourceSize": {"w":358,"h":359}
}
,{
	"filename": "pie50010",
	"frame": {"x":3580,"y":0,"w":358,"h":359},
	"rotated": false,
	"trimmed": false,
	"spriteSourceSize": {"x":0,"y":0,"w":358,"h":359},
	"sourceSize": {"w":358,"h":359}
}
,{
	"filename": "pie50011",
	"frame": {"x":0,"y":359,"w":358,"h":359},
	"rotated": false,
	"trimmed": false,
	"spriteSourceSize": {"x":0,"y":0,"w":358,"h":359},
	"sourceSize": {"w":358,"h":359}
}
,{
	"filename": "pie50012",
	"frame": {"x":358,"y":359,"w":358,"h":359},
	"rotated": false,
	"trimmed": false,
	"spriteSourceSize": {"x":0,"y":0,"w":358,"h":359},
	"sourceSize": {"w":358,"h":359}
}
,{
	"filename": "pie50013",
	"frame": {"x":716,"y":359,"w":358,"h":359},
	"rotated": false,
	"trimmed": false,
	"spriteSourceSize": {"x":0,"y":0,"w":358,"h":359},
	"sourceSize": {"w":358,"h":359}
}
,{
	"filename": "pie50014",
	"frame": {"x":1074,"y":359,"w":358,"h":359},
	"rotated": false,
	"trimmed": false,
	"spriteSourceSize": {"x":0,"y":0,"w":358,"h":359},
	"sourceSize": {"w":358,"h":359}
}
,{
	"filename": "pie50015",
	"frame": {"x":1432,"y":359,"w":358,"h":359},
	"rotated": false,
	"trimmed": false,
	"spriteSourceSize": {"x":0,"y":0,"w":358,"h":359},
	"sourceSize": {"w":358,"h":359}
}
,{
	"filename": "pie50016",
	"frame": {"x":1790,"y":359,"w":358,"h":359},
	"rotated": false,
	"trimmed": false,
	"spriteSourceSize": {"x":0,"y":0,"w":358,"h":359},
	"sourceSize": {"w":358,"h":359}
}
,{
	"filename": "pie50017",
	"frame": {"x":2148,"y":359,"w":358,"h":359},
	"rotated": false,
	"trimmed": false,
	"spriteSourceSize": {"x":0,"y":0,"w":358,"h":359},
	"sourceSize": {"w":358,"h":359}
}
,{
	"filename": "pie50018",
	"frame": {"x":2506,"y":359,"w":358,"h":359},
	"rotated": false,
	"trimmed": false,
	"spriteSourceSize": {"x":0,"y":0,"w":358,"h":359},
	"sourceSize": {"w":358,"h":359}
}
,{
	"filename": "pie50019",
	"frame": {"x":2864,"y":359,"w":358,"h":359},
	"rotated": false,
	"trimmed": false,
	"spriteSourceSize": {"x":0,"y":0,"w":358,"h":359},
	"sourceSize": {"w":358,"h":359}
}
,{
	"filename": "pie50020",
	"frame": {"x":3222,"y":359,"w":358,"h":359},
	"rotated": false,
	"trimmed": false,
	"spriteSourceSize": {"x":0,"y":0,"w":358,"h":359},
	"sourceSize": {"w":358,"h":359}
}
,{
	"filename": "pie50021",
	"frame": {"x":3580,"y":359,"w":358,"h":359},
	"rotated": false,
	"trimmed": false,
	"spriteSourceSize": {"x":0,"y":0,"w":358,"h":359},
	"sourceSize": {"w":358,"h":359}
}
,{
	"filename": "pie50022",
	"frame": {"x":0,"y":718,"w":358,"h":359},
	"rotated": false,
	"trimmed": false,
	"spriteSourceSize": {"x":0,"y":0,"w":358,"h":359},
	"sourceSize": {"w":358,"h":359}
}
,{
	"filename": "pie50023",
	"frame": {"x":358,"y":718,"w":358,"h":359},
	"rotated": false,
	"trimmed": false,
	"spriteSourceSize": {"x":0,"y":0,"w":358,"h":359},
	"sourceSize": {"w":358,"h":359}
}
,{
	"filename": "pie50024",
	"frame": {"x":716,"y":718,"w":358,"h":359},
	"rotated": false,
	"trimmed": false,
	"spriteSourceSize": {"x":0,"y":0,"w":358,"h":359},
	"sourceSize": {"w":358,"h":359}
}
,{
	"filename": "pie50025",
	"frame": {"x":1074,"y":718,"w":358,"h":359},
	"rotated": false,
	"trimmed": false,
	"spriteSourceSize": {"x":0,"y":0,"w":358,"h":359},
	"sourceSize": {"w":358,"h":359}
}
,{
	"filename": "pie50026",
	"frame": {"x":1432,"y":718,"w":358,"h":359},
	"rotated": false,
	"trimmed": false,
	"spriteSourceSize": {"x":0,"y":0,"w":358,"h":359},
	"sourceSize": {"w":358,"h":359}
}
,{
	"filename": "pie50027",
	"frame": {"x":1790,"y":718,"w":358,"h":359},
	"rotated": false,
	"trimmed": false,
	"spriteSourceSize": {"x":0,"y":0,"w":358,"h":359},
	"sourceSize": {"w":358,"h":359}
}
,{
	"filename": "pie50028",
	"frame": {"x":2148,"y":718,"w":358,"h":359},
	"rotated": false,
	"trimmed": false,
	"spriteSourceSize": {"x":0,"y":0,"w":358,"h":359},
	"sourceSize": {"w":358,"h":359}
}
,{
	"filename": "pie50029",
	"frame": {"x":2506,"y":718,"w":358,"h":359},
	"rotated": false,
	"trimmed": false,
	"spriteSourceSize": {"x":0,"y":0,"w":358,"h":359},
	"sourceSize": {"w":358,"h":359}
}
,{
	"filename": "pie50030",
	"frame": {"x":2864,"y":718,"w":358,"h":359},
	"rotated": false,
	"trimmed": false,
	"spriteSourceSize": {"x":0,"y":0,"w":358,"h":359},
	"sourceSize": {"w":358,"h":359}
}
,{
	"filename": "pie50031",
	"frame": {"x":3222,"y":718,"w":358,"h":359},
	"rotated": false,
	"trimmed": false,
	"spriteSourceSize": {"x":0,"y":0,"w":358,"h":359},
	"sourceSize": {"w":358,"h":359}
}
,{
	"filename": "pie50032",
	"frame": {"x":3580,"y":718,"w":358,"h":359},
	"rotated": false,
	"trimmed": false,
	"spriteSourceSize": {"x":0,"y":0,"w":358,"h":359},
	"sourceSize": {"w":358,"h":359}
}
,{
	"filename": "pie50033",
	"frame": {"x":0,"y":1077,"w":358,"h":359},
	"rotated": false,
	"trimmed": false,
	"spriteSourceSize": {"x":0,"y":0,"w":358,"h":359},
	"sourceSize": {"w":358,"h":359}
}
,{
	"filename": "pie50034",
	"frame": {"x":358,"y":1077,"w":358,"h":359},
	"rotated": false,
	"trimmed": false,
	"spriteSourceSize": {"x":0,"y":0,"w":358,"h":359},
	"sourceSize": {"w":358,"h":359}
}
,{
	"filename": "pie50035",
	"frame": {"x":716,"y":1077,"w":358,"h":359},
	"rotated": false,
	"trimmed": false,
	"spriteSourceSize": {"x":0,"y":0,"w":358,"h":359},
	"sourceSize": {"w":358,"h":359}
}
,{
	"filename": "pie50036",
	"frame": {"x":1074,"y":1077,"w":358,"h":359},
	"rotated": false,
	"trimmed": false,
	"spriteSourceSize": {"x":0,"y":0,"w":358,"h":359},
	"sourceSize": {"w":358,"h":359}
}
,{
	"filename": "pie50037",
	"frame": {"x":1432,"y":1077,"w":358,"h":359},
	"rotated": false,
	"trimmed": false,
	"spriteSourceSize": {"x":0,"y":0,"w":358,"h":359},
	"sourceSize": {"w":358,"h":359}
}
,{
	"filename": "pie50038",
	"frame": {"x":1790,"y":1077,"w":358,"h":359},
	"rotated": false,
	"trimmed": false,
	"spriteSourceSize": {"x":0,"y":0,"w":358,"h":359},
	"sourceSize": {"w":358,"h":359}
}
,{
	"filename": "pie50039",
	"frame": {"x":2148,"y":1077,"w":358,"h":359},
	"rotated": false,
	"trimmed": false,
	"spriteSourceSize": {"x":0,"y":0,"w":358,"h":359},
	"sourceSize": {"w":358,"h":359}
}
,{
	"filename": "pie50040",
	"frame": {"x":2506,"y":1077,"w":358,"h":359},
	"rotated": false,
	"trimmed": false,
	"spriteSourceSize": {"x":0,"y":0,"w":358,"h":359},
	"sourceSize": {"w":358,"h":359}
}
,{
	"filename": "pie50041",
	"frame": {"x":2864,"y":1077,"w":358,"h":359},
	"rotated": false,
	"trimmed": false,
	"spriteSourceSize": {"x":0,"y":0,"w":358,"h":359},
	"sourceSize": {"w":358,"h":359}
}
,{
	"filename": "pie50042",
	"frame": {"x":3222,"y":1077,"w":358,"h":359},
	"rotated": false,
	"trimmed": false,
	"spriteSourceSize": {"x":0,"y":0,"w":358,"h":359},
	"sourceSize": {"w":358,"h":359}
}
,{
	"filename": "pie50043",
	"frame": {"x":3580,"y":1077,"w":358,"h":359},
	"rotated": false,
	"trimmed": false,
	"spriteSourceSize": {"x":0,"y":0,"w":358,"h":359},
	"sourceSize": {"w":358,"h":359}
}
,{
	"filename": "pie50044",
	"frame": {"x":0,"y":1436,"w":358,"h":359},
	"rotated": false,
	"trimmed": false,
	"spriteSourceSize": {"x":0,"y":0,"w":358,"h":359},
	"sourceSize": {"w":358,"h":359}
}
,{
	"filename": "pie50045",
	"frame": {"x":358,"y":1436,"w":358,"h":359},
	"rotated": false,
	"trimmed": false,
	"spriteSourceSize": {"x":0,"y":0,"w":358,"h":359},
	"sourceSize": {"w":358,"h":359}
}
,{
	"filename": "pie50046",
	"frame": {"x":716,"y":1436,"w":358,"h":359},
	"rotated": false,
	"trimmed": false,
	"spriteSourceSize": {"x":0,"y":0,"w":358,"h":359},
	"sourceSize": {"w":358,"h":359}
}
,{
	"filename": "pie50047",
	"frame": {"x":1074,"y":1436,"w":358,"h":359},
	"rotated": false,
	"trimmed": false,
	"spriteSourceSize": {"x":0,"y":0,"w":358,"h":359},
	"sourceSize": {"w":358,"h":359}
}
,{
	"filename": "pie50048",
	"frame": {"x":1432,"y":1436,"w":358,"h":359},
	"rotated": false,
	"trimmed": false,
	"spriteSourceSize": {"x":0,"y":0,"w":358,"h":359},
	"sourceSize": {"w":358,"h":359}
}
,{
	"filename": "pie50049",
	"frame": {"x":1790,"y":1436,"w":358,"h":359},
	"rotated": false,
	"trimmed": false,
	"spriteSourceSize": {"x":0,"y":0,"w":358,"h":359},
	"sourceSize": {"w":358,"h":359}
}
,{
	"filename": "pie50050",
	"frame": {"x":2148,"y":1436,"w":358,"h":359},
	"rotated": false,
	"trimmed": false,
	"spriteSourceSize": {"x":0,"y":0,"w":358,"h":359},
	"sourceSize": {"w":358,"h":359}
}
,{
	"filename": "pie50051",
	"frame": {"x":2506,"y":1436,"w":358,"h":359},
	"rotated": false,
	"trimmed": false,
	"spriteSourceSize": {"x":0,"y":0,"w":358,"h":359},
	"sourceSize": {"w":358,"h":359}
}
,{
	"filename": "pie50052",
	"frame": {"x":2864,"y":1436,"w":358,"h":359},
	"rotated": false,
	"trimmed": false,
	"spriteSourceSize": {"x":0,"y":0,"w":358,"h":359},
	"sourceSize": {"w":358,"h":359}
}
,{
	"filename": "pie50053",
	"frame": {"x":3222,"y":1436,"w":358,"h":359},
	"rotated": false,
	"trimmed": false,
	"spriteSourceSize": {"x":0,"y":0,"w":358,"h":359},
	"sourceSize": {"w":358,"h":359}
}
,{
	"filename": "pie50054",
	"frame": {"x":3580,"y":1436,"w":358,"h":359},
	"rotated": false,
	"trimmed": false,
	"spriteSourceSize": {"x":0,"y":0,"w":358,"h":359},
	"sourceSize": {"w":358,"h":359}
}
,{
	"filename": "pie50055",
	"frame": {"x":0,"y":1795,"w":358,"h":359},
	"rotated": false,
	"trimmed": false,
	"spriteSourceSize": {"x":0,"y":0,"w":358,"h":359},
	"sourceSize": {"w":358,"h":359}
}
,{
	"filename": "pie50056",
	"frame": {"x":358,"y":1795,"w":358,"h":359},
	"rotated": false,
	"trimmed": false,
	"spriteSourceSize": {"x":0,"y":0,"w":358,"h":359},
	"sourceSize": {"w":358,"h":359}
}
,{
	"filename": "pie50057",
	"frame": {"x":716,"y":1795,"w":358,"h":359},
	"rotated": false,
	"trimmed": false,
	"spriteSourceSize": {"x":0,"y":0,"w":358,"h":359},
	"sourceSize": {"w":358,"h":359}
}
,{
	"filename": "pie50058",
	"frame": {"x":1074,"y":1795,"w":358,"h":359},
	"rotated": false,
	"trimmed": false,
	"spriteSourceSize": {"x":0,"y":0,"w":358,"h":359},
	"sourceSize": {"w":358,"h":359}
}
,{
	"filename": "pie50059",
	"frame": {"x":1432,"y":1795,"w":358,"h":359},
	"rotated": false,
	"trimmed": false,
	"spriteSourceSize": {"x":0,"y":0,"w":358,"h":359},
	"sourceSize": {"w":358,"h":359}
}
,{
	"filename": "pie50060",
	"frame": {"x":1790,"y":1795,"w":358,"h":359},
	"rotated": false,
	"trimmed": false,
	"spriteSourceSize": {"x":0,"y":0,"w":358,"h":359},
	"sourceSize": {"w":358,"h":359}
}
,{
	"filename": "pie50061",
	"frame": {"x":2148,"y":1795,"w":358,"h":359},
	"rotated": false,
	"trimmed": false,
	"spriteSourceSize": {"x":0,"y":0,"w":358,"h":359},
	"sourceSize": {"w":358,"h":359}
}
,{
	"filename": "pie50062",
	"frame": {"x":2506,"y":1795,"w":358,"h":359},
	"rotated": false,
	"trimmed": false,
	"spriteSourceSize": {"x":0,"y":0,"w":358,"h":359},
	"sourceSize": {"w":358,"h":359}
}
,{
	"filename": "pie50063",
	"frame": {"x":2864,"y":1795,"w":358,"h":359},
	"rotated": false,
	"trimmed": false,
	"spriteSourceSize": {"x":0,"y":0,"w":358,"h":359},
	"sourceSize": {"w":358,"h":359}
}
,{
	"filename": "pie50064",
	"frame": {"x":3222,"y":1795,"w":358,"h":359},
	"rotated": false,
	"trimmed": false,
	"spriteSourceSize": {"x":0,"y":0,"w":358,"h":359},
	"sourceSize": {"w":358,"h":359}
}
,{
	"filename": "pie50065",
	"frame": {"x":3580,"y":1795,"w":358,"h":359},
	"rotated": false,
	"trimmed": false,
	"spriteSourceSize": {"x":0,"y":0,"w":358,"h":359},
	"sourceSize": {"w":358,"h":359}
}
,{
	"filename": "pie50066",
	"frame": {"x":0,"y":2154,"w":358,"h":359},
	"rotated": false,
	"trimmed": false,
	"spriteSourceSize": {"x":0,"y":0,"w":358,"h":359},
	"sourceSize": {"w":358,"h":359}
}
,{
	"filename": "pie50067",
	"frame": {"x":358,"y":2154,"w":358,"h":359},
	"rotated": false,
	"trimmed": false,
	"spriteSourceSize": {"x":0,"y":0,"w":358,"h":359},
	"sourceSize": {"w":358,"h":359}
}
,{
	"filename": "pie50068",
	"frame": {"x":716,"y":2154,"w":358,"h":359},
	"rotated": false,
	"trimmed": false,
	"spriteSourceSize": {"x":0,"y":0,"w":358,"h":359},
	"sourceSize": {"w":358,"h":359}
}
,{
	"filename": "pie50069",
	"frame": {"x":1074,"y":2154,"w":358,"h":359},
	"rotated": false,
	"trimmed": false,
	"spriteSourceSize": {"x":0,"y":0,"w":358,"h":359},
	"sourceSize": {"w":358,"h":359}
}
,{
	"filename": "pie50070",
	"frame": {"x":1432,"y":2154,"w":358,"h":359},
	"rotated": false,
	"trimmed": false,
	"spriteSourceSize": {"x":0,"y":0,"w":358,"h":359},
	"sourceSize": {"w":358,"h":359}
}
,{
	"filename": "pie50071",
	"frame": {"x":1790,"y":2154,"w":358,"h":359},
	"rotated": false,
	"trimmed": false,
	"spriteSourceSize": {"x":0,"y":0,"w":358,"h":359},
	"sourceSize": {"w":358,"h":359}
}
,{
	"filename": "pie50072",
	"frame": {"x":2148,"y":2154,"w":358,"h":359},
	"rotated": false,
	"trimmed": false,
	"spriteSourceSize": {"x":0,"y":0,"w":358,"h":359},
	"sourceSize": {"w":358,"h":359}
}
,{
	"filename": "pie50073",
	"frame": {"x":2506,"y":2154,"w":358,"h":359},
	"rotated": false,
	"trimmed": false,
	"spriteSourceSize": {"x":0,"y":0,"w":358,"h":359},
	"sourceSize": {"w":358,"h":359}
}
,{
	"filename": "pie50074",
	"frame": {"x":2864,"y":2154,"w":358,"h":359},
	"rotated": false,
	"trimmed": false,
	"spriteSourceSize": {"x":0,"y":0,"w":358,"h":359},
	"sourceSize": {"w":358,"h":359}
}
,{
	"filename": "pie50075",
	"frame": {"x":3222,"y":2154,"w":358,"h":359},
	"rotated": false,
	"trimmed": false,
	"spriteSourceSize": {"x":0,"y":0,"w":358,"h":359},
	"sourceSize": {"w":358,"h":359}
}
,{
	"filename": "pie50076",
	"frame": {"x":3580,"y":2154,"w":358,"h":359},
	"rotated": false,
	"trimmed": false,
	"spriteSourceSize": {"x":0,"y":0,"w":358,"h":359},
	"sourceSize": {"w":358,"h":359}
}
,{
	"filename": "pie50077",
	"frame": {"x":0,"y":2513,"w":358,"h":359},
	"rotated": false,
	"trimmed": false,
	"spriteSourceSize": {"x":0,"y":0,"w":358,"h":359},
	"sourceSize": {"w":358,"h":359}
}
,{
	"filename": "pie50078",
	"frame": {"x":358,"y":2513,"w":358,"h":359},
	"rotated": false,
	"trimmed": false,
	"spriteSourceSize": {"x":0,"y":0,"w":358,"h":359},
	"sourceSize": {"w":358,"h":359}
}
,{
	"filename": "pie50079",
	"frame": {"x":716,"y":2513,"w":358,"h":359},
	"rotated": false,
	"trimmed": false,
	"spriteSourceSize": {"x":0,"y":0,"w":358,"h":359},
	"sourceSize": {"w":358,"h":359}
}
,{
	"filename": "pie50080",
	"frame": {"x":1074,"y":2513,"w":358,"h":359},
	"rotated": false,
	"trimmed": false,
	"spriteSourceSize": {"x":0,"y":0,"w":358,"h":359},
	"sourceSize": {"w":358,"h":359}
}
,{
	"filename": "pie50081",
	"frame": {"x":1432,"y":2513,"w":358,"h":359},
	"rotated": false,
	"trimmed": false,
	"spriteSourceSize": {"x":0,"y":0,"w":358,"h":359},
	"sourceSize": {"w":358,"h":359}
}
,{
	"filename": "pie50082",
	"frame": {"x":1790,"y":2513,"w":358,"h":359},
	"rotated": false,
	"trimmed": false,
	"spriteSourceSize": {"x":0,"y":0,"w":358,"h":359},
	"sourceSize": {"w":358,"h":359}
}
,{
	"filename": "pie50083",
	"frame": {"x":2148,"y":2513,"w":358,"h":359},
	"rotated": false,
	"trimmed": false,
	"spriteSourceSize": {"x":0,"y":0,"w":358,"h":359},
	"sourceSize": {"w":358,"h":359}
}
,{
	"filename": "pie50084",
	"frame": {"x":2506,"y":2513,"w":358,"h":359},
	"rotated": false,
	"trimmed": false,
	"spriteSourceSize": {"x":0,"y":0,"w":358,"h":359},
	"sourceSize": {"w":358,"h":359}
}
,{
	"filename": "pie50085",
	"frame": {"x":2864,"y":2513,"w":358,"h":359},
	"rotated": false,
	"trimmed": false,
	"spriteSourceSize": {"x":0,"y":0,"w":358,"h":359},
	"sourceSize": {"w":358,"h":359}
}
,{
	"filename": "pie50086",
	"frame": {"x":3222,"y":2513,"w":358,"h":359},
	"rotated": false,
	"trimmed": false,
	"spriteSourceSize": {"x":0,"y":0,"w":358,"h":359},
	"sourceSize": {"w":358,"h":359}
}
,{
	"filename": "pie50087",
	"frame": {"x":3580,"y":2513,"w":358,"h":359},
	"rotated": false,
	"trimmed": false,
	"spriteSourceSize": {"x":0,"y":0,"w":358,"h":359},
	"sourceSize": {"w":358,"h":359}
}
,{
	"filename": "pie50088",
	"frame": {"x":0,"y":2872,"w":358,"h":359},
	"rotated": false,
	"trimmed": false,
	"spriteSourceSize": {"x":0,"y":0,"w":358,"h":359},
	"sourceSize": {"w":358,"h":359}
}
,{
	"filename": "pie50089",
	"frame": {"x":358,"y":2872,"w":358,"h":359},
	"rotated": false,
	"trimmed": false,
	"spriteSourceSize": {"x":0,"y":0,"w":358,"h":359},
	"sourceSize": {"w":358,"h":359}
}
,{
	"filename": "pie50090",
	"frame": {"x":716,"y":2872,"w":358,"h":359},
	"rotated": false,
	"trimmed": false,
	"spriteSourceSize": {"x":0,"y":0,"w":358,"h":359},
	"sourceSize": {"w":358,"h":359}
}
,{
	"filename": "pie50091",
	"frame": {"x":1074,"y":2872,"w":358,"h":359},
	"rotated": false,
	"trimmed": false,
	"spriteSourceSize": {"x":0,"y":0,"w":358,"h":359},
	"sourceSize": {"w":358,"h":359}
}
,{
	"filename": "pie50092",
	"frame": {"x":1432,"y":2872,"w":358,"h":359},
	"rotated": false,
	"trimmed": false,
	"spriteSourceSize": {"x":0,"y":0,"w":358,"h":359},
	"sourceSize": {"w":358,"h":359}
}
,{
	"filename": "pie50093",
	"frame": {"x":1790,"y":2872,"w":358,"h":359},
	"rotated": false,
	"trimmed": false,
	"spriteSourceSize": {"x":0,"y":0,"w":358,"h":359},
	"sourceSize": {"w":358,"h":359}
}
,{
	"filename": "pie50094",
	"frame": {"x":2148,"y":2872,"w":358,"h":359},
	"rotated": false,
	"trimmed": false,
	"spriteSourceSize": {"x":0,"y":0,"w":358,"h":359},
	"sourceSize": {"w":358,"h":359}
}
,{
	"filename": "pie50095",
	"frame": {"x":2506,"y":2872,"w":358,"h":359},
	"rotated": false,
	"trimmed": false,
	"spriteSourceSize": {"x":0,"y":0,"w":358,"h":359},
	"sourceSize": {"w":358,"h":359}
}
,{
	"filename": "pie50096",
	"frame": {"x":2864,"y":2872,"w":358,"h":359},
	"rotated": false,
	"trimmed": false,
	"spriteSourceSize": {"x":0,"y":0,"w":358,"h":359},
	"sourceSize": {"w":358,"h":359}
}
,{
	"filename": "pie50097",
	"frame": {"x":3222,"y":2872,"w":358,"h":359},
	"rotated": false,
	"trimmed": false,
	"spriteSourceSize": {"x":0,"y":0,"w":358,"h":359},
	"sourceSize": {"w":358,"h":359}
}
,{
	"filename": "pie50098",
	"frame": {"x":3580,"y":2872,"w":358,"h":359},
	"rotated": false,
	"trimmed": false,
	"spriteSourceSize": {"x":0,"y":0,"w":358,"h":359},
	"sourceSize": {"w":358,"h":359}
}
,{
	"filename": "pie50099",
	"frame": {"x":0,"y":3231,"w":358,"h":359},
	"rotated": false,
	"trimmed": false,
	"spriteSourceSize": {"x":0,"y":0,"w":358,"h":359},
	"sourceSize": {"w":358,"h":359}
}
,{
	"filename": "pie50100",
	"frame": {"x":358,"y":3231,"w":358,"h":359},
	"rotated": false,
	"trimmed": false,
	"spriteSourceSize": {"x":0,"y":0,"w":358,"h":359},
	"sourceSize": {"w":358,"h":359}
}
,{
	"filename": "pie50101",
	"frame": {"x":716,"y":3231,"w":358,"h":359},
	"rotated": false,
	"trimmed": false,
	"spriteSourceSize": {"x":0,"y":0,"w":358,"h":359},
	"sourceSize": {"w":358,"h":359}
}
,{
	"filename": "pie50102",
	"frame": {"x":1074,"y":3231,"w":358,"h":359},
	"rotated": false,
	"trimmed": false,
	"spriteSourceSize": {"x":0,"y":0,"w":358,"h":359},
	"sourceSize": {"w":358,"h":359}
}
,{
	"filename": "pie50103",
	"frame": {"x":1432,"y":3231,"w":358,"h":359},
	"rotated": false,
	"trimmed": false,
	"spriteSourceSize": {"x":0,"y":0,"w":358,"h":359},
	"sourceSize": {"w":358,"h":359}
}
,{
	"filename": "pie50104",
	"frame": {"x":1790,"y":3231,"w":358,"h":359},
	"rotated": false,
	"trimmed": false,
	"spriteSourceSize": {"x":0,"y":0,"w":358,"h":359},
	"sourceSize": {"w":358,"h":359}
}
,{
	"filename": "pie50105",
	"frame": {"x":2148,"y":3231,"w":358,"h":359},
	"rotated": false,
	"trimmed": false,
	"spriteSourceSize": {"x":0,"y":0,"w":358,"h":359},
	"sourceSize": {"w":358,"h":359}
}
,{
	"filename": "pie50106",
	"frame": {"x":2506,"y":3231,"w":358,"h":359},
	"rotated": false,
	"trimmed": false,
	"spriteSourceSize": {"x":0,"y":0,"w":358,"h":359},
	"sourceSize": {"w":358,"h":359}
}],
"meta": {
	"app": "Adobe Flash CS6",
	"version": "12.0.0.481",
	"image": "level5Pie5.png",
	"format": "RGBA8888",
	"size": {"w":4096,"h":4096},
	"scale": "1"
}
}
