{"frames": [

{
	"filename": "bubblePop0000",
	"frame": {"x":0,"y":0,"w":103,"h":95},
	"rotated": false,
	"trimmed": false,
	"spriteSourceSize": {"x":0,"y":0,"w":103,"h":95},
	"sourceSize": {"w":103,"h":95}
}
,{
	"filename": "bubblePop0001",
	"frame": {"x":103,"y":0,"w":103,"h":95},
	"rotated": false,
	"trimmed": false,
	"spriteSourceSize": {"x":0,"y":0,"w":103,"h":95},
	"sourceSize": {"w":103,"h":95}
}
,{
	"filename": "bubblePop0002",
	"frame": {"x":206,"y":0,"w":103,"h":95},
	"rotated": false,
	"trimmed": false,
	"spriteSourceSize": {"x":0,"y":0,"w":103,"h":95},
	"sourceSize": {"w":103,"h":95}
}
,{
	"filename": "bubblePop0003",
	"frame": {"x":309,"y":0,"w":103,"h":95},
	"rotated": false,
	"trimmed": false,
	"spriteSourceSize": {"x":0,"y":0,"w":103,"h":95},
	"sourceSize": {"w":103,"h":95}
}
,{
	"filename": "bubblePop0004",
	"frame": {"x":0,"y":95,"w":103,"h":95},
	"rotated": false,
	"trimmed": false,
	"spriteSourceSize": {"x":0,"y":0,"w":103,"h":95},
	"sourceSize": {"w":103,"h":95}
}
,{
	"filename": "bubblePop0005",
	"frame": {"x":103,"y":95,"w":103,"h":95},
	"rotated": false,
	"trimmed": false,
	"spriteSourceSize": {"x":0,"y":0,"w":103,"h":95},
	"sourceSize": {"w":103,"h":95}
}
,{
	"filename": "bubblePop0006",
	"frame": {"x":206,"y":95,"w":103,"h":95},
	"rotated": false,
	"trimmed": false,
	"spriteSourceSize": {"x":0,"y":0,"w":103,"h":95},
	"sourceSize": {"w":103,"h":95}
}
,{
	"filename": "bubblePop0007",
	"frame": {"x":309,"y":95,"w":103,"h":95},
	"rotated": false,
	"trimmed": false,
	"spriteSourceSize": {"x":0,"y":0,"w":103,"h":95},
	"sourceSize": {"w":103,"h":95}
}
,{
	"filename": "bubblePop0008",
	"frame": {"x":0,"y":190,"w":103,"h":95},
	"rotated": false,
	"trimmed": false,
	"spriteSourceSize": {"x":0,"y":0,"w":103,"h":95},
	"sourceSize": {"w":103,"h":95}
}
,{
	"filename": "bubblePop0009",
	"frame": {"x":103,"y":190,"w":103,"h":95},
	"rotated": false,
	"trimmed": false,
	"spriteSourceSize": {"x":0,"y":0,"w":103,"h":95},
	"sourceSize": {"w":103,"h":95}
}
,{
	"filename": "bubblePop0010",
	"frame": {"x":206,"y":190,"w":103,"h":95},
	"rotated": false,
	"trimmed": false,
	"spriteSourceSize": {"x":0,"y":0,"w":103,"h":95},
	"sourceSize": {"w":103,"h":95}
}
,{
	"filename": "bubblePop0011",
	"frame": {"x":309,"y":190,"w":103,"h":95},
	"rotated": false,
	"trimmed": false,
	"spriteSourceSize": {"x":0,"y":0,"w":103,"h":95},
	"sourceSize": {"w":103,"h":95}
}
,{
	"filename": "bubblePop0012",
	"frame": {"x":0,"y":285,"w":103,"h":95},
	"rotated": false,
	"trimmed": false,
	"spriteSourceSize": {"x":0,"y":0,"w":103,"h":95},
	"sourceSize": {"w":103,"h":95}
}
,{
	"filename": "bubblePop0013",
	"frame": {"x":103,"y":285,"w":103,"h":95},
	"rotated": false,
	"trimmed": false,
	"spriteSourceSize": {"x":0,"y":0,"w":103,"h":95},
	"sourceSize": {"w":103,"h":95}
}
,{
	"filename": "bubblePop0014",
	"frame": {"x":206,"y":285,"w":103,"h":95},
	"rotated": false,
	"trimmed": false,
	"spriteSourceSize": {"x":0,"y":0,"w":103,"h":95},
	"sourceSize": {"w":103,"h":95}
}
,{
	"filename": "bubblePop0015",
	"frame": {"x":309,"y":285,"w":103,"h":95},
	"rotated": false,
	"trimmed": false,
	"spriteSourceSize": {"x":0,"y":0,"w":103,"h":95},
	"sourceSize": {"w":103,"h":95}
}
,{
	"filename": "bubblePop0016",
	"frame": {"x":0,"y":380,"w":103,"h":95},
	"rotated": false,
	"trimmed": false,
	"spriteSourceSize": {"x":0,"y":0,"w":103,"h":95},
	"sourceSize": {"w":103,"h":95}
}
,{
	"filename": "bubblePop0017",
	"frame": {"x":103,"y":380,"w":103,"h":95},
	"rotated": false,
	"trimmed": false,
	"spriteSourceSize": {"x":0,"y":0,"w":103,"h":95},
	"sourceSize": {"w":103,"h":95}
}
,{
	"filename": "bubblePop0018",
	"frame": {"x":206,"y":380,"w":103,"h":95},
	"rotated": false,
	"trimmed": false,
	"spriteSourceSize": {"x":0,"y":0,"w":103,"h":95},
	"sourceSize": {"w":103,"h":95}
}
,{
	"filename": "bubblePop0019",
	"frame": {"x":309,"y":380,"w":103,"h":95},
	"rotated": false,
	"trimmed": false,
	"spriteSourceSize": {"x":0,"y":0,"w":103,"h":95},
	"sourceSize": {"w":103,"h":95}
}
,{
	"filename": "bubblePop0020",
	"frame": {"x":0,"y":475,"w":103,"h":95},
	"rotated": false,
	"trimmed": false,
	"spriteSourceSize": {"x":0,"y":0,"w":103,"h":95},
	"sourceSize": {"w":103,"h":95}
}],
"meta": {
	"app": "Adobe Flash CS6",
	"version": "12.0.0.481",
	"image": "pop.png",
	"format": "RGBA8888",
	"size": {"w":512,"h":1024},
	"scale": "1"
}
}
