{"frames": [

{
	"filename": "b0001.png",
	"frame": {"x":2,"y":2,"w":661,"h":108},
	"rotated": false,
	"trimmed": false,
	"spriteSourceSize": {"x":0,"y":0,"w":661,"h":108},
	"sourceSize": {"w":661,"h":108},
	"pivot": {"x":0.5,"y":0.5}
},
{
	"filename": "b0002.png",
	"frame": {"x":665,"y":2,"w":661,"h":108},
	"rotated": false,
	"trimmed": false,
	"spriteSourceSize": {"x":0,"y":0,"w":661,"h":108},
	"sourceSize": {"w":661,"h":108},
	"pivot": {"x":0.5,"y":0.5}
},
{
	"filename": "b0003.png",
	"frame": {"x":2,"y":112,"w":661,"h":108},
	"rotated": false,
	"trimmed": false,
	"spriteSourceSize": {"x":0,"y":0,"w":661,"h":108},
	"sourceSize": {"w":661,"h":108},
	"pivot": {"x":0.5,"y":0.5}
},
{
	"filename": "b0004.png",
	"frame": {"x":665,"y":112,"w":661,"h":108},
	"rotated": false,
	"trimmed": false,
	"spriteSourceSize": {"x":0,"y":0,"w":661,"h":108},
	"sourceSize": {"w":661,"h":108},
	"pivot": {"x":0.5,"y":0.5}
},
{
	"filename": "b0005.png",
	"frame": {"x":2,"y":222,"w":661,"h":108},
	"rotated": false,
	"trimmed": false,
	"spriteSourceSize": {"x":0,"y":0,"w":661,"h":108},
	"sourceSize": {"w":661,"h":108},
	"pivot": {"x":0.5,"y":0.5}
},
{
	"filename": "b0006.png",
	"frame": {"x":665,"y":222,"w":661,"h":108},
	"rotated": false,
	"trimmed": false,
	"spriteSourceSize": {"x":0,"y":0,"w":661,"h":108},
	"sourceSize": {"w":661,"h":108},
	"pivot": {"x":0.5,"y":0.5}
},
{
	"filename": "b0007.png",
	"frame": {"x":2,"y":332,"w":661,"h":108},
	"rotated": false,
	"trimmed": false,
	"spriteSourceSize": {"x":0,"y":0,"w":661,"h":108},
	"sourceSize": {"w":661,"h":108},
	"pivot": {"x":0.5,"y":0.5}
},
{
	"filename": "b0008.png",
	"frame": {"x":665,"y":332,"w":661,"h":108},
	"rotated": false,
	"trimmed": false,
	"spriteSourceSize": {"x":0,"y":0,"w":661,"h":108},
	"sourceSize": {"w":661,"h":108},
	"pivot": {"x":0.5,"y":0.5}
},
{
	"filename": "b0009.png",
	"frame": {"x":2,"y":442,"w":661,"h":108},
	"rotated": false,
	"trimmed": false,
	"spriteSourceSize": {"x":0,"y":0,"w":661,"h":108},
	"sourceSize": {"w":661,"h":108},
	"pivot": {"x":0.5,"y":0.5}
},
{
	"filename": "b0010.png",
	"frame": {"x":665,"y":442,"w":661,"h":108},
	"rotated": false,
	"trimmed": false,
	"spriteSourceSize": {"x":0,"y":0,"w":661,"h":108},
	"sourceSize": {"w":661,"h":108},
	"pivot": {"x":0.5,"y":0.5}
},
{
	"filename": "b0011.png",
	"frame": {"x":2,"y":552,"w":661,"h":108},
	"rotated": false,
	"trimmed": false,
	"spriteSourceSize": {"x":0,"y":0,"w":661,"h":108},
	"sourceSize": {"w":661,"h":108},
	"pivot": {"x":0.5,"y":0.5}
},
{
	"filename": "b0012.png",
	"frame": {"x":665,"y":552,"w":661,"h":108},
	"rotated": false,
	"trimmed": false,
	"spriteSourceSize": {"x":0,"y":0,"w":661,"h":108},
	"sourceSize": {"w":661,"h":108},
	"pivot": {"x":0.5,"y":0.5}
},
{
	"filename": "b0013.png",
	"frame": {"x":2,"y":662,"w":661,"h":108},
	"rotated": false,
	"trimmed": false,
	"spriteSourceSize": {"x":0,"y":0,"w":661,"h":108},
	"sourceSize": {"w":661,"h":108},
	"pivot": {"x":0.5,"y":0.5}
},
{
	"filename": "b0014.png",
	"frame": {"x":2,"y":662,"w":661,"h":108},
	"rotated": false,
	"trimmed": false,
	"spriteSourceSize": {"x":0,"y":0,"w":661,"h":108},
	"sourceSize": {"w":661,"h":108},
	"pivot": {"x":0.5,"y":0.5}
},
{
	"filename": "b0015.png",
	"frame": {"x":2,"y":662,"w":661,"h":108},
	"rotated": false,
	"trimmed": false,
	"spriteSourceSize": {"x":0,"y":0,"w":661,"h":108},
	"sourceSize": {"w":661,"h":108},
	"pivot": {"x":0.5,"y":0.5}
}],
"meta": {
	"app": "http://www.codeandweb.com/texturepacker",
	"version": "1.0",
	"image": "fail2.png",
	"format": "RGBA8888",
	"size": {"w":1328,"h":772},
	"scale": "1",
	"smartupdate": "$TexturePacker:SmartUpdate:b5242f10372f48faf82c638885884341:edb850b628a61e4469c4138b68ecc3bb:a1b8a69b1d320ace968363a6f34f6f68$"
}
}
