{"frames": [

{
	"filename": "c10001.png",
	"frame": {"x":2,"y":2,"w":1400,"h":873},
	"rotated": false,
	"trimmed": false,
	"spriteSourceSize": {"x":0,"y":0,"w":1400,"h":873},
	"sourceSize": {"w":1400,"h":873},
	"pivot": {"x":0.5,"y":0.5}
},
{
	"filename": "c10002.png",
	"frame": {"x":1404,"y":2,"w":1400,"h":873},
	"rotated": false,
	"trimmed": false,
	"spriteSourceSize": {"x":0,"y":0,"w":1400,"h":873},
	"sourceSize": {"w":1400,"h":873},
	"pivot": {"x":0.5,"y":0.5}
},
{
	"filename": "c10003.png",
	"frame": {"x":2806,"y":2,"w":1400,"h":873},
	"rotated": false,
	"trimmed": false,
	"spriteSourceSize": {"x":0,"y":0,"w":1400,"h":873},
	"sourceSize": {"w":1400,"h":873},
	"pivot": {"x":0.5,"y":0.5}
},
{
	"filename": "c10004.png",
	"frame": {"x":2,"y":877,"w":1400,"h":873},
	"rotated": false,
	"trimmed": false,
	"spriteSourceSize": {"x":0,"y":0,"w":1400,"h":873},
	"sourceSize": {"w":1400,"h":873},
	"pivot": {"x":0.5,"y":0.5}
},
{
	"filename": "c10005.png",
	"frame": {"x":1404,"y":877,"w":1400,"h":873},
	"rotated": false,
	"trimmed": false,
	"spriteSourceSize": {"x":0,"y":0,"w":1400,"h":873},
	"sourceSize": {"w":1400,"h":873},
	"pivot": {"x":0.5,"y":0.5}
},
{
	"filename": "c10006.png",
	"frame": {"x":2806,"y":877,"w":1400,"h":873},
	"rotated": false,
	"trimmed": false,
	"spriteSourceSize": {"x":0,"y":0,"w":1400,"h":873},
	"sourceSize": {"w":1400,"h":873},
	"pivot": {"x":0.5,"y":0.5}
},
{
	"filename": "c10007.png",
	"frame": {"x":2,"y":1752,"w":1400,"h":873},
	"rotated": false,
	"trimmed": false,
	"spriteSourceSize": {"x":0,"y":0,"w":1400,"h":873},
	"sourceSize": {"w":1400,"h":873},
	"pivot": {"x":0.5,"y":0.5}
},
{
	"filename": "c10008.png",
	"frame": {"x":1404,"y":1752,"w":1400,"h":873},
	"rotated": false,
	"trimmed": false,
	"spriteSourceSize": {"x":0,"y":0,"w":1400,"h":873},
	"sourceSize": {"w":1400,"h":873},
	"pivot": {"x":0.5,"y":0.5}
},
{
	"filename": "c10009.png",
	"frame": {"x":2806,"y":1752,"w":1400,"h":873},
	"rotated": false,
	"trimmed": false,
	"spriteSourceSize": {"x":0,"y":0,"w":1400,"h":873},
	"sourceSize": {"w":1400,"h":873},
	"pivot": {"x":0.5,"y":0.5}
},
{
	"filename": "c10010.png",
	"frame": {"x":2,"y":2627,"w":1400,"h":873},
	"rotated": false,
	"trimmed": false,
	"spriteSourceSize": {"x":0,"y":0,"w":1400,"h":873},
	"sourceSize": {"w":1400,"h":873},
	"pivot": {"x":0.5,"y":0.5}
},
{
	"filename": "c10011.png",
	"frame": {"x":1404,"y":2627,"w":1400,"h":873},
	"rotated": false,
	"trimmed": false,
	"spriteSourceSize": {"x":0,"y":0,"w":1400,"h":873},
	"sourceSize": {"w":1400,"h":873},
	"pivot": {"x":0.5,"y":0.5}
},
{
	"filename": "c10012.png",
	"frame": {"x":2806,"y":2627,"w":1400,"h":873},
	"rotated": false,
	"trimmed": false,
	"spriteSourceSize": {"x":0,"y":0,"w":1400,"h":873},
	"sourceSize": {"w":1400,"h":873},
	"pivot": {"x":0.5,"y":0.5}
},
{
	"filename": "c10013.png",
	"frame": {"x":2,"y":3502,"w":1400,"h":873},
	"rotated": false,
	"trimmed": false,
	"spriteSourceSize": {"x":0,"y":0,"w":1400,"h":873},
	"sourceSize": {"w":1400,"h":873},
	"pivot": {"x":0.5,"y":0.5}
},
{
	"filename": "c10014.png",
	"frame": {"x":1404,"y":3502,"w":1400,"h":873},
	"rotated": false,
	"trimmed": false,
	"spriteSourceSize": {"x":0,"y":0,"w":1400,"h":873},
	"sourceSize": {"w":1400,"h":873},
	"pivot": {"x":0.5,"y":0.5}
},
{
	"filename": "c10015.png",
	"frame": {"x":2806,"y":3502,"w":1400,"h":873},
	"rotated": false,
	"trimmed": false,
	"spriteSourceSize": {"x":0,"y":0,"w":1400,"h":873},
	"sourceSize": {"w":1400,"h":873},
	"pivot": {"x":0.5,"y":0.5}
},
{
	"filename": "c10016.png",
	"frame": {"x":2,"y":4377,"w":1400,"h":873},
	"rotated": false,
	"trimmed": false,
	"spriteSourceSize": {"x":0,"y":0,"w":1400,"h":873},
	"sourceSize": {"w":1400,"h":873},
	"pivot": {"x":0.5,"y":0.5}
},
{
	"filename": "c10017.png",
	"frame": {"x":1404,"y":4377,"w":1400,"h":873},
	"rotated": false,
	"trimmed": false,
	"spriteSourceSize": {"x":0,"y":0,"w":1400,"h":873},
	"sourceSize": {"w":1400,"h":873},
	"pivot": {"x":0.5,"y":0.5}
},
{
	"filename": "c10018.png",
	"frame": {"x":2806,"y":4377,"w":1400,"h":873},
	"rotated": false,
	"trimmed": false,
	"spriteSourceSize": {"x":0,"y":0,"w":1400,"h":873},
	"sourceSize": {"w":1400,"h":873},
	"pivot": {"x":0.5,"y":0.5}
},
{
	"filename": "c10019.png",
	"frame": {"x":2,"y":5252,"w":1400,"h":873},
	"rotated": false,
	"trimmed": false,
	"spriteSourceSize": {"x":0,"y":0,"w":1400,"h":873},
	"sourceSize": {"w":1400,"h":873},
	"pivot": {"x":0.5,"y":0.5}
},
{
	"filename": "c10020.png",
	"frame": {"x":1404,"y":5252,"w":1400,"h":873},
	"rotated": false,
	"trimmed": false,
	"spriteSourceSize": {"x":0,"y":0,"w":1400,"h":873},
	"sourceSize": {"w":1400,"h":873},
	"pivot": {"x":0.5,"y":0.5}
},
{
	"filename": "c10021.png",
	"frame": {"x":2806,"y":5252,"w":1400,"h":873},
	"rotated": false,
	"trimmed": false,
	"spriteSourceSize": {"x":0,"y":0,"w":1400,"h":873},
	"sourceSize": {"w":1400,"h":873},
	"pivot": {"x":0.5,"y":0.5}
},
{
	"filename": "c10022.png",
	"frame": {"x":2,"y":6127,"w":1400,"h":873},
	"rotated": false,
	"trimmed": false,
	"spriteSourceSize": {"x":0,"y":0,"w":1400,"h":873},
	"sourceSize": {"w":1400,"h":873},
	"pivot": {"x":0.5,"y":0.5}
},
{
	"filename": "c10023.png",
	"frame": {"x":1404,"y":6127,"w":1400,"h":873},
	"rotated": false,
	"trimmed": false,
	"spriteSourceSize": {"x":0,"y":0,"w":1400,"h":873},
	"sourceSize": {"w":1400,"h":873},
	"pivot": {"x":0.5,"y":0.5}
},
{
	"filename": "c10024.png",
	"frame": {"x":2806,"y":6127,"w":1400,"h":873},
	"rotated": false,
	"trimmed": false,
	"spriteSourceSize": {"x":0,"y":0,"w":1400,"h":873},
	"sourceSize": {"w":1400,"h":873},
	"pivot": {"x":0.5,"y":0.5}
}],
"meta": {
	"app": "http://www.codeandweb.com/texturepacker",
	"version": "1.0",
	"image": "success3.png",
	"format": "RGBA8888",
	"size": {"w":4208,"h":7002},
	"scale": "1",
	"smartupdate": "$TexturePacker:SmartUpdate:c1239a5de6dae3ff1301478f8044d00a:d5585d3ec8ed505d53bb30450e0be81b:cd6985c3cf9b1cdc269902448a170c79$"
}
}
