{"frames": [

{
	"filename": "kaz_gum0001.png",
	"frame": {"x":2,"y":2,"w":141,"h":245},
	"rotated": false,
	"trimmed": false,
	"spriteSourceSize": {"x":0,"y":0,"w":141,"h":245},
	"sourceSize": {"w":141,"h":245},
	"pivot": {"x":0.5,"y":0.5}
},
{
	"filename": "kaz_gum0002.png",
	"frame": {"x":145,"y":2,"w":141,"h":245},
	"rotated": false,
	"trimmed": false,
	"spriteSourceSize": {"x":0,"y":0,"w":141,"h":245},
	"sourceSize": {"w":141,"h":245},
	"pivot": {"x":0.5,"y":0.5}
},
{
	"filename": "kaz_gum0003.png",
	"frame": {"x":288,"y":2,"w":141,"h":245},
	"rotated": false,
	"trimmed": false,
	"spriteSourceSize": {"x":0,"y":0,"w":141,"h":245},
	"sourceSize": {"w":141,"h":245},
	"pivot": {"x":0.5,"y":0.5}
},
{
	"filename": "kaz_gum0004.png",
	"frame": {"x":431,"y":2,"w":141,"h":245},
	"rotated": false,
	"trimmed": false,
	"spriteSourceSize": {"x":0,"y":0,"w":141,"h":245},
	"sourceSize": {"w":141,"h":245},
	"pivot": {"x":0.5,"y":0.5}
},
{
	"filename": "kaz_gum0005.png",
	"frame": {"x":574,"y":2,"w":141,"h":245},
	"rotated": false,
	"trimmed": false,
	"spriteSourceSize": {"x":0,"y":0,"w":141,"h":245},
	"sourceSize": {"w":141,"h":245},
	"pivot": {"x":0.5,"y":0.5}
},
{
	"filename": "kaz_gum0006.png",
	"frame": {"x":717,"y":2,"w":141,"h":245},
	"rotated": false,
	"trimmed": false,
	"spriteSourceSize": {"x":0,"y":0,"w":141,"h":245},
	"sourceSize": {"w":141,"h":245},
	"pivot": {"x":0.5,"y":0.5}
},
{
	"filename": "kaz_gum0007.png",
	"frame": {"x":860,"y":2,"w":141,"h":245},
	"rotated": false,
	"trimmed": false,
	"spriteSourceSize": {"x":0,"y":0,"w":141,"h":245},
	"sourceSize": {"w":141,"h":245},
	"pivot": {"x":0.5,"y":0.5}
},
{
	"filename": "kaz_gum0008.png",
	"frame": {"x":1003,"y":2,"w":141,"h":245},
	"rotated": false,
	"trimmed": false,
	"spriteSourceSize": {"x":0,"y":0,"w":141,"h":245},
	"sourceSize": {"w":141,"h":245},
	"pivot": {"x":0.5,"y":0.5}
},
{
	"filename": "kaz_gum0009.png",
	"frame": {"x":1146,"y":2,"w":141,"h":245},
	"rotated": false,
	"trimmed": false,
	"spriteSourceSize": {"x":0,"y":0,"w":141,"h":245},
	"sourceSize": {"w":141,"h":245},
	"pivot": {"x":0.5,"y":0.5}
},
{
	"filename": "kaz_gum0010.png",
	"frame": {"x":1289,"y":2,"w":141,"h":245},
	"rotated": false,
	"trimmed": false,
	"spriteSourceSize": {"x":0,"y":0,"w":141,"h":245},
	"sourceSize": {"w":141,"h":245},
	"pivot": {"x":0.5,"y":0.5}
},
{
	"filename": "kaz_gum0011.png",
	"frame": {"x":1432,"y":2,"w":141,"h":245},
	"rotated": false,
	"trimmed": false,
	"spriteSourceSize": {"x":0,"y":0,"w":141,"h":245},
	"sourceSize": {"w":141,"h":245},
	"pivot": {"x":0.5,"y":0.5}
},
{
	"filename": "kaz_gum0012.png",
	"frame": {"x":2,"y":249,"w":141,"h":245},
	"rotated": false,
	"trimmed": false,
	"spriteSourceSize": {"x":0,"y":0,"w":141,"h":245},
	"sourceSize": {"w":141,"h":245},
	"pivot": {"x":0.5,"y":0.5}
},
{
	"filename": "kaz_gum0013.png",
	"frame": {"x":145,"y":249,"w":141,"h":245},
	"rotated": false,
	"trimmed": false,
	"spriteSourceSize": {"x":0,"y":0,"w":141,"h":245},
	"sourceSize": {"w":141,"h":245},
	"pivot": {"x":0.5,"y":0.5}
},
{
	"filename": "kaz_gum0014.png",
	"frame": {"x":288,"y":249,"w":141,"h":245},
	"rotated": false,
	"trimmed": false,
	"spriteSourceSize": {"x":0,"y":0,"w":141,"h":245},
	"sourceSize": {"w":141,"h":245},
	"pivot": {"x":0.5,"y":0.5}
},
{
	"filename": "kaz_gum0015.png",
	"frame": {"x":431,"y":249,"w":141,"h":245},
	"rotated": false,
	"trimmed": false,
	"spriteSourceSize": {"x":0,"y":0,"w":141,"h":245},
	"sourceSize": {"w":141,"h":245},
	"pivot": {"x":0.5,"y":0.5}
},
{
	"filename": "kaz_gum0016.png",
	"frame": {"x":574,"y":249,"w":141,"h":245},
	"rotated": false,
	"trimmed": false,
	"spriteSourceSize": {"x":0,"y":0,"w":141,"h":245},
	"sourceSize": {"w":141,"h":245},
	"pivot": {"x":0.5,"y":0.5}
},
{
	"filename": "kaz_gum0017.png",
	"frame": {"x":717,"y":249,"w":141,"h":245},
	"rotated": false,
	"trimmed": false,
	"spriteSourceSize": {"x":0,"y":0,"w":141,"h":245},
	"sourceSize": {"w":141,"h":245},
	"pivot": {"x":0.5,"y":0.5}
},
{
	"filename": "kaz_gum0018.png",
	"frame": {"x":860,"y":249,"w":141,"h":245},
	"rotated": false,
	"trimmed": false,
	"spriteSourceSize": {"x":0,"y":0,"w":141,"h":245},
	"sourceSize": {"w":141,"h":245},
	"pivot": {"x":0.5,"y":0.5}
},
{
	"filename": "kaz_gum0019.png",
	"frame": {"x":1003,"y":249,"w":141,"h":245},
	"rotated": false,
	"trimmed": false,
	"spriteSourceSize": {"x":0,"y":0,"w":141,"h":245},
	"sourceSize": {"w":141,"h":245},
	"pivot": {"x":0.5,"y":0.5}
},
{
	"filename": "kaz_gum0020.png",
	"frame": {"x":1146,"y":249,"w":141,"h":245},
	"rotated": false,
	"trimmed": false,
	"spriteSourceSize": {"x":0,"y":0,"w":141,"h":245},
	"sourceSize": {"w":141,"h":245},
	"pivot": {"x":0.5,"y":0.5}
},
{
	"filename": "kaz_gum0021.png",
	"frame": {"x":1289,"y":249,"w":141,"h":245},
	"rotated": false,
	"trimmed": false,
	"spriteSourceSize": {"x":0,"y":0,"w":141,"h":245},
	"sourceSize": {"w":141,"h":245},
	"pivot": {"x":0.5,"y":0.5}
},
{
	"filename": "kaz_gum0022.png",
	"frame": {"x":1432,"y":249,"w":141,"h":245},
	"rotated": false,
	"trimmed": false,
	"spriteSourceSize": {"x":0,"y":0,"w":141,"h":245},
	"sourceSize": {"w":141,"h":245},
	"pivot": {"x":0.5,"y":0.5}
},
{
	"filename": "kaz_gum0023.png",
	"frame": {"x":2,"y":496,"w":141,"h":245},
	"rotated": false,
	"trimmed": false,
	"spriteSourceSize": {"x":0,"y":0,"w":141,"h":245},
	"sourceSize": {"w":141,"h":245},
	"pivot": {"x":0.5,"y":0.5}
},
{
	"filename": "kaz_gum0024.png",
	"frame": {"x":145,"y":496,"w":141,"h":245},
	"rotated": false,
	"trimmed": false,
	"spriteSourceSize": {"x":0,"y":0,"w":141,"h":245},
	"sourceSize": {"w":141,"h":245},
	"pivot": {"x":0.5,"y":0.5}
},
{
	"filename": "kaz_gum0025.png",
	"frame": {"x":288,"y":496,"w":141,"h":245},
	"rotated": false,
	"trimmed": false,
	"spriteSourceSize": {"x":0,"y":0,"w":141,"h":245},
	"sourceSize": {"w":141,"h":245},
	"pivot": {"x":0.5,"y":0.5}
},
{
	"filename": "kaz_gum0026.png",
	"frame": {"x":431,"y":496,"w":141,"h":245},
	"rotated": false,
	"trimmed": false,
	"spriteSourceSize": {"x":0,"y":0,"w":141,"h":245},
	"sourceSize": {"w":141,"h":245},
	"pivot": {"x":0.5,"y":0.5}
},
{
	"filename": "kaz_gum0027.png",
	"frame": {"x":574,"y":496,"w":141,"h":245},
	"rotated": false,
	"trimmed": false,
	"spriteSourceSize": {"x":0,"y":0,"w":141,"h":245},
	"sourceSize": {"w":141,"h":245},
	"pivot": {"x":0.5,"y":0.5}
},
{
	"filename": "kaz_gum0028.png",
	"frame": {"x":717,"y":496,"w":141,"h":245},
	"rotated": false,
	"trimmed": false,
	"spriteSourceSize": {"x":0,"y":0,"w":141,"h":245},
	"sourceSize": {"w":141,"h":245},
	"pivot": {"x":0.5,"y":0.5}
},
{
	"filename": "kaz_gum0029.png",
	"frame": {"x":860,"y":496,"w":141,"h":245},
	"rotated": false,
	"trimmed": false,
	"spriteSourceSize": {"x":0,"y":0,"w":141,"h":245},
	"sourceSize": {"w":141,"h":245},
	"pivot": {"x":0.5,"y":0.5}
},
{
	"filename": "kaz_gum0030.png",
	"frame": {"x":1003,"y":496,"w":141,"h":245},
	"rotated": false,
	"trimmed": false,
	"spriteSourceSize": {"x":0,"y":0,"w":141,"h":245},
	"sourceSize": {"w":141,"h":245},
	"pivot": {"x":0.5,"y":0.5}
},
{
	"filename": "kaz_gum0031.png",
	"frame": {"x":1146,"y":496,"w":141,"h":245},
	"rotated": false,
	"trimmed": false,
	"spriteSourceSize": {"x":0,"y":0,"w":141,"h":245},
	"sourceSize": {"w":141,"h":245},
	"pivot": {"x":0.5,"y":0.5}
},
{
	"filename": "kaz_gum0032.png",
	"frame": {"x":1289,"y":496,"w":141,"h":245},
	"rotated": false,
	"trimmed": false,
	"spriteSourceSize": {"x":0,"y":0,"w":141,"h":245},
	"sourceSize": {"w":141,"h":245},
	"pivot": {"x":0.5,"y":0.5}
},
{
	"filename": "kaz_gum0033.png",
	"frame": {"x":1432,"y":496,"w":141,"h":245},
	"rotated": false,
	"trimmed": false,
	"spriteSourceSize": {"x":0,"y":0,"w":141,"h":245},
	"sourceSize": {"w":141,"h":245},
	"pivot": {"x":0.5,"y":0.5}
},
{
	"filename": "kaz_gum0034.png",
	"frame": {"x":2,"y":743,"w":141,"h":245},
	"rotated": false,
	"trimmed": false,
	"spriteSourceSize": {"x":0,"y":0,"w":141,"h":245},
	"sourceSize": {"w":141,"h":245},
	"pivot": {"x":0.5,"y":0.5}
},
{
	"filename": "kaz_gum0035.png",
	"frame": {"x":145,"y":743,"w":141,"h":245},
	"rotated": false,
	"trimmed": false,
	"spriteSourceSize": {"x":0,"y":0,"w":141,"h":245},
	"sourceSize": {"w":141,"h":245},
	"pivot": {"x":0.5,"y":0.5}
},
{
	"filename": "kaz_gum0036.png",
	"frame": {"x":288,"y":743,"w":141,"h":245},
	"rotated": false,
	"trimmed": false,
	"spriteSourceSize": {"x":0,"y":0,"w":141,"h":245},
	"sourceSize": {"w":141,"h":245},
	"pivot": {"x":0.5,"y":0.5}
},
{
	"filename": "kaz_gum0037.png",
	"frame": {"x":431,"y":743,"w":141,"h":245},
	"rotated": false,
	"trimmed": false,
	"spriteSourceSize": {"x":0,"y":0,"w":141,"h":245},
	"sourceSize": {"w":141,"h":245},
	"pivot": {"x":0.5,"y":0.5}
},
{
	"filename": "kaz_gum0038.png",
	"frame": {"x":574,"y":743,"w":141,"h":245},
	"rotated": false,
	"trimmed": false,
	"spriteSourceSize": {"x":0,"y":0,"w":141,"h":245},
	"sourceSize": {"w":141,"h":245},
	"pivot": {"x":0.5,"y":0.5}
},
{
	"filename": "kaz_gum0039.png",
	"frame": {"x":717,"y":743,"w":141,"h":245},
	"rotated": false,
	"trimmed": false,
	"spriteSourceSize": {"x":0,"y":0,"w":141,"h":245},
	"sourceSize": {"w":141,"h":245},
	"pivot": {"x":0.5,"y":0.5}
},
{
	"filename": "kaz_gum0040.png",
	"frame": {"x":860,"y":743,"w":141,"h":245},
	"rotated": false,
	"trimmed": false,
	"spriteSourceSize": {"x":0,"y":0,"w":141,"h":245},
	"sourceSize": {"w":141,"h":245},
	"pivot": {"x":0.5,"y":0.5}
},
{
	"filename": "kaz_gum0041.png",
	"frame": {"x":1003,"y":743,"w":141,"h":245},
	"rotated": false,
	"trimmed": false,
	"spriteSourceSize": {"x":0,"y":0,"w":141,"h":245},
	"sourceSize": {"w":141,"h":245},
	"pivot": {"x":0.5,"y":0.5}
},
{
	"filename": "kaz_gum0042.png",
	"frame": {"x":1146,"y":743,"w":141,"h":245},
	"rotated": false,
	"trimmed": false,
	"spriteSourceSize": {"x":0,"y":0,"w":141,"h":245},
	"sourceSize": {"w":141,"h":245},
	"pivot": {"x":0.5,"y":0.5}
},
{
	"filename": "kaz_gum0043.png",
	"frame": {"x":1289,"y":743,"w":141,"h":245},
	"rotated": false,
	"trimmed": false,
	"spriteSourceSize": {"x":0,"y":0,"w":141,"h":245},
	"sourceSize": {"w":141,"h":245},
	"pivot": {"x":0.5,"y":0.5}
},
{
	"filename": "kaz_gum0044.png",
	"frame": {"x":2,"y":2,"w":141,"h":245},
	"rotated": false,
	"trimmed": false,
	"spriteSourceSize": {"x":0,"y":0,"w":141,"h":245},
	"sourceSize": {"w":141,"h":245},
	"pivot": {"x":0.5,"y":0.5}
},
{
	"filename": "kaz_gum0045.png",
	"frame": {"x":2,"y":2,"w":141,"h":245},
	"rotated": false,
	"trimmed": false,
	"spriteSourceSize": {"x":0,"y":0,"w":141,"h":245},
	"sourceSize": {"w":141,"h":245},
	"pivot": {"x":0.5,"y":0.5}
}],
"meta": {
	"app": "http://www.codeandweb.com/texturepacker",
	"version": "1.0",
	"image": "kaz_gum.png",
	"format": "RGBA8888",
	"size": {"w":1575,"h":990},
	"scale": "1",
	"smartupdate": "$TexturePacker:SmartUpdate:a70d720c6a08cbd208dc72bf1593df59:c66a0b4caa5ef42a273eac4eb4eb96f0:1a657c563369ad41b6400e9db77eaf9f$"
}
}
