{"frames": [

{
	"filename": "kaz_drum0001.png",
	"frame": {"x":2,"y":2,"w":141,"h":245},
	"rotated": false,
	"trimmed": false,
	"spriteSourceSize": {"x":0,"y":0,"w":141,"h":245},
	"sourceSize": {"w":141,"h":245},
	"pivot": {"x":0.5,"y":0.5}
},
{
	"filename": "kaz_drum0002.png",
	"frame": {"x":145,"y":2,"w":141,"h":245},
	"rotated": false,
	"trimmed": false,
	"spriteSourceSize": {"x":0,"y":0,"w":141,"h":245},
	"sourceSize": {"w":141,"h":245},
	"pivot": {"x":0.5,"y":0.5}
},
{
	"filename": "kaz_drum0003.png",
	"frame": {"x":288,"y":2,"w":141,"h":245},
	"rotated": false,
	"trimmed": false,
	"spriteSourceSize": {"x":0,"y":0,"w":141,"h":245},
	"sourceSize": {"w":141,"h":245},
	"pivot": {"x":0.5,"y":0.5}
},
{
	"filename": "kaz_drum0004.png",
	"frame": {"x":431,"y":2,"w":141,"h":245},
	"rotated": false,
	"trimmed": false,
	"spriteSourceSize": {"x":0,"y":0,"w":141,"h":245},
	"sourceSize": {"w":141,"h":245},
	"pivot": {"x":0.5,"y":0.5}
},
{
	"filename": "kaz_drum0005.png",
	"frame": {"x":574,"y":2,"w":141,"h":245},
	"rotated": false,
	"trimmed": false,
	"spriteSourceSize": {"x":0,"y":0,"w":141,"h":245},
	"sourceSize": {"w":141,"h":245},
	"pivot": {"x":0.5,"y":0.5}
},
{
	"filename": "kaz_drum0006.png",
	"frame": {"x":717,"y":2,"w":141,"h":245},
	"rotated": false,
	"trimmed": false,
	"spriteSourceSize": {"x":0,"y":0,"w":141,"h":245},
	"sourceSize": {"w":141,"h":245},
	"pivot": {"x":0.5,"y":0.5}
},
{
	"filename": "kaz_drum0007.png",
	"frame": {"x":860,"y":2,"w":141,"h":245},
	"rotated": false,
	"trimmed": false,
	"spriteSourceSize": {"x":0,"y":0,"w":141,"h":245},
	"sourceSize": {"w":141,"h":245},
	"pivot": {"x":0.5,"y":0.5}
},
{
	"filename": "kaz_drum0008.png",
	"frame": {"x":1003,"y":2,"w":141,"h":245},
	"rotated": false,
	"trimmed": false,
	"spriteSourceSize": {"x":0,"y":0,"w":141,"h":245},
	"sourceSize": {"w":141,"h":245},
	"pivot": {"x":0.5,"y":0.5}
},
{
	"filename": "kaz_drum0009.png",
	"frame": {"x":1146,"y":2,"w":141,"h":245},
	"rotated": false,
	"trimmed": false,
	"spriteSourceSize": {"x":0,"y":0,"w":141,"h":245},
	"sourceSize": {"w":141,"h":245},
	"pivot": {"x":0.5,"y":0.5}
},
{
	"filename": "kaz_drum0010.png",
	"frame": {"x":1289,"y":2,"w":141,"h":245},
	"rotated": false,
	"trimmed": false,
	"spriteSourceSize": {"x":0,"y":0,"w":141,"h":245},
	"sourceSize": {"w":141,"h":245},
	"pivot": {"x":0.5,"y":0.5}
},
{
	"filename": "kaz_drum0011.png",
	"frame": {"x":1432,"y":2,"w":141,"h":245},
	"rotated": false,
	"trimmed": false,
	"spriteSourceSize": {"x":0,"y":0,"w":141,"h":245},
	"sourceSize": {"w":141,"h":245},
	"pivot": {"x":0.5,"y":0.5}
},
{
	"filename": "kaz_drum0012.png",
	"frame": {"x":2,"y":249,"w":141,"h":245},
	"rotated": false,
	"trimmed": false,
	"spriteSourceSize": {"x":0,"y":0,"w":141,"h":245},
	"sourceSize": {"w":141,"h":245},
	"pivot": {"x":0.5,"y":0.5}
},
{
	"filename": "kaz_drum0013.png",
	"frame": {"x":145,"y":249,"w":141,"h":245},
	"rotated": false,
	"trimmed": false,
	"spriteSourceSize": {"x":0,"y":0,"w":141,"h":245},
	"sourceSize": {"w":141,"h":245},
	"pivot": {"x":0.5,"y":0.5}
},
{
	"filename": "kaz_drum0014.png",
	"frame": {"x":288,"y":249,"w":141,"h":245},
	"rotated": false,
	"trimmed": false,
	"spriteSourceSize": {"x":0,"y":0,"w":141,"h":245},
	"sourceSize": {"w":141,"h":245},
	"pivot": {"x":0.5,"y":0.5}
},
{
	"filename": "kaz_drum0015.png",
	"frame": {"x":431,"y":249,"w":141,"h":245},
	"rotated": false,
	"trimmed": false,
	"spriteSourceSize": {"x":0,"y":0,"w":141,"h":245},
	"sourceSize": {"w":141,"h":245},
	"pivot": {"x":0.5,"y":0.5}
},
{
	"filename": "kaz_drum0016.png",
	"frame": {"x":574,"y":249,"w":141,"h":245},
	"rotated": false,
	"trimmed": false,
	"spriteSourceSize": {"x":0,"y":0,"w":141,"h":245},
	"sourceSize": {"w":141,"h":245},
	"pivot": {"x":0.5,"y":0.5}
},
{
	"filename": "kaz_drum0017.png",
	"frame": {"x":717,"y":249,"w":141,"h":245},
	"rotated": false,
	"trimmed": false,
	"spriteSourceSize": {"x":0,"y":0,"w":141,"h":245},
	"sourceSize": {"w":141,"h":245},
	"pivot": {"x":0.5,"y":0.5}
},
{
	"filename": "kaz_drum0018.png",
	"frame": {"x":860,"y":249,"w":141,"h":245},
	"rotated": false,
	"trimmed": false,
	"spriteSourceSize": {"x":0,"y":0,"w":141,"h":245},
	"sourceSize": {"w":141,"h":245},
	"pivot": {"x":0.5,"y":0.5}
},
{
	"filename": "kaz_drum0019.png",
	"frame": {"x":1003,"y":249,"w":141,"h":245},
	"rotated": false,
	"trimmed": false,
	"spriteSourceSize": {"x":0,"y":0,"w":141,"h":245},
	"sourceSize": {"w":141,"h":245},
	"pivot": {"x":0.5,"y":0.5}
},
{
	"filename": "kaz_drum0020.png",
	"frame": {"x":1146,"y":249,"w":141,"h":245},
	"rotated": false,
	"trimmed": false,
	"spriteSourceSize": {"x":0,"y":0,"w":141,"h":245},
	"sourceSize": {"w":141,"h":245},
	"pivot": {"x":0.5,"y":0.5}
},
{
	"filename": "kaz_drum0021.png",
	"frame": {"x":1289,"y":249,"w":141,"h":245},
	"rotated": false,
	"trimmed": false,
	"spriteSourceSize": {"x":0,"y":0,"w":141,"h":245},
	"sourceSize": {"w":141,"h":245},
	"pivot": {"x":0.5,"y":0.5}
}],
"meta": {
	"app": "http://www.codeandweb.com/texturepacker",
	"version": "1.0",
	"image": "kaz_drum.png",
	"format": "RGBA8888",
	"size": {"w":1575,"h":496},
	"scale": "1",
	"smartupdate": "$TexturePacker:SmartUpdate:71be780d8a81475b4ad2ff467a342af4:e97878904b4e64c399e1ff68cf945cea:b29a26ee787e35b86c2cf2464d68fe30$"
}
}
