{"frames": [

{
	"filename": "kaz_default0001.png",
	"frame": {"x":2,"y":2,"w":141,"h":245},
	"rotated": false,
	"trimmed": false,
	"spriteSourceSize": {"x":0,"y":0,"w":141,"h":245},
	"sourceSize": {"w":141,"h":245},
	"pivot": {"x":0.5,"y":0.5}
},
{
	"filename": "kaz_default0002.png",
	"frame": {"x":2,"y":2,"w":141,"h":245},
	"rotated": false,
	"trimmed": false,
	"spriteSourceSize": {"x":0,"y":0,"w":141,"h":245},
	"sourceSize": {"w":141,"h":245},
	"pivot": {"x":0.5,"y":0.5}
},
{
	"filename": "kaz_default0003.png",
	"frame": {"x":145,"y":2,"w":141,"h":245},
	"rotated": false,
	"trimmed": false,
	"spriteSourceSize": {"x":0,"y":0,"w":141,"h":245},
	"sourceSize": {"w":141,"h":245},
	"pivot": {"x":0.5,"y":0.5}
},
{
	"filename": "kaz_default0004.png",
	"frame": {"x":145,"y":2,"w":141,"h":245},
	"rotated": false,
	"trimmed": false,
	"spriteSourceSize": {"x":0,"y":0,"w":141,"h":245},
	"sourceSize": {"w":141,"h":245},
	"pivot": {"x":0.5,"y":0.5}
},
{
	"filename": "kaz_default0005.png",
	"frame": {"x":288,"y":2,"w":141,"h":245},
	"rotated": false,
	"trimmed": false,
	"spriteSourceSize": {"x":0,"y":0,"w":141,"h":245},
	"sourceSize": {"w":141,"h":245},
	"pivot": {"x":0.5,"y":0.5}
},
{
	"filename": "kaz_default0006.png",
	"frame": {"x":288,"y":2,"w":141,"h":245},
	"rotated": false,
	"trimmed": false,
	"spriteSourceSize": {"x":0,"y":0,"w":141,"h":245},
	"sourceSize": {"w":141,"h":245},
	"pivot": {"x":0.5,"y":0.5}
},
{
	"filename": "kaz_default0007.png",
	"frame": {"x":431,"y":2,"w":141,"h":245},
	"rotated": false,
	"trimmed": false,
	"spriteSourceSize": {"x":0,"y":0,"w":141,"h":245},
	"sourceSize": {"w":141,"h":245},
	"pivot": {"x":0.5,"y":0.5}
},
{
	"filename": "kaz_default0008.png",
	"frame": {"x":431,"y":2,"w":141,"h":245},
	"rotated": false,
	"trimmed": false,
	"spriteSourceSize": {"x":0,"y":0,"w":141,"h":245},
	"sourceSize": {"w":141,"h":245},
	"pivot": {"x":0.5,"y":0.5}
},
{
	"filename": "kaz_default0009.png",
	"frame": {"x":431,"y":2,"w":141,"h":245},
	"rotated": false,
	"trimmed": false,
	"spriteSourceSize": {"x":0,"y":0,"w":141,"h":245},
	"sourceSize": {"w":141,"h":245},
	"pivot": {"x":0.5,"y":0.5}
},
{
	"filename": "kaz_default0010.png",
	"frame": {"x":431,"y":2,"w":141,"h":245},
	"rotated": false,
	"trimmed": false,
	"spriteSourceSize": {"x":0,"y":0,"w":141,"h":245},
	"sourceSize": {"w":141,"h":245},
	"pivot": {"x":0.5,"y":0.5}
},
{
	"filename": "kaz_default0011.png",
	"frame": {"x":431,"y":2,"w":141,"h":245},
	"rotated": false,
	"trimmed": false,
	"spriteSourceSize": {"x":0,"y":0,"w":141,"h":245},
	"sourceSize": {"w":141,"h":245},
	"pivot": {"x":0.5,"y":0.5}
},
{
	"filename": "kaz_default0012.png",
	"frame": {"x":431,"y":2,"w":141,"h":245},
	"rotated": false,
	"trimmed": false,
	"spriteSourceSize": {"x":0,"y":0,"w":141,"h":245},
	"sourceSize": {"w":141,"h":245},
	"pivot": {"x":0.5,"y":0.5}
},
{
	"filename": "kaz_default0013.png",
	"frame": {"x":431,"y":2,"w":141,"h":245},
	"rotated": false,
	"trimmed": false,
	"spriteSourceSize": {"x":0,"y":0,"w":141,"h":245},
	"sourceSize": {"w":141,"h":245},
	"pivot": {"x":0.5,"y":0.5}
},
{
	"filename": "kaz_default0014.png",
	"frame": {"x":288,"y":2,"w":141,"h":245},
	"rotated": false,
	"trimmed": false,
	"spriteSourceSize": {"x":0,"y":0,"w":141,"h":245},
	"sourceSize": {"w":141,"h":245},
	"pivot": {"x":0.5,"y":0.5}
},
{
	"filename": "kaz_default0015.png",
	"frame": {"x":288,"y":2,"w":141,"h":245},
	"rotated": false,
	"trimmed": false,
	"spriteSourceSize": {"x":0,"y":0,"w":141,"h":245},
	"sourceSize": {"w":141,"h":245},
	"pivot": {"x":0.5,"y":0.5}
},
{
	"filename": "kaz_default0016.png",
	"frame": {"x":145,"y":2,"w":141,"h":245},
	"rotated": false,
	"trimmed": false,
	"spriteSourceSize": {"x":0,"y":0,"w":141,"h":245},
	"sourceSize": {"w":141,"h":245},
	"pivot": {"x":0.5,"y":0.5}
},
{
	"filename": "kaz_default0017.png",
	"frame": {"x":145,"y":2,"w":141,"h":245},
	"rotated": false,
	"trimmed": false,
	"spriteSourceSize": {"x":0,"y":0,"w":141,"h":245},
	"sourceSize": {"w":141,"h":245},
	"pivot": {"x":0.5,"y":0.5}
},
{
	"filename": "kaz_default0018.png",
	"frame": {"x":574,"y":2,"w":141,"h":245},
	"rotated": false,
	"trimmed": false,
	"spriteSourceSize": {"x":0,"y":0,"w":141,"h":245},
	"sourceSize": {"w":141,"h":245},
	"pivot": {"x":0.5,"y":0.5}
},
{
	"filename": "kaz_default0019.png",
	"frame": {"x":574,"y":2,"w":141,"h":245},
	"rotated": false,
	"trimmed": false,
	"spriteSourceSize": {"x":0,"y":0,"w":141,"h":245},
	"sourceSize": {"w":141,"h":245},
	"pivot": {"x":0.5,"y":0.5}
},
{
	"filename": "kaz_default0020.png",
	"frame": {"x":574,"y":2,"w":141,"h":245},
	"rotated": false,
	"trimmed": false,
	"spriteSourceSize": {"x":0,"y":0,"w":141,"h":245},
	"sourceSize": {"w":141,"h":245},
	"pivot": {"x":0.5,"y":0.5}
},
{
	"filename": "kaz_default0021.png",
	"frame": {"x":574,"y":2,"w":141,"h":245},
	"rotated": false,
	"trimmed": false,
	"spriteSourceSize": {"x":0,"y":0,"w":141,"h":245},
	"sourceSize": {"w":141,"h":245},
	"pivot": {"x":0.5,"y":0.5}
},
{
	"filename": "kaz_default0022.png",
	"frame": {"x":574,"y":2,"w":141,"h":245},
	"rotated": false,
	"trimmed": false,
	"spriteSourceSize": {"x":0,"y":0,"w":141,"h":245},
	"sourceSize": {"w":141,"h":245},
	"pivot": {"x":0.5,"y":0.5}
},
{
	"filename": "kaz_default0023.png",
	"frame": {"x":574,"y":2,"w":141,"h":245},
	"rotated": false,
	"trimmed": false,
	"spriteSourceSize": {"x":0,"y":0,"w":141,"h":245},
	"sourceSize": {"w":141,"h":245},
	"pivot": {"x":0.5,"y":0.5}
},
{
	"filename": "kaz_default0024.png",
	"frame": {"x":574,"y":2,"w":141,"h":245},
	"rotated": false,
	"trimmed": false,
	"spriteSourceSize": {"x":0,"y":0,"w":141,"h":245},
	"sourceSize": {"w":141,"h":245},
	"pivot": {"x":0.5,"y":0.5}
},
{
	"filename": "kaz_default0025.png",
	"frame": {"x":574,"y":2,"w":141,"h":245},
	"rotated": false,
	"trimmed": false,
	"spriteSourceSize": {"x":0,"y":0,"w":141,"h":245},
	"sourceSize": {"w":141,"h":245},
	"pivot": {"x":0.5,"y":0.5}
},
{
	"filename": "kaz_default0026.png",
	"frame": {"x":574,"y":2,"w":141,"h":245},
	"rotated": false,
	"trimmed": false,
	"spriteSourceSize": {"x":0,"y":0,"w":141,"h":245},
	"sourceSize": {"w":141,"h":245},
	"pivot": {"x":0.5,"y":0.5}
},
{
	"filename": "kaz_default0027.png",
	"frame": {"x":574,"y":2,"w":141,"h":245},
	"rotated": false,
	"trimmed": false,
	"spriteSourceSize": {"x":0,"y":0,"w":141,"h":245},
	"sourceSize": {"w":141,"h":245},
	"pivot": {"x":0.5,"y":0.5}
},
{
	"filename": "kaz_default0028.png",
	"frame": {"x":574,"y":2,"w":141,"h":245},
	"rotated": false,
	"trimmed": false,
	"spriteSourceSize": {"x":0,"y":0,"w":141,"h":245},
	"sourceSize": {"w":141,"h":245},
	"pivot": {"x":0.5,"y":0.5}
},
{
	"filename": "kaz_default0029.png",
	"frame": {"x":574,"y":2,"w":141,"h":245},
	"rotated": false,
	"trimmed": false,
	"spriteSourceSize": {"x":0,"y":0,"w":141,"h":245},
	"sourceSize": {"w":141,"h":245},
	"pivot": {"x":0.5,"y":0.5}
},
{
	"filename": "kaz_default0030.png",
	"frame": {"x":574,"y":2,"w":141,"h":245},
	"rotated": false,
	"trimmed": false,
	"spriteSourceSize": {"x":0,"y":0,"w":141,"h":245},
	"sourceSize": {"w":141,"h":245},
	"pivot": {"x":0.5,"y":0.5}
},
{
	"filename": "kaz_default0031.png",
	"frame": {"x":574,"y":2,"w":141,"h":245},
	"rotated": false,
	"trimmed": false,
	"spriteSourceSize": {"x":0,"y":0,"w":141,"h":245},
	"sourceSize": {"w":141,"h":245},
	"pivot": {"x":0.5,"y":0.5}
},
{
	"filename": "kaz_default0032.png",
	"frame": {"x":574,"y":2,"w":141,"h":245},
	"rotated": false,
	"trimmed": false,
	"spriteSourceSize": {"x":0,"y":0,"w":141,"h":245},
	"sourceSize": {"w":141,"h":245},
	"pivot": {"x":0.5,"y":0.5}
},
{
	"filename": "kaz_default0033.png",
	"frame": {"x":574,"y":2,"w":141,"h":245},
	"rotated": false,
	"trimmed": false,
	"spriteSourceSize": {"x":0,"y":0,"w":141,"h":245},
	"sourceSize": {"w":141,"h":245},
	"pivot": {"x":0.5,"y":0.5}
},
{
	"filename": "kaz_default0034.png",
	"frame": {"x":574,"y":2,"w":141,"h":245},
	"rotated": false,
	"trimmed": false,
	"spriteSourceSize": {"x":0,"y":0,"w":141,"h":245},
	"sourceSize": {"w":141,"h":245},
	"pivot": {"x":0.5,"y":0.5}
},
{
	"filename": "kaz_default0035.png",
	"frame": {"x":574,"y":2,"w":141,"h":245},
	"rotated": false,
	"trimmed": false,
	"spriteSourceSize": {"x":0,"y":0,"w":141,"h":245},
	"sourceSize": {"w":141,"h":245},
	"pivot": {"x":0.5,"y":0.5}
}],
"meta": {
	"app": "http://www.codeandweb.com/texturepacker",
	"version": "1.0",
	"image": "kaz_default.png",
	"format": "RGBA8888",
	"size": {"w":717,"h":249},
	"scale": "1",
	"smartupdate": "$TexturePacker:SmartUpdate:389fc0c63bee3d939c190c55d30360a5:daeb3464cd7b7e5895d5de1a125d2369:b659cf6c14607e1718e7268d3f38e925$"
}
}
