{"frames": [

{
	"filename": "kaz_ice0001.png",
	"frame": {"x":2,"y":2,"w":102,"h":166},
	"rotated": false,
	"trimmed": false,
	"spriteSourceSize": {"x":0,"y":0,"w":102,"h":166},
	"sourceSize": {"w":102,"h":166},
	"pivot": {"x":0.5,"y":0.5}
},
{
	"filename": "kaz_ice0002.png",
	"frame": {"x":106,"y":2,"w":102,"h":166},
	"rotated": false,
	"trimmed": false,
	"spriteSourceSize": {"x":0,"y":0,"w":102,"h":166},
	"sourceSize": {"w":102,"h":166},
	"pivot": {"x":0.5,"y":0.5}
},
{
	"filename": "kaz_ice0003.png",
	"frame": {"x":210,"y":2,"w":102,"h":166},
	"rotated": false,
	"trimmed": false,
	"spriteSourceSize": {"x":0,"y":0,"w":102,"h":166},
	"sourceSize": {"w":102,"h":166},
	"pivot": {"x":0.5,"y":0.5}
},
{
	"filename": "kaz_ice0004.png",
	"frame": {"x":314,"y":2,"w":102,"h":166},
	"rotated": false,
	"trimmed": false,
	"spriteSourceSize": {"x":0,"y":0,"w":102,"h":166},
	"sourceSize": {"w":102,"h":166},
	"pivot": {"x":0.5,"y":0.5}
},
{
	"filename": "kaz_ice0005.png",
	"frame": {"x":418,"y":2,"w":102,"h":166},
	"rotated": false,
	"trimmed": false,
	"spriteSourceSize": {"x":0,"y":0,"w":102,"h":166},
	"sourceSize": {"w":102,"h":166},
	"pivot": {"x":0.5,"y":0.5}
},
{
	"filename": "kaz_ice0006.png",
	"frame": {"x":522,"y":2,"w":102,"h":166},
	"rotated": false,
	"trimmed": false,
	"spriteSourceSize": {"x":0,"y":0,"w":102,"h":166},
	"sourceSize": {"w":102,"h":166},
	"pivot": {"x":0.5,"y":0.5}
},
{
	"filename": "kaz_ice0007.png",
	"frame": {"x":626,"y":2,"w":102,"h":166},
	"rotated": false,
	"trimmed": false,
	"spriteSourceSize": {"x":0,"y":0,"w":102,"h":166},
	"sourceSize": {"w":102,"h":166},
	"pivot": {"x":0.5,"y":0.5}
},
{
	"filename": "kaz_ice0008.png",
	"frame": {"x":730,"y":2,"w":102,"h":166},
	"rotated": false,
	"trimmed": false,
	"spriteSourceSize": {"x":0,"y":0,"w":102,"h":166},
	"sourceSize": {"w":102,"h":166},
	"pivot": {"x":0.5,"y":0.5}
},
{
	"filename": "kaz_ice0009.png",
	"frame": {"x":834,"y":2,"w":102,"h":166},
	"rotated": false,
	"trimmed": false,
	"spriteSourceSize": {"x":0,"y":0,"w":102,"h":166},
	"sourceSize": {"w":102,"h":166},
	"pivot": {"x":0.5,"y":0.5}
},
{
	"filename": "kaz_ice0010.png",
	"frame": {"x":938,"y":2,"w":102,"h":166},
	"rotated": false,
	"trimmed": false,
	"spriteSourceSize": {"x":0,"y":0,"w":102,"h":166},
	"sourceSize": {"w":102,"h":166},
	"pivot": {"x":0.5,"y":0.5}
},
{
	"filename": "kaz_ice0011.png",
	"frame": {"x":2,"y":170,"w":102,"h":166},
	"rotated": false,
	"trimmed": false,
	"spriteSourceSize": {"x":0,"y":0,"w":102,"h":166},
	"sourceSize": {"w":102,"h":166},
	"pivot": {"x":0.5,"y":0.5}
},
{
	"filename": "kaz_ice0012.png",
	"frame": {"x":106,"y":170,"w":102,"h":166},
	"rotated": false,
	"trimmed": false,
	"spriteSourceSize": {"x":0,"y":0,"w":102,"h":166},
	"sourceSize": {"w":102,"h":166},
	"pivot": {"x":0.5,"y":0.5}
},
{
	"filename": "kaz_ice0013.png",
	"frame": {"x":210,"y":170,"w":102,"h":166},
	"rotated": false,
	"trimmed": false,
	"spriteSourceSize": {"x":0,"y":0,"w":102,"h":166},
	"sourceSize": {"w":102,"h":166},
	"pivot": {"x":0.5,"y":0.5}
},
{
	"filename": "kaz_ice0014.png",
	"frame": {"x":314,"y":170,"w":102,"h":166},
	"rotated": false,
	"trimmed": false,
	"spriteSourceSize": {"x":0,"y":0,"w":102,"h":166},
	"sourceSize": {"w":102,"h":166},
	"pivot": {"x":0.5,"y":0.5}
},
{
	"filename": "kaz_ice0015.png",
	"frame": {"x":418,"y":170,"w":102,"h":166},
	"rotated": false,
	"trimmed": false,
	"spriteSourceSize": {"x":0,"y":0,"w":102,"h":166},
	"sourceSize": {"w":102,"h":166},
	"pivot": {"x":0.5,"y":0.5}
},
{
	"filename": "kaz_ice0016.png",
	"frame": {"x":522,"y":170,"w":102,"h":166},
	"rotated": false,
	"trimmed": false,
	"spriteSourceSize": {"x":0,"y":0,"w":102,"h":166},
	"sourceSize": {"w":102,"h":166},
	"pivot": {"x":0.5,"y":0.5}
},
{
	"filename": "kaz_ice0017.png",
	"frame": {"x":626,"y":170,"w":102,"h":166},
	"rotated": false,
	"trimmed": false,
	"spriteSourceSize": {"x":0,"y":0,"w":102,"h":166},
	"sourceSize": {"w":102,"h":166},
	"pivot": {"x":0.5,"y":0.5}
},
{
	"filename": "kaz_ice0018.png",
	"frame": {"x":730,"y":170,"w":102,"h":166},
	"rotated": false,
	"trimmed": false,
	"spriteSourceSize": {"x":0,"y":0,"w":102,"h":166},
	"sourceSize": {"w":102,"h":166},
	"pivot": {"x":0.5,"y":0.5}
},
{
	"filename": "kaz_ice0019.png",
	"frame": {"x":834,"y":170,"w":102,"h":166},
	"rotated": false,
	"trimmed": false,
	"spriteSourceSize": {"x":0,"y":0,"w":102,"h":166},
	"sourceSize": {"w":102,"h":166},
	"pivot": {"x":0.5,"y":0.5}
},
{
	"filename": "kaz_ice0020.png",
	"frame": {"x":938,"y":170,"w":102,"h":166},
	"rotated": false,
	"trimmed": false,
	"spriteSourceSize": {"x":0,"y":0,"w":102,"h":166},
	"sourceSize": {"w":102,"h":166},
	"pivot": {"x":0.5,"y":0.5}
},
{
	"filename": "kaz_ice0021.png",
	"frame": {"x":2,"y":338,"w":102,"h":166},
	"rotated": false,
	"trimmed": false,
	"spriteSourceSize": {"x":0,"y":0,"w":102,"h":166},
	"sourceSize": {"w":102,"h":166},
	"pivot": {"x":0.5,"y":0.5}
},
{
	"filename": "kaz_ice0022.png",
	"frame": {"x":106,"y":338,"w":102,"h":166},
	"rotated": false,
	"trimmed": false,
	"spriteSourceSize": {"x":0,"y":0,"w":102,"h":166},
	"sourceSize": {"w":102,"h":166},
	"pivot": {"x":0.5,"y":0.5}
},
{
	"filename": "kaz_ice0023.png",
	"frame": {"x":210,"y":338,"w":102,"h":166},
	"rotated": false,
	"trimmed": false,
	"spriteSourceSize": {"x":0,"y":0,"w":102,"h":166},
	"sourceSize": {"w":102,"h":166},
	"pivot": {"x":0.5,"y":0.5}
},
{
	"filename": "kaz_ice0024.png",
	"frame": {"x":314,"y":338,"w":102,"h":166},
	"rotated": false,
	"trimmed": false,
	"spriteSourceSize": {"x":0,"y":0,"w":102,"h":166},
	"sourceSize": {"w":102,"h":166},
	"pivot": {"x":0.5,"y":0.5}
},
{
	"filename": "kaz_ice0025.png",
	"frame": {"x":418,"y":338,"w":102,"h":166},
	"rotated": false,
	"trimmed": false,
	"spriteSourceSize": {"x":0,"y":0,"w":102,"h":166},
	"sourceSize": {"w":102,"h":166},
	"pivot": {"x":0.5,"y":0.5}
},
{
	"filename": "kaz_ice0026.png",
	"frame": {"x":522,"y":338,"w":102,"h":166},
	"rotated": false,
	"trimmed": false,
	"spriteSourceSize": {"x":0,"y":0,"w":102,"h":166},
	"sourceSize": {"w":102,"h":166},
	"pivot": {"x":0.5,"y":0.5}
},
{
	"filename": "kaz_ice0027.png",
	"frame": {"x":626,"y":338,"w":102,"h":166},
	"rotated": false,
	"trimmed": false,
	"spriteSourceSize": {"x":0,"y":0,"w":102,"h":166},
	"sourceSize": {"w":102,"h":166},
	"pivot": {"x":0.5,"y":0.5}
},
{
	"filename": "kaz_ice0028.png",
	"frame": {"x":730,"y":338,"w":102,"h":166},
	"rotated": false,
	"trimmed": false,
	"spriteSourceSize": {"x":0,"y":0,"w":102,"h":166},
	"sourceSize": {"w":102,"h":166},
	"pivot": {"x":0.5,"y":0.5}
},
{
	"filename": "kaz_ice0029.png",
	"frame": {"x":834,"y":338,"w":102,"h":166},
	"rotated": false,
	"trimmed": false,
	"spriteSourceSize": {"x":0,"y":0,"w":102,"h":166},
	"sourceSize": {"w":102,"h":166},
	"pivot": {"x":0.5,"y":0.5}
},
{
	"filename": "kaz_ice0030.png",
	"frame": {"x":938,"y":338,"w":102,"h":166},
	"rotated": false,
	"trimmed": false,
	"spriteSourceSize": {"x":0,"y":0,"w":102,"h":166},
	"sourceSize": {"w":102,"h":166},
	"pivot": {"x":0.5,"y":0.5}
}],
"meta": {
	"app": "http://www.codeandweb.com/texturepacker",
	"version": "1.0",
	"image": "kaz_ice.png",
	"format": "RGBA8888",
	"size": {"w":1042,"h":506},
	"scale": "1",
	"smartupdate": "$TexturePacker:SmartUpdate:43c6fc7f80ea4efdaee316aa5b715c09:6199e55871dc33396d031cce5810122c:5c2d1dacf022312587be0a6073222f88$"
}
}
