{"frames": [

{
	"filename": "countdown0001.png",
	"frame": {"x":2,"y":2,"w":525,"h":181},
	"rotated": false,
	"trimmed": false,
	"spriteSourceSize": {"x":0,"y":0,"w":525,"h":181},
	"sourceSize": {"w":525,"h":181},
	"pivot": {"x":0.5,"y":0.5}
},
{
	"filename": "countdown0002.png",
	"frame": {"x":2,"y":2,"w":525,"h":181},
	"rotated": false,
	"trimmed": false,
	"spriteSourceSize": {"x":0,"y":0,"w":525,"h":181},
	"sourceSize": {"w":525,"h":181},
	"pivot": {"x":0.5,"y":0.5}
},
{
	"filename": "countdown0003.png",
	"frame": {"x":2,"y":2,"w":525,"h":181},
	"rotated": false,
	"trimmed": false,
	"spriteSourceSize": {"x":0,"y":0,"w":525,"h":181},
	"sourceSize": {"w":525,"h":181},
	"pivot": {"x":0.5,"y":0.5}
},
{
	"filename": "countdown0004.png",
	"frame": {"x":2,"y":2,"w":525,"h":181},
	"rotated": false,
	"trimmed": false,
	"spriteSourceSize": {"x":0,"y":0,"w":525,"h":181},
	"sourceSize": {"w":525,"h":181},
	"pivot": {"x":0.5,"y":0.5}
},
{
	"filename": "countdown0005.png",
	"frame": {"x":2,"y":2,"w":525,"h":181},
	"rotated": false,
	"trimmed": false,
	"spriteSourceSize": {"x":0,"y":0,"w":525,"h":181},
	"sourceSize": {"w":525,"h":181},
	"pivot": {"x":0.5,"y":0.5}
},
{
	"filename": "countdown0006.png",
	"frame": {"x":2,"y":2,"w":525,"h":181},
	"rotated": false,
	"trimmed": false,
	"spriteSourceSize": {"x":0,"y":0,"w":525,"h":181},
	"sourceSize": {"w":525,"h":181},
	"pivot": {"x":0.5,"y":0.5}
},
{
	"filename": "countdown0007.png",
	"frame": {"x":2,"y":2,"w":525,"h":181},
	"rotated": false,
	"trimmed": false,
	"spriteSourceSize": {"x":0,"y":0,"w":525,"h":181},
	"sourceSize": {"w":525,"h":181},
	"pivot": {"x":0.5,"y":0.5}
},
{
	"filename": "countdown0008.png",
	"frame": {"x":2,"y":2,"w":525,"h":181},
	"rotated": false,
	"trimmed": false,
	"spriteSourceSize": {"x":0,"y":0,"w":525,"h":181},
	"sourceSize": {"w":525,"h":181},
	"pivot": {"x":0.5,"y":0.5}
},
{
	"filename": "countdown0009.png",
	"frame": {"x":2,"y":2,"w":525,"h":181},
	"rotated": false,
	"trimmed": false,
	"spriteSourceSize": {"x":0,"y":0,"w":525,"h":181},
	"sourceSize": {"w":525,"h":181},
	"pivot": {"x":0.5,"y":0.5}
},
{
	"filename": "countdown0010.png",
	"frame": {"x":2,"y":2,"w":525,"h":181},
	"rotated": false,
	"trimmed": false,
	"spriteSourceSize": {"x":0,"y":0,"w":525,"h":181},
	"sourceSize": {"w":525,"h":181},
	"pivot": {"x":0.5,"y":0.5}
},
{
	"filename": "countdown0011.png",
	"frame": {"x":2,"y":2,"w":525,"h":181},
	"rotated": false,
	"trimmed": false,
	"spriteSourceSize": {"x":0,"y":0,"w":525,"h":181},
	"sourceSize": {"w":525,"h":181},
	"pivot": {"x":0.5,"y":0.5}
},
{
	"filename": "countdown0012.png",
	"frame": {"x":2,"y":2,"w":525,"h":181},
	"rotated": false,
	"trimmed": false,
	"spriteSourceSize": {"x":0,"y":0,"w":525,"h":181},
	"sourceSize": {"w":525,"h":181},
	"pivot": {"x":0.5,"y":0.5}
},
{
	"filename": "countdown0013.png",
	"frame": {"x":2,"y":2,"w":525,"h":181},
	"rotated": false,
	"trimmed": false,
	"spriteSourceSize": {"x":0,"y":0,"w":525,"h":181},
	"sourceSize": {"w":525,"h":181},
	"pivot": {"x":0.5,"y":0.5}
},
{
	"filename": "countdown0014.png",
	"frame": {"x":2,"y":2,"w":525,"h":181},
	"rotated": false,
	"trimmed": false,
	"spriteSourceSize": {"x":0,"y":0,"w":525,"h":181},
	"sourceSize": {"w":525,"h":181},
	"pivot": {"x":0.5,"y":0.5}
},
{
	"filename": "countdown0015.png",
	"frame": {"x":2,"y":2,"w":525,"h":181},
	"rotated": false,
	"trimmed": false,
	"spriteSourceSize": {"x":0,"y":0,"w":525,"h":181},
	"sourceSize": {"w":525,"h":181},
	"pivot": {"x":0.5,"y":0.5}
},
{
	"filename": "countdown0016.png",
	"frame": {"x":2,"y":2,"w":525,"h":181},
	"rotated": false,
	"trimmed": false,
	"spriteSourceSize": {"x":0,"y":0,"w":525,"h":181},
	"sourceSize": {"w":525,"h":181},
	"pivot": {"x":0.5,"y":0.5}
},
{
	"filename": "countdown0017.png",
	"frame": {"x":2,"y":2,"w":525,"h":181},
	"rotated": false,
	"trimmed": false,
	"spriteSourceSize": {"x":0,"y":0,"w":525,"h":181},
	"sourceSize": {"w":525,"h":181},
	"pivot": {"x":0.5,"y":0.5}
},
{
	"filename": "countdown0018.png",
	"frame": {"x":2,"y":2,"w":525,"h":181},
	"rotated": false,
	"trimmed": false,
	"spriteSourceSize": {"x":0,"y":0,"w":525,"h":181},
	"sourceSize": {"w":525,"h":181},
	"pivot": {"x":0.5,"y":0.5}
},
{
	"filename": "countdown0019.png",
	"frame": {"x":2,"y":2,"w":525,"h":181},
	"rotated": false,
	"trimmed": false,
	"spriteSourceSize": {"x":0,"y":0,"w":525,"h":181},
	"sourceSize": {"w":525,"h":181},
	"pivot": {"x":0.5,"y":0.5}
},
{
	"filename": "countdown0020.png",
	"frame": {"x":2,"y":2,"w":525,"h":181},
	"rotated": false,
	"trimmed": false,
	"spriteSourceSize": {"x":0,"y":0,"w":525,"h":181},
	"sourceSize": {"w":525,"h":181},
	"pivot": {"x":0.5,"y":0.5}
},
{
	"filename": "countdown0021.png",
	"frame": {"x":2,"y":2,"w":525,"h":181},
	"rotated": false,
	"trimmed": false,
	"spriteSourceSize": {"x":0,"y":0,"w":525,"h":181},
	"sourceSize": {"w":525,"h":181},
	"pivot": {"x":0.5,"y":0.5}
},
{
	"filename": "countdown0022.png",
	"frame": {"x":2,"y":2,"w":525,"h":181},
	"rotated": false,
	"trimmed": false,
	"spriteSourceSize": {"x":0,"y":0,"w":525,"h":181},
	"sourceSize": {"w":525,"h":181},
	"pivot": {"x":0.5,"y":0.5}
},
{
	"filename": "countdown0023.png",
	"frame": {"x":2,"y":2,"w":525,"h":181},
	"rotated": false,
	"trimmed": false,
	"spriteSourceSize": {"x":0,"y":0,"w":525,"h":181},
	"sourceSize": {"w":525,"h":181},
	"pivot": {"x":0.5,"y":0.5}
},
{
	"filename": "countdown0024.png",
	"frame": {"x":2,"y":2,"w":525,"h":181},
	"rotated": false,
	"trimmed": false,
	"spriteSourceSize": {"x":0,"y":0,"w":525,"h":181},
	"sourceSize": {"w":525,"h":181},
	"pivot": {"x":0.5,"y":0.5}
},
{
	"filename": "countdown0025.png",
	"frame": {"x":2,"y":2,"w":525,"h":181},
	"rotated": false,
	"trimmed": false,
	"spriteSourceSize": {"x":0,"y":0,"w":525,"h":181},
	"sourceSize": {"w":525,"h":181},
	"pivot": {"x":0.5,"y":0.5}
},
{
	"filename": "countdown0026.png",
	"frame": {"x":2,"y":2,"w":525,"h":181},
	"rotated": false,
	"trimmed": false,
	"spriteSourceSize": {"x":0,"y":0,"w":525,"h":181},
	"sourceSize": {"w":525,"h":181},
	"pivot": {"x":0.5,"y":0.5}
},
{
	"filename": "countdown0027.png",
	"frame": {"x":2,"y":2,"w":525,"h":181},
	"rotated": false,
	"trimmed": false,
	"spriteSourceSize": {"x":0,"y":0,"w":525,"h":181},
	"sourceSize": {"w":525,"h":181},
	"pivot": {"x":0.5,"y":0.5}
},
{
	"filename": "countdown0028.png",
	"frame": {"x":2,"y":2,"w":525,"h":181},
	"rotated": false,
	"trimmed": false,
	"spriteSourceSize": {"x":0,"y":0,"w":525,"h":181},
	"sourceSize": {"w":525,"h":181},
	"pivot": {"x":0.5,"y":0.5}
},
{
	"filename": "countdown0029.png",
	"frame": {"x":2,"y":2,"w":525,"h":181},
	"rotated": false,
	"trimmed": false,
	"spriteSourceSize": {"x":0,"y":0,"w":525,"h":181},
	"sourceSize": {"w":525,"h":181},
	"pivot": {"x":0.5,"y":0.5}
},
{
	"filename": "countdown0030.png",
	"frame": {"x":2,"y":2,"w":525,"h":181},
	"rotated": false,
	"trimmed": false,
	"spriteSourceSize": {"x":0,"y":0,"w":525,"h":181},
	"sourceSize": {"w":525,"h":181},
	"pivot": {"x":0.5,"y":0.5}
},
{
	"filename": "countdown0031.png",
	"frame": {"x":2,"y":2,"w":525,"h":181},
	"rotated": false,
	"trimmed": false,
	"spriteSourceSize": {"x":0,"y":0,"w":525,"h":181},
	"sourceSize": {"w":525,"h":181},
	"pivot": {"x":0.5,"y":0.5}
},
{
	"filename": "countdown0032.png",
	"frame": {"x":2,"y":2,"w":525,"h":181},
	"rotated": false,
	"trimmed": false,
	"spriteSourceSize": {"x":0,"y":0,"w":525,"h":181},
	"sourceSize": {"w":525,"h":181},
	"pivot": {"x":0.5,"y":0.5}
},
{
	"filename": "countdown0033.png",
	"frame": {"x":2,"y":2,"w":525,"h":181},
	"rotated": false,
	"trimmed": false,
	"spriteSourceSize": {"x":0,"y":0,"w":525,"h":181},
	"sourceSize": {"w":525,"h":181},
	"pivot": {"x":0.5,"y":0.5}
},
{
	"filename": "countdown0034.png",
	"frame": {"x":529,"y":2,"w":525,"h":181},
	"rotated": false,
	"trimmed": false,
	"spriteSourceSize": {"x":0,"y":0,"w":525,"h":181},
	"sourceSize": {"w":525,"h":181},
	"pivot": {"x":0.5,"y":0.5}
},
{
	"filename": "countdown0035.png",
	"frame": {"x":529,"y":2,"w":525,"h":181},
	"rotated": false,
	"trimmed": false,
	"spriteSourceSize": {"x":0,"y":0,"w":525,"h":181},
	"sourceSize": {"w":525,"h":181},
	"pivot": {"x":0.5,"y":0.5}
},
{
	"filename": "countdown0036.png",
	"frame": {"x":529,"y":2,"w":525,"h":181},
	"rotated": false,
	"trimmed": false,
	"spriteSourceSize": {"x":0,"y":0,"w":525,"h":181},
	"sourceSize": {"w":525,"h":181},
	"pivot": {"x":0.5,"y":0.5}
},
{
	"filename": "countdown0037.png",
	"frame": {"x":529,"y":2,"w":525,"h":181},
	"rotated": false,
	"trimmed": false,
	"spriteSourceSize": {"x":0,"y":0,"w":525,"h":181},
	"sourceSize": {"w":525,"h":181},
	"pivot": {"x":0.5,"y":0.5}
},
{
	"filename": "countdown0038.png",
	"frame": {"x":529,"y":2,"w":525,"h":181},
	"rotated": false,
	"trimmed": false,
	"spriteSourceSize": {"x":0,"y":0,"w":525,"h":181},
	"sourceSize": {"w":525,"h":181},
	"pivot": {"x":0.5,"y":0.5}
},
{
	"filename": "countdown0039.png",
	"frame": {"x":529,"y":2,"w":525,"h":181},
	"rotated": false,
	"trimmed": false,
	"spriteSourceSize": {"x":0,"y":0,"w":525,"h":181},
	"sourceSize": {"w":525,"h":181},
	"pivot": {"x":0.5,"y":0.5}
},
{
	"filename": "countdown0040.png",
	"frame": {"x":529,"y":2,"w":525,"h":181},
	"rotated": false,
	"trimmed": false,
	"spriteSourceSize": {"x":0,"y":0,"w":525,"h":181},
	"sourceSize": {"w":525,"h":181},
	"pivot": {"x":0.5,"y":0.5}
},
{
	"filename": "countdown0041.png",
	"frame": {"x":529,"y":2,"w":525,"h":181},
	"rotated": false,
	"trimmed": false,
	"spriteSourceSize": {"x":0,"y":0,"w":525,"h":181},
	"sourceSize": {"w":525,"h":181},
	"pivot": {"x":0.5,"y":0.5}
},
{
	"filename": "countdown0042.png",
	"frame": {"x":529,"y":2,"w":525,"h":181},
	"rotated": false,
	"trimmed": false,
	"spriteSourceSize": {"x":0,"y":0,"w":525,"h":181},
	"sourceSize": {"w":525,"h":181},
	"pivot": {"x":0.5,"y":0.5}
},
{
	"filename": "countdown0043.png",
	"frame": {"x":529,"y":2,"w":525,"h":181},
	"rotated": false,
	"trimmed": false,
	"spriteSourceSize": {"x":0,"y":0,"w":525,"h":181},
	"sourceSize": {"w":525,"h":181},
	"pivot": {"x":0.5,"y":0.5}
},
{
	"filename": "countdown0044.png",
	"frame": {"x":529,"y":2,"w":525,"h":181},
	"rotated": false,
	"trimmed": false,
	"spriteSourceSize": {"x":0,"y":0,"w":525,"h":181},
	"sourceSize": {"w":525,"h":181},
	"pivot": {"x":0.5,"y":0.5}
},
{
	"filename": "countdown0045.png",
	"frame": {"x":529,"y":2,"w":525,"h":181},
	"rotated": false,
	"trimmed": false,
	"spriteSourceSize": {"x":0,"y":0,"w":525,"h":181},
	"sourceSize": {"w":525,"h":181},
	"pivot": {"x":0.5,"y":0.5}
},
{
	"filename": "countdown0046.png",
	"frame": {"x":529,"y":2,"w":525,"h":181},
	"rotated": false,
	"trimmed": false,
	"spriteSourceSize": {"x":0,"y":0,"w":525,"h":181},
	"sourceSize": {"w":525,"h":181},
	"pivot": {"x":0.5,"y":0.5}
},
{
	"filename": "countdown0047.png",
	"frame": {"x":529,"y":2,"w":525,"h":181},
	"rotated": false,
	"trimmed": false,
	"spriteSourceSize": {"x":0,"y":0,"w":525,"h":181},
	"sourceSize": {"w":525,"h":181},
	"pivot": {"x":0.5,"y":0.5}
},
{
	"filename": "countdown0048.png",
	"frame": {"x":529,"y":2,"w":525,"h":181},
	"rotated": false,
	"trimmed": false,
	"spriteSourceSize": {"x":0,"y":0,"w":525,"h":181},
	"sourceSize": {"w":525,"h":181},
	"pivot": {"x":0.5,"y":0.5}
},
{
	"filename": "countdown0049.png",
	"frame": {"x":529,"y":2,"w":525,"h":181},
	"rotated": false,
	"trimmed": false,
	"spriteSourceSize": {"x":0,"y":0,"w":525,"h":181},
	"sourceSize": {"w":525,"h":181},
	"pivot": {"x":0.5,"y":0.5}
},
{
	"filename": "countdown0050.png",
	"frame": {"x":529,"y":2,"w":525,"h":181},
	"rotated": false,
	"trimmed": false,
	"spriteSourceSize": {"x":0,"y":0,"w":525,"h":181},
	"sourceSize": {"w":525,"h":181},
	"pivot": {"x":0.5,"y":0.5}
},
{
	"filename": "countdown0051.png",
	"frame": {"x":529,"y":2,"w":525,"h":181},
	"rotated": false,
	"trimmed": false,
	"spriteSourceSize": {"x":0,"y":0,"w":525,"h":181},
	"sourceSize": {"w":525,"h":181},
	"pivot": {"x":0.5,"y":0.5}
},
{
	"filename": "countdown0052.png",
	"frame": {"x":529,"y":2,"w":525,"h":181},
	"rotated": false,
	"trimmed": false,
	"spriteSourceSize": {"x":0,"y":0,"w":525,"h":181},
	"sourceSize": {"w":525,"h":181},
	"pivot": {"x":0.5,"y":0.5}
},
{
	"filename": "countdown0053.png",
	"frame": {"x":529,"y":2,"w":525,"h":181},
	"rotated": false,
	"trimmed": false,
	"spriteSourceSize": {"x":0,"y":0,"w":525,"h":181},
	"sourceSize": {"w":525,"h":181},
	"pivot": {"x":0.5,"y":0.5}
},
{
	"filename": "countdown0054.png",
	"frame": {"x":529,"y":2,"w":525,"h":181},
	"rotated": false,
	"trimmed": false,
	"spriteSourceSize": {"x":0,"y":0,"w":525,"h":181},
	"sourceSize": {"w":525,"h":181},
	"pivot": {"x":0.5,"y":0.5}
},
{
	"filename": "countdown0055.png",
	"frame": {"x":529,"y":2,"w":525,"h":181},
	"rotated": false,
	"trimmed": false,
	"spriteSourceSize": {"x":0,"y":0,"w":525,"h":181},
	"sourceSize": {"w":525,"h":181},
	"pivot": {"x":0.5,"y":0.5}
},
{
	"filename": "countdown0056.png",
	"frame": {"x":529,"y":2,"w":525,"h":181},
	"rotated": false,
	"trimmed": false,
	"spriteSourceSize": {"x":0,"y":0,"w":525,"h":181},
	"sourceSize": {"w":525,"h":181},
	"pivot": {"x":0.5,"y":0.5}
},
{
	"filename": "countdown0057.png",
	"frame": {"x":529,"y":2,"w":525,"h":181},
	"rotated": false,
	"trimmed": false,
	"spriteSourceSize": {"x":0,"y":0,"w":525,"h":181},
	"sourceSize": {"w":525,"h":181},
	"pivot": {"x":0.5,"y":0.5}
},
{
	"filename": "countdown0058.png",
	"frame": {"x":529,"y":2,"w":525,"h":181},
	"rotated": false,
	"trimmed": false,
	"spriteSourceSize": {"x":0,"y":0,"w":525,"h":181},
	"sourceSize": {"w":525,"h":181},
	"pivot": {"x":0.5,"y":0.5}
},
{
	"filename": "countdown0059.png",
	"frame": {"x":529,"y":2,"w":525,"h":181},
	"rotated": false,
	"trimmed": false,
	"spriteSourceSize": {"x":0,"y":0,"w":525,"h":181},
	"sourceSize": {"w":525,"h":181},
	"pivot": {"x":0.5,"y":0.5}
},
{
	"filename": "countdown0060.png",
	"frame": {"x":529,"y":2,"w":525,"h":181},
	"rotated": false,
	"trimmed": false,
	"spriteSourceSize": {"x":0,"y":0,"w":525,"h":181},
	"sourceSize": {"w":525,"h":181},
	"pivot": {"x":0.5,"y":0.5}
},
{
	"filename": "countdown0061.png",
	"frame": {"x":529,"y":2,"w":525,"h":181},
	"rotated": false,
	"trimmed": false,
	"spriteSourceSize": {"x":0,"y":0,"w":525,"h":181},
	"sourceSize": {"w":525,"h":181},
	"pivot": {"x":0.5,"y":0.5}
},
{
	"filename": "countdown0062.png",
	"frame": {"x":529,"y":2,"w":525,"h":181},
	"rotated": false,
	"trimmed": false,
	"spriteSourceSize": {"x":0,"y":0,"w":525,"h":181},
	"sourceSize": {"w":525,"h":181},
	"pivot": {"x":0.5,"y":0.5}
},
{
	"filename": "countdown0063.png",
	"frame": {"x":529,"y":2,"w":525,"h":181},
	"rotated": false,
	"trimmed": false,
	"spriteSourceSize": {"x":0,"y":0,"w":525,"h":181},
	"sourceSize": {"w":525,"h":181},
	"pivot": {"x":0.5,"y":0.5}
},
{
	"filename": "countdown0064.png",
	"frame": {"x":529,"y":2,"w":525,"h":181},
	"rotated": false,
	"trimmed": false,
	"spriteSourceSize": {"x":0,"y":0,"w":525,"h":181},
	"sourceSize": {"w":525,"h":181},
	"pivot": {"x":0.5,"y":0.5}
},
{
	"filename": "countdown0065.png",
	"frame": {"x":529,"y":2,"w":525,"h":181},
	"rotated": false,
	"trimmed": false,
	"spriteSourceSize": {"x":0,"y":0,"w":525,"h":181},
	"sourceSize": {"w":525,"h":181},
	"pivot": {"x":0.5,"y":0.5}
},
{
	"filename": "countdown0066.png",
	"frame": {"x":529,"y":2,"w":525,"h":181},
	"rotated": false,
	"trimmed": false,
	"spriteSourceSize": {"x":0,"y":0,"w":525,"h":181},
	"sourceSize": {"w":525,"h":181},
	"pivot": {"x":0.5,"y":0.5}
},
{
	"filename": "countdown0067.png",
	"frame": {"x":529,"y":2,"w":525,"h":181},
	"rotated": false,
	"trimmed": false,
	"spriteSourceSize": {"x":0,"y":0,"w":525,"h":181},
	"sourceSize": {"w":525,"h":181},
	"pivot": {"x":0.5,"y":0.5}
},
{
	"filename": "countdown0068.png",
	"frame": {"x":529,"y":2,"w":525,"h":181},
	"rotated": false,
	"trimmed": false,
	"spriteSourceSize": {"x":0,"y":0,"w":525,"h":181},
	"sourceSize": {"w":525,"h":181},
	"pivot": {"x":0.5,"y":0.5}
},
{
	"filename": "countdown0069.png",
	"frame": {"x":2,"y":185,"w":525,"h":181},
	"rotated": false,
	"trimmed": false,
	"spriteSourceSize": {"x":0,"y":0,"w":525,"h":181},
	"sourceSize": {"w":525,"h":181},
	"pivot": {"x":0.5,"y":0.5}
},
{
	"filename": "countdown0070.png",
	"frame": {"x":2,"y":185,"w":525,"h":181},
	"rotated": false,
	"trimmed": false,
	"spriteSourceSize": {"x":0,"y":0,"w":525,"h":181},
	"sourceSize": {"w":525,"h":181},
	"pivot": {"x":0.5,"y":0.5}
},
{
	"filename": "countdown0071.png",
	"frame": {"x":2,"y":185,"w":525,"h":181},
	"rotated": false,
	"trimmed": false,
	"spriteSourceSize": {"x":0,"y":0,"w":525,"h":181},
	"sourceSize": {"w":525,"h":181},
	"pivot": {"x":0.5,"y":0.5}
},
{
	"filename": "countdown0072.png",
	"frame": {"x":2,"y":185,"w":525,"h":181},
	"rotated": false,
	"trimmed": false,
	"spriteSourceSize": {"x":0,"y":0,"w":525,"h":181},
	"sourceSize": {"w":525,"h":181},
	"pivot": {"x":0.5,"y":0.5}
},
{
	"filename": "countdown0073.png",
	"frame": {"x":2,"y":185,"w":525,"h":181},
	"rotated": false,
	"trimmed": false,
	"spriteSourceSize": {"x":0,"y":0,"w":525,"h":181},
	"sourceSize": {"w":525,"h":181},
	"pivot": {"x":0.5,"y":0.5}
},
{
	"filename": "countdown0074.png",
	"frame": {"x":2,"y":185,"w":525,"h":181},
	"rotated": false,
	"trimmed": false,
	"spriteSourceSize": {"x":0,"y":0,"w":525,"h":181},
	"sourceSize": {"w":525,"h":181},
	"pivot": {"x":0.5,"y":0.5}
},
{
	"filename": "countdown0075.png",
	"frame": {"x":2,"y":185,"w":525,"h":181},
	"rotated": false,
	"trimmed": false,
	"spriteSourceSize": {"x":0,"y":0,"w":525,"h":181},
	"sourceSize": {"w":525,"h":181},
	"pivot": {"x":0.5,"y":0.5}
},
{
	"filename": "countdown0076.png",
	"frame": {"x":2,"y":185,"w":525,"h":181},
	"rotated": false,
	"trimmed": false,
	"spriteSourceSize": {"x":0,"y":0,"w":525,"h":181},
	"sourceSize": {"w":525,"h":181},
	"pivot": {"x":0.5,"y":0.5}
},
{
	"filename": "countdown0077.png",
	"frame": {"x":2,"y":185,"w":525,"h":181},
	"rotated": false,
	"trimmed": false,
	"spriteSourceSize": {"x":0,"y":0,"w":525,"h":181},
	"sourceSize": {"w":525,"h":181},
	"pivot": {"x":0.5,"y":0.5}
},
{
	"filename": "countdown0078.png",
	"frame": {"x":2,"y":185,"w":525,"h":181},
	"rotated": false,
	"trimmed": false,
	"spriteSourceSize": {"x":0,"y":0,"w":525,"h":181},
	"sourceSize": {"w":525,"h":181},
	"pivot": {"x":0.5,"y":0.5}
},
{
	"filename": "countdown0079.png",
	"frame": {"x":2,"y":185,"w":525,"h":181},
	"rotated": false,
	"trimmed": false,
	"spriteSourceSize": {"x":0,"y":0,"w":525,"h":181},
	"sourceSize": {"w":525,"h":181},
	"pivot": {"x":0.5,"y":0.5}
},
{
	"filename": "countdown0080.png",
	"frame": {"x":2,"y":185,"w":525,"h":181},
	"rotated": false,
	"trimmed": false,
	"spriteSourceSize": {"x":0,"y":0,"w":525,"h":181},
	"sourceSize": {"w":525,"h":181},
	"pivot": {"x":0.5,"y":0.5}
},
{
	"filename": "countdown0081.png",
	"frame": {"x":2,"y":185,"w":525,"h":181},
	"rotated": false,
	"trimmed": false,
	"spriteSourceSize": {"x":0,"y":0,"w":525,"h":181},
	"sourceSize": {"w":525,"h":181},
	"pivot": {"x":0.5,"y":0.5}
},
{
	"filename": "countdown0082.png",
	"frame": {"x":2,"y":185,"w":525,"h":181},
	"rotated": false,
	"trimmed": false,
	"spriteSourceSize": {"x":0,"y":0,"w":525,"h":181},
	"sourceSize": {"w":525,"h":181},
	"pivot": {"x":0.5,"y":0.5}
},
{
	"filename": "countdown0083.png",
	"frame": {"x":2,"y":185,"w":525,"h":181},
	"rotated": false,
	"trimmed": false,
	"spriteSourceSize": {"x":0,"y":0,"w":525,"h":181},
	"sourceSize": {"w":525,"h":181},
	"pivot": {"x":0.5,"y":0.5}
},
{
	"filename": "countdown0084.png",
	"frame": {"x":2,"y":185,"w":525,"h":181},
	"rotated": false,
	"trimmed": false,
	"spriteSourceSize": {"x":0,"y":0,"w":525,"h":181},
	"sourceSize": {"w":525,"h":181},
	"pivot": {"x":0.5,"y":0.5}
},
{
	"filename": "countdown0085.png",
	"frame": {"x":2,"y":185,"w":525,"h":181},
	"rotated": false,
	"trimmed": false,
	"spriteSourceSize": {"x":0,"y":0,"w":525,"h":181},
	"sourceSize": {"w":525,"h":181},
	"pivot": {"x":0.5,"y":0.5}
},
{
	"filename": "countdown0086.png",
	"frame": {"x":2,"y":185,"w":525,"h":181},
	"rotated": false,
	"trimmed": false,
	"spriteSourceSize": {"x":0,"y":0,"w":525,"h":181},
	"sourceSize": {"w":525,"h":181},
	"pivot": {"x":0.5,"y":0.5}
},
{
	"filename": "countdown0087.png",
	"frame": {"x":2,"y":185,"w":525,"h":181},
	"rotated": false,
	"trimmed": false,
	"spriteSourceSize": {"x":0,"y":0,"w":525,"h":181},
	"sourceSize": {"w":525,"h":181},
	"pivot": {"x":0.5,"y":0.5}
},
{
	"filename": "countdown0088.png",
	"frame": {"x":2,"y":185,"w":525,"h":181},
	"rotated": false,
	"trimmed": false,
	"spriteSourceSize": {"x":0,"y":0,"w":525,"h":181},
	"sourceSize": {"w":525,"h":181},
	"pivot": {"x":0.5,"y":0.5}
},
{
	"filename": "countdown0089.png",
	"frame": {"x":2,"y":185,"w":525,"h":181},
	"rotated": false,
	"trimmed": false,
	"spriteSourceSize": {"x":0,"y":0,"w":525,"h":181},
	"sourceSize": {"w":525,"h":181},
	"pivot": {"x":0.5,"y":0.5}
},
{
	"filename": "countdown0090.png",
	"frame": {"x":2,"y":185,"w":525,"h":181},
	"rotated": false,
	"trimmed": false,
	"spriteSourceSize": {"x":0,"y":0,"w":525,"h":181},
	"sourceSize": {"w":525,"h":181},
	"pivot": {"x":0.5,"y":0.5}
},
{
	"filename": "countdown0091.png",
	"frame": {"x":2,"y":185,"w":525,"h":181},
	"rotated": false,
	"trimmed": false,
	"spriteSourceSize": {"x":0,"y":0,"w":525,"h":181},
	"sourceSize": {"w":525,"h":181},
	"pivot": {"x":0.5,"y":0.5}
},
{
	"filename": "countdown0092.png",
	"frame": {"x":2,"y":185,"w":525,"h":181},
	"rotated": false,
	"trimmed": false,
	"spriteSourceSize": {"x":0,"y":0,"w":525,"h":181},
	"sourceSize": {"w":525,"h":181},
	"pivot": {"x":0.5,"y":0.5}
},
{
	"filename": "countdown0093.png",
	"frame": {"x":2,"y":185,"w":525,"h":181},
	"rotated": false,
	"trimmed": false,
	"spriteSourceSize": {"x":0,"y":0,"w":525,"h":181},
	"sourceSize": {"w":525,"h":181},
	"pivot": {"x":0.5,"y":0.5}
},
{
	"filename": "countdown0094.png",
	"frame": {"x":2,"y":185,"w":525,"h":181},
	"rotated": false,
	"trimmed": false,
	"spriteSourceSize": {"x":0,"y":0,"w":525,"h":181},
	"sourceSize": {"w":525,"h":181},
	"pivot": {"x":0.5,"y":0.5}
},
{
	"filename": "countdown0095.png",
	"frame": {"x":2,"y":185,"w":525,"h":181},
	"rotated": false,
	"trimmed": false,
	"spriteSourceSize": {"x":0,"y":0,"w":525,"h":181},
	"sourceSize": {"w":525,"h":181},
	"pivot": {"x":0.5,"y":0.5}
},
{
	"filename": "countdown0096.png",
	"frame": {"x":2,"y":185,"w":525,"h":181},
	"rotated": false,
	"trimmed": false,
	"spriteSourceSize": {"x":0,"y":0,"w":525,"h":181},
	"sourceSize": {"w":525,"h":181},
	"pivot": {"x":0.5,"y":0.5}
},
{
	"filename": "countdown0097.png",
	"frame": {"x":2,"y":185,"w":525,"h":181},
	"rotated": false,
	"trimmed": false,
	"spriteSourceSize": {"x":0,"y":0,"w":525,"h":181},
	"sourceSize": {"w":525,"h":181},
	"pivot": {"x":0.5,"y":0.5}
},
{
	"filename": "countdown0098.png",
	"frame": {"x":2,"y":185,"w":525,"h":181},
	"rotated": false,
	"trimmed": false,
	"spriteSourceSize": {"x":0,"y":0,"w":525,"h":181},
	"sourceSize": {"w":525,"h":181},
	"pivot": {"x":0.5,"y":0.5}
},
{
	"filename": "countdown0099.png",
	"frame": {"x":2,"y":185,"w":525,"h":181},
	"rotated": false,
	"trimmed": false,
	"spriteSourceSize": {"x":0,"y":0,"w":525,"h":181},
	"sourceSize": {"w":525,"h":181},
	"pivot": {"x":0.5,"y":0.5}
},
{
	"filename": "countdown0100.png",
	"frame": {"x":2,"y":185,"w":525,"h":181},
	"rotated": false,
	"trimmed": false,
	"spriteSourceSize": {"x":0,"y":0,"w":525,"h":181},
	"sourceSize": {"w":525,"h":181},
	"pivot": {"x":0.5,"y":0.5}
},
{
	"filename": "countdown0101.png",
	"frame": {"x":2,"y":185,"w":525,"h":181},
	"rotated": false,
	"trimmed": false,
	"spriteSourceSize": {"x":0,"y":0,"w":525,"h":181},
	"sourceSize": {"w":525,"h":181},
	"pivot": {"x":0.5,"y":0.5}
},
{
	"filename": "countdown0102.png",
	"frame": {"x":2,"y":185,"w":525,"h":181},
	"rotated": false,
	"trimmed": false,
	"spriteSourceSize": {"x":0,"y":0,"w":525,"h":181},
	"sourceSize": {"w":525,"h":181},
	"pivot": {"x":0.5,"y":0.5}
},
{
	"filename": "countdown0103.png",
	"frame": {"x":2,"y":185,"w":525,"h":181},
	"rotated": false,
	"trimmed": false,
	"spriteSourceSize": {"x":0,"y":0,"w":525,"h":181},
	"sourceSize": {"w":525,"h":181},
	"pivot": {"x":0.5,"y":0.5}
},
{
	"filename": "countdown0104.png",
	"frame": {"x":529,"y":185,"w":525,"h":181},
	"rotated": false,
	"trimmed": false,
	"spriteSourceSize": {"x":0,"y":0,"w":525,"h":181},
	"sourceSize": {"w":525,"h":181},
	"pivot": {"x":0.5,"y":0.5}
},
{
	"filename": "countdown0105.png",
	"frame": {"x":529,"y":185,"w":525,"h":181},
	"rotated": false,
	"trimmed": false,
	"spriteSourceSize": {"x":0,"y":0,"w":525,"h":181},
	"sourceSize": {"w":525,"h":181},
	"pivot": {"x":0.5,"y":0.5}
},
{
	"filename": "countdown0106.png",
	"frame": {"x":529,"y":185,"w":525,"h":181},
	"rotated": false,
	"trimmed": false,
	"spriteSourceSize": {"x":0,"y":0,"w":525,"h":181},
	"sourceSize": {"w":525,"h":181},
	"pivot": {"x":0.5,"y":0.5}
},
{
	"filename": "countdown0107.png",
	"frame": {"x":529,"y":185,"w":525,"h":181},
	"rotated": false,
	"trimmed": false,
	"spriteSourceSize": {"x":0,"y":0,"w":525,"h":181},
	"sourceSize": {"w":525,"h":181},
	"pivot": {"x":0.5,"y":0.5}
},
{
	"filename": "countdown0108.png",
	"frame": {"x":529,"y":185,"w":525,"h":181},
	"rotated": false,
	"trimmed": false,
	"spriteSourceSize": {"x":0,"y":0,"w":525,"h":181},
	"sourceSize": {"w":525,"h":181},
	"pivot": {"x":0.5,"y":0.5}
},
{
	"filename": "countdown0109.png",
	"frame": {"x":529,"y":185,"w":525,"h":181},
	"rotated": false,
	"trimmed": false,
	"spriteSourceSize": {"x":0,"y":0,"w":525,"h":181},
	"sourceSize": {"w":525,"h":181},
	"pivot": {"x":0.5,"y":0.5}
},
{
	"filename": "countdown0110.png",
	"frame": {"x":529,"y":185,"w":525,"h":181},
	"rotated": false,
	"trimmed": false,
	"spriteSourceSize": {"x":0,"y":0,"w":525,"h":181},
	"sourceSize": {"w":525,"h":181},
	"pivot": {"x":0.5,"y":0.5}
},
{
	"filename": "countdown0111.png",
	"frame": {"x":529,"y":185,"w":525,"h":181},
	"rotated": false,
	"trimmed": false,
	"spriteSourceSize": {"x":0,"y":0,"w":525,"h":181},
	"sourceSize": {"w":525,"h":181},
	"pivot": {"x":0.5,"y":0.5}
},
{
	"filename": "countdown0112.png",
	"frame": {"x":529,"y":185,"w":525,"h":181},
	"rotated": false,
	"trimmed": false,
	"spriteSourceSize": {"x":0,"y":0,"w":525,"h":181},
	"sourceSize": {"w":525,"h":181},
	"pivot": {"x":0.5,"y":0.5}
},
{
	"filename": "countdown0113.png",
	"frame": {"x":529,"y":185,"w":525,"h":181},
	"rotated": false,
	"trimmed": false,
	"spriteSourceSize": {"x":0,"y":0,"w":525,"h":181},
	"sourceSize": {"w":525,"h":181},
	"pivot": {"x":0.5,"y":0.5}
},
{
	"filename": "countdown0114.png",
	"frame": {"x":529,"y":185,"w":525,"h":181},
	"rotated": false,
	"trimmed": false,
	"spriteSourceSize": {"x":0,"y":0,"w":525,"h":181},
	"sourceSize": {"w":525,"h":181},
	"pivot": {"x":0.5,"y":0.5}
},
{
	"filename": "countdown0115.png",
	"frame": {"x":529,"y":185,"w":525,"h":181},
	"rotated": false,
	"trimmed": false,
	"spriteSourceSize": {"x":0,"y":0,"w":525,"h":181},
	"sourceSize": {"w":525,"h":181},
	"pivot": {"x":0.5,"y":0.5}
},
{
	"filename": "countdown0116.png",
	"frame": {"x":529,"y":185,"w":525,"h":181},
	"rotated": false,
	"trimmed": false,
	"spriteSourceSize": {"x":0,"y":0,"w":525,"h":181},
	"sourceSize": {"w":525,"h":181},
	"pivot": {"x":0.5,"y":0.5}
},
{
	"filename": "countdown0117.png",
	"frame": {"x":529,"y":185,"w":525,"h":181},
	"rotated": false,
	"trimmed": false,
	"spriteSourceSize": {"x":0,"y":0,"w":525,"h":181},
	"sourceSize": {"w":525,"h":181},
	"pivot": {"x":0.5,"y":0.5}
},
{
	"filename": "countdown0118.png",
	"frame": {"x":529,"y":185,"w":525,"h":181},
	"rotated": false,
	"trimmed": false,
	"spriteSourceSize": {"x":0,"y":0,"w":525,"h":181},
	"sourceSize": {"w":525,"h":181},
	"pivot": {"x":0.5,"y":0.5}
},
{
	"filename": "countdown0119.png",
	"frame": {"x":529,"y":185,"w":525,"h":181},
	"rotated": false,
	"trimmed": false,
	"spriteSourceSize": {"x":0,"y":0,"w":525,"h":181},
	"sourceSize": {"w":525,"h":181},
	"pivot": {"x":0.5,"y":0.5}
},
{
	"filename": "countdown0120.png",
	"frame": {"x":529,"y":185,"w":525,"h":181},
	"rotated": false,
	"trimmed": false,
	"spriteSourceSize": {"x":0,"y":0,"w":525,"h":181},
	"sourceSize": {"w":525,"h":181},
	"pivot": {"x":0.5,"y":0.5}
},
{
	"filename": "countdown0121.png",
	"frame": {"x":529,"y":185,"w":525,"h":181},
	"rotated": false,
	"trimmed": false,
	"spriteSourceSize": {"x":0,"y":0,"w":525,"h":181},
	"sourceSize": {"w":525,"h":181},
	"pivot": {"x":0.5,"y":0.5}
},
{
	"filename": "countdown0122.png",
	"frame": {"x":529,"y":185,"w":525,"h":181},
	"rotated": false,
	"trimmed": false,
	"spriteSourceSize": {"x":0,"y":0,"w":525,"h":181},
	"sourceSize": {"w":525,"h":181},
	"pivot": {"x":0.5,"y":0.5}
},
{
	"filename": "countdown0123.png",
	"frame": {"x":529,"y":185,"w":525,"h":181},
	"rotated": false,
	"trimmed": false,
	"spriteSourceSize": {"x":0,"y":0,"w":525,"h":181},
	"sourceSize": {"w":525,"h":181},
	"pivot": {"x":0.5,"y":0.5}
},
{
	"filename": "countdown0124.png",
	"frame": {"x":529,"y":185,"w":525,"h":181},
	"rotated": false,
	"trimmed": false,
	"spriteSourceSize": {"x":0,"y":0,"w":525,"h":181},
	"sourceSize": {"w":525,"h":181},
	"pivot": {"x":0.5,"y":0.5}
},
{
	"filename": "countdown0125.png",
	"frame": {"x":529,"y":185,"w":525,"h":181},
	"rotated": false,
	"trimmed": false,
	"spriteSourceSize": {"x":0,"y":0,"w":525,"h":181},
	"sourceSize": {"w":525,"h":181},
	"pivot": {"x":0.5,"y":0.5}
},
{
	"filename": "countdown0126.png",
	"frame": {"x":529,"y":185,"w":525,"h":181},
	"rotated": false,
	"trimmed": false,
	"spriteSourceSize": {"x":0,"y":0,"w":525,"h":181},
	"sourceSize": {"w":525,"h":181},
	"pivot": {"x":0.5,"y":0.5}
},
{
	"filename": "countdown0127.png",
	"frame": {"x":529,"y":185,"w":525,"h":181},
	"rotated": false,
	"trimmed": false,
	"spriteSourceSize": {"x":0,"y":0,"w":525,"h":181},
	"sourceSize": {"w":525,"h":181},
	"pivot": {"x":0.5,"y":0.5}
},
{
	"filename": "countdown0128.png",
	"frame": {"x":529,"y":185,"w":525,"h":181},
	"rotated": false,
	"trimmed": false,
	"spriteSourceSize": {"x":0,"y":0,"w":525,"h":181},
	"sourceSize": {"w":525,"h":181},
	"pivot": {"x":0.5,"y":0.5}
},
{
	"filename": "countdown0129.png",
	"frame": {"x":529,"y":185,"w":525,"h":181},
	"rotated": false,
	"trimmed": false,
	"spriteSourceSize": {"x":0,"y":0,"w":525,"h":181},
	"sourceSize": {"w":525,"h":181},
	"pivot": {"x":0.5,"y":0.5}
},
{
	"filename": "countdown0130.png",
	"frame": {"x":529,"y":185,"w":525,"h":181},
	"rotated": false,
	"trimmed": false,
	"spriteSourceSize": {"x":0,"y":0,"w":525,"h":181},
	"sourceSize": {"w":525,"h":181},
	"pivot": {"x":0.5,"y":0.5}
},
{
	"filename": "countdown0131.png",
	"frame": {"x":529,"y":185,"w":525,"h":181},
	"rotated": false,
	"trimmed": false,
	"spriteSourceSize": {"x":0,"y":0,"w":525,"h":181},
	"sourceSize": {"w":525,"h":181},
	"pivot": {"x":0.5,"y":0.5}
},
{
	"filename": "countdown0132.png",
	"frame": {"x":529,"y":185,"w":525,"h":181},
	"rotated": false,
	"trimmed": false,
	"spriteSourceSize": {"x":0,"y":0,"w":525,"h":181},
	"sourceSize": {"w":525,"h":181},
	"pivot": {"x":0.5,"y":0.5}
}],
"meta": {
	"app": "http://www.codeandweb.com/texturepacker",
	"version": "1.0",
	"image": "countdown.png",
	"format": "RGBA8888",
	"size": {"w":1056,"h":368},
	"scale": "1",
	"smartupdate": "$TexturePacker:SmartUpdate:cea6908b44d5ea9af343ecc4a4f7bfd4:9727a3a8f5f5bc505111a27fd630f1a9:d7632b2ef722b276a9b266ab897c133e$"
}
}
