	{ 
		
		"playerPhysics": [
			
				{
					"density": 2, "friction": 0, "bounce": 0, 
					"filter": { "categoryBits": 1, "maskBits": 65535 },
					"shape": [   17, 161  ,  26, 143  ,  43, 157  ,  29, 173  ,  19, 174  ]
				}  ,
				{
					"density": 2, "friction": 0, "bounce": 0, 
					"filter": { "categoryBits": 1, "maskBits": 65535 },
					"shape": [   50, 158  ,  60, 159  ,  60, 162  ,  52, 164  ]
				}  ,
				{
					"density": 2, "friction": 0, "bounce": 0, 
					"filter": { "categoryBits": 1, "maskBits": 65535 },
					"shape": [   52, 7  ,  55, 11  ,  40, 17  ,  42, 9  ]
				}  ,
				{
					"density": 2, "friction": 0, "bounce": 0, 
					"filter": { "categoryBits": 1, "maskBits": 65535 },
					"shape": [   153, 134  ,  158, 67  ,  166, 82  ,  165, 125  ,  161, 133  ]
				}  ,
				{
					"density": 2, "friction": 0, "bounce": 0, 
					"filter": { "categoryBits": 1, "maskBits": 65535 },
					"shape": [   14, 125  ,  26, 143  ,  16, 138  ]
				}  ,
				{
					"density": 2, "friction": 0, "bounce": 0, 
					"filter": { "categoryBits": 1, "maskBits": 65535 },
					"shape": [   31, 36  ,  79, 15  ,  149, 48  ,  21, 54  ,  19, 45  ]
				}  ,
				{
					"density": 2, "friction": 0, "bounce": 0, 
					"filter": { "categoryBits": 1, "maskBits": 65535 },
					"shape": [   213, 72  ,  220, 82  ,  224, 98  ,  187, 127  ,  170, 123  ,  178, 84  ,  197, 69  ,  206, 67  ]
				}  ,
				{
					"density": 2, "friction": 0, "bounce": 0, 
					"filter": { "categoryBits": 1, "maskBits": 65535 },
					"shape": [   156, 176  ,  148, 171  ,  135, 151  ,  149, 139  ,  161, 152  ,  165, 174  ]
				}  ,
				{
					"density": 2, "friction": 0, "bounce": 0, 
					"filter": { "categoryBits": 1, "maskBits": 65535 },
					"shape": [   159, 52  ,  160, 63  ,  158, 67  ,  43, 157  ,  12, 83  ,  21, 54  ,  149, 48  ,  155, 48  ]
				}  ,
				{
					"density": 2, "friction": 0, "bounce": 0, 
					"filter": { "categoryBits": 1, "maskBits": 65535 },
					"shape": [   12, 83  ,  43, 157  ,  26, 143  ,  10, 101  ,  7, 90  ]
				}  ,
				{
					"density": 2, "friction": 0, "bounce": 0, 
					"filter": { "categoryBits": 1, "maskBits": 65535 },
					"shape": [   2, 118  ,  9, 111  ,  14, 125  ,  3, 123  ]
				}  ,
				{
					"density": 2, "friction": 0, "bounce": 0, 
					"filter": { "categoryBits": 1, "maskBits": 65535 },
					"shape": [   40, 17  ,  55, 11  ,  70, 11  ,  79, 15  ,  31, 36  ,  32, 25  ]
				}  ,
				{
					"density": 2, "friction": 0, "bounce": 0, 
					"filter": { "categoryBits": 1, "maskBits": 65535 },
					"shape": [   94, 161  ,  85, 162  ,  77, 159  ,  105, 155  ,  100, 160  ]
				}  ,
				{
					"density": 2, "friction": 0, "bounce": 0, 
					"filter": { "categoryBits": 1, "maskBits": 65535 },
					"shape": [   187, 127  ,  224, 98  ,  224, 113  ,  211, 138  ,  201, 139  ]
				}  ,
				{
					"density": 2, "friction": 0, "bounce": 0, 
					"filter": { "categoryBits": 1, "maskBits": 65535 },
					"shape": [   170, 123  ,  165, 125  ,  166, 82  ,  178, 84  ]
				}  ,
				{
					"density": 2, "friction": 0, "bounce": 0, 
					"filter": { "categoryBits": 1, "maskBits": 65535 },
					"shape": [   124, 11  ,  93, 8  ,  121, 4  ]
				}  ,
				{
					"density": 2, "friction": 0, "bounce": 0, 
					"filter": { "categoryBits": 1, "maskBits": 65535 },
					"shape": [   149, 48  ,  79, 15  ,  93, 8  ,  144, 33  ]
				}  ,
				{
					"density": 2, "friction": 0, "bounce": 0, 
					"filter": { "categoryBits": 1, "maskBits": 65535 },
					"shape": [   138, 30  ,  93, 8  ,  124, 11  ,  133, 19  ]
				}  ,
				{
					"density": 2, "friction": 0, "bounce": 0, 
					"filter": { "categoryBits": 1, "maskBits": 65535 },
					"shape": [   10, 59  ,  21, 54  ,  12, 83  ,  8, 77  ,  7, 63  ]
				}  ,
				{
					"density": 2, "friction": 0, "bounce": 0, 
					"filter": { "categoryBits": 1, "maskBits": 65535 },
					"shape": [   10, 101  ,  26, 143  ,  14, 125  ,  9, 111  ]
				}  ,
				{
					"density": 2, "friction": 0, "bounce": 0, 
					"filter": { "categoryBits": 1, "maskBits": 65535 },
					"shape": [   105, 155  ,  149, 139  ,  135, 151  ,  125, 155  ]
				}  ,
				{
					"density": 2, "friction": 0, "bounce": 0, 
					"filter": { "categoryBits": 1, "maskBits": 65535 },
					"shape": [   153, 134  ,  150, 137  ,  50, 158  ,  43, 157  ,  158, 67  ]
				}  ,
				{
					"density": 2, "friction": 0, "bounce": 0, 
					"filter": { "categoryBits": 1, "maskBits": 65535 },
					"shape": [   77, 159  ,  60, 159  ,  50, 158  ,  150, 137  ,  149, 139  ,  105, 155  ]
				}  
		]
		
	}