{"frames": [

{
	"filename": "a0001.png",
	"frame": {"x":2,"y":2,"w":309,"h":210},
	"rotated": false,
	"trimmed": false,
	"spriteSourceSize": {"x":0,"y":0,"w":309,"h":210},
	"sourceSize": {"w":309,"h":210},
	"pivot": {"x":0.5,"y":0.5}
},
{
	"filename": "a0002.png",
	"frame": {"x":313,"y":2,"w":309,"h":210},
	"rotated": false,
	"trimmed": false,
	"spriteSourceSize": {"x":0,"y":0,"w":309,"h":210},
	"sourceSize": {"w":309,"h":210},
	"pivot": {"x":0.5,"y":0.5}
},
{
	"filename": "a0003.png",
	"frame": {"x":624,"y":2,"w":309,"h":210},
	"rotated": false,
	"trimmed": false,
	"spriteSourceSize": {"x":0,"y":0,"w":309,"h":210},
	"sourceSize": {"w":309,"h":210},
	"pivot": {"x":0.5,"y":0.5}
},
{
	"filename": "a0004.png",
	"frame": {"x":935,"y":2,"w":309,"h":210},
	"rotated": false,
	"trimmed": false,
	"spriteSourceSize": {"x":0,"y":0,"w":309,"h":210},
	"sourceSize": {"w":309,"h":210},
	"pivot": {"x":0.5,"y":0.5}
},
{
	"filename": "a0005.png",
	"frame": {"x":1246,"y":2,"w":309,"h":210},
	"rotated": false,
	"trimmed": false,
	"spriteSourceSize": {"x":0,"y":0,"w":309,"h":210},
	"sourceSize": {"w":309,"h":210},
	"pivot": {"x":0.5,"y":0.5}
},
{
	"filename": "a0006.png",
	"frame": {"x":2,"y":214,"w":309,"h":210},
	"rotated": false,
	"trimmed": false,
	"spriteSourceSize": {"x":0,"y":0,"w":309,"h":210},
	"sourceSize": {"w":309,"h":210},
	"pivot": {"x":0.5,"y":0.5}
},
{
	"filename": "a0007.png",
	"frame": {"x":313,"y":214,"w":309,"h":210},
	"rotated": false,
	"trimmed": false,
	"spriteSourceSize": {"x":0,"y":0,"w":309,"h":210},
	"sourceSize": {"w":309,"h":210},
	"pivot": {"x":0.5,"y":0.5}
},
{
	"filename": "a0008.png",
	"frame": {"x":624,"y":214,"w":309,"h":210},
	"rotated": false,
	"trimmed": false,
	"spriteSourceSize": {"x":0,"y":0,"w":309,"h":210},
	"sourceSize": {"w":309,"h":210},
	"pivot": {"x":0.5,"y":0.5}
},
{
	"filename": "a0009.png",
	"frame": {"x":935,"y":214,"w":309,"h":210},
	"rotated": false,
	"trimmed": false,
	"spriteSourceSize": {"x":0,"y":0,"w":309,"h":210},
	"sourceSize": {"w":309,"h":210},
	"pivot": {"x":0.5,"y":0.5}
},
{
	"filename": "a0010.png",
	"frame": {"x":1246,"y":214,"w":309,"h":210},
	"rotated": false,
	"trimmed": false,
	"spriteSourceSize": {"x":0,"y":0,"w":309,"h":210},
	"sourceSize": {"w":309,"h":210},
	"pivot": {"x":0.5,"y":0.5}
},
{
	"filename": "a0011.png",
	"frame": {"x":2,"y":426,"w":309,"h":210},
	"rotated": false,
	"trimmed": false,
	"spriteSourceSize": {"x":0,"y":0,"w":309,"h":210},
	"sourceSize": {"w":309,"h":210},
	"pivot": {"x":0.5,"y":0.5}
},
{
	"filename": "a0012.png",
	"frame": {"x":313,"y":426,"w":309,"h":210},
	"rotated": false,
	"trimmed": false,
	"spriteSourceSize": {"x":0,"y":0,"w":309,"h":210},
	"sourceSize": {"w":309,"h":210},
	"pivot": {"x":0.5,"y":0.5}
},
{
	"filename": "a0013.png",
	"frame": {"x":624,"y":426,"w":309,"h":210},
	"rotated": false,
	"trimmed": false,
	"spriteSourceSize": {"x":0,"y":0,"w":309,"h":210},
	"sourceSize": {"w":309,"h":210},
	"pivot": {"x":0.5,"y":0.5}
},
{
	"filename": "a0014.png",
	"frame": {"x":935,"y":426,"w":309,"h":210},
	"rotated": false,
	"trimmed": false,
	"spriteSourceSize": {"x":0,"y":0,"w":309,"h":210},
	"sourceSize": {"w":309,"h":210},
	"pivot": {"x":0.5,"y":0.5}
},
{
	"filename": "a0015.png",
	"frame": {"x":935,"y":426,"w":309,"h":210},
	"rotated": false,
	"trimmed": false,
	"spriteSourceSize": {"x":0,"y":0,"w":309,"h":210},
	"sourceSize": {"w":309,"h":210},
	"pivot": {"x":0.5,"y":0.5}
},
{
	"filename": "a0016.png",
	"frame": {"x":1246,"y":426,"w":309,"h":210},
	"rotated": false,
	"trimmed": false,
	"spriteSourceSize": {"x":0,"y":0,"w":309,"h":210},
	"sourceSize": {"w":309,"h":210},
	"pivot": {"x":0.5,"y":0.5}
},
{
	"filename": "a0017.png",
	"frame": {"x":2,"y":638,"w":309,"h":210},
	"rotated": false,
	"trimmed": false,
	"spriteSourceSize": {"x":0,"y":0,"w":309,"h":210},
	"sourceSize": {"w":309,"h":210},
	"pivot": {"x":0.5,"y":0.5}
},
{
	"filename": "a0018.png",
	"frame": {"x":313,"y":638,"w":309,"h":210},
	"rotated": false,
	"trimmed": false,
	"spriteSourceSize": {"x":0,"y":0,"w":309,"h":210},
	"sourceSize": {"w":309,"h":210},
	"pivot": {"x":0.5,"y":0.5}
},
{
	"filename": "a0019.png",
	"frame": {"x":624,"y":638,"w":309,"h":210},
	"rotated": false,
	"trimmed": false,
	"spriteSourceSize": {"x":0,"y":0,"w":309,"h":210},
	"sourceSize": {"w":309,"h":210},
	"pivot": {"x":0.5,"y":0.5}
},
{
	"filename": "a0020.png",
	"frame": {"x":935,"y":638,"w":309,"h":210},
	"rotated": false,
	"trimmed": false,
	"spriteSourceSize": {"x":0,"y":0,"w":309,"h":210},
	"sourceSize": {"w":309,"h":210},
	"pivot": {"x":0.5,"y":0.5}
},
{
	"filename": "a0021.png",
	"frame": {"x":935,"y":638,"w":309,"h":210},
	"rotated": false,
	"trimmed": false,
	"spriteSourceSize": {"x":0,"y":0,"w":309,"h":210},
	"sourceSize": {"w":309,"h":210},
	"pivot": {"x":0.5,"y":0.5}
}],
"meta": {
	"app": "http://www.codeandweb.com/texturepacker",
	"version": "1.0",
	"image": "fail1.png",
	"format": "RGBA8888",
	"size": {"w":1557,"h":850},
	"scale": "1",
	"smartupdate": "$TexturePacker:SmartUpdate:cea5306f421a261b1005409b68456188:931d54cef8c31610485c22cd9f44ad9a:eb488305e8982518e7ce64bddc745237$"
}
}
