{"frames": [

{
	"filename": "repair0001.png",
	"frame": {"x":2,"y":2,"w":389,"h":871},
	"rotated": false,
	"trimmed": false,
	"spriteSourceSize": {"x":0,"y":0,"w":389,"h":871},
	"sourceSize": {"w":389,"h":871},
	"pivot": {"x":0.5,"y":0.5}
},
{
	"filename": "repair0002.png",
	"frame": {"x":393,"y":2,"w":389,"h":871},
	"rotated": false,
	"trimmed": false,
	"spriteSourceSize": {"x":0,"y":0,"w":389,"h":871},
	"sourceSize": {"w":389,"h":871},
	"pivot": {"x":0.5,"y":0.5}
},
{
	"filename": "repair0003.png",
	"frame": {"x":784,"y":2,"w":389,"h":871},
	"rotated": false,
	"trimmed": false,
	"spriteSourceSize": {"x":0,"y":0,"w":389,"h":871},
	"sourceSize": {"w":389,"h":871},
	"pivot": {"x":0.5,"y":0.5}
},
{
	"filename": "repair0004.png",
	"frame": {"x":1175,"y":2,"w":389,"h":871},
	"rotated": false,
	"trimmed": false,
	"spriteSourceSize": {"x":0,"y":0,"w":389,"h":871},
	"sourceSize": {"w":389,"h":871},
	"pivot": {"x":0.5,"y":0.5}
},
{
	"filename": "repair0005.png",
	"frame": {"x":1566,"y":2,"w":389,"h":871},
	"rotated": false,
	"trimmed": false,
	"spriteSourceSize": {"x":0,"y":0,"w":389,"h":871},
	"sourceSize": {"w":389,"h":871},
	"pivot": {"x":0.5,"y":0.5}
},
{
	"filename": "repair0006.png",
	"frame": {"x":1957,"y":2,"w":389,"h":871},
	"rotated": false,
	"trimmed": false,
	"spriteSourceSize": {"x":0,"y":0,"w":389,"h":871},
	"sourceSize": {"w":389,"h":871},
	"pivot": {"x":0.5,"y":0.5}
},
{
	"filename": "repair0007.png",
	"frame": {"x":2348,"y":2,"w":389,"h":871},
	"rotated": false,
	"trimmed": false,
	"spriteSourceSize": {"x":0,"y":0,"w":389,"h":871},
	"sourceSize": {"w":389,"h":871},
	"pivot": {"x":0.5,"y":0.5}
},
{
	"filename": "repair0008.png",
	"frame": {"x":2739,"y":2,"w":389,"h":871},
	"rotated": false,
	"trimmed": false,
	"spriteSourceSize": {"x":0,"y":0,"w":389,"h":871},
	"sourceSize": {"w":389,"h":871},
	"pivot": {"x":0.5,"y":0.5}
},
{
	"filename": "repair0009.png",
	"frame": {"x":3130,"y":2,"w":389,"h":871},
	"rotated": false,
	"trimmed": false,
	"spriteSourceSize": {"x":0,"y":0,"w":389,"h":871},
	"sourceSize": {"w":389,"h":871},
	"pivot": {"x":0.5,"y":0.5}
},
{
	"filename": "repair0010.png",
	"frame": {"x":3521,"y":2,"w":389,"h":871},
	"rotated": false,
	"trimmed": false,
	"spriteSourceSize": {"x":0,"y":0,"w":389,"h":871},
	"sourceSize": {"w":389,"h":871},
	"pivot": {"x":0.5,"y":0.5}
},
{
	"filename": "repair0011.png",
	"frame": {"x":3912,"y":2,"w":389,"h":871},
	"rotated": false,
	"trimmed": false,
	"spriteSourceSize": {"x":0,"y":0,"w":389,"h":871},
	"sourceSize": {"w":389,"h":871},
	"pivot": {"x":0.5,"y":0.5}
},
{
	"filename": "repair0012.png",
	"frame": {"x":4303,"y":2,"w":389,"h":871},
	"rotated": false,
	"trimmed": false,
	"spriteSourceSize": {"x":0,"y":0,"w":389,"h":871},
	"sourceSize": {"w":389,"h":871},
	"pivot": {"x":0.5,"y":0.5}
},
{
	"filename": "repair0013.png",
	"frame": {"x":4694,"y":2,"w":389,"h":871},
	"rotated": false,
	"trimmed": false,
	"spriteSourceSize": {"x":0,"y":0,"w":389,"h":871},
	"sourceSize": {"w":389,"h":871},
	"pivot": {"x":0.5,"y":0.5}
},
{
	"filename": "repair0014.png",
	"frame": {"x":5085,"y":2,"w":389,"h":871},
	"rotated": false,
	"trimmed": false,
	"spriteSourceSize": {"x":0,"y":0,"w":389,"h":871},
	"sourceSize": {"w":389,"h":871},
	"pivot": {"x":0.5,"y":0.5}
},
{
	"filename": "repair0015.png",
	"frame": {"x":5476,"y":2,"w":389,"h":871},
	"rotated": false,
	"trimmed": false,
	"spriteSourceSize": {"x":0,"y":0,"w":389,"h":871},
	"sourceSize": {"w":389,"h":871},
	"pivot": {"x":0.5,"y":0.5}
},
{
	"filename": "repair0016.png",
	"frame": {"x":5867,"y":2,"w":389,"h":871},
	"rotated": false,
	"trimmed": false,
	"spriteSourceSize": {"x":0,"y":0,"w":389,"h":871},
	"sourceSize": {"w":389,"h":871},
	"pivot": {"x":0.5,"y":0.5}
},
{
	"filename": "repair0017.png",
	"frame": {"x":6258,"y":2,"w":389,"h":871},
	"rotated": false,
	"trimmed": false,
	"spriteSourceSize": {"x":0,"y":0,"w":389,"h":871},
	"sourceSize": {"w":389,"h":871},
	"pivot": {"x":0.5,"y":0.5}
},
{
	"filename": "repair0018.png",
	"frame": {"x":6649,"y":2,"w":389,"h":871},
	"rotated": false,
	"trimmed": false,
	"spriteSourceSize": {"x":0,"y":0,"w":389,"h":871},
	"sourceSize": {"w":389,"h":871},
	"pivot": {"x":0.5,"y":0.5}
},
{
	"filename": "repair0019.png",
	"frame": {"x":2,"y":875,"w":389,"h":871},
	"rotated": false,
	"trimmed": false,
	"spriteSourceSize": {"x":0,"y":0,"w":389,"h":871},
	"sourceSize": {"w":389,"h":871},
	"pivot": {"x":0.5,"y":0.5}
},
{
	"filename": "repair0020.png",
	"frame": {"x":393,"y":875,"w":389,"h":871},
	"rotated": false,
	"trimmed": false,
	"spriteSourceSize": {"x":0,"y":0,"w":389,"h":871},
	"sourceSize": {"w":389,"h":871},
	"pivot": {"x":0.5,"y":0.5}
},
{
	"filename": "repair0021.png",
	"frame": {"x":784,"y":875,"w":389,"h":871},
	"rotated": false,
	"trimmed": false,
	"spriteSourceSize": {"x":0,"y":0,"w":389,"h":871},
	"sourceSize": {"w":389,"h":871},
	"pivot": {"x":0.5,"y":0.5}
},
{
	"filename": "repair0022.png",
	"frame": {"x":1175,"y":875,"w":389,"h":871},
	"rotated": false,
	"trimmed": false,
	"spriteSourceSize": {"x":0,"y":0,"w":389,"h":871},
	"sourceSize": {"w":389,"h":871},
	"pivot": {"x":0.5,"y":0.5}
},
{
	"filename": "repair0023.png",
	"frame": {"x":1566,"y":875,"w":389,"h":871},
	"rotated": false,
	"trimmed": false,
	"spriteSourceSize": {"x":0,"y":0,"w":389,"h":871},
	"sourceSize": {"w":389,"h":871},
	"pivot": {"x":0.5,"y":0.5}
},
{
	"filename": "repair0024.png",
	"frame": {"x":1957,"y":875,"w":389,"h":871},
	"rotated": false,
	"trimmed": false,
	"spriteSourceSize": {"x":0,"y":0,"w":389,"h":871},
	"sourceSize": {"w":389,"h":871},
	"pivot": {"x":0.5,"y":0.5}
},
{
	"filename": "repair0025.png",
	"frame": {"x":2348,"y":875,"w":389,"h":871},
	"rotated": false,
	"trimmed": false,
	"spriteSourceSize": {"x":0,"y":0,"w":389,"h":871},
	"sourceSize": {"w":389,"h":871},
	"pivot": {"x":0.5,"y":0.5}
},
{
	"filename": "repair0026.png",
	"frame": {"x":2739,"y":875,"w":389,"h":871},
	"rotated": false,
	"trimmed": false,
	"spriteSourceSize": {"x":0,"y":0,"w":389,"h":871},
	"sourceSize": {"w":389,"h":871},
	"pivot": {"x":0.5,"y":0.5}
},
{
	"filename": "repair0027.png",
	"frame": {"x":3130,"y":875,"w":389,"h":871},
	"rotated": false,
	"trimmed": false,
	"spriteSourceSize": {"x":0,"y":0,"w":389,"h":871},
	"sourceSize": {"w":389,"h":871},
	"pivot": {"x":0.5,"y":0.5}
},
{
	"filename": "repair0028.png",
	"frame": {"x":3521,"y":875,"w":389,"h":871},
	"rotated": false,
	"trimmed": false,
	"spriteSourceSize": {"x":0,"y":0,"w":389,"h":871},
	"sourceSize": {"w":389,"h":871},
	"pivot": {"x":0.5,"y":0.5}
},
{
	"filename": "repair0029.png",
	"frame": {"x":3521,"y":875,"w":389,"h":871},
	"rotated": false,
	"trimmed": false,
	"spriteSourceSize": {"x":0,"y":0,"w":389,"h":871},
	"sourceSize": {"w":389,"h":871},
	"pivot": {"x":0.5,"y":0.5}
},
{
	"filename": "repair0030.png",
	"frame": {"x":3521,"y":875,"w":389,"h":871},
	"rotated": false,
	"trimmed": false,
	"spriteSourceSize": {"x":0,"y":0,"w":389,"h":871},
	"sourceSize": {"w":389,"h":871},
	"pivot": {"x":0.5,"y":0.5}
},
{
	"filename": "repair0031.png",
	"frame": {"x":3521,"y":875,"w":389,"h":871},
	"rotated": false,
	"trimmed": false,
	"spriteSourceSize": {"x":0,"y":0,"w":389,"h":871},
	"sourceSize": {"w":389,"h":871},
	"pivot": {"x":0.5,"y":0.5}
},
{
	"filename": "repair0032.png",
	"frame": {"x":3521,"y":875,"w":389,"h":871},
	"rotated": false,
	"trimmed": false,
	"spriteSourceSize": {"x":0,"y":0,"w":389,"h":871},
	"sourceSize": {"w":389,"h":871},
	"pivot": {"x":0.5,"y":0.5}
},
{
	"filename": "repair0033.png",
	"frame": {"x":3521,"y":875,"w":389,"h":871},
	"rotated": false,
	"trimmed": false,
	"spriteSourceSize": {"x":0,"y":0,"w":389,"h":871},
	"sourceSize": {"w":389,"h":871},
	"pivot": {"x":0.5,"y":0.5}
},
{
	"filename": "repair0034.png",
	"frame": {"x":3521,"y":875,"w":389,"h":871},
	"rotated": false,
	"trimmed": false,
	"spriteSourceSize": {"x":0,"y":0,"w":389,"h":871},
	"sourceSize": {"w":389,"h":871},
	"pivot": {"x":0.5,"y":0.5}
},
{
	"filename": "repair0035.png",
	"frame": {"x":3521,"y":875,"w":389,"h":871},
	"rotated": false,
	"trimmed": false,
	"spriteSourceSize": {"x":0,"y":0,"w":389,"h":871},
	"sourceSize": {"w":389,"h":871},
	"pivot": {"x":0.5,"y":0.5}
},
{
	"filename": "repair0036.png",
	"frame": {"x":3912,"y":875,"w":389,"h":871},
	"rotated": false,
	"trimmed": false,
	"spriteSourceSize": {"x":0,"y":0,"w":389,"h":871},
	"sourceSize": {"w":389,"h":871},
	"pivot": {"x":0.5,"y":0.5}
},
{
	"filename": "repair0037.png",
	"frame": {"x":4303,"y":875,"w":389,"h":871},
	"rotated": false,
	"trimmed": false,
	"spriteSourceSize": {"x":0,"y":0,"w":389,"h":871},
	"sourceSize": {"w":389,"h":871},
	"pivot": {"x":0.5,"y":0.5}
},
{
	"filename": "repair0038.png",
	"frame": {"x":4694,"y":875,"w":389,"h":871},
	"rotated": false,
	"trimmed": false,
	"spriteSourceSize": {"x":0,"y":0,"w":389,"h":871},
	"sourceSize": {"w":389,"h":871},
	"pivot": {"x":0.5,"y":0.5}
},
{
	"filename": "repair0039.png",
	"frame": {"x":5085,"y":875,"w":389,"h":871},
	"rotated": false,
	"trimmed": false,
	"spriteSourceSize": {"x":0,"y":0,"w":389,"h":871},
	"sourceSize": {"w":389,"h":871},
	"pivot": {"x":0.5,"y":0.5}
},
{
	"filename": "repair0040.png",
	"frame": {"x":5476,"y":875,"w":389,"h":871},
	"rotated": false,
	"trimmed": false,
	"spriteSourceSize": {"x":0,"y":0,"w":389,"h":871},
	"sourceSize": {"w":389,"h":871},
	"pivot": {"x":0.5,"y":0.5}
},
{
	"filename": "repair0041.png",
	"frame": {"x":5867,"y":875,"w":389,"h":871},
	"rotated": false,
	"trimmed": false,
	"spriteSourceSize": {"x":0,"y":0,"w":389,"h":871},
	"sourceSize": {"w":389,"h":871},
	"pivot": {"x":0.5,"y":0.5}
},
{
	"filename": "repair0042.png",
	"frame": {"x":6258,"y":875,"w":389,"h":871},
	"rotated": false,
	"trimmed": false,
	"spriteSourceSize": {"x":0,"y":0,"w":389,"h":871},
	"sourceSize": {"w":389,"h":871},
	"pivot": {"x":0.5,"y":0.5}
},
{
	"filename": "repair0043.png",
	"frame": {"x":6649,"y":875,"w":389,"h":871},
	"rotated": false,
	"trimmed": false,
	"spriteSourceSize": {"x":0,"y":0,"w":389,"h":871},
	"sourceSize": {"w":389,"h":871},
	"pivot": {"x":0.5,"y":0.5}
},
{
	"filename": "repair0044.png",
	"frame": {"x":2,"y":1748,"w":389,"h":871},
	"rotated": false,
	"trimmed": false,
	"spriteSourceSize": {"x":0,"y":0,"w":389,"h":871},
	"sourceSize": {"w":389,"h":871},
	"pivot": {"x":0.5,"y":0.5}
},
{
	"filename": "repair0045.png",
	"frame": {"x":393,"y":1748,"w":389,"h":871},
	"rotated": false,
	"trimmed": false,
	"spriteSourceSize": {"x":0,"y":0,"w":389,"h":871},
	"sourceSize": {"w":389,"h":871},
	"pivot": {"x":0.5,"y":0.5}
},
{
	"filename": "repair0046.png",
	"frame": {"x":784,"y":1748,"w":389,"h":871},
	"rotated": false,
	"trimmed": false,
	"spriteSourceSize": {"x":0,"y":0,"w":389,"h":871},
	"sourceSize": {"w":389,"h":871},
	"pivot": {"x":0.5,"y":0.5}
},
{
	"filename": "repair0047.png",
	"frame": {"x":1175,"y":1748,"w":389,"h":871},
	"rotated": false,
	"trimmed": false,
	"spriteSourceSize": {"x":0,"y":0,"w":389,"h":871},
	"sourceSize": {"w":389,"h":871},
	"pivot": {"x":0.5,"y":0.5}
},
{
	"filename": "repair0048.png",
	"frame": {"x":1566,"y":1748,"w":389,"h":871},
	"rotated": false,
	"trimmed": false,
	"spriteSourceSize": {"x":0,"y":0,"w":389,"h":871},
	"sourceSize": {"w":389,"h":871},
	"pivot": {"x":0.5,"y":0.5}
},
{
	"filename": "repair0049.png",
	"frame": {"x":1957,"y":1748,"w":389,"h":871},
	"rotated": false,
	"trimmed": false,
	"spriteSourceSize": {"x":0,"y":0,"w":389,"h":871},
	"sourceSize": {"w":389,"h":871},
	"pivot": {"x":0.5,"y":0.5}
},
{
	"filename": "repair0050.png",
	"frame": {"x":2348,"y":1748,"w":389,"h":871},
	"rotated": false,
	"trimmed": false,
	"spriteSourceSize": {"x":0,"y":0,"w":389,"h":871},
	"sourceSize": {"w":389,"h":871},
	"pivot": {"x":0.5,"y":0.5}
},
{
	"filename": "repair0051.png",
	"frame": {"x":2739,"y":1748,"w":389,"h":871},
	"rotated": false,
	"trimmed": false,
	"spriteSourceSize": {"x":0,"y":0,"w":389,"h":871},
	"sourceSize": {"w":389,"h":871},
	"pivot": {"x":0.5,"y":0.5}
},
{
	"filename": "repair0052.png",
	"frame": {"x":3130,"y":1748,"w":389,"h":871},
	"rotated": false,
	"trimmed": false,
	"spriteSourceSize": {"x":0,"y":0,"w":389,"h":871},
	"sourceSize": {"w":389,"h":871},
	"pivot": {"x":0.5,"y":0.5}
},
{
	"filename": "repair0053.png",
	"frame": {"x":3521,"y":1748,"w":389,"h":871},
	"rotated": false,
	"trimmed": false,
	"spriteSourceSize": {"x":0,"y":0,"w":389,"h":871},
	"sourceSize": {"w":389,"h":871},
	"pivot": {"x":0.5,"y":0.5}
},
{
	"filename": "repair0054.png",
	"frame": {"x":3912,"y":1748,"w":389,"h":871},
	"rotated": false,
	"trimmed": false,
	"spriteSourceSize": {"x":0,"y":0,"w":389,"h":871},
	"sourceSize": {"w":389,"h":871},
	"pivot": {"x":0.5,"y":0.5}
},
{
	"filename": "repair0055.png",
	"frame": {"x":4303,"y":1748,"w":389,"h":871},
	"rotated": false,
	"trimmed": false,
	"spriteSourceSize": {"x":0,"y":0,"w":389,"h":871},
	"sourceSize": {"w":389,"h":871},
	"pivot": {"x":0.5,"y":0.5}
},
{
	"filename": "repair0056.png",
	"frame": {"x":4694,"y":1748,"w":389,"h":871},
	"rotated": false,
	"trimmed": false,
	"spriteSourceSize": {"x":0,"y":0,"w":389,"h":871},
	"sourceSize": {"w":389,"h":871},
	"pivot": {"x":0.5,"y":0.5}
},
{
	"filename": "repair0057.png",
	"frame": {"x":4694,"y":1748,"w":389,"h":871},
	"rotated": false,
	"trimmed": false,
	"spriteSourceSize": {"x":0,"y":0,"w":389,"h":871},
	"sourceSize": {"w":389,"h":871},
	"pivot": {"x":0.5,"y":0.5}
},
{
	"filename": "repair0058.png",
	"frame": {"x":4694,"y":1748,"w":389,"h":871},
	"rotated": false,
	"trimmed": false,
	"spriteSourceSize": {"x":0,"y":0,"w":389,"h":871},
	"sourceSize": {"w":389,"h":871},
	"pivot": {"x":0.5,"y":0.5}
},
{
	"filename": "repair0059.png",
	"frame": {"x":4694,"y":1748,"w":389,"h":871},
	"rotated": false,
	"trimmed": false,
	"spriteSourceSize": {"x":0,"y":0,"w":389,"h":871},
	"sourceSize": {"w":389,"h":871},
	"pivot": {"x":0.5,"y":0.5}
},
{
	"filename": "repair0060.png",
	"frame": {"x":4694,"y":1748,"w":389,"h":871},
	"rotated": false,
	"trimmed": false,
	"spriteSourceSize": {"x":0,"y":0,"w":389,"h":871},
	"sourceSize": {"w":389,"h":871},
	"pivot": {"x":0.5,"y":0.5}
},
{
	"filename": "repair0061.png",
	"frame": {"x":4694,"y":1748,"w":389,"h":871},
	"rotated": false,
	"trimmed": false,
	"spriteSourceSize": {"x":0,"y":0,"w":389,"h":871},
	"sourceSize": {"w":389,"h":871},
	"pivot": {"x":0.5,"y":0.5}
},
{
	"filename": "repair0062.png",
	"frame": {"x":4694,"y":1748,"w":389,"h":871},
	"rotated": false,
	"trimmed": false,
	"spriteSourceSize": {"x":0,"y":0,"w":389,"h":871},
	"sourceSize": {"w":389,"h":871},
	"pivot": {"x":0.5,"y":0.5}
},
{
	"filename": "repair0063.png",
	"frame": {"x":4694,"y":1748,"w":389,"h":871},
	"rotated": false,
	"trimmed": false,
	"spriteSourceSize": {"x":0,"y":0,"w":389,"h":871},
	"sourceSize": {"w":389,"h":871},
	"pivot": {"x":0.5,"y":0.5}
},
{
	"filename": "repair0064.png",
	"frame": {"x":4694,"y":1748,"w":389,"h":871},
	"rotated": false,
	"trimmed": false,
	"spriteSourceSize": {"x":0,"y":0,"w":389,"h":871},
	"sourceSize": {"w":389,"h":871},
	"pivot": {"x":0.5,"y":0.5}
},
{
	"filename": "repair0065.png",
	"frame": {"x":4694,"y":1748,"w":389,"h":871},
	"rotated": false,
	"trimmed": false,
	"spriteSourceSize": {"x":0,"y":0,"w":389,"h":871},
	"sourceSize": {"w":389,"h":871},
	"pivot": {"x":0.5,"y":0.5}
},
{
	"filename": "repair0066.png",
	"frame": {"x":5085,"y":1748,"w":389,"h":871},
	"rotated": false,
	"trimmed": false,
	"spriteSourceSize": {"x":0,"y":0,"w":389,"h":871},
	"sourceSize": {"w":389,"h":871},
	"pivot": {"x":0.5,"y":0.5}
},
{
	"filename": "repair0067.png",
	"frame": {"x":5476,"y":1748,"w":389,"h":871},
	"rotated": false,
	"trimmed": false,
	"spriteSourceSize": {"x":0,"y":0,"w":389,"h":871},
	"sourceSize": {"w":389,"h":871},
	"pivot": {"x":0.5,"y":0.5}
},
{
	"filename": "repair0068.png",
	"frame": {"x":5867,"y":1748,"w":389,"h":871},
	"rotated": false,
	"trimmed": false,
	"spriteSourceSize": {"x":0,"y":0,"w":389,"h":871},
	"sourceSize": {"w":389,"h":871},
	"pivot": {"x":0.5,"y":0.5}
},
{
	"filename": "repair0069.png",
	"frame": {"x":6258,"y":1748,"w":389,"h":871},
	"rotated": false,
	"trimmed": false,
	"spriteSourceSize": {"x":0,"y":0,"w":389,"h":871},
	"sourceSize": {"w":389,"h":871},
	"pivot": {"x":0.5,"y":0.5}
},
{
	"filename": "repair0070.png",
	"frame": {"x":6649,"y":1748,"w":389,"h":871},
	"rotated": false,
	"trimmed": false,
	"spriteSourceSize": {"x":0,"y":0,"w":389,"h":871},
	"sourceSize": {"w":389,"h":871},
	"pivot": {"x":0.5,"y":0.5}
},
{
	"filename": "repair0071.png",
	"frame": {"x":2,"y":2621,"w":389,"h":871},
	"rotated": false,
	"trimmed": false,
	"spriteSourceSize": {"x":0,"y":0,"w":389,"h":871},
	"sourceSize": {"w":389,"h":871},
	"pivot": {"x":0.5,"y":0.5}
},
{
	"filename": "repair0072.png",
	"frame": {"x":393,"y":2621,"w":389,"h":871},
	"rotated": false,
	"trimmed": false,
	"spriteSourceSize": {"x":0,"y":0,"w":389,"h":871},
	"sourceSize": {"w":389,"h":871},
	"pivot": {"x":0.5,"y":0.5}
},
{
	"filename": "repair0073.png",
	"frame": {"x":784,"y":2621,"w":389,"h":871},
	"rotated": false,
	"trimmed": false,
	"spriteSourceSize": {"x":0,"y":0,"w":389,"h":871},
	"sourceSize": {"w":389,"h":871},
	"pivot": {"x":0.5,"y":0.5}
},
{
	"filename": "repair0074.png",
	"frame": {"x":1175,"y":2621,"w":389,"h":871},
	"rotated": false,
	"trimmed": false,
	"spriteSourceSize": {"x":0,"y":0,"w":389,"h":871},
	"sourceSize": {"w":389,"h":871},
	"pivot": {"x":0.5,"y":0.5}
},
{
	"filename": "repair0075.png",
	"frame": {"x":1566,"y":2621,"w":389,"h":871},
	"rotated": false,
	"trimmed": false,
	"spriteSourceSize": {"x":0,"y":0,"w":389,"h":871},
	"sourceSize": {"w":389,"h":871},
	"pivot": {"x":0.5,"y":0.5}
},
{
	"filename": "repair0076.png",
	"frame": {"x":1957,"y":2621,"w":389,"h":871},
	"rotated": false,
	"trimmed": false,
	"spriteSourceSize": {"x":0,"y":0,"w":389,"h":871},
	"sourceSize": {"w":389,"h":871},
	"pivot": {"x":0.5,"y":0.5}
},
{
	"filename": "repair0077.png",
	"frame": {"x":2348,"y":2621,"w":389,"h":871},
	"rotated": false,
	"trimmed": false,
	"spriteSourceSize": {"x":0,"y":0,"w":389,"h":871},
	"sourceSize": {"w":389,"h":871},
	"pivot": {"x":0.5,"y":0.5}
},
{
	"filename": "repair0078.png",
	"frame": {"x":2739,"y":2621,"w":389,"h":871},
	"rotated": false,
	"trimmed": false,
	"spriteSourceSize": {"x":0,"y":0,"w":389,"h":871},
	"sourceSize": {"w":389,"h":871},
	"pivot": {"x":0.5,"y":0.5}
},
{
	"filename": "repair0079.png",
	"frame": {"x":3130,"y":2621,"w":389,"h":871},
	"rotated": false,
	"trimmed": false,
	"spriteSourceSize": {"x":0,"y":0,"w":389,"h":871},
	"sourceSize": {"w":389,"h":871},
	"pivot": {"x":0.5,"y":0.5}
},
{
	"filename": "repair0080.png",
	"frame": {"x":3521,"y":2621,"w":389,"h":871},
	"rotated": false,
	"trimmed": false,
	"spriteSourceSize": {"x":0,"y":0,"w":389,"h":871},
	"sourceSize": {"w":389,"h":871},
	"pivot": {"x":0.5,"y":0.5}
},
{
	"filename": "repair0081.png",
	"frame": {"x":3912,"y":2621,"w":389,"h":871},
	"rotated": false,
	"trimmed": false,
	"spriteSourceSize": {"x":0,"y":0,"w":389,"h":871},
	"sourceSize": {"w":389,"h":871},
	"pivot": {"x":0.5,"y":0.5}
},
{
	"filename": "repair0082.png",
	"frame": {"x":4303,"y":2621,"w":389,"h":871},
	"rotated": false,
	"trimmed": false,
	"spriteSourceSize": {"x":0,"y":0,"w":389,"h":871},
	"sourceSize": {"w":389,"h":871},
	"pivot": {"x":0.5,"y":0.5}
},
{
	"filename": "repair0083.png",
	"frame": {"x":4694,"y":2621,"w":389,"h":871},
	"rotated": false,
	"trimmed": false,
	"spriteSourceSize": {"x":0,"y":0,"w":389,"h":871},
	"sourceSize": {"w":389,"h":871},
	"pivot": {"x":0.5,"y":0.5}
},
{
	"filename": "repair0084.png",
	"frame": {"x":5085,"y":2621,"w":389,"h":871},
	"rotated": false,
	"trimmed": false,
	"spriteSourceSize": {"x":0,"y":0,"w":389,"h":871},
	"sourceSize": {"w":389,"h":871},
	"pivot": {"x":0.5,"y":0.5}
},
{
	"filename": "repair0085.png",
	"frame": {"x":5476,"y":2621,"w":389,"h":871},
	"rotated": false,
	"trimmed": false,
	"spriteSourceSize": {"x":0,"y":0,"w":389,"h":871},
	"sourceSize": {"w":389,"h":871},
	"pivot": {"x":0.5,"y":0.5}
},
{
	"filename": "repair0086.png",
	"frame": {"x":5867,"y":2621,"w":389,"h":871},
	"rotated": false,
	"trimmed": false,
	"spriteSourceSize": {"x":0,"y":0,"w":389,"h":871},
	"sourceSize": {"w":389,"h":871},
	"pivot": {"x":0.5,"y":0.5}
},
{
	"filename": "repair0087.png",
	"frame": {"x":5867,"y":2621,"w":389,"h":871},
	"rotated": false,
	"trimmed": false,
	"spriteSourceSize": {"x":0,"y":0,"w":389,"h":871},
	"sourceSize": {"w":389,"h":871},
	"pivot": {"x":0.5,"y":0.5}
},
{
	"filename": "repair0088.png",
	"frame": {"x":5867,"y":2621,"w":389,"h":871},
	"rotated": false,
	"trimmed": false,
	"spriteSourceSize": {"x":0,"y":0,"w":389,"h":871},
	"sourceSize": {"w":389,"h":871},
	"pivot": {"x":0.5,"y":0.5}
},
{
	"filename": "repair0089.png",
	"frame": {"x":5867,"y":2621,"w":389,"h":871},
	"rotated": false,
	"trimmed": false,
	"spriteSourceSize": {"x":0,"y":0,"w":389,"h":871},
	"sourceSize": {"w":389,"h":871},
	"pivot": {"x":0.5,"y":0.5}
},
{
	"filename": "repair0090.png",
	"frame": {"x":5867,"y":2621,"w":389,"h":871},
	"rotated": false,
	"trimmed": false,
	"spriteSourceSize": {"x":0,"y":0,"w":389,"h":871},
	"sourceSize": {"w":389,"h":871},
	"pivot": {"x":0.5,"y":0.5}
},
{
	"filename": "repair0091.png",
	"frame": {"x":5867,"y":2621,"w":389,"h":871},
	"rotated": false,
	"trimmed": false,
	"spriteSourceSize": {"x":0,"y":0,"w":389,"h":871},
	"sourceSize": {"w":389,"h":871},
	"pivot": {"x":0.5,"y":0.5}
},
{
	"filename": "repair0092.png",
	"frame": {"x":5867,"y":2621,"w":389,"h":871},
	"rotated": false,
	"trimmed": false,
	"spriteSourceSize": {"x":0,"y":0,"w":389,"h":871},
	"sourceSize": {"w":389,"h":871},
	"pivot": {"x":0.5,"y":0.5}
},
{
	"filename": "repair0093.png",
	"frame": {"x":5867,"y":2621,"w":389,"h":871},
	"rotated": false,
	"trimmed": false,
	"spriteSourceSize": {"x":0,"y":0,"w":389,"h":871},
	"sourceSize": {"w":389,"h":871},
	"pivot": {"x":0.5,"y":0.5}
},
{
	"filename": "repair0094.png",
	"frame": {"x":5867,"y":2621,"w":389,"h":871},
	"rotated": false,
	"trimmed": false,
	"spriteSourceSize": {"x":0,"y":0,"w":389,"h":871},
	"sourceSize": {"w":389,"h":871},
	"pivot": {"x":0.5,"y":0.5}
},
{
	"filename": "repair0095.png",
	"frame": {"x":5867,"y":2621,"w":389,"h":871},
	"rotated": false,
	"trimmed": false,
	"spriteSourceSize": {"x":0,"y":0,"w":389,"h":871},
	"sourceSize": {"w":389,"h":871},
	"pivot": {"x":0.5,"y":0.5}
},
{
	"filename": "repair0096.png",
	"frame": {"x":6258,"y":2621,"w":389,"h":871},
	"rotated": false,
	"trimmed": false,
	"spriteSourceSize": {"x":0,"y":0,"w":389,"h":871},
	"sourceSize": {"w":389,"h":871},
	"pivot": {"x":0.5,"y":0.5}
},
{
	"filename": "repair0097.png",
	"frame": {"x":6649,"y":2621,"w":389,"h":871},
	"rotated": false,
	"trimmed": false,
	"spriteSourceSize": {"x":0,"y":0,"w":389,"h":871},
	"sourceSize": {"w":389,"h":871},
	"pivot": {"x":0.5,"y":0.5}
},
{
	"filename": "repair0098.png",
	"frame": {"x":2,"y":3494,"w":389,"h":871},
	"rotated": false,
	"trimmed": false,
	"spriteSourceSize": {"x":0,"y":0,"w":389,"h":871},
	"sourceSize": {"w":389,"h":871},
	"pivot": {"x":0.5,"y":0.5}
},
{
	"filename": "repair0099.png",
	"frame": {"x":393,"y":3494,"w":389,"h":871},
	"rotated": false,
	"trimmed": false,
	"spriteSourceSize": {"x":0,"y":0,"w":389,"h":871},
	"sourceSize": {"w":389,"h":871},
	"pivot": {"x":0.5,"y":0.5}
},
{
	"filename": "repair0100.png",
	"frame": {"x":784,"y":3494,"w":389,"h":871},
	"rotated": false,
	"trimmed": false,
	"spriteSourceSize": {"x":0,"y":0,"w":389,"h":871},
	"sourceSize": {"w":389,"h":871},
	"pivot": {"x":0.5,"y":0.5}
},
{
	"filename": "repair0101.png",
	"frame": {"x":1175,"y":3494,"w":389,"h":871},
	"rotated": false,
	"trimmed": false,
	"spriteSourceSize": {"x":0,"y":0,"w":389,"h":871},
	"sourceSize": {"w":389,"h":871},
	"pivot": {"x":0.5,"y":0.5}
},
{
	"filename": "repair0102.png",
	"frame": {"x":1566,"y":3494,"w":389,"h":871},
	"rotated": false,
	"trimmed": false,
	"spriteSourceSize": {"x":0,"y":0,"w":389,"h":871},
	"sourceSize": {"w":389,"h":871},
	"pivot": {"x":0.5,"y":0.5}
},
{
	"filename": "repair0103.png",
	"frame": {"x":1957,"y":3494,"w":389,"h":871},
	"rotated": false,
	"trimmed": false,
	"spriteSourceSize": {"x":0,"y":0,"w":389,"h":871},
	"sourceSize": {"w":389,"h":871},
	"pivot": {"x":0.5,"y":0.5}
},
{
	"filename": "repair0104.png",
	"frame": {"x":2348,"y":3494,"w":389,"h":871},
	"rotated": false,
	"trimmed": false,
	"spriteSourceSize": {"x":0,"y":0,"w":389,"h":871},
	"sourceSize": {"w":389,"h":871},
	"pivot": {"x":0.5,"y":0.5}
},
{
	"filename": "repair0105.png",
	"frame": {"x":2739,"y":3494,"w":389,"h":871},
	"rotated": false,
	"trimmed": false,
	"spriteSourceSize": {"x":0,"y":0,"w":389,"h":871},
	"sourceSize": {"w":389,"h":871},
	"pivot": {"x":0.5,"y":0.5}
},
{
	"filename": "repair0106.png",
	"frame": {"x":3130,"y":3494,"w":389,"h":871},
	"rotated": false,
	"trimmed": false,
	"spriteSourceSize": {"x":0,"y":0,"w":389,"h":871},
	"sourceSize": {"w":389,"h":871},
	"pivot": {"x":0.5,"y":0.5}
},
{
	"filename": "repair0107.png",
	"frame": {"x":3521,"y":3494,"w":389,"h":871},
	"rotated": false,
	"trimmed": false,
	"spriteSourceSize": {"x":0,"y":0,"w":389,"h":871},
	"sourceSize": {"w":389,"h":871},
	"pivot": {"x":0.5,"y":0.5}
},
{
	"filename": "repair0108.png",
	"frame": {"x":3912,"y":3494,"w":389,"h":871},
	"rotated": false,
	"trimmed": false,
	"spriteSourceSize": {"x":0,"y":0,"w":389,"h":871},
	"sourceSize": {"w":389,"h":871},
	"pivot": {"x":0.5,"y":0.5}
},
{
	"filename": "repair0109.png",
	"frame": {"x":4303,"y":3494,"w":389,"h":871},
	"rotated": false,
	"trimmed": false,
	"spriteSourceSize": {"x":0,"y":0,"w":389,"h":871},
	"sourceSize": {"w":389,"h":871},
	"pivot": {"x":0.5,"y":0.5}
},
{
	"filename": "repair0110.png",
	"frame": {"x":4694,"y":3494,"w":389,"h":871},
	"rotated": false,
	"trimmed": false,
	"spriteSourceSize": {"x":0,"y":0,"w":389,"h":871},
	"sourceSize": {"w":389,"h":871},
	"pivot": {"x":0.5,"y":0.5}
},
{
	"filename": "repair0111.png",
	"frame": {"x":5085,"y":3494,"w":389,"h":871},
	"rotated": false,
	"trimmed": false,
	"spriteSourceSize": {"x":0,"y":0,"w":389,"h":871},
	"sourceSize": {"w":389,"h":871},
	"pivot": {"x":0.5,"y":0.5}
},
{
	"filename": "repair0112.png",
	"frame": {"x":5476,"y":3494,"w":389,"h":871},
	"rotated": false,
	"trimmed": false,
	"spriteSourceSize": {"x":0,"y":0,"w":389,"h":871},
	"sourceSize": {"w":389,"h":871},
	"pivot": {"x":0.5,"y":0.5}
},
{
	"filename": "repair0113.png",
	"frame": {"x":5867,"y":3494,"w":389,"h":871},
	"rotated": false,
	"trimmed": false,
	"spriteSourceSize": {"x":0,"y":0,"w":389,"h":871},
	"sourceSize": {"w":389,"h":871},
	"pivot": {"x":0.5,"y":0.5}
},
{
	"filename": "repair0114.png",
	"frame": {"x":5867,"y":3494,"w":389,"h":871},
	"rotated": false,
	"trimmed": false,
	"spriteSourceSize": {"x":0,"y":0,"w":389,"h":871},
	"sourceSize": {"w":389,"h":871},
	"pivot": {"x":0.5,"y":0.5}
},
{
	"filename": "repair0115.png",
	"frame": {"x":3130,"y":875,"w":389,"h":871},
	"rotated": false,
	"trimmed": false,
	"spriteSourceSize": {"x":0,"y":0,"w":389,"h":871},
	"sourceSize": {"w":389,"h":871},
	"pivot": {"x":0.5,"y":0.5}
},
{
	"filename": "repair0116.png",
	"frame": {"x":6258,"y":3494,"w":389,"h":871},
	"rotated": false,
	"trimmed": false,
	"spriteSourceSize": {"x":0,"y":0,"w":389,"h":871},
	"sourceSize": {"w":389,"h":871},
	"pivot": {"x":0.5,"y":0.5}
},
{
	"filename": "repair0117.png",
	"frame": {"x":6649,"y":3494,"w":389,"h":871},
	"rotated": false,
	"trimmed": false,
	"spriteSourceSize": {"x":0,"y":0,"w":389,"h":871},
	"sourceSize": {"w":389,"h":871},
	"pivot": {"x":0.5,"y":0.5}
},
{
	"filename": "repair0118.png",
	"frame": {"x":1957,"y":875,"w":389,"h":871},
	"rotated": false,
	"trimmed": false,
	"spriteSourceSize": {"x":0,"y":0,"w":389,"h":871},
	"sourceSize": {"w":389,"h":871},
	"pivot": {"x":0.5,"y":0.5}
},
{
	"filename": "repair0119.png",
	"frame": {"x":2,"y":4367,"w":389,"h":871},
	"rotated": false,
	"trimmed": false,
	"spriteSourceSize": {"x":0,"y":0,"w":389,"h":871},
	"sourceSize": {"w":389,"h":871},
	"pivot": {"x":0.5,"y":0.5}
},
{
	"filename": "repair0120.png",
	"frame": {"x":393,"y":4367,"w":389,"h":871},
	"rotated": false,
	"trimmed": false,
	"spriteSourceSize": {"x":0,"y":0,"w":389,"h":871},
	"sourceSize": {"w":389,"h":871},
	"pivot": {"x":0.5,"y":0.5}
},
{
	"filename": "repair0121.png",
	"frame": {"x":784,"y":4367,"w":389,"h":871},
	"rotated": false,
	"trimmed": false,
	"spriteSourceSize": {"x":0,"y":0,"w":389,"h":871},
	"sourceSize": {"w":389,"h":871},
	"pivot": {"x":0.5,"y":0.5}
},
{
	"filename": "repair0122.png",
	"frame": {"x":1175,"y":4367,"w":389,"h":871},
	"rotated": false,
	"trimmed": false,
	"spriteSourceSize": {"x":0,"y":0,"w":389,"h":871},
	"sourceSize": {"w":389,"h":871},
	"pivot": {"x":0.5,"y":0.5}
},
{
	"filename": "repair0123.png",
	"frame": {"x":1566,"y":4367,"w":389,"h":871},
	"rotated": false,
	"trimmed": false,
	"spriteSourceSize": {"x":0,"y":0,"w":389,"h":871},
	"sourceSize": {"w":389,"h":871},
	"pivot": {"x":0.5,"y":0.5}
},
{
	"filename": "repair0124.png",
	"frame": {"x":1957,"y":4367,"w":389,"h":871},
	"rotated": false,
	"trimmed": false,
	"spriteSourceSize": {"x":0,"y":0,"w":389,"h":871},
	"sourceSize": {"w":389,"h":871},
	"pivot": {"x":0.5,"y":0.5}
},
{
	"filename": "repair0125.png",
	"frame": {"x":2348,"y":4367,"w":389,"h":871},
	"rotated": false,
	"trimmed": false,
	"spriteSourceSize": {"x":0,"y":0,"w":389,"h":871},
	"sourceSize": {"w":389,"h":871},
	"pivot": {"x":0.5,"y":0.5}
},
{
	"filename": "repair0126.png",
	"frame": {"x":2739,"y":4367,"w":389,"h":871},
	"rotated": false,
	"trimmed": false,
	"spriteSourceSize": {"x":0,"y":0,"w":389,"h":871},
	"sourceSize": {"w":389,"h":871},
	"pivot": {"x":0.5,"y":0.5}
},
{
	"filename": "repair0127.png",
	"frame": {"x":3130,"y":4367,"w":389,"h":871},
	"rotated": false,
	"trimmed": false,
	"spriteSourceSize": {"x":0,"y":0,"w":389,"h":871},
	"sourceSize": {"w":389,"h":871},
	"pivot": {"x":0.5,"y":0.5}
},
{
	"filename": "repair0128.png",
	"frame": {"x":3521,"y":4367,"w":389,"h":871},
	"rotated": false,
	"trimmed": false,
	"spriteSourceSize": {"x":0,"y":0,"w":389,"h":871},
	"sourceSize": {"w":389,"h":871},
	"pivot": {"x":0.5,"y":0.5}
},
{
	"filename": "repair0129.png",
	"frame": {"x":3912,"y":4367,"w":389,"h":871},
	"rotated": false,
	"trimmed": false,
	"spriteSourceSize": {"x":0,"y":0,"w":389,"h":871},
	"sourceSize": {"w":389,"h":871},
	"pivot": {"x":0.5,"y":0.5}
},
{
	"filename": "repair0130.png",
	"frame": {"x":4303,"y":4367,"w":389,"h":871},
	"rotated": false,
	"trimmed": false,
	"spriteSourceSize": {"x":0,"y":0,"w":389,"h":871},
	"sourceSize": {"w":389,"h":871},
	"pivot": {"x":0.5,"y":0.5}
},
{
	"filename": "repair0131.png",
	"frame": {"x":4694,"y":4367,"w":389,"h":871},
	"rotated": false,
	"trimmed": false,
	"spriteSourceSize": {"x":0,"y":0,"w":389,"h":871},
	"sourceSize": {"w":389,"h":871},
	"pivot": {"x":0.5,"y":0.5}
},
{
	"filename": "repair0132.png",
	"frame": {"x":5085,"y":4367,"w":389,"h":871},
	"rotated": false,
	"trimmed": false,
	"spriteSourceSize": {"x":0,"y":0,"w":389,"h":871},
	"sourceSize": {"w":389,"h":871},
	"pivot": {"x":0.5,"y":0.5}
},
{
	"filename": "repair0133.png",
	"frame": {"x":5476,"y":4367,"w":389,"h":871},
	"rotated": false,
	"trimmed": false,
	"spriteSourceSize": {"x":0,"y":0,"w":389,"h":871},
	"sourceSize": {"w":389,"h":871},
	"pivot": {"x":0.5,"y":0.5}
}],
"meta": {
	"app": "http://www.codeandweb.com/texturepacker",
	"version": "1.0",
	"image": "repair.png",
	"format": "RGBA8888",
	"size": {"w":7040,"h":5240},
	"scale": "1",
	"smartupdate": "$TexturePacker:SmartUpdate:9e5f6afe8bc929c7be87903bba6d39c0:1d9cd5c35455c16daf2e3f53b4326cef:474b4c1a445d917817e7d90d76db5d44$"
}
}
