{"frames": [

{
	"filename": "bgObject20000",
	"frame": {"x":0,"y":0,"w":139,"h":203},
	"rotated": false,
	"trimmed": false,
	"spriteSourceSize": {"x":0,"y":0,"w":139,"h":203},
	"sourceSize": {"w":139,"h":203}
}
,{
	"filename": "bgObject20001",
	"frame": {"x":0,"y":203,"w":139,"h":203},
	"rotated": false,
	"trimmed": false,
	"spriteSourceSize": {"x":0,"y":0,"w":139,"h":203},
	"sourceSize": {"w":139,"h":203}
}],
"meta": {
	"app": "Adobe Flash CS6",
	"version": "12.0.0.481",
	"image": "hightlightBench2.png",
	"format": "RGBA8888",
	"size": {"w":256,"h":512},
	"scale": "1"
}
}
