{"frames": [

{
	"filename": "LetterBubbles0000",
	"frame": {"x":0,"y":0,"w":42,"h":43},
	"rotated": false,
	"trimmed": false,
	"spriteSourceSize": {"x":0,"y":0,"w":42,"h":43},
	"sourceSize": {"w":42,"h":43}
}
,{
	"filename": "LetterBubbles0001",
	"frame": {"x":42,"y":0,"w":42,"h":43},
	"rotated": false,
	"trimmed": false,
	"spriteSourceSize": {"x":0,"y":0,"w":42,"h":43},
	"sourceSize": {"w":42,"h":43}
}
,{
	"filename": "LetterBubbles0002",
	"frame": {"x":84,"y":0,"w":42,"h":43},
	"rotated": false,
	"trimmed": false,
	"spriteSourceSize": {"x":0,"y":0,"w":42,"h":43},
	"sourceSize": {"w":42,"h":43}
}
,{
	"filename": "LetterBubbles0003",
	"frame": {"x":0,"y":43,"w":42,"h":43},
	"rotated": false,
	"trimmed": false,
	"spriteSourceSize": {"x":0,"y":0,"w":42,"h":43},
	"sourceSize": {"w":42,"h":43}
}
,{
	"filename": "LetterBubbles0004",
	"frame": {"x":42,"y":43,"w":42,"h":43},
	"rotated": false,
	"trimmed": false,
	"spriteSourceSize": {"x":0,"y":0,"w":42,"h":43},
	"sourceSize": {"w":42,"h":43}
}],
"meta": {
	"app": "Adobe Flash CS6",
	"version": "12.0.0.481",
	"image": "letters.png",
	"format": "RGBA8888",
	"size": {"w":128,"h":128},
	"scale": "1"
}
}
