{"frames": [

{
	"filename": "HealthMeter0000",
	"frame": {"x":0,"y":0,"w":32,"h":26},
	"rotated": false,
	"trimmed": false,
	"spriteSourceSize": {"x":0,"y":0,"w":32,"h":26},
	"sourceSize": {"w":32,"h":26}
}
,{
	"filename": "HealthMeter0001",
	"frame": {"x":32,"y":0,"w":32,"h":26},
	"rotated": false,
	"trimmed": false,
	"spriteSourceSize": {"x":0,"y":0,"w":32,"h":26},
	"sourceSize": {"w":32,"h":26}
}
,{
	"filename": "HealthMeter0002",
	"frame": {"x":0,"y":26,"w":32,"h":26},
	"rotated": false,
	"trimmed": false,
	"spriteSourceSize": {"x":0,"y":0,"w":32,"h":26},
	"sourceSize": {"w":32,"h":26}
}
,{
	"filename": "HealthMeter0003",
	"frame": {"x":32,"y":26,"w":32,"h":26},
	"rotated": false,
	"trimmed": false,
	"spriteSourceSize": {"x":0,"y":0,"w":32,"h":26},
	"sourceSize": {"w":32,"h":26}
}],
"meta": {
	"app": "Adobe Flash CS6",
	"version": "12.0.0.481",
	"image": "life.png",
	"format": "RGBA8888",
	"size": {"w":64,"h":64},
	"scale": "1"
}
}
