{"frames": [

{
	"filename": "brad_ice0001.png",
	"frame": {"x":2,"y":2,"w":86,"h":163},
	"rotated": false,
	"trimmed": false,
	"spriteSourceSize": {"x":0,"y":0,"w":86,"h":163},
	"sourceSize": {"w":86,"h":163},
	"pivot": {"x":0.5,"y":0.5}
},
{
	"filename": "brad_ice0002.png",
	"frame": {"x":90,"y":2,"w":86,"h":163},
	"rotated": false,
	"trimmed": false,
	"spriteSourceSize": {"x":0,"y":0,"w":86,"h":163},
	"sourceSize": {"w":86,"h":163},
	"pivot": {"x":0.5,"y":0.5}
},
{
	"filename": "brad_ice0003.png",
	"frame": {"x":178,"y":2,"w":86,"h":163},
	"rotated": false,
	"trimmed": false,
	"spriteSourceSize": {"x":0,"y":0,"w":86,"h":163},
	"sourceSize": {"w":86,"h":163},
	"pivot": {"x":0.5,"y":0.5}
},
{
	"filename": "brad_ice0004.png",
	"frame": {"x":266,"y":2,"w":86,"h":163},
	"rotated": false,
	"trimmed": false,
	"spriteSourceSize": {"x":0,"y":0,"w":86,"h":163},
	"sourceSize": {"w":86,"h":163},
	"pivot": {"x":0.5,"y":0.5}
},
{
	"filename": "brad_ice0005.png",
	"frame": {"x":354,"y":2,"w":86,"h":163},
	"rotated": false,
	"trimmed": false,
	"spriteSourceSize": {"x":0,"y":0,"w":86,"h":163},
	"sourceSize": {"w":86,"h":163},
	"pivot": {"x":0.5,"y":0.5}
},
{
	"filename": "brad_ice0006.png",
	"frame": {"x":442,"y":2,"w":86,"h":163},
	"rotated": false,
	"trimmed": false,
	"spriteSourceSize": {"x":0,"y":0,"w":86,"h":163},
	"sourceSize": {"w":86,"h":163},
	"pivot": {"x":0.5,"y":0.5}
},
{
	"filename": "brad_ice0007.png",
	"frame": {"x":530,"y":2,"w":86,"h":163},
	"rotated": false,
	"trimmed": false,
	"spriteSourceSize": {"x":0,"y":0,"w":86,"h":163},
	"sourceSize": {"w":86,"h":163},
	"pivot": {"x":0.5,"y":0.5}
},
{
	"filename": "brad_ice0008.png",
	"frame": {"x":618,"y":2,"w":86,"h":163},
	"rotated": false,
	"trimmed": false,
	"spriteSourceSize": {"x":0,"y":0,"w":86,"h":163},
	"sourceSize": {"w":86,"h":163},
	"pivot": {"x":0.5,"y":0.5}
},
{
	"filename": "brad_ice0009.png",
	"frame": {"x":706,"y":2,"w":86,"h":163},
	"rotated": false,
	"trimmed": false,
	"spriteSourceSize": {"x":0,"y":0,"w":86,"h":163},
	"sourceSize": {"w":86,"h":163},
	"pivot": {"x":0.5,"y":0.5}
},
{
	"filename": "brad_ice0010.png",
	"frame": {"x":794,"y":2,"w":86,"h":163},
	"rotated": false,
	"trimmed": false,
	"spriteSourceSize": {"x":0,"y":0,"w":86,"h":163},
	"sourceSize": {"w":86,"h":163},
	"pivot": {"x":0.5,"y":0.5}
},
{
	"filename": "brad_ice0011.png",
	"frame": {"x":882,"y":2,"w":86,"h":163},
	"rotated": false,
	"trimmed": false,
	"spriteSourceSize": {"x":0,"y":0,"w":86,"h":163},
	"sourceSize": {"w":86,"h":163},
	"pivot": {"x":0.5,"y":0.5}
},
{
	"filename": "brad_ice0012.png",
	"frame": {"x":970,"y":2,"w":86,"h":163},
	"rotated": false,
	"trimmed": false,
	"spriteSourceSize": {"x":0,"y":0,"w":86,"h":163},
	"sourceSize": {"w":86,"h":163},
	"pivot": {"x":0.5,"y":0.5}
},
{
	"filename": "brad_ice0013.png",
	"frame": {"x":1058,"y":2,"w":86,"h":163},
	"rotated": false,
	"trimmed": false,
	"spriteSourceSize": {"x":0,"y":0,"w":86,"h":163},
	"sourceSize": {"w":86,"h":163},
	"pivot": {"x":0.5,"y":0.5}
},
{
	"filename": "brad_ice0014.png",
	"frame": {"x":1146,"y":2,"w":86,"h":163},
	"rotated": false,
	"trimmed": false,
	"spriteSourceSize": {"x":0,"y":0,"w":86,"h":163},
	"sourceSize": {"w":86,"h":163},
	"pivot": {"x":0.5,"y":0.5}
},
{
	"filename": "brad_ice0015.png",
	"frame": {"x":1234,"y":2,"w":86,"h":163},
	"rotated": false,
	"trimmed": false,
	"spriteSourceSize": {"x":0,"y":0,"w":86,"h":163},
	"sourceSize": {"w":86,"h":163},
	"pivot": {"x":0.5,"y":0.5}
},
{
	"filename": "brad_ice0016.png",
	"frame": {"x":1322,"y":2,"w":86,"h":163},
	"rotated": false,
	"trimmed": false,
	"spriteSourceSize": {"x":0,"y":0,"w":86,"h":163},
	"sourceSize": {"w":86,"h":163},
	"pivot": {"x":0.5,"y":0.5}
},
{
	"filename": "brad_ice0017.png",
	"frame": {"x":1410,"y":2,"w":86,"h":163},
	"rotated": false,
	"trimmed": false,
	"spriteSourceSize": {"x":0,"y":0,"w":86,"h":163},
	"sourceSize": {"w":86,"h":163},
	"pivot": {"x":0.5,"y":0.5}
},
{
	"filename": "brad_ice0018.png",
	"frame": {"x":1498,"y":2,"w":86,"h":163},
	"rotated": false,
	"trimmed": false,
	"spriteSourceSize": {"x":0,"y":0,"w":86,"h":163},
	"sourceSize": {"w":86,"h":163},
	"pivot": {"x":0.5,"y":0.5}
},
{
	"filename": "brad_ice0019.png",
	"frame": {"x":1586,"y":2,"w":86,"h":163},
	"rotated": false,
	"trimmed": false,
	"spriteSourceSize": {"x":0,"y":0,"w":86,"h":163},
	"sourceSize": {"w":86,"h":163},
	"pivot": {"x":0.5,"y":0.5}
}],
"meta": {
	"app": "http://www.codeandweb.com/texturepacker",
	"version": "1.0",
	"image": "brad_ice.png",
	"format": "RGBA8888",
	"size": {"w":1674,"h":167},
	"scale": "1",
	"smartupdate": "$TexturePacker:SmartUpdate:e373b56498a8757042f55bab95fc8991:de96a87ca5c9404e200208e79bf2c92e:7a9caa0ad762e505c2c4ac1540fb4457$"
}
}
