{"frames": [

{
	"filename": "brad_default0001.png",
	"frame": {"x":2,"y":2,"w":86,"h":163},
	"rotated": false,
	"trimmed": false,
	"spriteSourceSize": {"x":0,"y":0,"w":86,"h":163},
	"sourceSize": {"w":86,"h":163},
	"pivot": {"x":0.5,"y":0.5}
},
{
	"filename": "brad_default0002.png",
	"frame": {"x":2,"y":2,"w":86,"h":163},
	"rotated": false,
	"trimmed": false,
	"spriteSourceSize": {"x":0,"y":0,"w":86,"h":163},
	"sourceSize": {"w":86,"h":163},
	"pivot": {"x":0.5,"y":0.5}
},
{
	"filename": "brad_default0003.png",
	"frame": {"x":2,"y":2,"w":86,"h":163},
	"rotated": false,
	"trimmed": false,
	"spriteSourceSize": {"x":0,"y":0,"w":86,"h":163},
	"sourceSize": {"w":86,"h":163},
	"pivot": {"x":0.5,"y":0.5}
},
{
	"filename": "brad_default0004.png",
	"frame": {"x":2,"y":2,"w":86,"h":163},
	"rotated": false,
	"trimmed": false,
	"spriteSourceSize": {"x":0,"y":0,"w":86,"h":163},
	"sourceSize": {"w":86,"h":163},
	"pivot": {"x":0.5,"y":0.5}
},
{
	"filename": "brad_default0005.png",
	"frame": {"x":2,"y":2,"w":86,"h":163},
	"rotated": false,
	"trimmed": false,
	"spriteSourceSize": {"x":0,"y":0,"w":86,"h":163},
	"sourceSize": {"w":86,"h":163},
	"pivot": {"x":0.5,"y":0.5}
},
{
	"filename": "brad_default0006.png",
	"frame": {"x":2,"y":2,"w":86,"h":163},
	"rotated": false,
	"trimmed": false,
	"spriteSourceSize": {"x":0,"y":0,"w":86,"h":163},
	"sourceSize": {"w":86,"h":163},
	"pivot": {"x":0.5,"y":0.5}
},
{
	"filename": "brad_default0007.png",
	"frame": {"x":2,"y":2,"w":86,"h":163},
	"rotated": false,
	"trimmed": false,
	"spriteSourceSize": {"x":0,"y":0,"w":86,"h":163},
	"sourceSize": {"w":86,"h":163},
	"pivot": {"x":0.5,"y":0.5}
},
{
	"filename": "brad_default0008.png",
	"frame": {"x":2,"y":2,"w":86,"h":163},
	"rotated": false,
	"trimmed": false,
	"spriteSourceSize": {"x":0,"y":0,"w":86,"h":163},
	"sourceSize": {"w":86,"h":163},
	"pivot": {"x":0.5,"y":0.5}
},
{
	"filename": "brad_default0009.png",
	"frame": {"x":2,"y":2,"w":86,"h":163},
	"rotated": false,
	"trimmed": false,
	"spriteSourceSize": {"x":0,"y":0,"w":86,"h":163},
	"sourceSize": {"w":86,"h":163},
	"pivot": {"x":0.5,"y":0.5}
},
{
	"filename": "brad_default0010.png",
	"frame": {"x":2,"y":2,"w":86,"h":163},
	"rotated": false,
	"trimmed": false,
	"spriteSourceSize": {"x":0,"y":0,"w":86,"h":163},
	"sourceSize": {"w":86,"h":163},
	"pivot": {"x":0.5,"y":0.5}
},
{
	"filename": "brad_default0011.png",
	"frame": {"x":2,"y":2,"w":86,"h":163},
	"rotated": false,
	"trimmed": false,
	"spriteSourceSize": {"x":0,"y":0,"w":86,"h":163},
	"sourceSize": {"w":86,"h":163},
	"pivot": {"x":0.5,"y":0.5}
},
{
	"filename": "brad_default0012.png",
	"frame": {"x":2,"y":2,"w":86,"h":163},
	"rotated": false,
	"trimmed": false,
	"spriteSourceSize": {"x":0,"y":0,"w":86,"h":163},
	"sourceSize": {"w":86,"h":163},
	"pivot": {"x":0.5,"y":0.5}
},
{
	"filename": "brad_default0013.png",
	"frame": {"x":2,"y":2,"w":86,"h":163},
	"rotated": false,
	"trimmed": false,
	"spriteSourceSize": {"x":0,"y":0,"w":86,"h":163},
	"sourceSize": {"w":86,"h":163},
	"pivot": {"x":0.5,"y":0.5}
},
{
	"filename": "brad_default0014.png",
	"frame": {"x":2,"y":2,"w":86,"h":163},
	"rotated": false,
	"trimmed": false,
	"spriteSourceSize": {"x":0,"y":0,"w":86,"h":163},
	"sourceSize": {"w":86,"h":163},
	"pivot": {"x":0.5,"y":0.5}
},
{
	"filename": "brad_default0015.png",
	"frame": {"x":2,"y":2,"w":86,"h":163},
	"rotated": false,
	"trimmed": false,
	"spriteSourceSize": {"x":0,"y":0,"w":86,"h":163},
	"sourceSize": {"w":86,"h":163},
	"pivot": {"x":0.5,"y":0.5}
},
{
	"filename": "brad_default0016.png",
	"frame": {"x":2,"y":2,"w":86,"h":163},
	"rotated": false,
	"trimmed": false,
	"spriteSourceSize": {"x":0,"y":0,"w":86,"h":163},
	"sourceSize": {"w":86,"h":163},
	"pivot": {"x":0.5,"y":0.5}
},
{
	"filename": "brad_default0017.png",
	"frame": {"x":2,"y":2,"w":86,"h":163},
	"rotated": false,
	"trimmed": false,
	"spriteSourceSize": {"x":0,"y":0,"w":86,"h":163},
	"sourceSize": {"w":86,"h":163},
	"pivot": {"x":0.5,"y":0.5}
},
{
	"filename": "brad_default0018.png",
	"frame": {"x":2,"y":2,"w":86,"h":163},
	"rotated": false,
	"trimmed": false,
	"spriteSourceSize": {"x":0,"y":0,"w":86,"h":163},
	"sourceSize": {"w":86,"h":163},
	"pivot": {"x":0.5,"y":0.5}
},
{
	"filename": "brad_default0019.png",
	"frame": {"x":2,"y":2,"w":86,"h":163},
	"rotated": false,
	"trimmed": false,
	"spriteSourceSize": {"x":0,"y":0,"w":86,"h":163},
	"sourceSize": {"w":86,"h":163},
	"pivot": {"x":0.5,"y":0.5}
},
{
	"filename": "brad_default0020.png",
	"frame": {"x":2,"y":2,"w":86,"h":163},
	"rotated": false,
	"trimmed": false,
	"spriteSourceSize": {"x":0,"y":0,"w":86,"h":163},
	"sourceSize": {"w":86,"h":163},
	"pivot": {"x":0.5,"y":0.5}
},
{
	"filename": "brad_default0021.png",
	"frame": {"x":2,"y":2,"w":86,"h":163},
	"rotated": false,
	"trimmed": false,
	"spriteSourceSize": {"x":0,"y":0,"w":86,"h":163},
	"sourceSize": {"w":86,"h":163},
	"pivot": {"x":0.5,"y":0.5}
},
{
	"filename": "brad_default0022.png",
	"frame": {"x":2,"y":2,"w":86,"h":163},
	"rotated": false,
	"trimmed": false,
	"spriteSourceSize": {"x":0,"y":0,"w":86,"h":163},
	"sourceSize": {"w":86,"h":163},
	"pivot": {"x":0.5,"y":0.5}
},
{
	"filename": "brad_default0023.png",
	"frame": {"x":2,"y":2,"w":86,"h":163},
	"rotated": false,
	"trimmed": false,
	"spriteSourceSize": {"x":0,"y":0,"w":86,"h":163},
	"sourceSize": {"w":86,"h":163},
	"pivot": {"x":0.5,"y":0.5}
},
{
	"filename": "brad_default0024.png",
	"frame": {"x":2,"y":2,"w":86,"h":163},
	"rotated": false,
	"trimmed": false,
	"spriteSourceSize": {"x":0,"y":0,"w":86,"h":163},
	"sourceSize": {"w":86,"h":163},
	"pivot": {"x":0.5,"y":0.5}
},
{
	"filename": "brad_default0025.png",
	"frame": {"x":90,"y":2,"w":86,"h":163},
	"rotated": false,
	"trimmed": false,
	"spriteSourceSize": {"x":0,"y":0,"w":86,"h":163},
	"sourceSize": {"w":86,"h":163},
	"pivot": {"x":0.5,"y":0.5}
},
{
	"filename": "brad_default0026.png",
	"frame": {"x":178,"y":2,"w":86,"h":163},
	"rotated": false,
	"trimmed": false,
	"spriteSourceSize": {"x":0,"y":0,"w":86,"h":163},
	"sourceSize": {"w":86,"h":163},
	"pivot": {"x":0.5,"y":0.5}
},
{
	"filename": "brad_default0027.png",
	"frame": {"x":266,"y":2,"w":86,"h":163},
	"rotated": false,
	"trimmed": false,
	"spriteSourceSize": {"x":0,"y":0,"w":86,"h":163},
	"sourceSize": {"w":86,"h":163},
	"pivot": {"x":0.5,"y":0.5}
},
{
	"filename": "brad_default0028.png",
	"frame": {"x":354,"y":2,"w":86,"h":163},
	"rotated": false,
	"trimmed": false,
	"spriteSourceSize": {"x":0,"y":0,"w":86,"h":163},
	"sourceSize": {"w":86,"h":163},
	"pivot": {"x":0.5,"y":0.5}
},
{
	"filename": "brad_default0029.png",
	"frame": {"x":442,"y":2,"w":86,"h":163},
	"rotated": false,
	"trimmed": false,
	"spriteSourceSize": {"x":0,"y":0,"w":86,"h":163},
	"sourceSize": {"w":86,"h":163},
	"pivot": {"x":0.5,"y":0.5}
},
{
	"filename": "brad_default0030.png",
	"frame": {"x":530,"y":2,"w":86,"h":163},
	"rotated": false,
	"trimmed": false,
	"spriteSourceSize": {"x":0,"y":0,"w":86,"h":163},
	"sourceSize": {"w":86,"h":163},
	"pivot": {"x":0.5,"y":0.5}
},
{
	"filename": "brad_default0031.png",
	"frame": {"x":618,"y":2,"w":86,"h":163},
	"rotated": false,
	"trimmed": false,
	"spriteSourceSize": {"x":0,"y":0,"w":86,"h":163},
	"sourceSize": {"w":86,"h":163},
	"pivot": {"x":0.5,"y":0.5}
},
{
	"filename": "brad_default0032.png",
	"frame": {"x":706,"y":2,"w":86,"h":163},
	"rotated": false,
	"trimmed": false,
	"spriteSourceSize": {"x":0,"y":0,"w":86,"h":163},
	"sourceSize": {"w":86,"h":163},
	"pivot": {"x":0.5,"y":0.5}
},
{
	"filename": "brad_default0033.png",
	"frame": {"x":794,"y":2,"w":86,"h":163},
	"rotated": false,
	"trimmed": false,
	"spriteSourceSize": {"x":0,"y":0,"w":86,"h":163},
	"sourceSize": {"w":86,"h":163},
	"pivot": {"x":0.5,"y":0.5}
},
{
	"filename": "brad_default0034.png",
	"frame": {"x":882,"y":2,"w":86,"h":163},
	"rotated": false,
	"trimmed": false,
	"spriteSourceSize": {"x":0,"y":0,"w":86,"h":163},
	"sourceSize": {"w":86,"h":163},
	"pivot": {"x":0.5,"y":0.5}
},
{
	"filename": "brad_default0035.png",
	"frame": {"x":970,"y":2,"w":86,"h":163},
	"rotated": false,
	"trimmed": false,
	"spriteSourceSize": {"x":0,"y":0,"w":86,"h":163},
	"sourceSize": {"w":86,"h":163},
	"pivot": {"x":0.5,"y":0.5}
},
{
	"filename": "brad_default0036.png",
	"frame": {"x":1058,"y":2,"w":86,"h":163},
	"rotated": false,
	"trimmed": false,
	"spriteSourceSize": {"x":0,"y":0,"w":86,"h":163},
	"sourceSize": {"w":86,"h":163},
	"pivot": {"x":0.5,"y":0.5}
},
{
	"filename": "brad_default0037.png",
	"frame": {"x":1146,"y":2,"w":86,"h":163},
	"rotated": false,
	"trimmed": false,
	"spriteSourceSize": {"x":0,"y":0,"w":86,"h":163},
	"sourceSize": {"w":86,"h":163},
	"pivot": {"x":0.5,"y":0.5}
},
{
	"filename": "brad_default0038.png",
	"frame": {"x":1234,"y":2,"w":86,"h":163},
	"rotated": false,
	"trimmed": false,
	"spriteSourceSize": {"x":0,"y":0,"w":86,"h":163},
	"sourceSize": {"w":86,"h":163},
	"pivot": {"x":0.5,"y":0.5}
},
{
	"filename": "brad_default0039.png",
	"frame": {"x":1322,"y":2,"w":86,"h":163},
	"rotated": false,
	"trimmed": false,
	"spriteSourceSize": {"x":0,"y":0,"w":86,"h":163},
	"sourceSize": {"w":86,"h":163},
	"pivot": {"x":0.5,"y":0.5}
},
{
	"filename": "brad_default0040.png",
	"frame": {"x":1322,"y":2,"w":86,"h":163},
	"rotated": false,
	"trimmed": false,
	"spriteSourceSize": {"x":0,"y":0,"w":86,"h":163},
	"sourceSize": {"w":86,"h":163},
	"pivot": {"x":0.5,"y":0.5}
},
{
	"filename": "brad_default0041.png",
	"frame": {"x":1322,"y":2,"w":86,"h":163},
	"rotated": false,
	"trimmed": false,
	"spriteSourceSize": {"x":0,"y":0,"w":86,"h":163},
	"sourceSize": {"w":86,"h":163},
	"pivot": {"x":0.5,"y":0.5}
},
{
	"filename": "brad_default0042.png",
	"frame": {"x":1322,"y":2,"w":86,"h":163},
	"rotated": false,
	"trimmed": false,
	"spriteSourceSize": {"x":0,"y":0,"w":86,"h":163},
	"sourceSize": {"w":86,"h":163},
	"pivot": {"x":0.5,"y":0.5}
},
{
	"filename": "brad_default0043.png",
	"frame": {"x":1410,"y":2,"w":86,"h":163},
	"rotated": false,
	"trimmed": false,
	"spriteSourceSize": {"x":0,"y":0,"w":86,"h":163},
	"sourceSize": {"w":86,"h":163},
	"pivot": {"x":0.5,"y":0.5}
},
{
	"filename": "brad_default0044.png",
	"frame": {"x":1498,"y":2,"w":86,"h":163},
	"rotated": false,
	"trimmed": false,
	"spriteSourceSize": {"x":0,"y":0,"w":86,"h":163},
	"sourceSize": {"w":86,"h":163},
	"pivot": {"x":0.5,"y":0.5}
},
{
	"filename": "brad_default0045.png",
	"frame": {"x":1498,"y":2,"w":86,"h":163},
	"rotated": false,
	"trimmed": false,
	"spriteSourceSize": {"x":0,"y":0,"w":86,"h":163},
	"sourceSize": {"w":86,"h":163},
	"pivot": {"x":0.5,"y":0.5}
},
{
	"filename": "brad_default0046.png",
	"frame": {"x":1498,"y":2,"w":86,"h":163},
	"rotated": false,
	"trimmed": false,
	"spriteSourceSize": {"x":0,"y":0,"w":86,"h":163},
	"sourceSize": {"w":86,"h":163},
	"pivot": {"x":0.5,"y":0.5}
},
{
	"filename": "brad_default0047.png",
	"frame": {"x":1410,"y":2,"w":86,"h":163},
	"rotated": false,
	"trimmed": false,
	"spriteSourceSize": {"x":0,"y":0,"w":86,"h":163},
	"sourceSize": {"w":86,"h":163},
	"pivot": {"x":0.5,"y":0.5}
},
{
	"filename": "brad_default0048.png",
	"frame": {"x":1322,"y":2,"w":86,"h":163},
	"rotated": false,
	"trimmed": false,
	"spriteSourceSize": {"x":0,"y":0,"w":86,"h":163},
	"sourceSize": {"w":86,"h":163},
	"pivot": {"x":0.5,"y":0.5}
},
{
	"filename": "brad_default0049.png",
	"frame": {"x":1322,"y":2,"w":86,"h":163},
	"rotated": false,
	"trimmed": false,
	"spriteSourceSize": {"x":0,"y":0,"w":86,"h":163},
	"sourceSize": {"w":86,"h":163},
	"pivot": {"x":0.5,"y":0.5}
},
{
	"filename": "brad_default0050.png",
	"frame": {"x":1322,"y":2,"w":86,"h":163},
	"rotated": false,
	"trimmed": false,
	"spriteSourceSize": {"x":0,"y":0,"w":86,"h":163},
	"sourceSize": {"w":86,"h":163},
	"pivot": {"x":0.5,"y":0.5}
},
{
	"filename": "brad_default0051.png",
	"frame": {"x":1322,"y":2,"w":86,"h":163},
	"rotated": false,
	"trimmed": false,
	"spriteSourceSize": {"x":0,"y":0,"w":86,"h":163},
	"sourceSize": {"w":86,"h":163},
	"pivot": {"x":0.5,"y":0.5}
},
{
	"filename": "brad_default0052.png",
	"frame": {"x":1322,"y":2,"w":86,"h":163},
	"rotated": false,
	"trimmed": false,
	"spriteSourceSize": {"x":0,"y":0,"w":86,"h":163},
	"sourceSize": {"w":86,"h":163},
	"pivot": {"x":0.5,"y":0.5}
},
{
	"filename": "brad_default0053.png",
	"frame": {"x":1322,"y":2,"w":86,"h":163},
	"rotated": false,
	"trimmed": false,
	"spriteSourceSize": {"x":0,"y":0,"w":86,"h":163},
	"sourceSize": {"w":86,"h":163},
	"pivot": {"x":0.5,"y":0.5}
},
{
	"filename": "brad_default0054.png",
	"frame": {"x":1322,"y":2,"w":86,"h":163},
	"rotated": false,
	"trimmed": false,
	"spriteSourceSize": {"x":0,"y":0,"w":86,"h":163},
	"sourceSize": {"w":86,"h":163},
	"pivot": {"x":0.5,"y":0.5}
},
{
	"filename": "brad_default0055.png",
	"frame": {"x":1322,"y":2,"w":86,"h":163},
	"rotated": false,
	"trimmed": false,
	"spriteSourceSize": {"x":0,"y":0,"w":86,"h":163},
	"sourceSize": {"w":86,"h":163},
	"pivot": {"x":0.5,"y":0.5}
},
{
	"filename": "brad_default0056.png",
	"frame": {"x":1322,"y":2,"w":86,"h":163},
	"rotated": false,
	"trimmed": false,
	"spriteSourceSize": {"x":0,"y":0,"w":86,"h":163},
	"sourceSize": {"w":86,"h":163},
	"pivot": {"x":0.5,"y":0.5}
},
{
	"filename": "brad_default0057.png",
	"frame": {"x":1322,"y":2,"w":86,"h":163},
	"rotated": false,
	"trimmed": false,
	"spriteSourceSize": {"x":0,"y":0,"w":86,"h":163},
	"sourceSize": {"w":86,"h":163},
	"pivot": {"x":0.5,"y":0.5}
},
{
	"filename": "brad_default0058.png",
	"frame": {"x":1322,"y":2,"w":86,"h":163},
	"rotated": false,
	"trimmed": false,
	"spriteSourceSize": {"x":0,"y":0,"w":86,"h":163},
	"sourceSize": {"w":86,"h":163},
	"pivot": {"x":0.5,"y":0.5}
},
{
	"filename": "brad_default0059.png",
	"frame": {"x":1322,"y":2,"w":86,"h":163},
	"rotated": false,
	"trimmed": false,
	"spriteSourceSize": {"x":0,"y":0,"w":86,"h":163},
	"sourceSize": {"w":86,"h":163},
	"pivot": {"x":0.5,"y":0.5}
},
{
	"filename": "brad_default0060.png",
	"frame": {"x":1322,"y":2,"w":86,"h":163},
	"rotated": false,
	"trimmed": false,
	"spriteSourceSize": {"x":0,"y":0,"w":86,"h":163},
	"sourceSize": {"w":86,"h":163},
	"pivot": {"x":0.5,"y":0.5}
},
{
	"filename": "brad_default0061.png",
	"frame": {"x":1322,"y":2,"w":86,"h":163},
	"rotated": false,
	"trimmed": false,
	"spriteSourceSize": {"x":0,"y":0,"w":86,"h":163},
	"sourceSize": {"w":86,"h":163},
	"pivot": {"x":0.5,"y":0.5}
},
{
	"filename": "brad_default0062.png",
	"frame": {"x":1322,"y":2,"w":86,"h":163},
	"rotated": false,
	"trimmed": false,
	"spriteSourceSize": {"x":0,"y":0,"w":86,"h":163},
	"sourceSize": {"w":86,"h":163},
	"pivot": {"x":0.5,"y":0.5}
},
{
	"filename": "brad_default0063.png",
	"frame": {"x":1410,"y":2,"w":86,"h":163},
	"rotated": false,
	"trimmed": false,
	"spriteSourceSize": {"x":0,"y":0,"w":86,"h":163},
	"sourceSize": {"w":86,"h":163},
	"pivot": {"x":0.5,"y":0.5}
},
{
	"filename": "brad_default0064.png",
	"frame": {"x":1498,"y":2,"w":86,"h":163},
	"rotated": false,
	"trimmed": false,
	"spriteSourceSize": {"x":0,"y":0,"w":86,"h":163},
	"sourceSize": {"w":86,"h":163},
	"pivot": {"x":0.5,"y":0.5}
},
{
	"filename": "brad_default0065.png",
	"frame": {"x":1498,"y":2,"w":86,"h":163},
	"rotated": false,
	"trimmed": false,
	"spriteSourceSize": {"x":0,"y":0,"w":86,"h":163},
	"sourceSize": {"w":86,"h":163},
	"pivot": {"x":0.5,"y":0.5}
},
{
	"filename": "brad_default0066.png",
	"frame": {"x":1498,"y":2,"w":86,"h":163},
	"rotated": false,
	"trimmed": false,
	"spriteSourceSize": {"x":0,"y":0,"w":86,"h":163},
	"sourceSize": {"w":86,"h":163},
	"pivot": {"x":0.5,"y":0.5}
},
{
	"filename": "brad_default0067.png",
	"frame": {"x":1410,"y":2,"w":86,"h":163},
	"rotated": false,
	"trimmed": false,
	"spriteSourceSize": {"x":0,"y":0,"w":86,"h":163},
	"sourceSize": {"w":86,"h":163},
	"pivot": {"x":0.5,"y":0.5}
},
{
	"filename": "brad_default0068.png",
	"frame": {"x":1322,"y":2,"w":86,"h":163},
	"rotated": false,
	"trimmed": false,
	"spriteSourceSize": {"x":0,"y":0,"w":86,"h":163},
	"sourceSize": {"w":86,"h":163},
	"pivot": {"x":0.5,"y":0.5}
},
{
	"filename": "brad_default0069.png",
	"frame": {"x":1322,"y":2,"w":86,"h":163},
	"rotated": false,
	"trimmed": false,
	"spriteSourceSize": {"x":0,"y":0,"w":86,"h":163},
	"sourceSize": {"w":86,"h":163},
	"pivot": {"x":0.5,"y":0.5}
},
{
	"filename": "brad_default0070.png",
	"frame": {"x":1322,"y":2,"w":86,"h":163},
	"rotated": false,
	"trimmed": false,
	"spriteSourceSize": {"x":0,"y":0,"w":86,"h":163},
	"sourceSize": {"w":86,"h":163},
	"pivot": {"x":0.5,"y":0.5}
},
{
	"filename": "brad_default0071.png",
	"frame": {"x":1322,"y":2,"w":86,"h":163},
	"rotated": false,
	"trimmed": false,
	"spriteSourceSize": {"x":0,"y":0,"w":86,"h":163},
	"sourceSize": {"w":86,"h":163},
	"pivot": {"x":0.5,"y":0.5}
},
{
	"filename": "brad_default0072.png",
	"frame": {"x":1322,"y":2,"w":86,"h":163},
	"rotated": false,
	"trimmed": false,
	"spriteSourceSize": {"x":0,"y":0,"w":86,"h":163},
	"sourceSize": {"w":86,"h":163},
	"pivot": {"x":0.5,"y":0.5}
},
{
	"filename": "brad_default0073.png",
	"frame": {"x":1410,"y":2,"w":86,"h":163},
	"rotated": false,
	"trimmed": false,
	"spriteSourceSize": {"x":0,"y":0,"w":86,"h":163},
	"sourceSize": {"w":86,"h":163},
	"pivot": {"x":0.5,"y":0.5}
},
{
	"filename": "brad_default0074.png",
	"frame": {"x":1498,"y":2,"w":86,"h":163},
	"rotated": false,
	"trimmed": false,
	"spriteSourceSize": {"x":0,"y":0,"w":86,"h":163},
	"sourceSize": {"w":86,"h":163},
	"pivot": {"x":0.5,"y":0.5}
},
{
	"filename": "brad_default0075.png",
	"frame": {"x":1498,"y":2,"w":86,"h":163},
	"rotated": false,
	"trimmed": false,
	"spriteSourceSize": {"x":0,"y":0,"w":86,"h":163},
	"sourceSize": {"w":86,"h":163},
	"pivot": {"x":0.5,"y":0.5}
},
{
	"filename": "brad_default0076.png",
	"frame": {"x":1498,"y":2,"w":86,"h":163},
	"rotated": false,
	"trimmed": false,
	"spriteSourceSize": {"x":0,"y":0,"w":86,"h":163},
	"sourceSize": {"w":86,"h":163},
	"pivot": {"x":0.5,"y":0.5}
},
{
	"filename": "brad_default0077.png",
	"frame": {"x":1410,"y":2,"w":86,"h":163},
	"rotated": false,
	"trimmed": false,
	"spriteSourceSize": {"x":0,"y":0,"w":86,"h":163},
	"sourceSize": {"w":86,"h":163},
	"pivot": {"x":0.5,"y":0.5}
},
{
	"filename": "brad_default0078.png",
	"frame": {"x":1322,"y":2,"w":86,"h":163},
	"rotated": false,
	"trimmed": false,
	"spriteSourceSize": {"x":0,"y":0,"w":86,"h":163},
	"sourceSize": {"w":86,"h":163},
	"pivot": {"x":0.5,"y":0.5}
},
{
	"filename": "brad_default0079.png",
	"frame": {"x":1322,"y":2,"w":86,"h":163},
	"rotated": false,
	"trimmed": false,
	"spriteSourceSize": {"x":0,"y":0,"w":86,"h":163},
	"sourceSize": {"w":86,"h":163},
	"pivot": {"x":0.5,"y":0.5}
},
{
	"filename": "brad_default0080.png",
	"frame": {"x":1322,"y":2,"w":86,"h":163},
	"rotated": false,
	"trimmed": false,
	"spriteSourceSize": {"x":0,"y":0,"w":86,"h":163},
	"sourceSize": {"w":86,"h":163},
	"pivot": {"x":0.5,"y":0.5}
},
{
	"filename": "brad_default0081.png",
	"frame": {"x":1322,"y":2,"w":86,"h":163},
	"rotated": false,
	"trimmed": false,
	"spriteSourceSize": {"x":0,"y":0,"w":86,"h":163},
	"sourceSize": {"w":86,"h":163},
	"pivot": {"x":0.5,"y":0.5}
},
{
	"filename": "brad_default0082.png",
	"frame": {"x":1322,"y":2,"w":86,"h":163},
	"rotated": false,
	"trimmed": false,
	"spriteSourceSize": {"x":0,"y":0,"w":86,"h":163},
	"sourceSize": {"w":86,"h":163},
	"pivot": {"x":0.5,"y":0.5}
},
{
	"filename": "brad_default0083.png",
	"frame": {"x":1322,"y":2,"w":86,"h":163},
	"rotated": false,
	"trimmed": false,
	"spriteSourceSize": {"x":0,"y":0,"w":86,"h":163},
	"sourceSize": {"w":86,"h":163},
	"pivot": {"x":0.5,"y":0.5}
},
{
	"filename": "brad_default0084.png",
	"frame": {"x":1322,"y":2,"w":86,"h":163},
	"rotated": false,
	"trimmed": false,
	"spriteSourceSize": {"x":0,"y":0,"w":86,"h":163},
	"sourceSize": {"w":86,"h":163},
	"pivot": {"x":0.5,"y":0.5}
},
{
	"filename": "brad_default0085.png",
	"frame": {"x":1322,"y":2,"w":86,"h":163},
	"rotated": false,
	"trimmed": false,
	"spriteSourceSize": {"x":0,"y":0,"w":86,"h":163},
	"sourceSize": {"w":86,"h":163},
	"pivot": {"x":0.5,"y":0.5}
},
{
	"filename": "brad_default0086.png",
	"frame": {"x":1322,"y":2,"w":86,"h":163},
	"rotated": false,
	"trimmed": false,
	"spriteSourceSize": {"x":0,"y":0,"w":86,"h":163},
	"sourceSize": {"w":86,"h":163},
	"pivot": {"x":0.5,"y":0.5}
},
{
	"filename": "brad_default0087.png",
	"frame": {"x":1322,"y":2,"w":86,"h":163},
	"rotated": false,
	"trimmed": false,
	"spriteSourceSize": {"x":0,"y":0,"w":86,"h":163},
	"sourceSize": {"w":86,"h":163},
	"pivot": {"x":0.5,"y":0.5}
},
{
	"filename": "brad_default0088.png",
	"frame": {"x":1322,"y":2,"w":86,"h":163},
	"rotated": false,
	"trimmed": false,
	"spriteSourceSize": {"x":0,"y":0,"w":86,"h":163},
	"sourceSize": {"w":86,"h":163},
	"pivot": {"x":0.5,"y":0.5}
},
{
	"filename": "brad_default0089.png",
	"frame": {"x":1322,"y":2,"w":86,"h":163},
	"rotated": false,
	"trimmed": false,
	"spriteSourceSize": {"x":0,"y":0,"w":86,"h":163},
	"sourceSize": {"w":86,"h":163},
	"pivot": {"x":0.5,"y":0.5}
},
{
	"filename": "brad_default0090.png",
	"frame": {"x":1322,"y":2,"w":86,"h":163},
	"rotated": false,
	"trimmed": false,
	"spriteSourceSize": {"x":0,"y":0,"w":86,"h":163},
	"sourceSize": {"w":86,"h":163},
	"pivot": {"x":0.5,"y":0.5}
},
{
	"filename": "brad_default0091.png",
	"frame": {"x":1322,"y":2,"w":86,"h":163},
	"rotated": false,
	"trimmed": false,
	"spriteSourceSize": {"x":0,"y":0,"w":86,"h":163},
	"sourceSize": {"w":86,"h":163},
	"pivot": {"x":0.5,"y":0.5}
},
{
	"filename": "brad_default0092.png",
	"frame": {"x":1322,"y":2,"w":86,"h":163},
	"rotated": false,
	"trimmed": false,
	"spriteSourceSize": {"x":0,"y":0,"w":86,"h":163},
	"sourceSize": {"w":86,"h":163},
	"pivot": {"x":0.5,"y":0.5}
},
{
	"filename": "brad_default0093.png",
	"frame": {"x":1322,"y":2,"w":86,"h":163},
	"rotated": false,
	"trimmed": false,
	"spriteSourceSize": {"x":0,"y":0,"w":86,"h":163},
	"sourceSize": {"w":86,"h":163},
	"pivot": {"x":0.5,"y":0.5}
},
{
	"filename": "brad_default0094.png",
	"frame": {"x":1322,"y":2,"w":86,"h":163},
	"rotated": false,
	"trimmed": false,
	"spriteSourceSize": {"x":0,"y":0,"w":86,"h":163},
	"sourceSize": {"w":86,"h":163},
	"pivot": {"x":0.5,"y":0.5}
},
{
	"filename": "brad_default0095.png",
	"frame": {"x":1322,"y":2,"w":86,"h":163},
	"rotated": false,
	"trimmed": false,
	"spriteSourceSize": {"x":0,"y":0,"w":86,"h":163},
	"sourceSize": {"w":86,"h":163},
	"pivot": {"x":0.5,"y":0.5}
},
{
	"filename": "brad_default0096.png",
	"frame": {"x":1322,"y":2,"w":86,"h":163},
	"rotated": false,
	"trimmed": false,
	"spriteSourceSize": {"x":0,"y":0,"w":86,"h":163},
	"sourceSize": {"w":86,"h":163},
	"pivot": {"x":0.5,"y":0.5}
},
{
	"filename": "brad_default0097.png",
	"frame": {"x":1322,"y":2,"w":86,"h":163},
	"rotated": false,
	"trimmed": false,
	"spriteSourceSize": {"x":0,"y":0,"w":86,"h":163},
	"sourceSize": {"w":86,"h":163},
	"pivot": {"x":0.5,"y":0.5}
},
{
	"filename": "brad_default0098.png",
	"frame": {"x":1322,"y":2,"w":86,"h":163},
	"rotated": false,
	"trimmed": false,
	"spriteSourceSize": {"x":0,"y":0,"w":86,"h":163},
	"sourceSize": {"w":86,"h":163},
	"pivot": {"x":0.5,"y":0.5}
},
{
	"filename": "brad_default0099.png",
	"frame": {"x":1410,"y":2,"w":86,"h":163},
	"rotated": false,
	"trimmed": false,
	"spriteSourceSize": {"x":0,"y":0,"w":86,"h":163},
	"sourceSize": {"w":86,"h":163},
	"pivot": {"x":0.5,"y":0.5}
},
{
	"filename": "brad_default0100.png",
	"frame": {"x":1498,"y":2,"w":86,"h":163},
	"rotated": false,
	"trimmed": false,
	"spriteSourceSize": {"x":0,"y":0,"w":86,"h":163},
	"sourceSize": {"w":86,"h":163},
	"pivot": {"x":0.5,"y":0.5}
},
{
	"filename": "brad_default0101.png",
	"frame": {"x":1498,"y":2,"w":86,"h":163},
	"rotated": false,
	"trimmed": false,
	"spriteSourceSize": {"x":0,"y":0,"w":86,"h":163},
	"sourceSize": {"w":86,"h":163},
	"pivot": {"x":0.5,"y":0.5}
},
{
	"filename": "brad_default0102.png",
	"frame": {"x":1498,"y":2,"w":86,"h":163},
	"rotated": false,
	"trimmed": false,
	"spriteSourceSize": {"x":0,"y":0,"w":86,"h":163},
	"sourceSize": {"w":86,"h":163},
	"pivot": {"x":0.5,"y":0.5}
},
{
	"filename": "brad_default0103.png",
	"frame": {"x":1410,"y":2,"w":86,"h":163},
	"rotated": false,
	"trimmed": false,
	"spriteSourceSize": {"x":0,"y":0,"w":86,"h":163},
	"sourceSize": {"w":86,"h":163},
	"pivot": {"x":0.5,"y":0.5}
},
{
	"filename": "brad_default0104.png",
	"frame": {"x":1322,"y":2,"w":86,"h":163},
	"rotated": false,
	"trimmed": false,
	"spriteSourceSize": {"x":0,"y":0,"w":86,"h":163},
	"sourceSize": {"w":86,"h":163},
	"pivot": {"x":0.5,"y":0.5}
},
{
	"filename": "brad_default0105.png",
	"frame": {"x":1322,"y":2,"w":86,"h":163},
	"rotated": false,
	"trimmed": false,
	"spriteSourceSize": {"x":0,"y":0,"w":86,"h":163},
	"sourceSize": {"w":86,"h":163},
	"pivot": {"x":0.5,"y":0.5}
},
{
	"filename": "brad_default0106.png",
	"frame": {"x":1322,"y":2,"w":86,"h":163},
	"rotated": false,
	"trimmed": false,
	"spriteSourceSize": {"x":0,"y":0,"w":86,"h":163},
	"sourceSize": {"w":86,"h":163},
	"pivot": {"x":0.5,"y":0.5}
},
{
	"filename": "brad_default0107.png",
	"frame": {"x":1322,"y":2,"w":86,"h":163},
	"rotated": false,
	"trimmed": false,
	"spriteSourceSize": {"x":0,"y":0,"w":86,"h":163},
	"sourceSize": {"w":86,"h":163},
	"pivot": {"x":0.5,"y":0.5}
},
{
	"filename": "brad_default0108.png",
	"frame": {"x":1322,"y":2,"w":86,"h":163},
	"rotated": false,
	"trimmed": false,
	"spriteSourceSize": {"x":0,"y":0,"w":86,"h":163},
	"sourceSize": {"w":86,"h":163},
	"pivot": {"x":0.5,"y":0.5}
},
{
	"filename": "brad_default0109.png",
	"frame": {"x":1586,"y":2,"w":86,"h":163},
	"rotated": false,
	"trimmed": false,
	"spriteSourceSize": {"x":0,"y":0,"w":86,"h":163},
	"sourceSize": {"w":86,"h":163},
	"pivot": {"x":0.5,"y":0.5}
},
{
	"filename": "brad_default0110.png",
	"frame": {"x":1674,"y":2,"w":86,"h":163},
	"rotated": false,
	"trimmed": false,
	"spriteSourceSize": {"x":0,"y":0,"w":86,"h":163},
	"sourceSize": {"w":86,"h":163},
	"pivot": {"x":0.5,"y":0.5}
},
{
	"filename": "brad_default0111.png",
	"frame": {"x":1762,"y":2,"w":86,"h":163},
	"rotated": false,
	"trimmed": false,
	"spriteSourceSize": {"x":0,"y":0,"w":86,"h":163},
	"sourceSize": {"w":86,"h":163},
	"pivot": {"x":0.5,"y":0.5}
},
{
	"filename": "brad_default0112.png",
	"frame": {"x":1850,"y":2,"w":86,"h":163},
	"rotated": false,
	"trimmed": false,
	"spriteSourceSize": {"x":0,"y":0,"w":86,"h":163},
	"sourceSize": {"w":86,"h":163},
	"pivot": {"x":0.5,"y":0.5}
},
{
	"filename": "brad_default0113.png",
	"frame": {"x":2,"y":167,"w":86,"h":163},
	"rotated": false,
	"trimmed": false,
	"spriteSourceSize": {"x":0,"y":0,"w":86,"h":163},
	"sourceSize": {"w":86,"h":163},
	"pivot": {"x":0.5,"y":0.5}
},
{
	"filename": "brad_default0114.png",
	"frame": {"x":90,"y":167,"w":86,"h":163},
	"rotated": false,
	"trimmed": false,
	"spriteSourceSize": {"x":0,"y":0,"w":86,"h":163},
	"sourceSize": {"w":86,"h":163},
	"pivot": {"x":0.5,"y":0.5}
},
{
	"filename": "brad_default0115.png",
	"frame": {"x":2,"y":2,"w":86,"h":163},
	"rotated": false,
	"trimmed": false,
	"spriteSourceSize": {"x":0,"y":0,"w":86,"h":163},
	"sourceSize": {"w":86,"h":163},
	"pivot": {"x":0.5,"y":0.5}
},
{
	"filename": "brad_default0116.png",
	"frame": {"x":2,"y":2,"w":86,"h":163},
	"rotated": false,
	"trimmed": false,
	"spriteSourceSize": {"x":0,"y":0,"w":86,"h":163},
	"sourceSize": {"w":86,"h":163},
	"pivot": {"x":0.5,"y":0.5}
},
{
	"filename": "brad_default0117.png",
	"frame": {"x":2,"y":2,"w":86,"h":163},
	"rotated": false,
	"trimmed": false,
	"spriteSourceSize": {"x":0,"y":0,"w":86,"h":163},
	"sourceSize": {"w":86,"h":163},
	"pivot": {"x":0.5,"y":0.5}
},
{
	"filename": "brad_default0118.png",
	"frame": {"x":90,"y":2,"w":86,"h":163},
	"rotated": false,
	"trimmed": false,
	"spriteSourceSize": {"x":0,"y":0,"w":86,"h":163},
	"sourceSize": {"w":86,"h":163},
	"pivot": {"x":0.5,"y":0.5}
},
{
	"filename": "brad_default0119.png",
	"frame": {"x":178,"y":167,"w":86,"h":163},
	"rotated": false,
	"trimmed": false,
	"spriteSourceSize": {"x":0,"y":0,"w":86,"h":163},
	"sourceSize": {"w":86,"h":163},
	"pivot": {"x":0.5,"y":0.5}
},
{
	"filename": "brad_default0120.png",
	"frame": {"x":266,"y":167,"w":86,"h":163},
	"rotated": false,
	"trimmed": false,
	"spriteSourceSize": {"x":0,"y":0,"w":86,"h":163},
	"sourceSize": {"w":86,"h":163},
	"pivot": {"x":0.5,"y":0.5}
},
{
	"filename": "brad_default0121.png",
	"frame": {"x":354,"y":167,"w":86,"h":163},
	"rotated": false,
	"trimmed": false,
	"spriteSourceSize": {"x":0,"y":0,"w":86,"h":163},
	"sourceSize": {"w":86,"h":163},
	"pivot": {"x":0.5,"y":0.5}
},
{
	"filename": "brad_default0122.png",
	"frame": {"x":442,"y":167,"w":86,"h":163},
	"rotated": false,
	"trimmed": false,
	"spriteSourceSize": {"x":0,"y":0,"w":86,"h":163},
	"sourceSize": {"w":86,"h":163},
	"pivot": {"x":0.5,"y":0.5}
},
{
	"filename": "brad_default0123.png",
	"frame": {"x":530,"y":167,"w":86,"h":163},
	"rotated": false,
	"trimmed": false,
	"spriteSourceSize": {"x":0,"y":0,"w":86,"h":163},
	"sourceSize": {"w":86,"h":163},
	"pivot": {"x":0.5,"y":0.5}
},
{
	"filename": "brad_default0124.png",
	"frame": {"x":618,"y":167,"w":86,"h":163},
	"rotated": false,
	"trimmed": false,
	"spriteSourceSize": {"x":0,"y":0,"w":86,"h":163},
	"sourceSize": {"w":86,"h":163},
	"pivot": {"x":0.5,"y":0.5}
},
{
	"filename": "brad_default0125.png",
	"frame": {"x":706,"y":167,"w":86,"h":163},
	"rotated": false,
	"trimmed": false,
	"spriteSourceSize": {"x":0,"y":0,"w":86,"h":163},
	"sourceSize": {"w":86,"h":163},
	"pivot": {"x":0.5,"y":0.5}
},
{
	"filename": "brad_default0126.png",
	"frame": {"x":794,"y":167,"w":86,"h":163},
	"rotated": false,
	"trimmed": false,
	"spriteSourceSize": {"x":0,"y":0,"w":86,"h":163},
	"sourceSize": {"w":86,"h":163},
	"pivot": {"x":0.5,"y":0.5}
},
{
	"filename": "brad_default0127.png",
	"frame": {"x":882,"y":167,"w":86,"h":163},
	"rotated": false,
	"trimmed": false,
	"spriteSourceSize": {"x":0,"y":0,"w":86,"h":163},
	"sourceSize": {"w":86,"h":163},
	"pivot": {"x":0.5,"y":0.5}
},
{
	"filename": "brad_default0128.png",
	"frame": {"x":970,"y":167,"w":86,"h":163},
	"rotated": false,
	"trimmed": false,
	"spriteSourceSize": {"x":0,"y":0,"w":86,"h":163},
	"sourceSize": {"w":86,"h":163},
	"pivot": {"x":0.5,"y":0.5}
},
{
	"filename": "brad_default0129.png",
	"frame": {"x":1058,"y":167,"w":86,"h":163},
	"rotated": false,
	"trimmed": false,
	"spriteSourceSize": {"x":0,"y":0,"w":86,"h":163},
	"sourceSize": {"w":86,"h":163},
	"pivot": {"x":0.5,"y":0.5}
},
{
	"filename": "brad_default0130.png",
	"frame": {"x":1058,"y":167,"w":86,"h":163},
	"rotated": false,
	"trimmed": false,
	"spriteSourceSize": {"x":0,"y":0,"w":86,"h":163},
	"sourceSize": {"w":86,"h":163},
	"pivot": {"x":0.5,"y":0.5}
},
{
	"filename": "brad_default0131.png",
	"frame": {"x":1058,"y":167,"w":86,"h":163},
	"rotated": false,
	"trimmed": false,
	"spriteSourceSize": {"x":0,"y":0,"w":86,"h":163},
	"sourceSize": {"w":86,"h":163},
	"pivot": {"x":0.5,"y":0.5}
},
{
	"filename": "brad_default0132.png",
	"frame": {"x":1058,"y":167,"w":86,"h":163},
	"rotated": false,
	"trimmed": false,
	"spriteSourceSize": {"x":0,"y":0,"w":86,"h":163},
	"sourceSize": {"w":86,"h":163},
	"pivot": {"x":0.5,"y":0.5}
},
{
	"filename": "brad_default0133.png",
	"frame": {"x":1058,"y":167,"w":86,"h":163},
	"rotated": false,
	"trimmed": false,
	"spriteSourceSize": {"x":0,"y":0,"w":86,"h":163},
	"sourceSize": {"w":86,"h":163},
	"pivot": {"x":0.5,"y":0.5}
},
{
	"filename": "brad_default0134.png",
	"frame": {"x":1058,"y":167,"w":86,"h":163},
	"rotated": false,
	"trimmed": false,
	"spriteSourceSize": {"x":0,"y":0,"w":86,"h":163},
	"sourceSize": {"w":86,"h":163},
	"pivot": {"x":0.5,"y":0.5}
},
{
	"filename": "brad_default0135.png",
	"frame": {"x":1058,"y":167,"w":86,"h":163},
	"rotated": false,
	"trimmed": false,
	"spriteSourceSize": {"x":0,"y":0,"w":86,"h":163},
	"sourceSize": {"w":86,"h":163},
	"pivot": {"x":0.5,"y":0.5}
},
{
	"filename": "brad_default0136.png",
	"frame": {"x":1058,"y":167,"w":86,"h":163},
	"rotated": false,
	"trimmed": false,
	"spriteSourceSize": {"x":0,"y":0,"w":86,"h":163},
	"sourceSize": {"w":86,"h":163},
	"pivot": {"x":0.5,"y":0.5}
},
{
	"filename": "brad_default0137.png",
	"frame": {"x":1058,"y":167,"w":86,"h":163},
	"rotated": false,
	"trimmed": false,
	"spriteSourceSize": {"x":0,"y":0,"w":86,"h":163},
	"sourceSize": {"w":86,"h":163},
	"pivot": {"x":0.5,"y":0.5}
},
{
	"filename": "brad_default0138.png",
	"frame": {"x":1058,"y":167,"w":86,"h":163},
	"rotated": false,
	"trimmed": false,
	"spriteSourceSize": {"x":0,"y":0,"w":86,"h":163},
	"sourceSize": {"w":86,"h":163},
	"pivot": {"x":0.5,"y":0.5}
},
{
	"filename": "brad_default0139.png",
	"frame": {"x":1058,"y":167,"w":86,"h":163},
	"rotated": false,
	"trimmed": false,
	"spriteSourceSize": {"x":0,"y":0,"w":86,"h":163},
	"sourceSize": {"w":86,"h":163},
	"pivot": {"x":0.5,"y":0.5}
},
{
	"filename": "brad_default0140.png",
	"frame": {"x":1058,"y":167,"w":86,"h":163},
	"rotated": false,
	"trimmed": false,
	"spriteSourceSize": {"x":0,"y":0,"w":86,"h":163},
	"sourceSize": {"w":86,"h":163},
	"pivot": {"x":0.5,"y":0.5}
},
{
	"filename": "brad_default0141.png",
	"frame": {"x":1058,"y":167,"w":86,"h":163},
	"rotated": false,
	"trimmed": false,
	"spriteSourceSize": {"x":0,"y":0,"w":86,"h":163},
	"sourceSize": {"w":86,"h":163},
	"pivot": {"x":0.5,"y":0.5}
},
{
	"filename": "brad_default0142.png",
	"frame": {"x":1058,"y":167,"w":86,"h":163},
	"rotated": false,
	"trimmed": false,
	"spriteSourceSize": {"x":0,"y":0,"w":86,"h":163},
	"sourceSize": {"w":86,"h":163},
	"pivot": {"x":0.5,"y":0.5}
},
{
	"filename": "brad_default0143.png",
	"frame": {"x":1058,"y":167,"w":86,"h":163},
	"rotated": false,
	"trimmed": false,
	"spriteSourceSize": {"x":0,"y":0,"w":86,"h":163},
	"sourceSize": {"w":86,"h":163},
	"pivot": {"x":0.5,"y":0.5}
},
{
	"filename": "brad_default0144.png",
	"frame": {"x":1058,"y":167,"w":86,"h":163},
	"rotated": false,
	"trimmed": false,
	"spriteSourceSize": {"x":0,"y":0,"w":86,"h":163},
	"sourceSize": {"w":86,"h":163},
	"pivot": {"x":0.5,"y":0.5}
},
{
	"filename": "brad_default0145.png",
	"frame": {"x":1058,"y":167,"w":86,"h":163},
	"rotated": false,
	"trimmed": false,
	"spriteSourceSize": {"x":0,"y":0,"w":86,"h":163},
	"sourceSize": {"w":86,"h":163},
	"pivot": {"x":0.5,"y":0.5}
},
{
	"filename": "brad_default0146.png",
	"frame": {"x":1058,"y":167,"w":86,"h":163},
	"rotated": false,
	"trimmed": false,
	"spriteSourceSize": {"x":0,"y":0,"w":86,"h":163},
	"sourceSize": {"w":86,"h":163},
	"pivot": {"x":0.5,"y":0.5}
},
{
	"filename": "brad_default0147.png",
	"frame": {"x":1058,"y":167,"w":86,"h":163},
	"rotated": false,
	"trimmed": false,
	"spriteSourceSize": {"x":0,"y":0,"w":86,"h":163},
	"sourceSize": {"w":86,"h":163},
	"pivot": {"x":0.5,"y":0.5}
},
{
	"filename": "brad_default0148.png",
	"frame": {"x":1058,"y":167,"w":86,"h":163},
	"rotated": false,
	"trimmed": false,
	"spriteSourceSize": {"x":0,"y":0,"w":86,"h":163},
	"sourceSize": {"w":86,"h":163},
	"pivot": {"x":0.5,"y":0.5}
},
{
	"filename": "brad_default0149.png",
	"frame": {"x":1058,"y":167,"w":86,"h":163},
	"rotated": false,
	"trimmed": false,
	"spriteSourceSize": {"x":0,"y":0,"w":86,"h":163},
	"sourceSize": {"w":86,"h":163},
	"pivot": {"x":0.5,"y":0.5}
},
{
	"filename": "brad_default0150.png",
	"frame": {"x":1058,"y":167,"w":86,"h":163},
	"rotated": false,
	"trimmed": false,
	"spriteSourceSize": {"x":0,"y":0,"w":86,"h":163},
	"sourceSize": {"w":86,"h":163},
	"pivot": {"x":0.5,"y":0.5}
},
{
	"filename": "brad_default0151.png",
	"frame": {"x":1058,"y":167,"w":86,"h":163},
	"rotated": false,
	"trimmed": false,
	"spriteSourceSize": {"x":0,"y":0,"w":86,"h":163},
	"sourceSize": {"w":86,"h":163},
	"pivot": {"x":0.5,"y":0.5}
},
{
	"filename": "brad_default0152.png",
	"frame": {"x":1058,"y":167,"w":86,"h":163},
	"rotated": false,
	"trimmed": false,
	"spriteSourceSize": {"x":0,"y":0,"w":86,"h":163},
	"sourceSize": {"w":86,"h":163},
	"pivot": {"x":0.5,"y":0.5}
},
{
	"filename": "brad_default0153.png",
	"frame": {"x":1058,"y":167,"w":86,"h":163},
	"rotated": false,
	"trimmed": false,
	"spriteSourceSize": {"x":0,"y":0,"w":86,"h":163},
	"sourceSize": {"w":86,"h":163},
	"pivot": {"x":0.5,"y":0.5}
},
{
	"filename": "brad_default0154.png",
	"frame": {"x":1058,"y":167,"w":86,"h":163},
	"rotated": false,
	"trimmed": false,
	"spriteSourceSize": {"x":0,"y":0,"w":86,"h":163},
	"sourceSize": {"w":86,"h":163},
	"pivot": {"x":0.5,"y":0.5}
},
{
	"filename": "brad_default0155.png",
	"frame": {"x":1058,"y":167,"w":86,"h":163},
	"rotated": false,
	"trimmed": false,
	"spriteSourceSize": {"x":0,"y":0,"w":86,"h":163},
	"sourceSize": {"w":86,"h":163},
	"pivot": {"x":0.5,"y":0.5}
},
{
	"filename": "brad_default0156.png",
	"frame": {"x":1058,"y":167,"w":86,"h":163},
	"rotated": false,
	"trimmed": false,
	"spriteSourceSize": {"x":0,"y":0,"w":86,"h":163},
	"sourceSize": {"w":86,"h":163},
	"pivot": {"x":0.5,"y":0.5}
},
{
	"filename": "brad_default0157.png",
	"frame": {"x":1058,"y":167,"w":86,"h":163},
	"rotated": false,
	"trimmed": false,
	"spriteSourceSize": {"x":0,"y":0,"w":86,"h":163},
	"sourceSize": {"w":86,"h":163},
	"pivot": {"x":0.5,"y":0.5}
},
{
	"filename": "brad_default0158.png",
	"frame": {"x":1058,"y":167,"w":86,"h":163},
	"rotated": false,
	"trimmed": false,
	"spriteSourceSize": {"x":0,"y":0,"w":86,"h":163},
	"sourceSize": {"w":86,"h":163},
	"pivot": {"x":0.5,"y":0.5}
},
{
	"filename": "brad_default0159.png",
	"frame": {"x":1146,"y":167,"w":86,"h":163},
	"rotated": false,
	"trimmed": false,
	"spriteSourceSize": {"x":0,"y":0,"w":86,"h":163},
	"sourceSize": {"w":86,"h":163},
	"pivot": {"x":0.5,"y":0.5}
},
{
	"filename": "brad_default0160.png",
	"frame": {"x":1234,"y":167,"w":86,"h":163},
	"rotated": false,
	"trimmed": false,
	"spriteSourceSize": {"x":0,"y":0,"w":86,"h":163},
	"sourceSize": {"w":86,"h":163},
	"pivot": {"x":0.5,"y":0.5}
},
{
	"filename": "brad_default0161.png",
	"frame": {"x":1322,"y":167,"w":86,"h":163},
	"rotated": false,
	"trimmed": false,
	"spriteSourceSize": {"x":0,"y":0,"w":86,"h":163},
	"sourceSize": {"w":86,"h":163},
	"pivot": {"x":0.5,"y":0.5}
},
{
	"filename": "brad_default0162.png",
	"frame": {"x":1410,"y":167,"w":86,"h":163},
	"rotated": false,
	"trimmed": false,
	"spriteSourceSize": {"x":0,"y":0,"w":86,"h":163},
	"sourceSize": {"w":86,"h":163},
	"pivot": {"x":0.5,"y":0.5}
},
{
	"filename": "brad_default0163.png",
	"frame": {"x":1498,"y":167,"w":86,"h":163},
	"rotated": false,
	"trimmed": false,
	"spriteSourceSize": {"x":0,"y":0,"w":86,"h":163},
	"sourceSize": {"w":86,"h":163},
	"pivot": {"x":0.5,"y":0.5}
},
{
	"filename": "brad_default0164.png",
	"frame": {"x":1586,"y":167,"w":86,"h":163},
	"rotated": false,
	"trimmed": false,
	"spriteSourceSize": {"x":0,"y":0,"w":86,"h":163},
	"sourceSize": {"w":86,"h":163},
	"pivot": {"x":0.5,"y":0.5}
},
{
	"filename": "brad_default0165.png",
	"frame": {"x":1674,"y":167,"w":86,"h":163},
	"rotated": false,
	"trimmed": false,
	"spriteSourceSize": {"x":0,"y":0,"w":86,"h":163},
	"sourceSize": {"w":86,"h":163},
	"pivot": {"x":0.5,"y":0.5}
},
{
	"filename": "brad_default0166.png",
	"frame": {"x":1762,"y":167,"w":86,"h":163},
	"rotated": false,
	"trimmed": false,
	"spriteSourceSize": {"x":0,"y":0,"w":86,"h":163},
	"sourceSize": {"w":86,"h":163},
	"pivot": {"x":0.5,"y":0.5}
},
{
	"filename": "brad_default0167.png",
	"frame": {"x":2,"y":2,"w":86,"h":163},
	"rotated": false,
	"trimmed": false,
	"spriteSourceSize": {"x":0,"y":0,"w":86,"h":163},
	"sourceSize": {"w":86,"h":163},
	"pivot": {"x":0.5,"y":0.5}
},
{
	"filename": "brad_default0168.png",
	"frame": {"x":2,"y":2,"w":86,"h":163},
	"rotated": false,
	"trimmed": false,
	"spriteSourceSize": {"x":0,"y":0,"w":86,"h":163},
	"sourceSize": {"w":86,"h":163},
	"pivot": {"x":0.5,"y":0.5}
},
{
	"filename": "brad_default0169.png",
	"frame": {"x":2,"y":2,"w":86,"h":163},
	"rotated": false,
	"trimmed": false,
	"spriteSourceSize": {"x":0,"y":0,"w":86,"h":163},
	"sourceSize": {"w":86,"h":163},
	"pivot": {"x":0.5,"y":0.5}
},
{
	"filename": "brad_default0170.png",
	"frame": {"x":2,"y":2,"w":86,"h":163},
	"rotated": false,
	"trimmed": false,
	"spriteSourceSize": {"x":0,"y":0,"w":86,"h":163},
	"sourceSize": {"w":86,"h":163},
	"pivot": {"x":0.5,"y":0.5}
},
{
	"filename": "brad_default0171.png",
	"frame": {"x":2,"y":2,"w":86,"h":163},
	"rotated": false,
	"trimmed": false,
	"spriteSourceSize": {"x":0,"y":0,"w":86,"h":163},
	"sourceSize": {"w":86,"h":163},
	"pivot": {"x":0.5,"y":0.5}
},
{
	"filename": "brad_default0172.png",
	"frame": {"x":2,"y":2,"w":86,"h":163},
	"rotated": false,
	"trimmed": false,
	"spriteSourceSize": {"x":0,"y":0,"w":86,"h":163},
	"sourceSize": {"w":86,"h":163},
	"pivot": {"x":0.5,"y":0.5}
},
{
	"filename": "brad_default0173.png",
	"frame": {"x":2,"y":2,"w":86,"h":163},
	"rotated": false,
	"trimmed": false,
	"spriteSourceSize": {"x":0,"y":0,"w":86,"h":163},
	"sourceSize": {"w":86,"h":163},
	"pivot": {"x":0.5,"y":0.5}
},
{
	"filename": "brad_default0174.png",
	"frame": {"x":2,"y":2,"w":86,"h":163},
	"rotated": false,
	"trimmed": false,
	"spriteSourceSize": {"x":0,"y":0,"w":86,"h":163},
	"sourceSize": {"w":86,"h":163},
	"pivot": {"x":0.5,"y":0.5}
}],
"meta": {
	"app": "http://www.codeandweb.com/texturepacker",
	"version": "1.0",
	"image": "brad_default.png",
	"format": "RGBA8888",
	"size": {"w":1938,"h":332},
	"scale": "1",
	"smartupdate": "$TexturePacker:SmartUpdate:cc046d08fc19f1d2102931515027ee12:9d1327d7044db37f8d4a60db674175bc:824ff99fa4e67b5d69a56c01166836ab$"
}
}
