{"frames": [

{
	"filename": "obstacleContainer70000",
	"frame": {"x":0,"y":0,"w":257,"h":242},
	"rotated": false,
	"trimmed": false,
	"spriteSourceSize": {"x":0,"y":0,"w":257,"h":242},
	"sourceSize": {"w":257,"h":242}
}],
"meta": {
	"app": "Adobe Flash CS6",
	"version": "12.0.0.481",
	"image": "wall2.png",
	"format": "RGBA8888",
	"size": {"w":512,"h":512},
	"scale": "1"
}
}
