{"frames": [

{
	"filename": "kaz_zzzz0001.png",
	"frame": {"x":2,"y":2,"w":141,"h":245},
	"rotated": false,
	"trimmed": false,
	"spriteSourceSize": {"x":0,"y":0,"w":141,"h":245},
	"sourceSize": {"w":141,"h":245},
	"pivot": {"x":0.5,"y":0.5}
},
{
	"filename": "kaz_zzzz0002.png",
	"frame": {"x":2,"y":2,"w":141,"h":245},
	"rotated": false,
	"trimmed": false,
	"spriteSourceSize": {"x":0,"y":0,"w":141,"h":245},
	"sourceSize": {"w":141,"h":245},
	"pivot": {"x":0.5,"y":0.5}
},
{
	"filename": "kaz_zzzz0003.png",
	"frame": {"x":145,"y":2,"w":141,"h":245},
	"rotated": false,
	"trimmed": false,
	"spriteSourceSize": {"x":0,"y":0,"w":141,"h":245},
	"sourceSize": {"w":141,"h":245},
	"pivot": {"x":0.5,"y":0.5}
},
{
	"filename": "kaz_zzzz0004.png",
	"frame": {"x":145,"y":2,"w":141,"h":245},
	"rotated": false,
	"trimmed": false,
	"spriteSourceSize": {"x":0,"y":0,"w":141,"h":245},
	"sourceSize": {"w":141,"h":245},
	"pivot": {"x":0.5,"y":0.5}
},
{
	"filename": "kaz_zzzz0005.png",
	"frame": {"x":288,"y":2,"w":141,"h":245},
	"rotated": false,
	"trimmed": false,
	"spriteSourceSize": {"x":0,"y":0,"w":141,"h":245},
	"sourceSize": {"w":141,"h":245},
	"pivot": {"x":0.5,"y":0.5}
},
{
	"filename": "kaz_zzzz0006.png",
	"frame": {"x":288,"y":2,"w":141,"h":245},
	"rotated": false,
	"trimmed": false,
	"spriteSourceSize": {"x":0,"y":0,"w":141,"h":245},
	"sourceSize": {"w":141,"h":245},
	"pivot": {"x":0.5,"y":0.5}
},
{
	"filename": "kaz_zzzz0007.png",
	"frame": {"x":431,"y":2,"w":141,"h":245},
	"rotated": false,
	"trimmed": false,
	"spriteSourceSize": {"x":0,"y":0,"w":141,"h":245},
	"sourceSize": {"w":141,"h":245},
	"pivot": {"x":0.5,"y":0.5}
},
{
	"filename": "kaz_zzzz0008.png",
	"frame": {"x":431,"y":2,"w":141,"h":245},
	"rotated": false,
	"trimmed": false,
	"spriteSourceSize": {"x":0,"y":0,"w":141,"h":245},
	"sourceSize": {"w":141,"h":245},
	"pivot": {"x":0.5,"y":0.5}
},
{
	"filename": "kaz_zzzz0009.png",
	"frame": {"x":574,"y":2,"w":141,"h":245},
	"rotated": false,
	"trimmed": false,
	"spriteSourceSize": {"x":0,"y":0,"w":141,"h":245},
	"sourceSize": {"w":141,"h":245},
	"pivot": {"x":0.5,"y":0.5}
},
{
	"filename": "kaz_zzzz0010.png",
	"frame": {"x":717,"y":2,"w":141,"h":245},
	"rotated": false,
	"trimmed": false,
	"spriteSourceSize": {"x":0,"y":0,"w":141,"h":245},
	"sourceSize": {"w":141,"h":245},
	"pivot": {"x":0.5,"y":0.5}
},
{
	"filename": "kaz_zzzz0011.png",
	"frame": {"x":860,"y":2,"w":141,"h":245},
	"rotated": false,
	"trimmed": false,
	"spriteSourceSize": {"x":0,"y":0,"w":141,"h":245},
	"sourceSize": {"w":141,"h":245},
	"pivot": {"x":0.5,"y":0.5}
},
{
	"filename": "kaz_zzzz0012.png",
	"frame": {"x":1003,"y":2,"w":141,"h":245},
	"rotated": false,
	"trimmed": false,
	"spriteSourceSize": {"x":0,"y":0,"w":141,"h":245},
	"sourceSize": {"w":141,"h":245},
	"pivot": {"x":0.5,"y":0.5}
},
{
	"filename": "kaz_zzzz0013.png",
	"frame": {"x":1146,"y":2,"w":141,"h":245},
	"rotated": false,
	"trimmed": false,
	"spriteSourceSize": {"x":0,"y":0,"w":141,"h":245},
	"sourceSize": {"w":141,"h":245},
	"pivot": {"x":0.5,"y":0.5}
},
{
	"filename": "kaz_zzzz0014.png",
	"frame": {"x":1289,"y":2,"w":141,"h":245},
	"rotated": false,
	"trimmed": false,
	"spriteSourceSize": {"x":0,"y":0,"w":141,"h":245},
	"sourceSize": {"w":141,"h":245},
	"pivot": {"x":0.5,"y":0.5}
},
{
	"filename": "kaz_zzzz0015.png",
	"frame": {"x":1432,"y":2,"w":141,"h":245},
	"rotated": false,
	"trimmed": false,
	"spriteSourceSize": {"x":0,"y":0,"w":141,"h":245},
	"sourceSize": {"w":141,"h":245},
	"pivot": {"x":0.5,"y":0.5}
},
{
	"filename": "kaz_zzzz0016.png",
	"frame": {"x":1432,"y":2,"w":141,"h":245},
	"rotated": false,
	"trimmed": false,
	"spriteSourceSize": {"x":0,"y":0,"w":141,"h":245},
	"sourceSize": {"w":141,"h":245},
	"pivot": {"x":0.5,"y":0.5}
},
{
	"filename": "kaz_zzzz0017.png",
	"frame": {"x":1432,"y":2,"w":141,"h":245},
	"rotated": false,
	"trimmed": false,
	"spriteSourceSize": {"x":0,"y":0,"w":141,"h":245},
	"sourceSize": {"w":141,"h":245},
	"pivot": {"x":0.5,"y":0.5}
},
{
	"filename": "kaz_zzzz0018.png",
	"frame": {"x":1432,"y":2,"w":141,"h":245},
	"rotated": false,
	"trimmed": false,
	"spriteSourceSize": {"x":0,"y":0,"w":141,"h":245},
	"sourceSize": {"w":141,"h":245},
	"pivot": {"x":0.5,"y":0.5}
},
{
	"filename": "kaz_zzzz0019.png",
	"frame": {"x":1432,"y":2,"w":141,"h":245},
	"rotated": false,
	"trimmed": false,
	"spriteSourceSize": {"x":0,"y":0,"w":141,"h":245},
	"sourceSize": {"w":141,"h":245},
	"pivot": {"x":0.5,"y":0.5}
},
{
	"filename": "kaz_zzzz0020.png",
	"frame": {"x":1432,"y":2,"w":141,"h":245},
	"rotated": false,
	"trimmed": false,
	"spriteSourceSize": {"x":0,"y":0,"w":141,"h":245},
	"sourceSize": {"w":141,"h":245},
	"pivot": {"x":0.5,"y":0.5}
},
{
	"filename": "kaz_zzzz0021.png",
	"frame": {"x":1432,"y":2,"w":141,"h":245},
	"rotated": false,
	"trimmed": false,
	"spriteSourceSize": {"x":0,"y":0,"w":141,"h":245},
	"sourceSize": {"w":141,"h":245},
	"pivot": {"x":0.5,"y":0.5}
},
{
	"filename": "kaz_zzzz0022.png",
	"frame": {"x":1432,"y":2,"w":141,"h":245},
	"rotated": false,
	"trimmed": false,
	"spriteSourceSize": {"x":0,"y":0,"w":141,"h":245},
	"sourceSize": {"w":141,"h":245},
	"pivot": {"x":0.5,"y":0.5}
},
{
	"filename": "kaz_zzzz0023.png",
	"frame": {"x":1432,"y":2,"w":141,"h":245},
	"rotated": false,
	"trimmed": false,
	"spriteSourceSize": {"x":0,"y":0,"w":141,"h":245},
	"sourceSize": {"w":141,"h":245},
	"pivot": {"x":0.5,"y":0.5}
},
{
	"filename": "kaz_zzzz0024.png",
	"frame": {"x":1289,"y":2,"w":141,"h":245},
	"rotated": false,
	"trimmed": false,
	"spriteSourceSize": {"x":0,"y":0,"w":141,"h":245},
	"sourceSize": {"w":141,"h":245},
	"pivot": {"x":0.5,"y":0.5}
},
{
	"filename": "kaz_zzzz0025.png",
	"frame": {"x":1575,"y":2,"w":141,"h":245},
	"rotated": false,
	"trimmed": false,
	"spriteSourceSize": {"x":0,"y":0,"w":141,"h":245},
	"sourceSize": {"w":141,"h":245},
	"pivot": {"x":0.5,"y":0.5}
},
{
	"filename": "kaz_zzzz0026.png",
	"frame": {"x":1575,"y":2,"w":141,"h":245},
	"rotated": false,
	"trimmed": false,
	"spriteSourceSize": {"x":0,"y":0,"w":141,"h":245},
	"sourceSize": {"w":141,"h":245},
	"pivot": {"x":0.5,"y":0.5}
},
{
	"filename": "kaz_zzzz0027.png",
	"frame": {"x":1718,"y":2,"w":141,"h":245},
	"rotated": false,
	"trimmed": false,
	"spriteSourceSize": {"x":0,"y":0,"w":141,"h":245},
	"sourceSize": {"w":141,"h":245},
	"pivot": {"x":0.5,"y":0.5}
},
{
	"filename": "kaz_zzzz0028.png",
	"frame": {"x":1718,"y":2,"w":141,"h":245},
	"rotated": false,
	"trimmed": false,
	"spriteSourceSize": {"x":0,"y":0,"w":141,"h":245},
	"sourceSize": {"w":141,"h":245},
	"pivot": {"x":0.5,"y":0.5}
},
{
	"filename": "kaz_zzzz0029.png",
	"frame": {"x":1861,"y":2,"w":141,"h":245},
	"rotated": false,
	"trimmed": false,
	"spriteSourceSize": {"x":0,"y":0,"w":141,"h":245},
	"sourceSize": {"w":141,"h":245},
	"pivot": {"x":0.5,"y":0.5}
},
{
	"filename": "kaz_zzzz0030.png",
	"frame": {"x":1861,"y":2,"w":141,"h":245},
	"rotated": false,
	"trimmed": false,
	"spriteSourceSize": {"x":0,"y":0,"w":141,"h":245},
	"sourceSize": {"w":141,"h":245},
	"pivot": {"x":0.5,"y":0.5}
},
{
	"filename": "kaz_zzzz0031.png",
	"frame": {"x":1861,"y":2,"w":141,"h":245},
	"rotated": false,
	"trimmed": false,
	"spriteSourceSize": {"x":0,"y":0,"w":141,"h":245},
	"sourceSize": {"w":141,"h":245},
	"pivot": {"x":0.5,"y":0.5}
},
{
	"filename": "kaz_zzzz0032.png",
	"frame": {"x":1861,"y":2,"w":141,"h":245},
	"rotated": false,
	"trimmed": false,
	"spriteSourceSize": {"x":0,"y":0,"w":141,"h":245},
	"sourceSize": {"w":141,"h":245},
	"pivot": {"x":0.5,"y":0.5}
},
{
	"filename": "kaz_zzzz0033.png",
	"frame": {"x":1861,"y":2,"w":141,"h":245},
	"rotated": false,
	"trimmed": false,
	"spriteSourceSize": {"x":0,"y":0,"w":141,"h":245},
	"sourceSize": {"w":141,"h":245},
	"pivot": {"x":0.5,"y":0.5}
},
{
	"filename": "kaz_zzzz0034.png",
	"frame": {"x":1861,"y":2,"w":141,"h":245},
	"rotated": false,
	"trimmed": false,
	"spriteSourceSize": {"x":0,"y":0,"w":141,"h":245},
	"sourceSize": {"w":141,"h":245},
	"pivot": {"x":0.5,"y":0.5}
},
{
	"filename": "kaz_zzzz0035.png",
	"frame": {"x":1861,"y":2,"w":141,"h":245},
	"rotated": false,
	"trimmed": false,
	"spriteSourceSize": {"x":0,"y":0,"w":141,"h":245},
	"sourceSize": {"w":141,"h":245},
	"pivot": {"x":0.5,"y":0.5}
},
{
	"filename": "kaz_zzzz0036.png",
	"frame": {"x":1861,"y":2,"w":141,"h":245},
	"rotated": false,
	"trimmed": false,
	"spriteSourceSize": {"x":0,"y":0,"w":141,"h":245},
	"sourceSize": {"w":141,"h":245},
	"pivot": {"x":0.5,"y":0.5}
},
{
	"filename": "kaz_zzzz0037.png",
	"frame": {"x":1718,"y":2,"w":141,"h":245},
	"rotated": false,
	"trimmed": false,
	"spriteSourceSize": {"x":0,"y":0,"w":141,"h":245},
	"sourceSize": {"w":141,"h":245},
	"pivot": {"x":0.5,"y":0.5}
},
{
	"filename": "kaz_zzzz0038.png",
	"frame": {"x":1718,"y":2,"w":141,"h":245},
	"rotated": false,
	"trimmed": false,
	"spriteSourceSize": {"x":0,"y":0,"w":141,"h":245},
	"sourceSize": {"w":141,"h":245},
	"pivot": {"x":0.5,"y":0.5}
},
{
	"filename": "kaz_zzzz0039.png",
	"frame": {"x":1575,"y":2,"w":141,"h":245},
	"rotated": false,
	"trimmed": false,
	"spriteSourceSize": {"x":0,"y":0,"w":141,"h":245},
	"sourceSize": {"w":141,"h":245},
	"pivot": {"x":0.5,"y":0.5}
},
{
	"filename": "kaz_zzzz0040.png",
	"frame": {"x":1575,"y":2,"w":141,"h":245},
	"rotated": false,
	"trimmed": false,
	"spriteSourceSize": {"x":0,"y":0,"w":141,"h":245},
	"sourceSize": {"w":141,"h":245},
	"pivot": {"x":0.5,"y":0.5}
},
{
	"filename": "kaz_zzzz0041.png",
	"frame": {"x":1289,"y":2,"w":141,"h":245},
	"rotated": false,
	"trimmed": false,
	"spriteSourceSize": {"x":0,"y":0,"w":141,"h":245},
	"sourceSize": {"w":141,"h":245},
	"pivot": {"x":0.5,"y":0.5}
},
{
	"filename": "kaz_zzzz0042.png",
	"frame": {"x":1432,"y":2,"w":141,"h":245},
	"rotated": false,
	"trimmed": false,
	"spriteSourceSize": {"x":0,"y":0,"w":141,"h":245},
	"sourceSize": {"w":141,"h":245},
	"pivot": {"x":0.5,"y":0.5}
},
{
	"filename": "kaz_zzzz0043.png",
	"frame": {"x":1432,"y":2,"w":141,"h":245},
	"rotated": false,
	"trimmed": false,
	"spriteSourceSize": {"x":0,"y":0,"w":141,"h":245},
	"sourceSize": {"w":141,"h":245},
	"pivot": {"x":0.5,"y":0.5}
},
{
	"filename": "kaz_zzzz0044.png",
	"frame": {"x":1432,"y":2,"w":141,"h":245},
	"rotated": false,
	"trimmed": false,
	"spriteSourceSize": {"x":0,"y":0,"w":141,"h":245},
	"sourceSize": {"w":141,"h":245},
	"pivot": {"x":0.5,"y":0.5}
},
{
	"filename": "kaz_zzzz0045.png",
	"frame": {"x":1432,"y":2,"w":141,"h":245},
	"rotated": false,
	"trimmed": false,
	"spriteSourceSize": {"x":0,"y":0,"w":141,"h":245},
	"sourceSize": {"w":141,"h":245},
	"pivot": {"x":0.5,"y":0.5}
},
{
	"filename": "kaz_zzzz0046.png",
	"frame": {"x":1432,"y":2,"w":141,"h":245},
	"rotated": false,
	"trimmed": false,
	"spriteSourceSize": {"x":0,"y":0,"w":141,"h":245},
	"sourceSize": {"w":141,"h":245},
	"pivot": {"x":0.5,"y":0.5}
},
{
	"filename": "kaz_zzzz0047.png",
	"frame": {"x":1432,"y":2,"w":141,"h":245},
	"rotated": false,
	"trimmed": false,
	"spriteSourceSize": {"x":0,"y":0,"w":141,"h":245},
	"sourceSize": {"w":141,"h":245},
	"pivot": {"x":0.5,"y":0.5}
},
{
	"filename": "kaz_zzzz0048.png",
	"frame": {"x":1432,"y":2,"w":141,"h":245},
	"rotated": false,
	"trimmed": false,
	"spriteSourceSize": {"x":0,"y":0,"w":141,"h":245},
	"sourceSize": {"w":141,"h":245},
	"pivot": {"x":0.5,"y":0.5}
},
{
	"filename": "kaz_zzzz0049.png",
	"frame": {"x":1432,"y":2,"w":141,"h":245},
	"rotated": false,
	"trimmed": false,
	"spriteSourceSize": {"x":0,"y":0,"w":141,"h":245},
	"sourceSize": {"w":141,"h":245},
	"pivot": {"x":0.5,"y":0.5}
},
{
	"filename": "kaz_zzzz0050.png",
	"frame": {"x":1289,"y":2,"w":141,"h":245},
	"rotated": false,
	"trimmed": false,
	"spriteSourceSize": {"x":0,"y":0,"w":141,"h":245},
	"sourceSize": {"w":141,"h":245},
	"pivot": {"x":0.5,"y":0.5}
},
{
	"filename": "kaz_zzzz0051.png",
	"frame": {"x":1575,"y":2,"w":141,"h":245},
	"rotated": false,
	"trimmed": false,
	"spriteSourceSize": {"x":0,"y":0,"w":141,"h":245},
	"sourceSize": {"w":141,"h":245},
	"pivot": {"x":0.5,"y":0.5}
},
{
	"filename": "kaz_zzzz0052.png",
	"frame": {"x":1575,"y":2,"w":141,"h":245},
	"rotated": false,
	"trimmed": false,
	"spriteSourceSize": {"x":0,"y":0,"w":141,"h":245},
	"sourceSize": {"w":141,"h":245},
	"pivot": {"x":0.5,"y":0.5}
},
{
	"filename": "kaz_zzzz0053.png",
	"frame": {"x":1718,"y":2,"w":141,"h":245},
	"rotated": false,
	"trimmed": false,
	"spriteSourceSize": {"x":0,"y":0,"w":141,"h":245},
	"sourceSize": {"w":141,"h":245},
	"pivot": {"x":0.5,"y":0.5}
},
{
	"filename": "kaz_zzzz0054.png",
	"frame": {"x":1718,"y":2,"w":141,"h":245},
	"rotated": false,
	"trimmed": false,
	"spriteSourceSize": {"x":0,"y":0,"w":141,"h":245},
	"sourceSize": {"w":141,"h":245},
	"pivot": {"x":0.5,"y":0.5}
},
{
	"filename": "kaz_zzzz0055.png",
	"frame": {"x":1861,"y":2,"w":141,"h":245},
	"rotated": false,
	"trimmed": false,
	"spriteSourceSize": {"x":0,"y":0,"w":141,"h":245},
	"sourceSize": {"w":141,"h":245},
	"pivot": {"x":0.5,"y":0.5}
},
{
	"filename": "kaz_zzzz0056.png",
	"frame": {"x":1861,"y":2,"w":141,"h":245},
	"rotated": false,
	"trimmed": false,
	"spriteSourceSize": {"x":0,"y":0,"w":141,"h":245},
	"sourceSize": {"w":141,"h":245},
	"pivot": {"x":0.5,"y":0.5}
},
{
	"filename": "kaz_zzzz0057.png",
	"frame": {"x":1861,"y":2,"w":141,"h":245},
	"rotated": false,
	"trimmed": false,
	"spriteSourceSize": {"x":0,"y":0,"w":141,"h":245},
	"sourceSize": {"w":141,"h":245},
	"pivot": {"x":0.5,"y":0.5}
},
{
	"filename": "kaz_zzzz0058.png",
	"frame": {"x":1861,"y":2,"w":141,"h":245},
	"rotated": false,
	"trimmed": false,
	"spriteSourceSize": {"x":0,"y":0,"w":141,"h":245},
	"sourceSize": {"w":141,"h":245},
	"pivot": {"x":0.5,"y":0.5}
},
{
	"filename": "kaz_zzzz0059.png",
	"frame": {"x":1861,"y":2,"w":141,"h":245},
	"rotated": false,
	"trimmed": false,
	"spriteSourceSize": {"x":0,"y":0,"w":141,"h":245},
	"sourceSize": {"w":141,"h":245},
	"pivot": {"x":0.5,"y":0.5}
},
{
	"filename": "kaz_zzzz0060.png",
	"frame": {"x":1861,"y":2,"w":141,"h":245},
	"rotated": false,
	"trimmed": false,
	"spriteSourceSize": {"x":0,"y":0,"w":141,"h":245},
	"sourceSize": {"w":141,"h":245},
	"pivot": {"x":0.5,"y":0.5}
},
{
	"filename": "kaz_zzzz0061.png",
	"frame": {"x":1861,"y":2,"w":141,"h":245},
	"rotated": false,
	"trimmed": false,
	"spriteSourceSize": {"x":0,"y":0,"w":141,"h":245},
	"sourceSize": {"w":141,"h":245},
	"pivot": {"x":0.5,"y":0.5}
},
{
	"filename": "kaz_zzzz0062.png",
	"frame": {"x":1861,"y":2,"w":141,"h":245},
	"rotated": false,
	"trimmed": false,
	"spriteSourceSize": {"x":0,"y":0,"w":141,"h":245},
	"sourceSize": {"w":141,"h":245},
	"pivot": {"x":0.5,"y":0.5}
},
{
	"filename": "kaz_zzzz0063.png",
	"frame": {"x":1718,"y":2,"w":141,"h":245},
	"rotated": false,
	"trimmed": false,
	"spriteSourceSize": {"x":0,"y":0,"w":141,"h":245},
	"sourceSize": {"w":141,"h":245},
	"pivot": {"x":0.5,"y":0.5}
},
{
	"filename": "kaz_zzzz0064.png",
	"frame": {"x":1718,"y":2,"w":141,"h":245},
	"rotated": false,
	"trimmed": false,
	"spriteSourceSize": {"x":0,"y":0,"w":141,"h":245},
	"sourceSize": {"w":141,"h":245},
	"pivot": {"x":0.5,"y":0.5}
},
{
	"filename": "kaz_zzzz0065.png",
	"frame": {"x":1575,"y":2,"w":141,"h":245},
	"rotated": false,
	"trimmed": false,
	"spriteSourceSize": {"x":0,"y":0,"w":141,"h":245},
	"sourceSize": {"w":141,"h":245},
	"pivot": {"x":0.5,"y":0.5}
},
{
	"filename": "kaz_zzzz0066.png",
	"frame": {"x":1575,"y":2,"w":141,"h":245},
	"rotated": false,
	"trimmed": false,
	"spriteSourceSize": {"x":0,"y":0,"w":141,"h":245},
	"sourceSize": {"w":141,"h":245},
	"pivot": {"x":0.5,"y":0.5}
},
{
	"filename": "kaz_zzzz0067.png",
	"frame": {"x":1289,"y":2,"w":141,"h":245},
	"rotated": false,
	"trimmed": false,
	"spriteSourceSize": {"x":0,"y":0,"w":141,"h":245},
	"sourceSize": {"w":141,"h":245},
	"pivot": {"x":0.5,"y":0.5}
},
{
	"filename": "kaz_zzzz0068.png",
	"frame": {"x":1432,"y":2,"w":141,"h":245},
	"rotated": false,
	"trimmed": false,
	"spriteSourceSize": {"x":0,"y":0,"w":141,"h":245},
	"sourceSize": {"w":141,"h":245},
	"pivot": {"x":0.5,"y":0.5}
},
{
	"filename": "kaz_zzzz0069.png",
	"frame": {"x":1432,"y":2,"w":141,"h":245},
	"rotated": false,
	"trimmed": false,
	"spriteSourceSize": {"x":0,"y":0,"w":141,"h":245},
	"sourceSize": {"w":141,"h":245},
	"pivot": {"x":0.5,"y":0.5}
},
{
	"filename": "kaz_zzzz0070.png",
	"frame": {"x":1432,"y":2,"w":141,"h":245},
	"rotated": false,
	"trimmed": false,
	"spriteSourceSize": {"x":0,"y":0,"w":141,"h":245},
	"sourceSize": {"w":141,"h":245},
	"pivot": {"x":0.5,"y":0.5}
},
{
	"filename": "kaz_zzzz0071.png",
	"frame": {"x":1432,"y":2,"w":141,"h":245},
	"rotated": false,
	"trimmed": false,
	"spriteSourceSize": {"x":0,"y":0,"w":141,"h":245},
	"sourceSize": {"w":141,"h":245},
	"pivot": {"x":0.5,"y":0.5}
},
{
	"filename": "kaz_zzzz0072.png",
	"frame": {"x":1432,"y":2,"w":141,"h":245},
	"rotated": false,
	"trimmed": false,
	"spriteSourceSize": {"x":0,"y":0,"w":141,"h":245},
	"sourceSize": {"w":141,"h":245},
	"pivot": {"x":0.5,"y":0.5}
},
{
	"filename": "kaz_zzzz0073.png",
	"frame": {"x":1432,"y":2,"w":141,"h":245},
	"rotated": false,
	"trimmed": false,
	"spriteSourceSize": {"x":0,"y":0,"w":141,"h":245},
	"sourceSize": {"w":141,"h":245},
	"pivot": {"x":0.5,"y":0.5}
},
{
	"filename": "kaz_zzzz0074.png",
	"frame": {"x":1432,"y":2,"w":141,"h":245},
	"rotated": false,
	"trimmed": false,
	"spriteSourceSize": {"x":0,"y":0,"w":141,"h":245},
	"sourceSize": {"w":141,"h":245},
	"pivot": {"x":0.5,"y":0.5}
},
{
	"filename": "kaz_zzzz0075.png",
	"frame": {"x":1432,"y":2,"w":141,"h":245},
	"rotated": false,
	"trimmed": false,
	"spriteSourceSize": {"x":0,"y":0,"w":141,"h":245},
	"sourceSize": {"w":141,"h":245},
	"pivot": {"x":0.5,"y":0.5}
},
{
	"filename": "kaz_zzzz0076.png",
	"frame": {"x":1289,"y":2,"w":141,"h":245},
	"rotated": false,
	"trimmed": false,
	"spriteSourceSize": {"x":0,"y":0,"w":141,"h":245},
	"sourceSize": {"w":141,"h":245},
	"pivot": {"x":0.5,"y":0.5}
},
{
	"filename": "kaz_zzzz0077.png",
	"frame": {"x":1146,"y":2,"w":141,"h":245},
	"rotated": false,
	"trimmed": false,
	"spriteSourceSize": {"x":0,"y":0,"w":141,"h":245},
	"sourceSize": {"w":141,"h":245},
	"pivot": {"x":0.5,"y":0.5}
},
{
	"filename": "kaz_zzzz0078.png",
	"frame": {"x":1003,"y":2,"w":141,"h":245},
	"rotated": false,
	"trimmed": false,
	"spriteSourceSize": {"x":0,"y":0,"w":141,"h":245},
	"sourceSize": {"w":141,"h":245},
	"pivot": {"x":0.5,"y":0.5}
},
{
	"filename": "kaz_zzzz0079.png",
	"frame": {"x":860,"y":2,"w":141,"h":245},
	"rotated": false,
	"trimmed": false,
	"spriteSourceSize": {"x":0,"y":0,"w":141,"h":245},
	"sourceSize": {"w":141,"h":245},
	"pivot": {"x":0.5,"y":0.5}
},
{
	"filename": "kaz_zzzz0080.png",
	"frame": {"x":717,"y":2,"w":141,"h":245},
	"rotated": false,
	"trimmed": false,
	"spriteSourceSize": {"x":0,"y":0,"w":141,"h":245},
	"sourceSize": {"w":141,"h":245},
	"pivot": {"x":0.5,"y":0.5}
},
{
	"filename": "kaz_zzzz0081.png",
	"frame": {"x":574,"y":2,"w":141,"h":245},
	"rotated": false,
	"trimmed": false,
	"spriteSourceSize": {"x":0,"y":0,"w":141,"h":245},
	"sourceSize": {"w":141,"h":245},
	"pivot": {"x":0.5,"y":0.5}
},
{
	"filename": "kaz_zzzz0082.png",
	"frame": {"x":431,"y":2,"w":141,"h":245},
	"rotated": false,
	"trimmed": false,
	"spriteSourceSize": {"x":0,"y":0,"w":141,"h":245},
	"sourceSize": {"w":141,"h":245},
	"pivot": {"x":0.5,"y":0.5}
},
{
	"filename": "kaz_zzzz0083.png",
	"frame": {"x":431,"y":2,"w":141,"h":245},
	"rotated": false,
	"trimmed": false,
	"spriteSourceSize": {"x":0,"y":0,"w":141,"h":245},
	"sourceSize": {"w":141,"h":245},
	"pivot": {"x":0.5,"y":0.5}
},
{
	"filename": "kaz_zzzz0084.png",
	"frame": {"x":288,"y":2,"w":141,"h":245},
	"rotated": false,
	"trimmed": false,
	"spriteSourceSize": {"x":0,"y":0,"w":141,"h":245},
	"sourceSize": {"w":141,"h":245},
	"pivot": {"x":0.5,"y":0.5}
},
{
	"filename": "kaz_zzzz0085.png",
	"frame": {"x":288,"y":2,"w":141,"h":245},
	"rotated": false,
	"trimmed": false,
	"spriteSourceSize": {"x":0,"y":0,"w":141,"h":245},
	"sourceSize": {"w":141,"h":245},
	"pivot": {"x":0.5,"y":0.5}
},
{
	"filename": "kaz_zzzz0086.png",
	"frame": {"x":145,"y":2,"w":141,"h":245},
	"rotated": false,
	"trimmed": false,
	"spriteSourceSize": {"x":0,"y":0,"w":141,"h":245},
	"sourceSize": {"w":141,"h":245},
	"pivot": {"x":0.5,"y":0.5}
},
{
	"filename": "kaz_zzzz0087.png",
	"frame": {"x":145,"y":2,"w":141,"h":245},
	"rotated": false,
	"trimmed": false,
	"spriteSourceSize": {"x":0,"y":0,"w":141,"h":245},
	"sourceSize": {"w":141,"h":245},
	"pivot": {"x":0.5,"y":0.5}
},
{
	"filename": "kaz_zzzz0088.png",
	"frame": {"x":2,"y":2,"w":141,"h":245},
	"rotated": false,
	"trimmed": false,
	"spriteSourceSize": {"x":0,"y":0,"w":141,"h":245},
	"sourceSize": {"w":141,"h":245},
	"pivot": {"x":0.5,"y":0.5}
},
{
	"filename": "kaz_zzzz0089.png",
	"frame": {"x":2,"y":2,"w":141,"h":245},
	"rotated": false,
	"trimmed": false,
	"spriteSourceSize": {"x":0,"y":0,"w":141,"h":245},
	"sourceSize": {"w":141,"h":245},
	"pivot": {"x":0.5,"y":0.5}
},
{
	"filename": "kaz_zzzz0090.png",
	"frame": {"x":2,"y":2,"w":141,"h":245},
	"rotated": false,
	"trimmed": false,
	"spriteSourceSize": {"x":0,"y":0,"w":141,"h":245},
	"sourceSize": {"w":141,"h":245},
	"pivot": {"x":0.5,"y":0.5}
},
{
	"filename": "kaz_zzzz0091.png",
	"frame": {"x":2,"y":2,"w":141,"h":245},
	"rotated": false,
	"trimmed": false,
	"spriteSourceSize": {"x":0,"y":0,"w":141,"h":245},
	"sourceSize": {"w":141,"h":245},
	"pivot": {"x":0.5,"y":0.5}
},
{
	"filename": "kaz_zzzz0092.png",
	"frame": {"x":2,"y":2,"w":141,"h":245},
	"rotated": false,
	"trimmed": false,
	"spriteSourceSize": {"x":0,"y":0,"w":141,"h":245},
	"sourceSize": {"w":141,"h":245},
	"pivot": {"x":0.5,"y":0.5}
},
{
	"filename": "kaz_zzzz0093.png",
	"frame": {"x":2,"y":2,"w":141,"h":245},
	"rotated": false,
	"trimmed": false,
	"spriteSourceSize": {"x":0,"y":0,"w":141,"h":245},
	"sourceSize": {"w":141,"h":245},
	"pivot": {"x":0.5,"y":0.5}
},
{
	"filename": "kaz_zzzz0094.png",
	"frame": {"x":2,"y":2,"w":141,"h":245},
	"rotated": false,
	"trimmed": false,
	"spriteSourceSize": {"x":0,"y":0,"w":141,"h":245},
	"sourceSize": {"w":141,"h":245},
	"pivot": {"x":0.5,"y":0.5}
},
{
	"filename": "kaz_zzzz0095.png",
	"frame": {"x":2,"y":2,"w":141,"h":245},
	"rotated": false,
	"trimmed": false,
	"spriteSourceSize": {"x":0,"y":0,"w":141,"h":245},
	"sourceSize": {"w":141,"h":245},
	"pivot": {"x":0.5,"y":0.5}
},
{
	"filename": "kaz_zzzz0096.png",
	"frame": {"x":2,"y":2,"w":141,"h":245},
	"rotated": false,
	"trimmed": false,
	"spriteSourceSize": {"x":0,"y":0,"w":141,"h":245},
	"sourceSize": {"w":141,"h":245},
	"pivot": {"x":0.5,"y":0.5}
},
{
	"filename": "kaz_zzzz0097.png",
	"frame": {"x":2,"y":2,"w":141,"h":245},
	"rotated": false,
	"trimmed": false,
	"spriteSourceSize": {"x":0,"y":0,"w":141,"h":245},
	"sourceSize": {"w":141,"h":245},
	"pivot": {"x":0.5,"y":0.5}
},
{
	"filename": "kaz_zzzz0098.png",
	"frame": {"x":2,"y":2,"w":141,"h":245},
	"rotated": false,
	"trimmed": false,
	"spriteSourceSize": {"x":0,"y":0,"w":141,"h":245},
	"sourceSize": {"w":141,"h":245},
	"pivot": {"x":0.5,"y":0.5}
},
{
	"filename": "kaz_zzzz0099.png",
	"frame": {"x":2,"y":2,"w":141,"h":245},
	"rotated": false,
	"trimmed": false,
	"spriteSourceSize": {"x":0,"y":0,"w":141,"h":245},
	"sourceSize": {"w":141,"h":245},
	"pivot": {"x":0.5,"y":0.5}
},
{
	"filename": "kaz_zzzz0100.png",
	"frame": {"x":2,"y":2,"w":141,"h":245},
	"rotated": false,
	"trimmed": false,
	"spriteSourceSize": {"x":0,"y":0,"w":141,"h":245},
	"sourceSize": {"w":141,"h":245},
	"pivot": {"x":0.5,"y":0.5}
},
{
	"filename": "kaz_zzzz0101.png",
	"frame": {"x":2,"y":2,"w":141,"h":245},
	"rotated": false,
	"trimmed": false,
	"spriteSourceSize": {"x":0,"y":0,"w":141,"h":245},
	"sourceSize": {"w":141,"h":245},
	"pivot": {"x":0.5,"y":0.5}
},
{
	"filename": "kaz_zzzz0102.png",
	"frame": {"x":2,"y":2,"w":141,"h":245},
	"rotated": false,
	"trimmed": false,
	"spriteSourceSize": {"x":0,"y":0,"w":141,"h":245},
	"sourceSize": {"w":141,"h":245},
	"pivot": {"x":0.5,"y":0.5}
},
{
	"filename": "kaz_zzzz0103.png",
	"frame": {"x":2,"y":2,"w":141,"h":245},
	"rotated": false,
	"trimmed": false,
	"spriteSourceSize": {"x":0,"y":0,"w":141,"h":245},
	"sourceSize": {"w":141,"h":245},
	"pivot": {"x":0.5,"y":0.5}
},
{
	"filename": "kaz_zzzz0104.png",
	"frame": {"x":2,"y":2,"w":141,"h":245},
	"rotated": false,
	"trimmed": false,
	"spriteSourceSize": {"x":0,"y":0,"w":141,"h":245},
	"sourceSize": {"w":141,"h":245},
	"pivot": {"x":0.5,"y":0.5}
},
{
	"filename": "kaz_zzzz0105.png",
	"frame": {"x":2,"y":2,"w":141,"h":245},
	"rotated": false,
	"trimmed": false,
	"spriteSourceSize": {"x":0,"y":0,"w":141,"h":245},
	"sourceSize": {"w":141,"h":245},
	"pivot": {"x":0.5,"y":0.5}
}],
"meta": {
	"app": "http://www.codeandweb.com/texturepacker",
	"version": "1.0",
	"image": "kaz_zzzz.png",
	"format": "RGBA8888",
	"size": {"w":2004,"h":249},
	"scale": "1",
	"smartupdate": "$TexturePacker:SmartUpdate:4f266d9f3aab5402376a1d1cdeaadc4f:8c7d4e3bbea2bf3e06a9c106825b8166:cec00c02d4e85b8980c934f97a7aa177$"
}
}
