{"frames": [

{
	"filename": "mo_towel0001.png",
	"frame": {"x":2,"y":2,"w":82,"h":255},
	"rotated": false,
	"trimmed": false,
	"spriteSourceSize": {"x":0,"y":0,"w":82,"h":255},
	"sourceSize": {"w":82,"h":255},
	"pivot": {"x":0.5,"y":0.5}
},
{
	"filename": "mo_towel0002.png",
	"frame": {"x":86,"y":2,"w":82,"h":255},
	"rotated": false,
	"trimmed": false,
	"spriteSourceSize": {"x":0,"y":0,"w":82,"h":255},
	"sourceSize": {"w":82,"h":255},
	"pivot": {"x":0.5,"y":0.5}
},
{
	"filename": "mo_towel0003.png",
	"frame": {"x":170,"y":2,"w":82,"h":255},
	"rotated": false,
	"trimmed": false,
	"spriteSourceSize": {"x":0,"y":0,"w":82,"h":255},
	"sourceSize": {"w":82,"h":255},
	"pivot": {"x":0.5,"y":0.5}
},
{
	"filename": "mo_towel0004.png",
	"frame": {"x":2,"y":259,"w":82,"h":255},
	"rotated": false,
	"trimmed": false,
	"spriteSourceSize": {"x":0,"y":0,"w":82,"h":255},
	"sourceSize": {"w":82,"h":255},
	"pivot": {"x":0.5,"y":0.5}
},
{
	"filename": "mo_towel0005.png",
	"frame": {"x":86,"y":259,"w":82,"h":255},
	"rotated": false,
	"trimmed": false,
	"spriteSourceSize": {"x":0,"y":0,"w":82,"h":255},
	"sourceSize": {"w":82,"h":255},
	"pivot": {"x":0.5,"y":0.5}
},
{
	"filename": "mo_towel0006.png",
	"frame": {"x":170,"y":259,"w":82,"h":255},
	"rotated": false,
	"trimmed": false,
	"spriteSourceSize": {"x":0,"y":0,"w":82,"h":255},
	"sourceSize": {"w":82,"h":255},
	"pivot": {"x":0.5,"y":0.5}
},
{
	"filename": "mo_towel0007.png",
	"frame": {"x":2,"y":516,"w":82,"h":255},
	"rotated": false,
	"trimmed": false,
	"spriteSourceSize": {"x":0,"y":0,"w":82,"h":255},
	"sourceSize": {"w":82,"h":255},
	"pivot": {"x":0.5,"y":0.5}
},
{
	"filename": "mo_towel0008.png",
	"frame": {"x":86,"y":516,"w":82,"h":255},
	"rotated": false,
	"trimmed": false,
	"spriteSourceSize": {"x":0,"y":0,"w":82,"h":255},
	"sourceSize": {"w":82,"h":255},
	"pivot": {"x":0.5,"y":0.5}
},
{
	"filename": "mo_towel0009.png",
	"frame": {"x":170,"y":516,"w":82,"h":255},
	"rotated": false,
	"trimmed": false,
	"spriteSourceSize": {"x":0,"y":0,"w":82,"h":255},
	"sourceSize": {"w":82,"h":255},
	"pivot": {"x":0.5,"y":0.5}
},
{
	"filename": "mo_towel0010.png",
	"frame": {"x":2,"y":773,"w":82,"h":255},
	"rotated": false,
	"trimmed": false,
	"spriteSourceSize": {"x":0,"y":0,"w":82,"h":255},
	"sourceSize": {"w":82,"h":255},
	"pivot": {"x":0.5,"y":0.5}
},
{
	"filename": "mo_towel0011.png",
	"frame": {"x":86,"y":773,"w":82,"h":255},
	"rotated": false,
	"trimmed": false,
	"spriteSourceSize": {"x":0,"y":0,"w":82,"h":255},
	"sourceSize": {"w":82,"h":255},
	"pivot": {"x":0.5,"y":0.5}
},
{
	"filename": "mo_towel0012.png",
	"frame": {"x":170,"y":773,"w":82,"h":255},
	"rotated": false,
	"trimmed": false,
	"spriteSourceSize": {"x":0,"y":0,"w":82,"h":255},
	"sourceSize": {"w":82,"h":255},
	"pivot": {"x":0.5,"y":0.5}
},
{
	"filename": "mo_towel0013.png",
	"frame": {"x":2,"y":1030,"w":82,"h":255},
	"rotated": false,
	"trimmed": false,
	"spriteSourceSize": {"x":0,"y":0,"w":82,"h":255},
	"sourceSize": {"w":82,"h":255},
	"pivot": {"x":0.5,"y":0.5}
},
{
	"filename": "mo_towel0014.png",
	"frame": {"x":86,"y":1030,"w":82,"h":255},
	"rotated": false,
	"trimmed": false,
	"spriteSourceSize": {"x":0,"y":0,"w":82,"h":255},
	"sourceSize": {"w":82,"h":255},
	"pivot": {"x":0.5,"y":0.5}
},
{
	"filename": "mo_towel0015.png",
	"frame": {"x":170,"y":1030,"w":82,"h":255},
	"rotated": false,
	"trimmed": false,
	"spriteSourceSize": {"x":0,"y":0,"w":82,"h":255},
	"sourceSize": {"w":82,"h":255},
	"pivot": {"x":0.5,"y":0.5}
},
{
	"filename": "mo_towel0016.png",
	"frame": {"x":2,"y":1287,"w":82,"h":255},
	"rotated": false,
	"trimmed": false,
	"spriteSourceSize": {"x":0,"y":0,"w":82,"h":255},
	"sourceSize": {"w":82,"h":255},
	"pivot": {"x":0.5,"y":0.5}
},
{
	"filename": "mo_towel0017.png",
	"frame": {"x":86,"y":1287,"w":82,"h":255},
	"rotated": false,
	"trimmed": false,
	"spriteSourceSize": {"x":0,"y":0,"w":82,"h":255},
	"sourceSize": {"w":82,"h":255},
	"pivot": {"x":0.5,"y":0.5}
},
{
	"filename": "mo_towel0018.png",
	"frame": {"x":170,"y":1287,"w":82,"h":255},
	"rotated": false,
	"trimmed": false,
	"spriteSourceSize": {"x":0,"y":0,"w":82,"h":255},
	"sourceSize": {"w":82,"h":255},
	"pivot": {"x":0.5,"y":0.5}
},
{
	"filename": "mo_towel0019.png",
	"frame": {"x":2,"y":1544,"w":82,"h":255},
	"rotated": false,
	"trimmed": false,
	"spriteSourceSize": {"x":0,"y":0,"w":82,"h":255},
	"sourceSize": {"w":82,"h":255},
	"pivot": {"x":0.5,"y":0.5}
},
{
	"filename": "mo_towel0020.png",
	"frame": {"x":2,"y":2,"w":82,"h":255},
	"rotated": false,
	"trimmed": false,
	"spriteSourceSize": {"x":0,"y":0,"w":82,"h":255},
	"sourceSize": {"w":82,"h":255},
	"pivot": {"x":0.5,"y":0.5}
},
{
	"filename": "mo_towel0021.png",
	"frame": {"x":2,"y":2,"w":82,"h":255},
	"rotated": false,
	"trimmed": false,
	"spriteSourceSize": {"x":0,"y":0,"w":82,"h":255},
	"sourceSize": {"w":82,"h":255},
	"pivot": {"x":0.5,"y":0.5}
}],
"meta": {
	"app": "http://www.codeandweb.com/texturepacker",
	"version": "1.0",
	"image": "mo_towel.png",
	"format": "RGBA8888",
	"size": {"w":254,"h":1801},
	"scale": "1",
	"smartupdate": "$TexturePacker:SmartUpdate:c6cda15ff77ef3730cf37c36e289078e:70c2e59af8ef57d5767d8f570d68e3de:e33410776c6bc373952c124c02fce265$"
}
}
