{"frames": [

{
	"filename": "AllItems0000",
	"frame": {"x":0,"y":0,"w":95,"h":56},
	"rotated": false,
	"trimmed": false,
	"spriteSourceSize": {"x":0,"y":0,"w":95,"h":56},
	"sourceSize": {"w":95,"h":56}
}
,{
	"filename": "AllItems0001",
	"frame": {"x":0,"y":56,"w":95,"h":56},
	"rotated": false,
	"trimmed": false,
	"spriteSourceSize": {"x":0,"y":0,"w":95,"h":56},
	"sourceSize": {"w":95,"h":56}
}
,{
	"filename": "AllItems0002",
	"frame": {"x":0,"y":112,"w":95,"h":56},
	"rotated": false,
	"trimmed": false,
	"spriteSourceSize": {"x":0,"y":0,"w":95,"h":56},
	"sourceSize": {"w":95,"h":56}
}
,{
	"filename": "AllItems0003",
	"frame": {"x":0,"y":168,"w":95,"h":56},
	"rotated": false,
	"trimmed": false,
	"spriteSourceSize": {"x":0,"y":0,"w":95,"h":56},
	"sourceSize": {"w":95,"h":56}
}],
"meta": {
	"app": "Adobe Flash CS6",
	"version": "12.0.0.481",
	"image": "popletter.png",
	"format": "RGBA8888",
	"size": {"w":128,"h":256},
	"scale": "1"
}
}
