{"frames": [

{
	"filename": "OrangeTree0000",
	"frame": {"x":0,"y":0,"w":123,"h":192},
	"rotated": false,
	"trimmed": false,
	"spriteSourceSize": {"x":0,"y":0,"w":123,"h":192},
	"sourceSize": {"w":123,"h":192}
}
,{
	"filename": "OrangeTree0001",
	"frame": {"x":123,"y":0,"w":123,"h":192},
	"rotated": false,
	"trimmed": false,
	"spriteSourceSize": {"x":0,"y":0,"w":123,"h":192},
	"sourceSize": {"w":123,"h":192}
}],
"meta": {
	"app": "Adobe Flash CS6",
	"version": "12.0.0.481",
	"image": "orangeTree.png",
	"format": "RGBA8888",
	"size": {"w":256,"h":256},
	"scale": "1"
}
}
