{"frames": [

{
	"filename": "rightBench0000",
	"frame": {"x":0,"y":0,"w":225,"h":129},
	"rotated": false,
	"trimmed": false,
	"spriteSourceSize": {"x":0,"y":0,"w":225,"h":129},
	"sourceSize": {"w":225,"h":129}
}
,{
	"filename": "rightBench0001",
	"frame": {"x":0,"y":129,"w":225,"h":129},
	"rotated": false,
	"trimmed": false,
	"spriteSourceSize": {"x":0,"y":0,"w":225,"h":129},
	"sourceSize": {"w":225,"h":129}
}],
"meta": {
	"app": "Adobe Flash CS6",
	"version": "12.0.0.481",
	"image": "rightBench.png",
	"format": "RGBA8888",
	"size": {"w":256,"h":512},
	"scale": "1"
}
}
