{"frames": [

{
	"filename": "gab_towel0001.png",
	"frame": {"x":2,"y":2,"w":84,"h":239},
	"rotated": false,
	"trimmed": false,
	"spriteSourceSize": {"x":0,"y":0,"w":84,"h":239},
	"sourceSize": {"w":84,"h":239},
	"pivot": {"x":0.5,"y":0.5}
},
{
	"filename": "gab_towel0002.png",
	"frame": {"x":88,"y":2,"w":84,"h":239},
	"rotated": false,
	"trimmed": false,
	"spriteSourceSize": {"x":0,"y":0,"w":84,"h":239},
	"sourceSize": {"w":84,"h":239},
	"pivot": {"x":0.5,"y":0.5}
},
{
	"filename": "gab_towel0003.png",
	"frame": {"x":174,"y":2,"w":84,"h":239},
	"rotated": false,
	"trimmed": false,
	"spriteSourceSize": {"x":0,"y":0,"w":84,"h":239},
	"sourceSize": {"w":84,"h":239},
	"pivot": {"x":0.5,"y":0.5}
},
{
	"filename": "gab_towel0004.png",
	"frame": {"x":260,"y":2,"w":84,"h":239},
	"rotated": false,
	"trimmed": false,
	"spriteSourceSize": {"x":0,"y":0,"w":84,"h":239},
	"sourceSize": {"w":84,"h":239},
	"pivot": {"x":0.5,"y":0.5}
},
{
	"filename": "gab_towel0005.png",
	"frame": {"x":346,"y":2,"w":84,"h":239},
	"rotated": false,
	"trimmed": false,
	"spriteSourceSize": {"x":0,"y":0,"w":84,"h":239},
	"sourceSize": {"w":84,"h":239},
	"pivot": {"x":0.5,"y":0.5}
},
{
	"filename": "gab_towel0006.png",
	"frame": {"x":432,"y":2,"w":84,"h":239},
	"rotated": false,
	"trimmed": false,
	"spriteSourceSize": {"x":0,"y":0,"w":84,"h":239},
	"sourceSize": {"w":84,"h":239},
	"pivot": {"x":0.5,"y":0.5}
},
{
	"filename": "gab_towel0007.png",
	"frame": {"x":518,"y":2,"w":84,"h":239},
	"rotated": false,
	"trimmed": false,
	"spriteSourceSize": {"x":0,"y":0,"w":84,"h":239},
	"sourceSize": {"w":84,"h":239},
	"pivot": {"x":0.5,"y":0.5}
},
{
	"filename": "gab_towel0008.png",
	"frame": {"x":604,"y":2,"w":84,"h":239},
	"rotated": false,
	"trimmed": false,
	"spriteSourceSize": {"x":0,"y":0,"w":84,"h":239},
	"sourceSize": {"w":84,"h":239},
	"pivot": {"x":0.5,"y":0.5}
},
{
	"filename": "gab_towel0009.png",
	"frame": {"x":690,"y":2,"w":84,"h":239},
	"rotated": false,
	"trimmed": false,
	"spriteSourceSize": {"x":0,"y":0,"w":84,"h":239},
	"sourceSize": {"w":84,"h":239},
	"pivot": {"x":0.5,"y":0.5}
},
{
	"filename": "gab_towel0010.png",
	"frame": {"x":776,"y":2,"w":84,"h":239},
	"rotated": false,
	"trimmed": false,
	"spriteSourceSize": {"x":0,"y":0,"w":84,"h":239},
	"sourceSize": {"w":84,"h":239},
	"pivot": {"x":0.5,"y":0.5}
},
{
	"filename": "gab_towel0011.png",
	"frame": {"x":862,"y":2,"w":84,"h":239},
	"rotated": false,
	"trimmed": false,
	"spriteSourceSize": {"x":0,"y":0,"w":84,"h":239},
	"sourceSize": {"w":84,"h":239},
	"pivot": {"x":0.5,"y":0.5}
},
{
	"filename": "gab_towel0012.png",
	"frame": {"x":948,"y":2,"w":84,"h":239},
	"rotated": false,
	"trimmed": false,
	"spriteSourceSize": {"x":0,"y":0,"w":84,"h":239},
	"sourceSize": {"w":84,"h":239},
	"pivot": {"x":0.5,"y":0.5}
},
{
	"filename": "gab_towel0013.png",
	"frame": {"x":1034,"y":2,"w":84,"h":239},
	"rotated": false,
	"trimmed": false,
	"spriteSourceSize": {"x":0,"y":0,"w":84,"h":239},
	"sourceSize": {"w":84,"h":239},
	"pivot": {"x":0.5,"y":0.5}
},
{
	"filename": "gab_towel0014.png",
	"frame": {"x":1120,"y":2,"w":84,"h":239},
	"rotated": false,
	"trimmed": false,
	"spriteSourceSize": {"x":0,"y":0,"w":84,"h":239},
	"sourceSize": {"w":84,"h":239},
	"pivot": {"x":0.5,"y":0.5}
},
{
	"filename": "gab_towel0015.png",
	"frame": {"x":1206,"y":2,"w":84,"h":239},
	"rotated": false,
	"trimmed": false,
	"spriteSourceSize": {"x":0,"y":0,"w":84,"h":239},
	"sourceSize": {"w":84,"h":239},
	"pivot": {"x":0.5,"y":0.5}
},
{
	"filename": "gab_towel0016.png",
	"frame": {"x":1292,"y":2,"w":84,"h":239},
	"rotated": false,
	"trimmed": false,
	"spriteSourceSize": {"x":0,"y":0,"w":84,"h":239},
	"sourceSize": {"w":84,"h":239},
	"pivot": {"x":0.5,"y":0.5}
},
{
	"filename": "gab_towel0017.png",
	"frame": {"x":1378,"y":2,"w":84,"h":239},
	"rotated": false,
	"trimmed": false,
	"spriteSourceSize": {"x":0,"y":0,"w":84,"h":239},
	"sourceSize": {"w":84,"h":239},
	"pivot": {"x":0.5,"y":0.5}
},
{
	"filename": "gab_towel0018.png",
	"frame": {"x":2,"y":243,"w":84,"h":239},
	"rotated": false,
	"trimmed": false,
	"spriteSourceSize": {"x":0,"y":0,"w":84,"h":239},
	"sourceSize": {"w":84,"h":239},
	"pivot": {"x":0.5,"y":0.5}
},
{
	"filename": "gab_towel0019.png",
	"frame": {"x":88,"y":243,"w":84,"h":239},
	"rotated": false,
	"trimmed": false,
	"spriteSourceSize": {"x":0,"y":0,"w":84,"h":239},
	"sourceSize": {"w":84,"h":239},
	"pivot": {"x":0.5,"y":0.5}
},
{
	"filename": "gab_towel0020.png",
	"frame": {"x":174,"y":243,"w":84,"h":239},
	"rotated": false,
	"trimmed": false,
	"spriteSourceSize": {"x":0,"y":0,"w":84,"h":239},
	"sourceSize": {"w":84,"h":239},
	"pivot": {"x":0.5,"y":0.5}
},
{
	"filename": "gab_towel0021.png",
	"frame": {"x":260,"y":243,"w":84,"h":239},
	"rotated": false,
	"trimmed": false,
	"spriteSourceSize": {"x":0,"y":0,"w":84,"h":239},
	"sourceSize": {"w":84,"h":239},
	"pivot": {"x":0.5,"y":0.5}
},
{
	"filename": "gab_towel0022.png",
	"frame": {"x":346,"y":243,"w":84,"h":239},
	"rotated": false,
	"trimmed": false,
	"spriteSourceSize": {"x":0,"y":0,"w":84,"h":239},
	"sourceSize": {"w":84,"h":239},
	"pivot": {"x":0.5,"y":0.5}
},
{
	"filename": "gab_towel0023.png",
	"frame": {"x":432,"y":243,"w":84,"h":239},
	"rotated": false,
	"trimmed": false,
	"spriteSourceSize": {"x":0,"y":0,"w":84,"h":239},
	"sourceSize": {"w":84,"h":239},
	"pivot": {"x":0.5,"y":0.5}
},
{
	"filename": "gab_towel0024.png",
	"frame": {"x":518,"y":243,"w":84,"h":239},
	"rotated": false,
	"trimmed": false,
	"spriteSourceSize": {"x":0,"y":0,"w":84,"h":239},
	"sourceSize": {"w":84,"h":239},
	"pivot": {"x":0.5,"y":0.5}
},
{
	"filename": "gab_towel0025.png",
	"frame": {"x":604,"y":243,"w":84,"h":239},
	"rotated": false,
	"trimmed": false,
	"spriteSourceSize": {"x":0,"y":0,"w":84,"h":239},
	"sourceSize": {"w":84,"h":239},
	"pivot": {"x":0.5,"y":0.5}
},
{
	"filename": "gab_towel0026.png",
	"frame": {"x":690,"y":243,"w":84,"h":239},
	"rotated": false,
	"trimmed": false,
	"spriteSourceSize": {"x":0,"y":0,"w":84,"h":239},
	"sourceSize": {"w":84,"h":239},
	"pivot": {"x":0.5,"y":0.5}
},
{
	"filename": "gab_towel0027.png",
	"frame": {"x":776,"y":243,"w":84,"h":239},
	"rotated": false,
	"trimmed": false,
	"spriteSourceSize": {"x":0,"y":0,"w":84,"h":239},
	"sourceSize": {"w":84,"h":239},
	"pivot": {"x":0.5,"y":0.5}
},
{
	"filename": "gab_towel0028.png",
	"frame": {"x":862,"y":243,"w":84,"h":239},
	"rotated": false,
	"trimmed": false,
	"spriteSourceSize": {"x":0,"y":0,"w":84,"h":239},
	"sourceSize": {"w":84,"h":239},
	"pivot": {"x":0.5,"y":0.5}
},
{
	"filename": "gab_towel0029.png",
	"frame": {"x":948,"y":243,"w":84,"h":239},
	"rotated": false,
	"trimmed": false,
	"spriteSourceSize": {"x":0,"y":0,"w":84,"h":239},
	"sourceSize": {"w":84,"h":239},
	"pivot": {"x":0.5,"y":0.5}
},
{
	"filename": "gab_towel0030.png",
	"frame": {"x":1034,"y":243,"w":84,"h":239},
	"rotated": false,
	"trimmed": false,
	"spriteSourceSize": {"x":0,"y":0,"w":84,"h":239},
	"sourceSize": {"w":84,"h":239},
	"pivot": {"x":0.5,"y":0.5}
},
{
	"filename": "gab_towel0031.png",
	"frame": {"x":1120,"y":243,"w":84,"h":239},
	"rotated": false,
	"trimmed": false,
	"spriteSourceSize": {"x":0,"y":0,"w":84,"h":239},
	"sourceSize": {"w":84,"h":239},
	"pivot": {"x":0.5,"y":0.5}
},
{
	"filename": "gab_towel0032.png",
	"frame": {"x":1206,"y":243,"w":84,"h":239},
	"rotated": false,
	"trimmed": false,
	"spriteSourceSize": {"x":0,"y":0,"w":84,"h":239},
	"sourceSize": {"w":84,"h":239},
	"pivot": {"x":0.5,"y":0.5}
},
{
	"filename": "gab_towel0033.png",
	"frame": {"x":1292,"y":243,"w":84,"h":239},
	"rotated": false,
	"trimmed": false,
	"spriteSourceSize": {"x":0,"y":0,"w":84,"h":239},
	"sourceSize": {"w":84,"h":239},
	"pivot": {"x":0.5,"y":0.5}
}],
"meta": {
	"app": "http://www.codeandweb.com/texturepacker",
	"version": "1.0",
	"image": "gab_towel.png",
	"format": "RGBA8888",
	"size": {"w":1464,"h":484},
	"scale": "1",
	"smartupdate": "$TexturePacker:SmartUpdate:50db4cef894c0a13a2a674abe81732f7:6c1c4a12c5a1a0b5855a5b854321f5a0:e5dc6d6b618b2722af4de83b8a590203$"
}
}
