	{ 
		
		"game": [
			
				{
					"density": 2, "friction": 0, "bounce": 0, 
					"filter": { "categoryBits": 1, "maskBits": 65535 },
					"shape": [   442, 351.5  ,  352, 350.5  ,  364, 340.5  ,  441, 340.5  ,  453, 346.5  ]
				}  ,
				{
					"density": 2, "friction": 0, "bounce": 0, 
					"filter": { "categoryBits": 1, "maskBits": 65535 },
					"shape": [   364, 340.5  ,  352, 350.5  ,  352.5, 340  ]
				}  
		]
		
	}