{"frames": [

{
	"filename": "a10001.png",
	"frame": {"x":2,"y":2,"w":570,"h":403},
	"rotated": false,
	"trimmed": false,
	"spriteSourceSize": {"x":0,"y":0,"w":570,"h":403},
	"sourceSize": {"w":570,"h":403},
	"pivot": {"x":0.5,"y":0.5}
},
{
	"filename": "a10002.png",
	"frame": {"x":574,"y":2,"w":570,"h":403},
	"rotated": false,
	"trimmed": false,
	"spriteSourceSize": {"x":0,"y":0,"w":570,"h":403},
	"sourceSize": {"w":570,"h":403},
	"pivot": {"x":0.5,"y":0.5}
},
{
	"filename": "a10003.png",
	"frame": {"x":1146,"y":2,"w":570,"h":403},
	"rotated": false,
	"trimmed": false,
	"spriteSourceSize": {"x":0,"y":0,"w":570,"h":403},
	"sourceSize": {"w":570,"h":403},
	"pivot": {"x":0.5,"y":0.5}
},
{
	"filename": "a10004.png",
	"frame": {"x":2,"y":407,"w":570,"h":403},
	"rotated": false,
	"trimmed": false,
	"spriteSourceSize": {"x":0,"y":0,"w":570,"h":403},
	"sourceSize": {"w":570,"h":403},
	"pivot": {"x":0.5,"y":0.5}
},
{
	"filename": "a10005.png",
	"frame": {"x":574,"y":407,"w":570,"h":403},
	"rotated": false,
	"trimmed": false,
	"spriteSourceSize": {"x":0,"y":0,"w":570,"h":403},
	"sourceSize": {"w":570,"h":403},
	"pivot": {"x":0.5,"y":0.5}
},
{
	"filename": "a10006.png",
	"frame": {"x":1146,"y":407,"w":570,"h":403},
	"rotated": false,
	"trimmed": false,
	"spriteSourceSize": {"x":0,"y":0,"w":570,"h":403},
	"sourceSize": {"w":570,"h":403},
	"pivot": {"x":0.5,"y":0.5}
},
{
	"filename": "a10007.png",
	"frame": {"x":2,"y":812,"w":570,"h":403},
	"rotated": false,
	"trimmed": false,
	"spriteSourceSize": {"x":0,"y":0,"w":570,"h":403},
	"sourceSize": {"w":570,"h":403},
	"pivot": {"x":0.5,"y":0.5}
},
{
	"filename": "a10008.png",
	"frame": {"x":574,"y":812,"w":570,"h":403},
	"rotated": false,
	"trimmed": false,
	"spriteSourceSize": {"x":0,"y":0,"w":570,"h":403},
	"sourceSize": {"w":570,"h":403},
	"pivot": {"x":0.5,"y":0.5}
},
{
	"filename": "a10009.png",
	"frame": {"x":1146,"y":812,"w":570,"h":403},
	"rotated": false,
	"trimmed": false,
	"spriteSourceSize": {"x":0,"y":0,"w":570,"h":403},
	"sourceSize": {"w":570,"h":403},
	"pivot": {"x":0.5,"y":0.5}
},
{
	"filename": "a10010.png",
	"frame": {"x":2,"y":1217,"w":570,"h":403},
	"rotated": false,
	"trimmed": false,
	"spriteSourceSize": {"x":0,"y":0,"w":570,"h":403},
	"sourceSize": {"w":570,"h":403},
	"pivot": {"x":0.5,"y":0.5}
},
{
	"filename": "a10011.png",
	"frame": {"x":574,"y":1217,"w":570,"h":403},
	"rotated": false,
	"trimmed": false,
	"spriteSourceSize": {"x":0,"y":0,"w":570,"h":403},
	"sourceSize": {"w":570,"h":403},
	"pivot": {"x":0.5,"y":0.5}
},
{
	"filename": "a10012.png",
	"frame": {"x":1146,"y":1217,"w":570,"h":403},
	"rotated": false,
	"trimmed": false,
	"spriteSourceSize": {"x":0,"y":0,"w":570,"h":403},
	"sourceSize": {"w":570,"h":403},
	"pivot": {"x":0.5,"y":0.5}
},
{
	"filename": "a10013.png",
	"frame": {"x":2,"y":1622,"w":570,"h":403},
	"rotated": false,
	"trimmed": false,
	"spriteSourceSize": {"x":0,"y":0,"w":570,"h":403},
	"sourceSize": {"w":570,"h":403},
	"pivot": {"x":0.5,"y":0.5}
},
{
	"filename": "a10014.png",
	"frame": {"x":574,"y":1622,"w":570,"h":403},
	"rotated": false,
	"trimmed": false,
	"spriteSourceSize": {"x":0,"y":0,"w":570,"h":403},
	"sourceSize": {"w":570,"h":403},
	"pivot": {"x":0.5,"y":0.5}
},
{
	"filename": "a10015.png",
	"frame": {"x":1146,"y":1622,"w":570,"h":403},
	"rotated": false,
	"trimmed": false,
	"spriteSourceSize": {"x":0,"y":0,"w":570,"h":403},
	"sourceSize": {"w":570,"h":403},
	"pivot": {"x":0.5,"y":0.5}
},
{
	"filename": "a10016.png",
	"frame": {"x":2,"y":2027,"w":570,"h":403},
	"rotated": false,
	"trimmed": false,
	"spriteSourceSize": {"x":0,"y":0,"w":570,"h":403},
	"sourceSize": {"w":570,"h":403},
	"pivot": {"x":0.5,"y":0.5}
},
{
	"filename": "a10017.png",
	"frame": {"x":574,"y":2027,"w":570,"h":403},
	"rotated": false,
	"trimmed": false,
	"spriteSourceSize": {"x":0,"y":0,"w":570,"h":403},
	"sourceSize": {"w":570,"h":403},
	"pivot": {"x":0.5,"y":0.5}
},
{
	"filename": "a10018.png",
	"frame": {"x":1146,"y":2027,"w":570,"h":403},
	"rotated": false,
	"trimmed": false,
	"spriteSourceSize": {"x":0,"y":0,"w":570,"h":403},
	"sourceSize": {"w":570,"h":403},
	"pivot": {"x":0.5,"y":0.5}
},
{
	"filename": "a10019.png",
	"frame": {"x":2,"y":2432,"w":570,"h":403},
	"rotated": false,
	"trimmed": false,
	"spriteSourceSize": {"x":0,"y":0,"w":570,"h":403},
	"sourceSize": {"w":570,"h":403},
	"pivot": {"x":0.5,"y":0.5}
},
{
	"filename": "a10020.png",
	"frame": {"x":574,"y":2432,"w":570,"h":403},
	"rotated": false,
	"trimmed": false,
	"spriteSourceSize": {"x":0,"y":0,"w":570,"h":403},
	"sourceSize": {"w":570,"h":403},
	"pivot": {"x":0.5,"y":0.5}
},
{
	"filename": "a10021.png",
	"frame": {"x":1146,"y":2432,"w":570,"h":403},
	"rotated": false,
	"trimmed": false,
	"spriteSourceSize": {"x":0,"y":0,"w":570,"h":403},
	"sourceSize": {"w":570,"h":403},
	"pivot": {"x":0.5,"y":0.5}
},
{
	"filename": "a10022.png",
	"frame": {"x":2,"y":2837,"w":570,"h":403},
	"rotated": false,
	"trimmed": false,
	"spriteSourceSize": {"x":0,"y":0,"w":570,"h":403},
	"sourceSize": {"w":570,"h":403},
	"pivot": {"x":0.5,"y":0.5}
},
{
	"filename": "a10023.png",
	"frame": {"x":574,"y":2837,"w":570,"h":403},
	"rotated": false,
	"trimmed": false,
	"spriteSourceSize": {"x":0,"y":0,"w":570,"h":403},
	"sourceSize": {"w":570,"h":403},
	"pivot": {"x":0.5,"y":0.5}
},
{
	"filename": "a10024.png",
	"frame": {"x":1146,"y":2837,"w":570,"h":403},
	"rotated": false,
	"trimmed": false,
	"spriteSourceSize": {"x":0,"y":0,"w":570,"h":403},
	"sourceSize": {"w":570,"h":403},
	"pivot": {"x":0.5,"y":0.5}
}],
"meta": {
	"app": "http://www.codeandweb.com/texturepacker",
	"version": "1.0",
	"image": "success1.png",
	"format": "RGBA8888",
	"size": {"w":1718,"h":3242},
	"scale": "1",
	"smartupdate": "$TexturePacker:SmartUpdate:12f887de18ed4bf6dd8db8411b89600e:b3661b1d3dde7b1bd4b5d7ac081e0b13:ced7a6fbb0ec72b1d25e202b60097872$"
}
}
