{"frames": [

{
	"filename": "ClearButton0000",
	"frame": {"x":0,"y":0,"w":89,"h":89},
	"rotated": false,
	"trimmed": false,
	"spriteSourceSize": {"x":0,"y":0,"w":89,"h":89},
	"sourceSize": {"w":89,"h":89}
}
,{
	"filename": "ClearButton0001",
	"frame": {"x":89,"y":0,"w":89,"h":89},
	"rotated": false,
	"trimmed": false,
	"spriteSourceSize": {"x":0,"y":0,"w":89,"h":89},
	"sourceSize": {"w":89,"h":89}
}
,{
	"filename": "ClearButton0002",
	"frame": {"x":0,"y":89,"w":89,"h":89},
	"rotated": false,
	"trimmed": false,
	"spriteSourceSize": {"x":0,"y":0,"w":89,"h":89},
	"sourceSize": {"w":89,"h":89}
}],
"meta": {
	"app": "Adobe Flash CS6",
	"version": "12.0.0.481",
	"image": "clearBtn.png",
	"format": "RGBA8888",
	"size": {"w":256,"h":256},
	"scale": "1"
}
}
