{"frames": [

{
	"filename": "ridl_zzzz0001.png",
	"frame": {"x":2,"y":2,"w":147,"h":270},
	"rotated": false,
	"trimmed": false,
	"spriteSourceSize": {"x":0,"y":0,"w":147,"h":270},
	"sourceSize": {"w":147,"h":270},
	"pivot": {"x":0.5,"y":0.5}
},
{
	"filename": "ridl_zzzz0002.png",
	"frame": {"x":151,"y":2,"w":147,"h":270},
	"rotated": false,
	"trimmed": false,
	"spriteSourceSize": {"x":0,"y":0,"w":147,"h":270},
	"sourceSize": {"w":147,"h":270},
	"pivot": {"x":0.5,"y":0.5}
},
{
	"filename": "ridl_zzzz0003.png",
	"frame": {"x":300,"y":2,"w":147,"h":270},
	"rotated": false,
	"trimmed": false,
	"spriteSourceSize": {"x":0,"y":0,"w":147,"h":270},
	"sourceSize": {"w":147,"h":270},
	"pivot": {"x":0.5,"y":0.5}
},
{
	"filename": "ridl_zzzz0004.png",
	"frame": {"x":2,"y":274,"w":147,"h":270},
	"rotated": false,
	"trimmed": false,
	"spriteSourceSize": {"x":0,"y":0,"w":147,"h":270},
	"sourceSize": {"w":147,"h":270},
	"pivot": {"x":0.5,"y":0.5}
},
{
	"filename": "ridl_zzzz0005.png",
	"frame": {"x":151,"y":274,"w":147,"h":270},
	"rotated": false,
	"trimmed": false,
	"spriteSourceSize": {"x":0,"y":0,"w":147,"h":270},
	"sourceSize": {"w":147,"h":270},
	"pivot": {"x":0.5,"y":0.5}
},
{
	"filename": "ridl_zzzz0006.png",
	"frame": {"x":300,"y":274,"w":147,"h":270},
	"rotated": false,
	"trimmed": false,
	"spriteSourceSize": {"x":0,"y":0,"w":147,"h":270},
	"sourceSize": {"w":147,"h":270},
	"pivot": {"x":0.5,"y":0.5}
},
{
	"filename": "ridl_zzzz0007.png",
	"frame": {"x":2,"y":546,"w":147,"h":270},
	"rotated": false,
	"trimmed": false,
	"spriteSourceSize": {"x":0,"y":0,"w":147,"h":270},
	"sourceSize": {"w":147,"h":270},
	"pivot": {"x":0.5,"y":0.5}
},
{
	"filename": "ridl_zzzz0008.png",
	"frame": {"x":151,"y":546,"w":147,"h":270},
	"rotated": false,
	"trimmed": false,
	"spriteSourceSize": {"x":0,"y":0,"w":147,"h":270},
	"sourceSize": {"w":147,"h":270},
	"pivot": {"x":0.5,"y":0.5}
},
{
	"filename": "ridl_zzzz0009.png",
	"frame": {"x":300,"y":546,"w":147,"h":270},
	"rotated": false,
	"trimmed": false,
	"spriteSourceSize": {"x":0,"y":0,"w":147,"h":270},
	"sourceSize": {"w":147,"h":270},
	"pivot": {"x":0.5,"y":0.5}
},
{
	"filename": "ridl_zzzz0010.png",
	"frame": {"x":300,"y":546,"w":147,"h":270},
	"rotated": false,
	"trimmed": false,
	"spriteSourceSize": {"x":0,"y":0,"w":147,"h":270},
	"sourceSize": {"w":147,"h":270},
	"pivot": {"x":0.5,"y":0.5}
},
{
	"filename": "ridl_zzzz0011.png",
	"frame": {"x":2,"y":818,"w":147,"h":270},
	"rotated": false,
	"trimmed": false,
	"spriteSourceSize": {"x":0,"y":0,"w":147,"h":270},
	"sourceSize": {"w":147,"h":270},
	"pivot": {"x":0.5,"y":0.5}
},
{
	"filename": "ridl_zzzz0012.png",
	"frame": {"x":151,"y":818,"w":147,"h":270},
	"rotated": false,
	"trimmed": false,
	"spriteSourceSize": {"x":0,"y":0,"w":147,"h":270},
	"sourceSize": {"w":147,"h":270},
	"pivot": {"x":0.5,"y":0.5}
},
{
	"filename": "ridl_zzzz0013.png",
	"frame": {"x":151,"y":818,"w":147,"h":270},
	"rotated": false,
	"trimmed": false,
	"spriteSourceSize": {"x":0,"y":0,"w":147,"h":270},
	"sourceSize": {"w":147,"h":270},
	"pivot": {"x":0.5,"y":0.5}
},
{
	"filename": "ridl_zzzz0014.png",
	"frame": {"x":151,"y":818,"w":147,"h":270},
	"rotated": false,
	"trimmed": false,
	"spriteSourceSize": {"x":0,"y":0,"w":147,"h":270},
	"sourceSize": {"w":147,"h":270},
	"pivot": {"x":0.5,"y":0.5}
},
{
	"filename": "ridl_zzzz0015.png",
	"frame": {"x":151,"y":818,"w":147,"h":270},
	"rotated": false,
	"trimmed": false,
	"spriteSourceSize": {"x":0,"y":0,"w":147,"h":270},
	"sourceSize": {"w":147,"h":270},
	"pivot": {"x":0.5,"y":0.5}
},
{
	"filename": "ridl_zzzz0016.png",
	"frame": {"x":151,"y":818,"w":147,"h":270},
	"rotated": false,
	"trimmed": false,
	"spriteSourceSize": {"x":0,"y":0,"w":147,"h":270},
	"sourceSize": {"w":147,"h":270},
	"pivot": {"x":0.5,"y":0.5}
},
{
	"filename": "ridl_zzzz0017.png",
	"frame": {"x":151,"y":818,"w":147,"h":270},
	"rotated": false,
	"trimmed": false,
	"spriteSourceSize": {"x":0,"y":0,"w":147,"h":270},
	"sourceSize": {"w":147,"h":270},
	"pivot": {"x":0.5,"y":0.5}
},
{
	"filename": "ridl_zzzz0018.png",
	"frame": {"x":300,"y":818,"w":147,"h":270},
	"rotated": false,
	"trimmed": false,
	"spriteSourceSize": {"x":0,"y":0,"w":147,"h":270},
	"sourceSize": {"w":147,"h":270},
	"pivot": {"x":0.5,"y":0.5}
},
{
	"filename": "ridl_zzzz0019.png",
	"frame": {"x":2,"y":1090,"w":147,"h":270},
	"rotated": false,
	"trimmed": false,
	"spriteSourceSize": {"x":0,"y":0,"w":147,"h":270},
	"sourceSize": {"w":147,"h":270},
	"pivot": {"x":0.5,"y":0.5}
},
{
	"filename": "ridl_zzzz0020.png",
	"frame": {"x":2,"y":1090,"w":147,"h":270},
	"rotated": false,
	"trimmed": false,
	"spriteSourceSize": {"x":0,"y":0,"w":147,"h":270},
	"sourceSize": {"w":147,"h":270},
	"pivot": {"x":0.5,"y":0.5}
},
{
	"filename": "ridl_zzzz0021.png",
	"frame": {"x":151,"y":1090,"w":147,"h":270},
	"rotated": false,
	"trimmed": false,
	"spriteSourceSize": {"x":0,"y":0,"w":147,"h":270},
	"sourceSize": {"w":147,"h":270},
	"pivot": {"x":0.5,"y":0.5}
},
{
	"filename": "ridl_zzzz0022.png",
	"frame": {"x":151,"y":1090,"w":147,"h":270},
	"rotated": false,
	"trimmed": false,
	"spriteSourceSize": {"x":0,"y":0,"w":147,"h":270},
	"sourceSize": {"w":147,"h":270},
	"pivot": {"x":0.5,"y":0.5}
},
{
	"filename": "ridl_zzzz0023.png",
	"frame": {"x":300,"y":1090,"w":147,"h":270},
	"rotated": false,
	"trimmed": false,
	"spriteSourceSize": {"x":0,"y":0,"w":147,"h":270},
	"sourceSize": {"w":147,"h":270},
	"pivot": {"x":0.5,"y":0.5}
},
{
	"filename": "ridl_zzzz0024.png",
	"frame": {"x":2,"y":1362,"w":147,"h":270},
	"rotated": false,
	"trimmed": false,
	"spriteSourceSize": {"x":0,"y":0,"w":147,"h":270},
	"sourceSize": {"w":147,"h":270},
	"pivot": {"x":0.5,"y":0.5}
},
{
	"filename": "ridl_zzzz0025.png",
	"frame": {"x":2,"y":1362,"w":147,"h":270},
	"rotated": false,
	"trimmed": false,
	"spriteSourceSize": {"x":0,"y":0,"w":147,"h":270},
	"sourceSize": {"w":147,"h":270},
	"pivot": {"x":0.5,"y":0.5}
},
{
	"filename": "ridl_zzzz0026.png",
	"frame": {"x":2,"y":1362,"w":147,"h":270},
	"rotated": false,
	"trimmed": false,
	"spriteSourceSize": {"x":0,"y":0,"w":147,"h":270},
	"sourceSize": {"w":147,"h":270},
	"pivot": {"x":0.5,"y":0.5}
},
{
	"filename": "ridl_zzzz0027.png",
	"frame": {"x":2,"y":1362,"w":147,"h":270},
	"rotated": false,
	"trimmed": false,
	"spriteSourceSize": {"x":0,"y":0,"w":147,"h":270},
	"sourceSize": {"w":147,"h":270},
	"pivot": {"x":0.5,"y":0.5}
},
{
	"filename": "ridl_zzzz0028.png",
	"frame": {"x":2,"y":1362,"w":147,"h":270},
	"rotated": false,
	"trimmed": false,
	"spriteSourceSize": {"x":0,"y":0,"w":147,"h":270},
	"sourceSize": {"w":147,"h":270},
	"pivot": {"x":0.5,"y":0.5}
},
{
	"filename": "ridl_zzzz0029.png",
	"frame": {"x":2,"y":1362,"w":147,"h":270},
	"rotated": false,
	"trimmed": false,
	"spriteSourceSize": {"x":0,"y":0,"w":147,"h":270},
	"sourceSize": {"w":147,"h":270},
	"pivot": {"x":0.5,"y":0.5}
},
{
	"filename": "ridl_zzzz0030.png",
	"frame": {"x":2,"y":1362,"w":147,"h":270},
	"rotated": false,
	"trimmed": false,
	"spriteSourceSize": {"x":0,"y":0,"w":147,"h":270},
	"sourceSize": {"w":147,"h":270},
	"pivot": {"x":0.5,"y":0.5}
},
{
	"filename": "ridl_zzzz0031.png",
	"frame": {"x":2,"y":1362,"w":147,"h":270},
	"rotated": false,
	"trimmed": false,
	"spriteSourceSize": {"x":0,"y":0,"w":147,"h":270},
	"sourceSize": {"w":147,"h":270},
	"pivot": {"x":0.5,"y":0.5}
},
{
	"filename": "ridl_zzzz0032.png",
	"frame": {"x":2,"y":1362,"w":147,"h":270},
	"rotated": false,
	"trimmed": false,
	"spriteSourceSize": {"x":0,"y":0,"w":147,"h":270},
	"sourceSize": {"w":147,"h":270},
	"pivot": {"x":0.5,"y":0.5}
},
{
	"filename": "ridl_zzzz0033.png",
	"frame": {"x":2,"y":1362,"w":147,"h":270},
	"rotated": false,
	"trimmed": false,
	"spriteSourceSize": {"x":0,"y":0,"w":147,"h":270},
	"sourceSize": {"w":147,"h":270},
	"pivot": {"x":0.5,"y":0.5}
},
{
	"filename": "ridl_zzzz0034.png",
	"frame": {"x":2,"y":1362,"w":147,"h":270},
	"rotated": false,
	"trimmed": false,
	"spriteSourceSize": {"x":0,"y":0,"w":147,"h":270},
	"sourceSize": {"w":147,"h":270},
	"pivot": {"x":0.5,"y":0.5}
},
{
	"filename": "ridl_zzzz0035.png",
	"frame": {"x":2,"y":1362,"w":147,"h":270},
	"rotated": false,
	"trimmed": false,
	"spriteSourceSize": {"x":0,"y":0,"w":147,"h":270},
	"sourceSize": {"w":147,"h":270},
	"pivot": {"x":0.5,"y":0.5}
},
{
	"filename": "ridl_zzzz0036.png",
	"frame": {"x":300,"y":1090,"w":147,"h":270},
	"rotated": false,
	"trimmed": false,
	"spriteSourceSize": {"x":0,"y":0,"w":147,"h":270},
	"sourceSize": {"w":147,"h":270},
	"pivot": {"x":0.5,"y":0.5}
},
{
	"filename": "ridl_zzzz0037.png",
	"frame": {"x":151,"y":1090,"w":147,"h":270},
	"rotated": false,
	"trimmed": false,
	"spriteSourceSize": {"x":0,"y":0,"w":147,"h":270},
	"sourceSize": {"w":147,"h":270},
	"pivot": {"x":0.5,"y":0.5}
},
{
	"filename": "ridl_zzzz0038.png",
	"frame": {"x":151,"y":1090,"w":147,"h":270},
	"rotated": false,
	"trimmed": false,
	"spriteSourceSize": {"x":0,"y":0,"w":147,"h":270},
	"sourceSize": {"w":147,"h":270},
	"pivot": {"x":0.5,"y":0.5}
},
{
	"filename": "ridl_zzzz0039.png",
	"frame": {"x":2,"y":1090,"w":147,"h":270},
	"rotated": false,
	"trimmed": false,
	"spriteSourceSize": {"x":0,"y":0,"w":147,"h":270},
	"sourceSize": {"w":147,"h":270},
	"pivot": {"x":0.5,"y":0.5}
},
{
	"filename": "ridl_zzzz0040.png",
	"frame": {"x":2,"y":1090,"w":147,"h":270},
	"rotated": false,
	"trimmed": false,
	"spriteSourceSize": {"x":0,"y":0,"w":147,"h":270},
	"sourceSize": {"w":147,"h":270},
	"pivot": {"x":0.5,"y":0.5}
},
{
	"filename": "ridl_zzzz0041.png",
	"frame": {"x":300,"y":818,"w":147,"h":270},
	"rotated": false,
	"trimmed": false,
	"spriteSourceSize": {"x":0,"y":0,"w":147,"h":270},
	"sourceSize": {"w":147,"h":270},
	"pivot": {"x":0.5,"y":0.5}
},
{
	"filename": "ridl_zzzz0042.png",
	"frame": {"x":300,"y":818,"w":147,"h":270},
	"rotated": false,
	"trimmed": false,
	"spriteSourceSize": {"x":0,"y":0,"w":147,"h":270},
	"sourceSize": {"w":147,"h":270},
	"pivot": {"x":0.5,"y":0.5}
},
{
	"filename": "ridl_zzzz0043.png",
	"frame": {"x":300,"y":818,"w":147,"h":270},
	"rotated": false,
	"trimmed": false,
	"spriteSourceSize": {"x":0,"y":0,"w":147,"h":270},
	"sourceSize": {"w":147,"h":270},
	"pivot": {"x":0.5,"y":0.5}
},
{
	"filename": "ridl_zzzz0044.png",
	"frame": {"x":300,"y":818,"w":147,"h":270},
	"rotated": false,
	"trimmed": false,
	"spriteSourceSize": {"x":0,"y":0,"w":147,"h":270},
	"sourceSize": {"w":147,"h":270},
	"pivot": {"x":0.5,"y":0.5}
},
{
	"filename": "ridl_zzzz0045.png",
	"frame": {"x":300,"y":818,"w":147,"h":270},
	"rotated": false,
	"trimmed": false,
	"spriteSourceSize": {"x":0,"y":0,"w":147,"h":270},
	"sourceSize": {"w":147,"h":270},
	"pivot": {"x":0.5,"y":0.5}
},
{
	"filename": "ridl_zzzz0046.png",
	"frame": {"x":300,"y":818,"w":147,"h":270},
	"rotated": false,
	"trimmed": false,
	"spriteSourceSize": {"x":0,"y":0,"w":147,"h":270},
	"sourceSize": {"w":147,"h":270},
	"pivot": {"x":0.5,"y":0.5}
},
{
	"filename": "ridl_zzzz0047.png",
	"frame": {"x":300,"y":818,"w":147,"h":270},
	"rotated": false,
	"trimmed": false,
	"spriteSourceSize": {"x":0,"y":0,"w":147,"h":270},
	"sourceSize": {"w":147,"h":270},
	"pivot": {"x":0.5,"y":0.5}
},
{
	"filename": "ridl_zzzz0048.png",
	"frame": {"x":300,"y":818,"w":147,"h":270},
	"rotated": false,
	"trimmed": false,
	"spriteSourceSize": {"x":0,"y":0,"w":147,"h":270},
	"sourceSize": {"w":147,"h":270},
	"pivot": {"x":0.5,"y":0.5}
},
{
	"filename": "ridl_zzzz0049.png",
	"frame": {"x":300,"y":818,"w":147,"h":270},
	"rotated": false,
	"trimmed": false,
	"spriteSourceSize": {"x":0,"y":0,"w":147,"h":270},
	"sourceSize": {"w":147,"h":270},
	"pivot": {"x":0.5,"y":0.5}
},
{
	"filename": "ridl_zzzz0050.png",
	"frame": {"x":300,"y":818,"w":147,"h":270},
	"rotated": false,
	"trimmed": false,
	"spriteSourceSize": {"x":0,"y":0,"w":147,"h":270},
	"sourceSize": {"w":147,"h":270},
	"pivot": {"x":0.5,"y":0.5}
},
{
	"filename": "ridl_zzzz0051.png",
	"frame": {"x":2,"y":1090,"w":147,"h":270},
	"rotated": false,
	"trimmed": false,
	"spriteSourceSize": {"x":0,"y":0,"w":147,"h":270},
	"sourceSize": {"w":147,"h":270},
	"pivot": {"x":0.5,"y":0.5}
},
{
	"filename": "ridl_zzzz0052.png",
	"frame": {"x":2,"y":1090,"w":147,"h":270},
	"rotated": false,
	"trimmed": false,
	"spriteSourceSize": {"x":0,"y":0,"w":147,"h":270},
	"sourceSize": {"w":147,"h":270},
	"pivot": {"x":0.5,"y":0.5}
},
{
	"filename": "ridl_zzzz0053.png",
	"frame": {"x":151,"y":1090,"w":147,"h":270},
	"rotated": false,
	"trimmed": false,
	"spriteSourceSize": {"x":0,"y":0,"w":147,"h":270},
	"sourceSize": {"w":147,"h":270},
	"pivot": {"x":0.5,"y":0.5}
},
{
	"filename": "ridl_zzzz0054.png",
	"frame": {"x":151,"y":1090,"w":147,"h":270},
	"rotated": false,
	"trimmed": false,
	"spriteSourceSize": {"x":0,"y":0,"w":147,"h":270},
	"sourceSize": {"w":147,"h":270},
	"pivot": {"x":0.5,"y":0.5}
},
{
	"filename": "ridl_zzzz0055.png",
	"frame": {"x":300,"y":1090,"w":147,"h":270},
	"rotated": false,
	"trimmed": false,
	"spriteSourceSize": {"x":0,"y":0,"w":147,"h":270},
	"sourceSize": {"w":147,"h":270},
	"pivot": {"x":0.5,"y":0.5}
},
{
	"filename": "ridl_zzzz0056.png",
	"frame": {"x":2,"y":1362,"w":147,"h":270},
	"rotated": false,
	"trimmed": false,
	"spriteSourceSize": {"x":0,"y":0,"w":147,"h":270},
	"sourceSize": {"w":147,"h":270},
	"pivot": {"x":0.5,"y":0.5}
},
{
	"filename": "ridl_zzzz0057.png",
	"frame": {"x":2,"y":1362,"w":147,"h":270},
	"rotated": false,
	"trimmed": false,
	"spriteSourceSize": {"x":0,"y":0,"w":147,"h":270},
	"sourceSize": {"w":147,"h":270},
	"pivot": {"x":0.5,"y":0.5}
},
{
	"filename": "ridl_zzzz0058.png",
	"frame": {"x":2,"y":1362,"w":147,"h":270},
	"rotated": false,
	"trimmed": false,
	"spriteSourceSize": {"x":0,"y":0,"w":147,"h":270},
	"sourceSize": {"w":147,"h":270},
	"pivot": {"x":0.5,"y":0.5}
},
{
	"filename": "ridl_zzzz0059.png",
	"frame": {"x":2,"y":1362,"w":147,"h":270},
	"rotated": false,
	"trimmed": false,
	"spriteSourceSize": {"x":0,"y":0,"w":147,"h":270},
	"sourceSize": {"w":147,"h":270},
	"pivot": {"x":0.5,"y":0.5}
},
{
	"filename": "ridl_zzzz0060.png",
	"frame": {"x":2,"y":1362,"w":147,"h":270},
	"rotated": false,
	"trimmed": false,
	"spriteSourceSize": {"x":0,"y":0,"w":147,"h":270},
	"sourceSize": {"w":147,"h":270},
	"pivot": {"x":0.5,"y":0.5}
},
{
	"filename": "ridl_zzzz0061.png",
	"frame": {"x":2,"y":1362,"w":147,"h":270},
	"rotated": false,
	"trimmed": false,
	"spriteSourceSize": {"x":0,"y":0,"w":147,"h":270},
	"sourceSize": {"w":147,"h":270},
	"pivot": {"x":0.5,"y":0.5}
},
{
	"filename": "ridl_zzzz0062.png",
	"frame": {"x":300,"y":1090,"w":147,"h":270},
	"rotated": false,
	"trimmed": false,
	"spriteSourceSize": {"x":0,"y":0,"w":147,"h":270},
	"sourceSize": {"w":147,"h":270},
	"pivot": {"x":0.5,"y":0.5}
},
{
	"filename": "ridl_zzzz0063.png",
	"frame": {"x":151,"y":1090,"w":147,"h":270},
	"rotated": false,
	"trimmed": false,
	"spriteSourceSize": {"x":0,"y":0,"w":147,"h":270},
	"sourceSize": {"w":147,"h":270},
	"pivot": {"x":0.5,"y":0.5}
},
{
	"filename": "ridl_zzzz0064.png",
	"frame": {"x":151,"y":1090,"w":147,"h":270},
	"rotated": false,
	"trimmed": false,
	"spriteSourceSize": {"x":0,"y":0,"w":147,"h":270},
	"sourceSize": {"w":147,"h":270},
	"pivot": {"x":0.5,"y":0.5}
},
{
	"filename": "ridl_zzzz0065.png",
	"frame": {"x":2,"y":1090,"w":147,"h":270},
	"rotated": false,
	"trimmed": false,
	"spriteSourceSize": {"x":0,"y":0,"w":147,"h":270},
	"sourceSize": {"w":147,"h":270},
	"pivot": {"x":0.5,"y":0.5}
},
{
	"filename": "ridl_zzzz0066.png",
	"frame": {"x":2,"y":1090,"w":147,"h":270},
	"rotated": false,
	"trimmed": false,
	"spriteSourceSize": {"x":0,"y":0,"w":147,"h":270},
	"sourceSize": {"w":147,"h":270},
	"pivot": {"x":0.5,"y":0.5}
},
{
	"filename": "ridl_zzzz0067.png",
	"frame": {"x":300,"y":818,"w":147,"h":270},
	"rotated": false,
	"trimmed": false,
	"spriteSourceSize": {"x":0,"y":0,"w":147,"h":270},
	"sourceSize": {"w":147,"h":270},
	"pivot": {"x":0.5,"y":0.5}
},
{
	"filename": "ridl_zzzz0068.png",
	"frame": {"x":151,"y":818,"w":147,"h":270},
	"rotated": false,
	"trimmed": false,
	"spriteSourceSize": {"x":0,"y":0,"w":147,"h":270},
	"sourceSize": {"w":147,"h":270},
	"pivot": {"x":0.5,"y":0.5}
},
{
	"filename": "ridl_zzzz0069.png",
	"frame": {"x":151,"y":818,"w":147,"h":270},
	"rotated": false,
	"trimmed": false,
	"spriteSourceSize": {"x":0,"y":0,"w":147,"h":270},
	"sourceSize": {"w":147,"h":270},
	"pivot": {"x":0.5,"y":0.5}
},
{
	"filename": "ridl_zzzz0070.png",
	"frame": {"x":151,"y":818,"w":147,"h":270},
	"rotated": false,
	"trimmed": false,
	"spriteSourceSize": {"x":0,"y":0,"w":147,"h":270},
	"sourceSize": {"w":147,"h":270},
	"pivot": {"x":0.5,"y":0.5}
},
{
	"filename": "ridl_zzzz0071.png",
	"frame": {"x":151,"y":818,"w":147,"h":270},
	"rotated": false,
	"trimmed": false,
	"spriteSourceSize": {"x":0,"y":0,"w":147,"h":270},
	"sourceSize": {"w":147,"h":270},
	"pivot": {"x":0.5,"y":0.5}
},
{
	"filename": "ridl_zzzz0072.png",
	"frame": {"x":151,"y":818,"w":147,"h":270},
	"rotated": false,
	"trimmed": false,
	"spriteSourceSize": {"x":0,"y":0,"w":147,"h":270},
	"sourceSize": {"w":147,"h":270},
	"pivot": {"x":0.5,"y":0.5}
},
{
	"filename": "ridl_zzzz0073.png",
	"frame": {"x":151,"y":818,"w":147,"h":270},
	"rotated": false,
	"trimmed": false,
	"spriteSourceSize": {"x":0,"y":0,"w":147,"h":270},
	"sourceSize": {"w":147,"h":270},
	"pivot": {"x":0.5,"y":0.5}
},
{
	"filename": "ridl_zzzz0074.png",
	"frame": {"x":151,"y":818,"w":147,"h":270},
	"rotated": false,
	"trimmed": false,
	"spriteSourceSize": {"x":0,"y":0,"w":147,"h":270},
	"sourceSize": {"w":147,"h":270},
	"pivot": {"x":0.5,"y":0.5}
},
{
	"filename": "ridl_zzzz0075.png",
	"frame": {"x":151,"y":818,"w":147,"h":270},
	"rotated": false,
	"trimmed": false,
	"spriteSourceSize": {"x":0,"y":0,"w":147,"h":270},
	"sourceSize": {"w":147,"h":270},
	"pivot": {"x":0.5,"y":0.5}
},
{
	"filename": "ridl_zzzz0076.png",
	"frame": {"x":2,"y":818,"w":147,"h":270},
	"rotated": false,
	"trimmed": false,
	"spriteSourceSize": {"x":0,"y":0,"w":147,"h":270},
	"sourceSize": {"w":147,"h":270},
	"pivot": {"x":0.5,"y":0.5}
},
{
	"filename": "ridl_zzzz0077.png",
	"frame": {"x":300,"y":546,"w":147,"h":270},
	"rotated": false,
	"trimmed": false,
	"spriteSourceSize": {"x":0,"y":0,"w":147,"h":270},
	"sourceSize": {"w":147,"h":270},
	"pivot": {"x":0.5,"y":0.5}
},
{
	"filename": "ridl_zzzz0078.png",
	"frame": {"x":300,"y":546,"w":147,"h":270},
	"rotated": false,
	"trimmed": false,
	"spriteSourceSize": {"x":0,"y":0,"w":147,"h":270},
	"sourceSize": {"w":147,"h":270},
	"pivot": {"x":0.5,"y":0.5}
},
{
	"filename": "ridl_zzzz0079.png",
	"frame": {"x":151,"y":546,"w":147,"h":270},
	"rotated": false,
	"trimmed": false,
	"spriteSourceSize": {"x":0,"y":0,"w":147,"h":270},
	"sourceSize": {"w":147,"h":270},
	"pivot": {"x":0.5,"y":0.5}
},
{
	"filename": "ridl_zzzz0080.png",
	"frame": {"x":2,"y":546,"w":147,"h":270},
	"rotated": false,
	"trimmed": false,
	"spriteSourceSize": {"x":0,"y":0,"w":147,"h":270},
	"sourceSize": {"w":147,"h":270},
	"pivot": {"x":0.5,"y":0.5}
},
{
	"filename": "ridl_zzzz0081.png",
	"frame": {"x":151,"y":1362,"w":147,"h":270},
	"rotated": false,
	"trimmed": false,
	"spriteSourceSize": {"x":0,"y":0,"w":147,"h":270},
	"sourceSize": {"w":147,"h":270},
	"pivot": {"x":0.5,"y":0.5}
},
{
	"filename": "ridl_zzzz0082.png",
	"frame": {"x":300,"y":1362,"w":147,"h":270},
	"rotated": false,
	"trimmed": false,
	"spriteSourceSize": {"x":0,"y":0,"w":147,"h":270},
	"sourceSize": {"w":147,"h":270},
	"pivot": {"x":0.5,"y":0.5}
},
{
	"filename": "ridl_zzzz0083.png",
	"frame": {"x":2,"y":1634,"w":147,"h":270},
	"rotated": false,
	"trimmed": false,
	"spriteSourceSize": {"x":0,"y":0,"w":147,"h":270},
	"sourceSize": {"w":147,"h":270},
	"pivot": {"x":0.5,"y":0.5}
},
{
	"filename": "ridl_zzzz0084.png",
	"frame": {"x":151,"y":1634,"w":147,"h":270},
	"rotated": false,
	"trimmed": false,
	"spriteSourceSize": {"x":0,"y":0,"w":147,"h":270},
	"sourceSize": {"w":147,"h":270},
	"pivot": {"x":0.5,"y":0.5}
},
{
	"filename": "ridl_zzzz0085.png",
	"frame": {"x":300,"y":1634,"w":147,"h":270},
	"rotated": false,
	"trimmed": false,
	"spriteSourceSize": {"x":0,"y":0,"w":147,"h":270},
	"sourceSize": {"w":147,"h":270},
	"pivot": {"x":0.5,"y":0.5}
},
{
	"filename": "ridl_zzzz0086.png",
	"frame": {"x":2,"y":2,"w":147,"h":270},
	"rotated": false,
	"trimmed": false,
	"spriteSourceSize": {"x":0,"y":0,"w":147,"h":270},
	"sourceSize": {"w":147,"h":270},
	"pivot": {"x":0.5,"y":0.5}
},
{
	"filename": "ridl_zzzz0087.png",
	"frame": {"x":2,"y":2,"w":147,"h":270},
	"rotated": false,
	"trimmed": false,
	"spriteSourceSize": {"x":0,"y":0,"w":147,"h":270},
	"sourceSize": {"w":147,"h":270},
	"pivot": {"x":0.5,"y":0.5}
},
{
	"filename": "ridl_zzzz0088.png",
	"frame": {"x":2,"y":2,"w":147,"h":270},
	"rotated": false,
	"trimmed": false,
	"spriteSourceSize": {"x":0,"y":0,"w":147,"h":270},
	"sourceSize": {"w":147,"h":270},
	"pivot": {"x":0.5,"y":0.5}
},
{
	"filename": "ridl_zzzz0089.png",
	"frame": {"x":2,"y":2,"w":147,"h":270},
	"rotated": false,
	"trimmed": false,
	"spriteSourceSize": {"x":0,"y":0,"w":147,"h":270},
	"sourceSize": {"w":147,"h":270},
	"pivot": {"x":0.5,"y":0.5}
},
{
	"filename": "ridl_zzzz0090.png",
	"frame": {"x":2,"y":2,"w":147,"h":270},
	"rotated": false,
	"trimmed": false,
	"spriteSourceSize": {"x":0,"y":0,"w":147,"h":270},
	"sourceSize": {"w":147,"h":270},
	"pivot": {"x":0.5,"y":0.5}
},
{
	"filename": "ridl_zzzz0091.png",
	"frame": {"x":2,"y":2,"w":147,"h":270},
	"rotated": false,
	"trimmed": false,
	"spriteSourceSize": {"x":0,"y":0,"w":147,"h":270},
	"sourceSize": {"w":147,"h":270},
	"pivot": {"x":0.5,"y":0.5}
},
{
	"filename": "ridl_zzzz0092.png",
	"frame": {"x":2,"y":2,"w":147,"h":270},
	"rotated": false,
	"trimmed": false,
	"spriteSourceSize": {"x":0,"y":0,"w":147,"h":270},
	"sourceSize": {"w":147,"h":270},
	"pivot": {"x":0.5,"y":0.5}
},
{
	"filename": "ridl_zzzz0093.png",
	"frame": {"x":2,"y":2,"w":147,"h":270},
	"rotated": false,
	"trimmed": false,
	"spriteSourceSize": {"x":0,"y":0,"w":147,"h":270},
	"sourceSize": {"w":147,"h":270},
	"pivot": {"x":0.5,"y":0.5}
},
{
	"filename": "ridl_zzzz0094.png",
	"frame": {"x":2,"y":2,"w":147,"h":270},
	"rotated": false,
	"trimmed": false,
	"spriteSourceSize": {"x":0,"y":0,"w":147,"h":270},
	"sourceSize": {"w":147,"h":270},
	"pivot": {"x":0.5,"y":0.5}
},
{
	"filename": "ridl_zzzz0095.png",
	"frame": {"x":2,"y":2,"w":147,"h":270},
	"rotated": false,
	"trimmed": false,
	"spriteSourceSize": {"x":0,"y":0,"w":147,"h":270},
	"sourceSize": {"w":147,"h":270},
	"pivot": {"x":0.5,"y":0.5}
},
{
	"filename": "ridl_zzzz0096.png",
	"frame": {"x":2,"y":2,"w":147,"h":270},
	"rotated": false,
	"trimmed": false,
	"spriteSourceSize": {"x":0,"y":0,"w":147,"h":270},
	"sourceSize": {"w":147,"h":270},
	"pivot": {"x":0.5,"y":0.5}
},
{
	"filename": "ridl_zzzz0097.png",
	"frame": {"x":2,"y":2,"w":147,"h":270},
	"rotated": false,
	"trimmed": false,
	"spriteSourceSize": {"x":0,"y":0,"w":147,"h":270},
	"sourceSize": {"w":147,"h":270},
	"pivot": {"x":0.5,"y":0.5}
},
{
	"filename": "ridl_zzzz0098.png",
	"frame": {"x":2,"y":2,"w":147,"h":270},
	"rotated": false,
	"trimmed": false,
	"spriteSourceSize": {"x":0,"y":0,"w":147,"h":270},
	"sourceSize": {"w":147,"h":270},
	"pivot": {"x":0.5,"y":0.5}
},
{
	"filename": "ridl_zzzz0099.png",
	"frame": {"x":2,"y":2,"w":147,"h":270},
	"rotated": false,
	"trimmed": false,
	"spriteSourceSize": {"x":0,"y":0,"w":147,"h":270},
	"sourceSize": {"w":147,"h":270},
	"pivot": {"x":0.5,"y":0.5}
},
{
	"filename": "ridl_zzzz0100.png",
	"frame": {"x":2,"y":2,"w":147,"h":270},
	"rotated": false,
	"trimmed": false,
	"spriteSourceSize": {"x":0,"y":0,"w":147,"h":270},
	"sourceSize": {"w":147,"h":270},
	"pivot": {"x":0.5,"y":0.5}
}],
"meta": {
	"app": "http://www.codeandweb.com/texturepacker",
	"version": "1.0",
	"image": "ridl_zzz.png",
	"format": "RGBA8888",
	"size": {"w":449,"h":1906},
	"scale": "1",
	"smartupdate": "$TexturePacker:SmartUpdate:a49bc773a0318b1058d50ef872b2e193:9fed66d01b066ca3d47e153213cd960e:9d40c4795f497f718ca1e598220d378a$"
}
}
