{"frames": [

{
	"filename": "ridl_default0001.png",
	"frame": {"x":2,"y":2,"w":147,"h":270},
	"rotated": false,
	"trimmed": false,
	"spriteSourceSize": {"x":0,"y":0,"w":147,"h":270},
	"sourceSize": {"w":147,"h":270},
	"pivot": {"x":0.5,"y":0.5}
},
{
	"filename": "ridl_default0002.png",
	"frame": {"x":151,"y":2,"w":147,"h":270},
	"rotated": false,
	"trimmed": false,
	"spriteSourceSize": {"x":0,"y":0,"w":147,"h":270},
	"sourceSize": {"w":147,"h":270},
	"pivot": {"x":0.5,"y":0.5}
},
{
	"filename": "ridl_default0003.png",
	"frame": {"x":300,"y":2,"w":147,"h":270},
	"rotated": false,
	"trimmed": false,
	"spriteSourceSize": {"x":0,"y":0,"w":147,"h":270},
	"sourceSize": {"w":147,"h":270},
	"pivot": {"x":0.5,"y":0.5}
},
{
	"filename": "ridl_default0004.png",
	"frame": {"x":449,"y":2,"w":147,"h":270},
	"rotated": false,
	"trimmed": false,
	"spriteSourceSize": {"x":0,"y":0,"w":147,"h":270},
	"sourceSize": {"w":147,"h":270},
	"pivot": {"x":0.5,"y":0.5}
},
{
	"filename": "ridl_default0005.png",
	"frame": {"x":598,"y":2,"w":147,"h":270},
	"rotated": false,
	"trimmed": false,
	"spriteSourceSize": {"x":0,"y":0,"w":147,"h":270},
	"sourceSize": {"w":147,"h":270},
	"pivot": {"x":0.5,"y":0.5}
},
{
	"filename": "ridl_default0006.png",
	"frame": {"x":747,"y":2,"w":147,"h":270},
	"rotated": false,
	"trimmed": false,
	"spriteSourceSize": {"x":0,"y":0,"w":147,"h":270},
	"sourceSize": {"w":147,"h":270},
	"pivot": {"x":0.5,"y":0.5}
},
{
	"filename": "ridl_default0007.png",
	"frame": {"x":896,"y":2,"w":147,"h":270},
	"rotated": false,
	"trimmed": false,
	"spriteSourceSize": {"x":0,"y":0,"w":147,"h":270},
	"sourceSize": {"w":147,"h":270},
	"pivot": {"x":0.5,"y":0.5}
},
{
	"filename": "ridl_default0008.png",
	"frame": {"x":1045,"y":2,"w":147,"h":270},
	"rotated": false,
	"trimmed": false,
	"spriteSourceSize": {"x":0,"y":0,"w":147,"h":270},
	"sourceSize": {"w":147,"h":270},
	"pivot": {"x":0.5,"y":0.5}
},
{
	"filename": "ridl_default0009.png",
	"frame": {"x":1194,"y":2,"w":147,"h":270},
	"rotated": false,
	"trimmed": false,
	"spriteSourceSize": {"x":0,"y":0,"w":147,"h":270},
	"sourceSize": {"w":147,"h":270},
	"pivot": {"x":0.5,"y":0.5}
},
{
	"filename": "ridl_default0010.png",
	"frame": {"x":1343,"y":2,"w":147,"h":270},
	"rotated": false,
	"trimmed": false,
	"spriteSourceSize": {"x":0,"y":0,"w":147,"h":270},
	"sourceSize": {"w":147,"h":270},
	"pivot": {"x":0.5,"y":0.5}
},
{
	"filename": "ridl_default0011.png",
	"frame": {"x":2,"y":274,"w":147,"h":270},
	"rotated": false,
	"trimmed": false,
	"spriteSourceSize": {"x":0,"y":0,"w":147,"h":270},
	"sourceSize": {"w":147,"h":270},
	"pivot": {"x":0.5,"y":0.5}
},
{
	"filename": "ridl_default0012.png",
	"frame": {"x":151,"y":274,"w":147,"h":270},
	"rotated": false,
	"trimmed": false,
	"spriteSourceSize": {"x":0,"y":0,"w":147,"h":270},
	"sourceSize": {"w":147,"h":270},
	"pivot": {"x":0.5,"y":0.5}
},
{
	"filename": "ridl_default0013.png",
	"frame": {"x":300,"y":274,"w":147,"h":270},
	"rotated": false,
	"trimmed": false,
	"spriteSourceSize": {"x":0,"y":0,"w":147,"h":270},
	"sourceSize": {"w":147,"h":270},
	"pivot": {"x":0.5,"y":0.5}
},
{
	"filename": "ridl_default0014.png",
	"frame": {"x":449,"y":274,"w":147,"h":270},
	"rotated": false,
	"trimmed": false,
	"spriteSourceSize": {"x":0,"y":0,"w":147,"h":270},
	"sourceSize": {"w":147,"h":270},
	"pivot": {"x":0.5,"y":0.5}
},
{
	"filename": "ridl_default0015.png",
	"frame": {"x":598,"y":274,"w":147,"h":270},
	"rotated": false,
	"trimmed": false,
	"spriteSourceSize": {"x":0,"y":0,"w":147,"h":270},
	"sourceSize": {"w":147,"h":270},
	"pivot": {"x":0.5,"y":0.5}
},
{
	"filename": "ridl_default0016.png",
	"frame": {"x":747,"y":274,"w":147,"h":270},
	"rotated": false,
	"trimmed": false,
	"spriteSourceSize": {"x":0,"y":0,"w":147,"h":270},
	"sourceSize": {"w":147,"h":270},
	"pivot": {"x":0.5,"y":0.5}
},
{
	"filename": "ridl_default0017.png",
	"frame": {"x":896,"y":274,"w":147,"h":270},
	"rotated": false,
	"trimmed": false,
	"spriteSourceSize": {"x":0,"y":0,"w":147,"h":270},
	"sourceSize": {"w":147,"h":270},
	"pivot": {"x":0.5,"y":0.5}
},
{
	"filename": "ridl_default0018.png",
	"frame": {"x":1045,"y":274,"w":147,"h":270},
	"rotated": false,
	"trimmed": false,
	"spriteSourceSize": {"x":0,"y":0,"w":147,"h":270},
	"sourceSize": {"w":147,"h":270},
	"pivot": {"x":0.5,"y":0.5}
},
{
	"filename": "ridl_default0019.png",
	"frame": {"x":1194,"y":274,"w":147,"h":270},
	"rotated": false,
	"trimmed": false,
	"spriteSourceSize": {"x":0,"y":0,"w":147,"h":270},
	"sourceSize": {"w":147,"h":270},
	"pivot": {"x":0.5,"y":0.5}
},
{
	"filename": "ridl_default0020.png",
	"frame": {"x":1343,"y":274,"w":147,"h":270},
	"rotated": false,
	"trimmed": false,
	"spriteSourceSize": {"x":0,"y":0,"w":147,"h":270},
	"sourceSize": {"w":147,"h":270},
	"pivot": {"x":0.5,"y":0.5}
},
{
	"filename": "ridl_default0021.png",
	"frame": {"x":2,"y":546,"w":147,"h":270},
	"rotated": false,
	"trimmed": false,
	"spriteSourceSize": {"x":0,"y":0,"w":147,"h":270},
	"sourceSize": {"w":147,"h":270},
	"pivot": {"x":0.5,"y":0.5}
},
{
	"filename": "ridl_default0022.png",
	"frame": {"x":151,"y":546,"w":147,"h":270},
	"rotated": false,
	"trimmed": false,
	"spriteSourceSize": {"x":0,"y":0,"w":147,"h":270},
	"sourceSize": {"w":147,"h":270},
	"pivot": {"x":0.5,"y":0.5}
},
{
	"filename": "ridl_default0023.png",
	"frame": {"x":300,"y":546,"w":147,"h":270},
	"rotated": false,
	"trimmed": false,
	"spriteSourceSize": {"x":0,"y":0,"w":147,"h":270},
	"sourceSize": {"w":147,"h":270},
	"pivot": {"x":0.5,"y":0.5}
},
{
	"filename": "ridl_default0024.png",
	"frame": {"x":449,"y":546,"w":147,"h":270},
	"rotated": false,
	"trimmed": false,
	"spriteSourceSize": {"x":0,"y":0,"w":147,"h":270},
	"sourceSize": {"w":147,"h":270},
	"pivot": {"x":0.5,"y":0.5}
},
{
	"filename": "ridl_default0025.png",
	"frame": {"x":598,"y":546,"w":147,"h":270},
	"rotated": false,
	"trimmed": false,
	"spriteSourceSize": {"x":0,"y":0,"w":147,"h":270},
	"sourceSize": {"w":147,"h":270},
	"pivot": {"x":0.5,"y":0.5}
},
{
	"filename": "ridl_default0026.png",
	"frame": {"x":747,"y":546,"w":147,"h":270},
	"rotated": false,
	"trimmed": false,
	"spriteSourceSize": {"x":0,"y":0,"w":147,"h":270},
	"sourceSize": {"w":147,"h":270},
	"pivot": {"x":0.5,"y":0.5}
},
{
	"filename": "ridl_default0027.png",
	"frame": {"x":896,"y":546,"w":147,"h":270},
	"rotated": false,
	"trimmed": false,
	"spriteSourceSize": {"x":0,"y":0,"w":147,"h":270},
	"sourceSize": {"w":147,"h":270},
	"pivot": {"x":0.5,"y":0.5}
},
{
	"filename": "ridl_default0028.png",
	"frame": {"x":1045,"y":546,"w":147,"h":270},
	"rotated": false,
	"trimmed": false,
	"spriteSourceSize": {"x":0,"y":0,"w":147,"h":270},
	"sourceSize": {"w":147,"h":270},
	"pivot": {"x":0.5,"y":0.5}
},
{
	"filename": "ridl_default0029.png",
	"frame": {"x":1194,"y":546,"w":147,"h":270},
	"rotated": false,
	"trimmed": false,
	"spriteSourceSize": {"x":0,"y":0,"w":147,"h":270},
	"sourceSize": {"w":147,"h":270},
	"pivot": {"x":0.5,"y":0.5}
},
{
	"filename": "ridl_default0030.png",
	"frame": {"x":2,"y":2,"w":147,"h":270},
	"rotated": false,
	"trimmed": false,
	"spriteSourceSize": {"x":0,"y":0,"w":147,"h":270},
	"sourceSize": {"w":147,"h":270},
	"pivot": {"x":0.5,"y":0.5}
},
{
	"filename": "ridl_default0031.png",
	"frame": {"x":2,"y":2,"w":147,"h":270},
	"rotated": false,
	"trimmed": false,
	"spriteSourceSize": {"x":0,"y":0,"w":147,"h":270},
	"sourceSize": {"w":147,"h":270},
	"pivot": {"x":0.5,"y":0.5}
}],
"meta": {
	"app": "http://www.codeandweb.com/texturepacker",
	"version": "1.0",
	"image": "ridl_default.png",
	"format": "RGBA8888",
	"size": {"w":1492,"h":818},
	"scale": "1",
	"smartupdate": "$TexturePacker:SmartUpdate:d1e4924afc134fab2837fcd10ad4e27e:2097cb9631b533de6226828e6bef9d54:cf154f01e15386238560b8f702f20bce$"
}
}
