{"frames": [

{
	"filename": "ridl_drum0001.png",
	"frame": {"x":2,"y":2,"w":147,"h":270},
	"rotated": false,
	"trimmed": false,
	"spriteSourceSize": {"x":0,"y":0,"w":147,"h":270},
	"sourceSize": {"w":147,"h":270},
	"pivot": {"x":0.5,"y":0.5}
},
{
	"filename": "ridl_drum0002.png",
	"frame": {"x":151,"y":2,"w":147,"h":270},
	"rotated": false,
	"trimmed": false,
	"spriteSourceSize": {"x":0,"y":0,"w":147,"h":270},
	"sourceSize": {"w":147,"h":270},
	"pivot": {"x":0.5,"y":0.5}
},
{
	"filename": "ridl_drum0003.png",
	"frame": {"x":300,"y":2,"w":147,"h":270},
	"rotated": false,
	"trimmed": false,
	"spriteSourceSize": {"x":0,"y":0,"w":147,"h":270},
	"sourceSize": {"w":147,"h":270},
	"pivot": {"x":0.5,"y":0.5}
},
{
	"filename": "ridl_drum0004.png",
	"frame": {"x":2,"y":274,"w":147,"h":270},
	"rotated": false,
	"trimmed": false,
	"spriteSourceSize": {"x":0,"y":0,"w":147,"h":270},
	"sourceSize": {"w":147,"h":270},
	"pivot": {"x":0.5,"y":0.5}
},
{
	"filename": "ridl_drum0005.png",
	"frame": {"x":151,"y":274,"w":147,"h":270},
	"rotated": false,
	"trimmed": false,
	"spriteSourceSize": {"x":0,"y":0,"w":147,"h":270},
	"sourceSize": {"w":147,"h":270},
	"pivot": {"x":0.5,"y":0.5}
},
{
	"filename": "ridl_drum0006.png",
	"frame": {"x":300,"y":274,"w":147,"h":270},
	"rotated": false,
	"trimmed": false,
	"spriteSourceSize": {"x":0,"y":0,"w":147,"h":270},
	"sourceSize": {"w":147,"h":270},
	"pivot": {"x":0.5,"y":0.5}
},
{
	"filename": "ridl_drum0007.png",
	"frame": {"x":2,"y":546,"w":147,"h":270},
	"rotated": false,
	"trimmed": false,
	"spriteSourceSize": {"x":0,"y":0,"w":147,"h":270},
	"sourceSize": {"w":147,"h":270},
	"pivot": {"x":0.5,"y":0.5}
},
{
	"filename": "ridl_drum0008.png",
	"frame": {"x":151,"y":546,"w":147,"h":270},
	"rotated": false,
	"trimmed": false,
	"spriteSourceSize": {"x":0,"y":0,"w":147,"h":270},
	"sourceSize": {"w":147,"h":270},
	"pivot": {"x":0.5,"y":0.5}
},
{
	"filename": "ridl_drum0009.png",
	"frame": {"x":300,"y":546,"w":147,"h":270},
	"rotated": false,
	"trimmed": false,
	"spriteSourceSize": {"x":0,"y":0,"w":147,"h":270},
	"sourceSize": {"w":147,"h":270},
	"pivot": {"x":0.5,"y":0.5}
},
{
	"filename": "ridl_drum0010.png",
	"frame": {"x":2,"y":818,"w":147,"h":270},
	"rotated": false,
	"trimmed": false,
	"spriteSourceSize": {"x":0,"y":0,"w":147,"h":270},
	"sourceSize": {"w":147,"h":270},
	"pivot": {"x":0.5,"y":0.5}
},
{
	"filename": "ridl_drum0011.png",
	"frame": {"x":151,"y":818,"w":147,"h":270},
	"rotated": false,
	"trimmed": false,
	"spriteSourceSize": {"x":0,"y":0,"w":147,"h":270},
	"sourceSize": {"w":147,"h":270},
	"pivot": {"x":0.5,"y":0.5}
},
{
	"filename": "ridl_drum0012.png",
	"frame": {"x":300,"y":818,"w":147,"h":270},
	"rotated": false,
	"trimmed": false,
	"spriteSourceSize": {"x":0,"y":0,"w":147,"h":270},
	"sourceSize": {"w":147,"h":270},
	"pivot": {"x":0.5,"y":0.5}
},
{
	"filename": "ridl_drum0013.png",
	"frame": {"x":2,"y":1090,"w":147,"h":270},
	"rotated": false,
	"trimmed": false,
	"spriteSourceSize": {"x":0,"y":0,"w":147,"h":270},
	"sourceSize": {"w":147,"h":270},
	"pivot": {"x":0.5,"y":0.5}
},
{
	"filename": "ridl_drum0014.png",
	"frame": {"x":151,"y":1090,"w":147,"h":270},
	"rotated": false,
	"trimmed": false,
	"spriteSourceSize": {"x":0,"y":0,"w":147,"h":270},
	"sourceSize": {"w":147,"h":270},
	"pivot": {"x":0.5,"y":0.5}
},
{
	"filename": "ridl_drum0015.png",
	"frame": {"x":300,"y":1090,"w":147,"h":270},
	"rotated": false,
	"trimmed": false,
	"spriteSourceSize": {"x":0,"y":0,"w":147,"h":270},
	"sourceSize": {"w":147,"h":270},
	"pivot": {"x":0.5,"y":0.5}
},
{
	"filename": "ridl_drum0016.png",
	"frame": {"x":2,"y":1362,"w":147,"h":270},
	"rotated": false,
	"trimmed": false,
	"spriteSourceSize": {"x":0,"y":0,"w":147,"h":270},
	"sourceSize": {"w":147,"h":270},
	"pivot": {"x":0.5,"y":0.5}
},
{
	"filename": "ridl_drum0017.png",
	"frame": {"x":2,"y":2,"w":147,"h":270},
	"rotated": false,
	"trimmed": false,
	"spriteSourceSize": {"x":0,"y":0,"w":147,"h":270},
	"sourceSize": {"w":147,"h":270},
	"pivot": {"x":0.5,"y":0.5}
}],
"meta": {
	"app": "http://www.codeandweb.com/texturepacker",
	"version": "1.0",
	"image": "ridl_drum.png",
	"format": "RGBA8888",
	"size": {"w":449,"h":1634},
	"scale": "1",
	"smartupdate": "$TexturePacker:SmartUpdate:8c954989e27530264ffe3c6a86688234:e6c6c65902342f23ebe04aecb3075bfb:917e5d47a11c48af5abd65775a32ef8b$"
}
}
