{"frames": [

{
	"filename": "enemy_10001.png",
	"frame": {"x":2,"y":2,"w":52,"h":60},
	"rotated": false,
	"trimmed": false,
	"spriteSourceSize": {"x":0,"y":0,"w":52,"h":60},
	"sourceSize": {"w":52,"h":60},
	"pivot": {"x":0.5,"y":0.5}
},
{
	"filename": "enemy_10002.png",
	"frame": {"x":2,"y":2,"w":52,"h":60},
	"rotated": false,
	"trimmed": false,
	"spriteSourceSize": {"x":0,"y":0,"w":52,"h":60},
	"sourceSize": {"w":52,"h":60},
	"pivot": {"x":0.5,"y":0.5}
},
{
	"filename": "enemy_10003.png",
	"frame": {"x":2,"y":2,"w":52,"h":60},
	"rotated": false,
	"trimmed": false,
	"spriteSourceSize": {"x":0,"y":0,"w":52,"h":60},
	"sourceSize": {"w":52,"h":60},
	"pivot": {"x":0.5,"y":0.5}
},
{
	"filename": "enemy_10004.png",
	"frame": {"x":2,"y":2,"w":52,"h":60},
	"rotated": false,
	"trimmed": false,
	"spriteSourceSize": {"x":0,"y":0,"w":52,"h":60},
	"sourceSize": {"w":52,"h":60},
	"pivot": {"x":0.5,"y":0.5}
},
{
	"filename": "enemy_10005.png",
	"frame": {"x":56,"y":2,"w":52,"h":60},
	"rotated": false,
	"trimmed": false,
	"spriteSourceSize": {"x":0,"y":0,"w":52,"h":60},
	"sourceSize": {"w":52,"h":60},
	"pivot": {"x":0.5,"y":0.5}
},
{
	"filename": "enemy_10006.png",
	"frame": {"x":110,"y":2,"w":52,"h":60},
	"rotated": false,
	"trimmed": false,
	"spriteSourceSize": {"x":0,"y":0,"w":52,"h":60},
	"sourceSize": {"w":52,"h":60},
	"pivot": {"x":0.5,"y":0.5}
},
{
	"filename": "enemy_10007.png",
	"frame": {"x":164,"y":2,"w":52,"h":60},
	"rotated": false,
	"trimmed": false,
	"spriteSourceSize": {"x":0,"y":0,"w":52,"h":60},
	"sourceSize": {"w":52,"h":60},
	"pivot": {"x":0.5,"y":0.5}
},
{
	"filename": "enemy_10008.png",
	"frame": {"x":218,"y":2,"w":52,"h":60},
	"rotated": false,
	"trimmed": false,
	"spriteSourceSize": {"x":0,"y":0,"w":52,"h":60},
	"sourceSize": {"w":52,"h":60},
	"pivot": {"x":0.5,"y":0.5}
},
{
	"filename": "enemy_10009.png",
	"frame": {"x":272,"y":2,"w":52,"h":60},
	"rotated": false,
	"trimmed": false,
	"spriteSourceSize": {"x":0,"y":0,"w":52,"h":60},
	"sourceSize": {"w":52,"h":60},
	"pivot": {"x":0.5,"y":0.5}
},
{
	"filename": "enemy_10010.png",
	"frame": {"x":326,"y":2,"w":52,"h":60},
	"rotated": false,
	"trimmed": false,
	"spriteSourceSize": {"x":0,"y":0,"w":52,"h":60},
	"sourceSize": {"w":52,"h":60},
	"pivot": {"x":0.5,"y":0.5}
},
{
	"filename": "enemy_10011.png",
	"frame": {"x":380,"y":2,"w":52,"h":60},
	"rotated": false,
	"trimmed": false,
	"spriteSourceSize": {"x":0,"y":0,"w":52,"h":60},
	"sourceSize": {"w":52,"h":60},
	"pivot": {"x":0.5,"y":0.5}
},
{
	"filename": "enemy_10012.png",
	"frame": {"x":434,"y":2,"w":52,"h":60},
	"rotated": false,
	"trimmed": false,
	"spriteSourceSize": {"x":0,"y":0,"w":52,"h":60},
	"sourceSize": {"w":52,"h":60},
	"pivot": {"x":0.5,"y":0.5}
},
{
	"filename": "enemy_10013.png",
	"frame": {"x":488,"y":2,"w":52,"h":60},
	"rotated": false,
	"trimmed": false,
	"spriteSourceSize": {"x":0,"y":0,"w":52,"h":60},
	"sourceSize": {"w":52,"h":60},
	"pivot": {"x":0.5,"y":0.5}
},
{
	"filename": "enemy_10014.png",
	"frame": {"x":542,"y":2,"w":52,"h":60},
	"rotated": false,
	"trimmed": false,
	"spriteSourceSize": {"x":0,"y":0,"w":52,"h":60},
	"sourceSize": {"w":52,"h":60},
	"pivot": {"x":0.5,"y":0.5}
},
{
	"filename": "enemy_10015.png",
	"frame": {"x":596,"y":2,"w":52,"h":60},
	"rotated": false,
	"trimmed": false,
	"spriteSourceSize": {"x":0,"y":0,"w":52,"h":60},
	"sourceSize": {"w":52,"h":60},
	"pivot": {"x":0.5,"y":0.5}
},
{
	"filename": "enemy_10016.png",
	"frame": {"x":650,"y":2,"w":52,"h":60},
	"rotated": false,
	"trimmed": false,
	"spriteSourceSize": {"x":0,"y":0,"w":52,"h":60},
	"sourceSize": {"w":52,"h":60},
	"pivot": {"x":0.5,"y":0.5}
},
{
	"filename": "enemy_10017.png",
	"frame": {"x":704,"y":2,"w":52,"h":60},
	"rotated": false,
	"trimmed": false,
	"spriteSourceSize": {"x":0,"y":0,"w":52,"h":60},
	"sourceSize": {"w":52,"h":60},
	"pivot": {"x":0.5,"y":0.5}
},
{
	"filename": "enemy_10018.png",
	"frame": {"x":758,"y":2,"w":52,"h":60},
	"rotated": false,
	"trimmed": false,
	"spriteSourceSize": {"x":0,"y":0,"w":52,"h":60},
	"sourceSize": {"w":52,"h":60},
	"pivot": {"x":0.5,"y":0.5}
},
{
	"filename": "enemy_10019.png",
	"frame": {"x":812,"y":2,"w":52,"h":60},
	"rotated": false,
	"trimmed": false,
	"spriteSourceSize": {"x":0,"y":0,"w":52,"h":60},
	"sourceSize": {"w":52,"h":60},
	"pivot": {"x":0.5,"y":0.5}
},
{
	"filename": "enemy_10020.png",
	"frame": {"x":866,"y":2,"w":52,"h":60},
	"rotated": false,
	"trimmed": false,
	"spriteSourceSize": {"x":0,"y":0,"w":52,"h":60},
	"sourceSize": {"w":52,"h":60},
	"pivot": {"x":0.5,"y":0.5}
},
{
	"filename": "enemy_10021.png",
	"frame": {"x":920,"y":2,"w":52,"h":60},
	"rotated": false,
	"trimmed": false,
	"spriteSourceSize": {"x":0,"y":0,"w":52,"h":60},
	"sourceSize": {"w":52,"h":60},
	"pivot": {"x":0.5,"y":0.5}
},
{
	"filename": "enemy_10022.png",
	"frame": {"x":974,"y":2,"w":52,"h":60},
	"rotated": false,
	"trimmed": false,
	"spriteSourceSize": {"x":0,"y":0,"w":52,"h":60},
	"sourceSize": {"w":52,"h":60},
	"pivot": {"x":0.5,"y":0.5}
},
{
	"filename": "enemy_10023.png",
	"frame": {"x":1028,"y":2,"w":52,"h":60},
	"rotated": false,
	"trimmed": false,
	"spriteSourceSize": {"x":0,"y":0,"w":52,"h":60},
	"sourceSize": {"w":52,"h":60},
	"pivot": {"x":0.5,"y":0.5}
},
{
	"filename": "enemy_10024.png",
	"frame": {"x":1082,"y":2,"w":52,"h":60},
	"rotated": false,
	"trimmed": false,
	"spriteSourceSize": {"x":0,"y":0,"w":52,"h":60},
	"sourceSize": {"w":52,"h":60},
	"pivot": {"x":0.5,"y":0.5}
},
{
	"filename": "enemy_10025.png",
	"frame": {"x":1136,"y":2,"w":52,"h":60},
	"rotated": false,
	"trimmed": false,
	"spriteSourceSize": {"x":0,"y":0,"w":52,"h":60},
	"sourceSize": {"w":52,"h":60},
	"pivot": {"x":0.5,"y":0.5}
},
{
	"filename": "enemy_10026.png",
	"frame": {"x":1190,"y":2,"w":52,"h":60},
	"rotated": false,
	"trimmed": false,
	"spriteSourceSize": {"x":0,"y":0,"w":52,"h":60},
	"sourceSize": {"w":52,"h":60},
	"pivot": {"x":0.5,"y":0.5}
},
{
	"filename": "enemy_10027.png",
	"frame": {"x":1244,"y":2,"w":52,"h":60},
	"rotated": false,
	"trimmed": false,
	"spriteSourceSize": {"x":0,"y":0,"w":52,"h":60},
	"sourceSize": {"w":52,"h":60},
	"pivot": {"x":0.5,"y":0.5}
},
{
	"filename": "enemy_10028.png",
	"frame": {"x":1298,"y":2,"w":52,"h":60},
	"rotated": false,
	"trimmed": false,
	"spriteSourceSize": {"x":0,"y":0,"w":52,"h":60},
	"sourceSize": {"w":52,"h":60},
	"pivot": {"x":0.5,"y":0.5}
},
{
	"filename": "enemy_10029.png",
	"frame": {"x":1352,"y":2,"w":52,"h":60},
	"rotated": false,
	"trimmed": false,
	"spriteSourceSize": {"x":0,"y":0,"w":52,"h":60},
	"sourceSize": {"w":52,"h":60},
	"pivot": {"x":0.5,"y":0.5}
},
{
	"filename": "enemy_10030.png",
	"frame": {"x":1406,"y":2,"w":52,"h":60},
	"rotated": false,
	"trimmed": false,
	"spriteSourceSize": {"x":0,"y":0,"w":52,"h":60},
	"sourceSize": {"w":52,"h":60},
	"pivot": {"x":0.5,"y":0.5}
},
{
	"filename": "enemy_10031.png",
	"frame": {"x":1460,"y":2,"w":52,"h":60},
	"rotated": false,
	"trimmed": false,
	"spriteSourceSize": {"x":0,"y":0,"w":52,"h":60},
	"sourceSize": {"w":52,"h":60},
	"pivot": {"x":0.5,"y":0.5}
},
{
	"filename": "enemy_10032.png",
	"frame": {"x":1514,"y":2,"w":52,"h":60},
	"rotated": false,
	"trimmed": false,
	"spriteSourceSize": {"x":0,"y":0,"w":52,"h":60},
	"sourceSize": {"w":52,"h":60},
	"pivot": {"x":0.5,"y":0.5}
},
{
	"filename": "enemy_10033.png",
	"frame": {"x":1568,"y":2,"w":52,"h":60},
	"rotated": false,
	"trimmed": false,
	"spriteSourceSize": {"x":0,"y":0,"w":52,"h":60},
	"sourceSize": {"w":52,"h":60},
	"pivot": {"x":0.5,"y":0.5}
},
{
	"filename": "enemy_10034.png",
	"frame": {"x":1622,"y":2,"w":52,"h":60},
	"rotated": false,
	"trimmed": false,
	"spriteSourceSize": {"x":0,"y":0,"w":52,"h":60},
	"sourceSize": {"w":52,"h":60},
	"pivot": {"x":0.5,"y":0.5}
},
{
	"filename": "enemy_10035.png",
	"frame": {"x":1676,"y":2,"w":52,"h":60},
	"rotated": false,
	"trimmed": false,
	"spriteSourceSize": {"x":0,"y":0,"w":52,"h":60},
	"sourceSize": {"w":52,"h":60},
	"pivot": {"x":0.5,"y":0.5}
},
{
	"filename": "enemy_10036.png",
	"frame": {"x":1730,"y":2,"w":52,"h":60},
	"rotated": false,
	"trimmed": false,
	"spriteSourceSize": {"x":0,"y":0,"w":52,"h":60},
	"sourceSize": {"w":52,"h":60},
	"pivot": {"x":0.5,"y":0.5}
},
{
	"filename": "enemy_10037.png",
	"frame": {"x":1784,"y":2,"w":52,"h":60},
	"rotated": false,
	"trimmed": false,
	"spriteSourceSize": {"x":0,"y":0,"w":52,"h":60},
	"sourceSize": {"w":52,"h":60},
	"pivot": {"x":0.5,"y":0.5}
},
{
	"filename": "enemy_10038.png",
	"frame": {"x":1838,"y":2,"w":52,"h":60},
	"rotated": false,
	"trimmed": false,
	"spriteSourceSize": {"x":0,"y":0,"w":52,"h":60},
	"sourceSize": {"w":52,"h":60},
	"pivot": {"x":0.5,"y":0.5}
},
{
	"filename": "enemy_10039.png",
	"frame": {"x":1892,"y":2,"w":52,"h":60},
	"rotated": false,
	"trimmed": false,
	"spriteSourceSize": {"x":0,"y":0,"w":52,"h":60},
	"sourceSize": {"w":52,"h":60},
	"pivot": {"x":0.5,"y":0.5}
},
{
	"filename": "enemy_10040.png",
	"frame": {"x":1946,"y":2,"w":52,"h":60},
	"rotated": false,
	"trimmed": false,
	"spriteSourceSize": {"x":0,"y":0,"w":52,"h":60},
	"sourceSize": {"w":52,"h":60},
	"pivot": {"x":0.5,"y":0.5}
},
{
	"filename": "enemy_10041.png",
	"frame": {"x":2000,"y":2,"w":52,"h":60},
	"rotated": false,
	"trimmed": false,
	"spriteSourceSize": {"x":0,"y":0,"w":52,"h":60},
	"sourceSize": {"w":52,"h":60},
	"pivot": {"x":0.5,"y":0.5}
},
{
	"filename": "enemy_10042.png",
	"frame": {"x":2054,"y":2,"w":52,"h":60},
	"rotated": false,
	"trimmed": false,
	"spriteSourceSize": {"x":0,"y":0,"w":52,"h":60},
	"sourceSize": {"w":52,"h":60},
	"pivot": {"x":0.5,"y":0.5}
},
{
	"filename": "enemy_10043.png",
	"frame": {"x":2108,"y":2,"w":52,"h":60},
	"rotated": false,
	"trimmed": false,
	"spriteSourceSize": {"x":0,"y":0,"w":52,"h":60},
	"sourceSize": {"w":52,"h":60},
	"pivot": {"x":0.5,"y":0.5}
},
{
	"filename": "enemy_10044.png",
	"frame": {"x":2162,"y":2,"w":52,"h":60},
	"rotated": false,
	"trimmed": false,
	"spriteSourceSize": {"x":0,"y":0,"w":52,"h":60},
	"sourceSize": {"w":52,"h":60},
	"pivot": {"x":0.5,"y":0.5}
},
{
	"filename": "enemy_10045.png",
	"frame": {"x":2216,"y":2,"w":52,"h":60},
	"rotated": false,
	"trimmed": false,
	"spriteSourceSize": {"x":0,"y":0,"w":52,"h":60},
	"sourceSize": {"w":52,"h":60},
	"pivot": {"x":0.5,"y":0.5}
},
{
	"filename": "enemy_10046.png",
	"frame": {"x":2270,"y":2,"w":52,"h":60},
	"rotated": false,
	"trimmed": false,
	"spriteSourceSize": {"x":0,"y":0,"w":52,"h":60},
	"sourceSize": {"w":52,"h":60},
	"pivot": {"x":0.5,"y":0.5}
},
{
	"filename": "enemy_10047.png",
	"frame": {"x":2324,"y":2,"w":52,"h":60},
	"rotated": false,
	"trimmed": false,
	"spriteSourceSize": {"x":0,"y":0,"w":52,"h":60},
	"sourceSize": {"w":52,"h":60},
	"pivot": {"x":0.5,"y":0.5}
},
{
	"filename": "enemy_10048.png",
	"frame": {"x":2378,"y":2,"w":52,"h":60},
	"rotated": false,
	"trimmed": false,
	"spriteSourceSize": {"x":0,"y":0,"w":52,"h":60},
	"sourceSize": {"w":52,"h":60},
	"pivot": {"x":0.5,"y":0.5}
},
{
	"filename": "enemy_10049.png",
	"frame": {"x":2432,"y":2,"w":52,"h":60},
	"rotated": false,
	"trimmed": false,
	"spriteSourceSize": {"x":0,"y":0,"w":52,"h":60},
	"sourceSize": {"w":52,"h":60},
	"pivot": {"x":0.5,"y":0.5}
},
{
	"filename": "enemy_10050.png",
	"frame": {"x":2486,"y":2,"w":52,"h":60},
	"rotated": false,
	"trimmed": false,
	"spriteSourceSize": {"x":0,"y":0,"w":52,"h":60},
	"sourceSize": {"w":52,"h":60},
	"pivot": {"x":0.5,"y":0.5}
},
{
	"filename": "enemy_10051.png",
	"frame": {"x":2540,"y":2,"w":52,"h":60},
	"rotated": false,
	"trimmed": false,
	"spriteSourceSize": {"x":0,"y":0,"w":52,"h":60},
	"sourceSize": {"w":52,"h":60},
	"pivot": {"x":0.5,"y":0.5}
},
{
	"filename": "enemy_10052.png",
	"frame": {"x":2594,"y":2,"w":52,"h":60},
	"rotated": false,
	"trimmed": false,
	"spriteSourceSize": {"x":0,"y":0,"w":52,"h":60},
	"sourceSize": {"w":52,"h":60},
	"pivot": {"x":0.5,"y":0.5}
},
{
	"filename": "enemy_10053.png",
	"frame": {"x":2648,"y":2,"w":52,"h":60},
	"rotated": false,
	"trimmed": false,
	"spriteSourceSize": {"x":0,"y":0,"w":52,"h":60},
	"sourceSize": {"w":52,"h":60},
	"pivot": {"x":0.5,"y":0.5}
},
{
	"filename": "enemy_10054.png",
	"frame": {"x":56,"y":2,"w":52,"h":60},
	"rotated": false,
	"trimmed": false,
	"spriteSourceSize": {"x":0,"y":0,"w":52,"h":60},
	"sourceSize": {"w":52,"h":60},
	"pivot": {"x":0.5,"y":0.5}
}],
"meta": {
	"app": "http://www.codeandweb.com/texturepacker",
	"version": "1.0",
	"image": "enemy2.png",
	"format": "RGBA8888",
	"size": {"w":2744,"h":64},
	"scale": "1",
	"smartupdate": "$TexturePacker:SmartUpdate:47b2497405c2cc89e4d37f490f3707c5:123385cbfc8e84419ad5400d3bd5e1bd:80607114553ff3873e2e8a898e236602$"
}
}
