{"frames": [

{
	"filename": "enemy_00001.png",
	"frame": {"x":2,"y":2,"w":51,"h":68},
	"rotated": false,
	"trimmed": false,
	"spriteSourceSize": {"x":0,"y":0,"w":51,"h":68},
	"sourceSize": {"w":51,"h":68},
	"pivot": {"x":0.5,"y":0.5}
},
{
	"filename": "enemy_00002.png",
	"frame": {"x":2,"y":2,"w":51,"h":68},
	"rotated": false,
	"trimmed": false,
	"spriteSourceSize": {"x":0,"y":0,"w":51,"h":68},
	"sourceSize": {"w":51,"h":68},
	"pivot": {"x":0.5,"y":0.5}
},
{
	"filename": "enemy_00003.png",
	"frame": {"x":2,"y":2,"w":51,"h":68},
	"rotated": false,
	"trimmed": false,
	"spriteSourceSize": {"x":0,"y":0,"w":51,"h":68},
	"sourceSize": {"w":51,"h":68},
	"pivot": {"x":0.5,"y":0.5}
},
{
	"filename": "enemy_00004.png",
	"frame": {"x":2,"y":2,"w":51,"h":68},
	"rotated": false,
	"trimmed": false,
	"spriteSourceSize": {"x":0,"y":0,"w":51,"h":68},
	"sourceSize": {"w":51,"h":68},
	"pivot": {"x":0.5,"y":0.5}
},
{
	"filename": "enemy_00005.png",
	"frame": {"x":2,"y":2,"w":51,"h":68},
	"rotated": false,
	"trimmed": false,
	"spriteSourceSize": {"x":0,"y":0,"w":51,"h":68},
	"sourceSize": {"w":51,"h":68},
	"pivot": {"x":0.5,"y":0.5}
},
{
	"filename": "enemy_00006.png",
	"frame": {"x":55,"y":2,"w":51,"h":68},
	"rotated": false,
	"trimmed": false,
	"spriteSourceSize": {"x":0,"y":0,"w":51,"h":68},
	"sourceSize": {"w":51,"h":68},
	"pivot": {"x":0.5,"y":0.5}
},
{
	"filename": "enemy_00007.png",
	"frame": {"x":2,"y":72,"w":51,"h":68},
	"rotated": false,
	"trimmed": false,
	"spriteSourceSize": {"x":0,"y":0,"w":51,"h":68},
	"sourceSize": {"w":51,"h":68},
	"pivot": {"x":0.5,"y":0.5}
},
{
	"filename": "enemy_00008.png",
	"frame": {"x":55,"y":72,"w":51,"h":68},
	"rotated": false,
	"trimmed": false,
	"spriteSourceSize": {"x":0,"y":0,"w":51,"h":68},
	"sourceSize": {"w":51,"h":68},
	"pivot": {"x":0.5,"y":0.5}
},
{
	"filename": "enemy_00009.png",
	"frame": {"x":2,"y":142,"w":51,"h":68},
	"rotated": false,
	"trimmed": false,
	"spriteSourceSize": {"x":0,"y":0,"w":51,"h":68},
	"sourceSize": {"w":51,"h":68},
	"pivot": {"x":0.5,"y":0.5}
},
{
	"filename": "enemy_00010.png",
	"frame": {"x":55,"y":142,"w":51,"h":68},
	"rotated": false,
	"trimmed": false,
	"spriteSourceSize": {"x":0,"y":0,"w":51,"h":68},
	"sourceSize": {"w":51,"h":68},
	"pivot": {"x":0.5,"y":0.5}
},
{
	"filename": "enemy_00011.png",
	"frame": {"x":2,"y":212,"w":51,"h":68},
	"rotated": false,
	"trimmed": false,
	"spriteSourceSize": {"x":0,"y":0,"w":51,"h":68},
	"sourceSize": {"w":51,"h":68},
	"pivot": {"x":0.5,"y":0.5}
},
{
	"filename": "enemy_00012.png",
	"frame": {"x":55,"y":212,"w":51,"h":68},
	"rotated": false,
	"trimmed": false,
	"spriteSourceSize": {"x":0,"y":0,"w":51,"h":68},
	"sourceSize": {"w":51,"h":68},
	"pivot": {"x":0.5,"y":0.5}
},
{
	"filename": "enemy_00013.png",
	"frame": {"x":2,"y":282,"w":51,"h":68},
	"rotated": false,
	"trimmed": false,
	"spriteSourceSize": {"x":0,"y":0,"w":51,"h":68},
	"sourceSize": {"w":51,"h":68},
	"pivot": {"x":0.5,"y":0.5}
},
{
	"filename": "enemy_00014.png",
	"frame": {"x":55,"y":282,"w":51,"h":68},
	"rotated": false,
	"trimmed": false,
	"spriteSourceSize": {"x":0,"y":0,"w":51,"h":68},
	"sourceSize": {"w":51,"h":68},
	"pivot": {"x":0.5,"y":0.5}
},
{
	"filename": "enemy_00015.png",
	"frame": {"x":2,"y":352,"w":51,"h":68},
	"rotated": false,
	"trimmed": false,
	"spriteSourceSize": {"x":0,"y":0,"w":51,"h":68},
	"sourceSize": {"w":51,"h":68},
	"pivot": {"x":0.5,"y":0.5}
},
{
	"filename": "enemy_00016.png",
	"frame": {"x":55,"y":352,"w":51,"h":68},
	"rotated": false,
	"trimmed": false,
	"spriteSourceSize": {"x":0,"y":0,"w":51,"h":68},
	"sourceSize": {"w":51,"h":68},
	"pivot": {"x":0.5,"y":0.5}
},
{
	"filename": "enemy_00017.png",
	"frame": {"x":2,"y":422,"w":51,"h":68},
	"rotated": false,
	"trimmed": false,
	"spriteSourceSize": {"x":0,"y":0,"w":51,"h":68},
	"sourceSize": {"w":51,"h":68},
	"pivot": {"x":0.5,"y":0.5}
},
{
	"filename": "enemy_00018.png",
	"frame": {"x":55,"y":422,"w":51,"h":68},
	"rotated": false,
	"trimmed": false,
	"spriteSourceSize": {"x":0,"y":0,"w":51,"h":68},
	"sourceSize": {"w":51,"h":68},
	"pivot": {"x":0.5,"y":0.5}
},
{
	"filename": "enemy_00019.png",
	"frame": {"x":2,"y":492,"w":51,"h":68},
	"rotated": false,
	"trimmed": false,
	"spriteSourceSize": {"x":0,"y":0,"w":51,"h":68},
	"sourceSize": {"w":51,"h":68},
	"pivot": {"x":0.5,"y":0.5}
},
{
	"filename": "enemy_00020.png",
	"frame": {"x":55,"y":492,"w":51,"h":68},
	"rotated": false,
	"trimmed": false,
	"spriteSourceSize": {"x":0,"y":0,"w":51,"h":68},
	"sourceSize": {"w":51,"h":68},
	"pivot": {"x":0.5,"y":0.5}
},
{
	"filename": "enemy_00021.png",
	"frame": {"x":2,"y":562,"w":51,"h":68},
	"rotated": false,
	"trimmed": false,
	"spriteSourceSize": {"x":0,"y":0,"w":51,"h":68},
	"sourceSize": {"w":51,"h":68},
	"pivot": {"x":0.5,"y":0.5}
},
{
	"filename": "enemy_00022.png",
	"frame": {"x":55,"y":562,"w":51,"h":68},
	"rotated": false,
	"trimmed": false,
	"spriteSourceSize": {"x":0,"y":0,"w":51,"h":68},
	"sourceSize": {"w":51,"h":68},
	"pivot": {"x":0.5,"y":0.5}
},
{
	"filename": "enemy_00023.png",
	"frame": {"x":2,"y":632,"w":51,"h":68},
	"rotated": false,
	"trimmed": false,
	"spriteSourceSize": {"x":0,"y":0,"w":51,"h":68},
	"sourceSize": {"w":51,"h":68},
	"pivot": {"x":0.5,"y":0.5}
},
{
	"filename": "enemy_00024.png",
	"frame": {"x":55,"y":632,"w":51,"h":68},
	"rotated": false,
	"trimmed": false,
	"spriteSourceSize": {"x":0,"y":0,"w":51,"h":68},
	"sourceSize": {"w":51,"h":68},
	"pivot": {"x":0.5,"y":0.5}
},
{
	"filename": "enemy_00025.png",
	"frame": {"x":2,"y":702,"w":51,"h":68},
	"rotated": false,
	"trimmed": false,
	"spriteSourceSize": {"x":0,"y":0,"w":51,"h":68},
	"sourceSize": {"w":51,"h":68},
	"pivot": {"x":0.5,"y":0.5}
},
{
	"filename": "enemy_00026.png",
	"frame": {"x":55,"y":702,"w":51,"h":68},
	"rotated": false,
	"trimmed": false,
	"spriteSourceSize": {"x":0,"y":0,"w":51,"h":68},
	"sourceSize": {"w":51,"h":68},
	"pivot": {"x":0.5,"y":0.5}
},
{
	"filename": "enemy_00027.png",
	"frame": {"x":2,"y":772,"w":51,"h":68},
	"rotated": false,
	"trimmed": false,
	"spriteSourceSize": {"x":0,"y":0,"w":51,"h":68},
	"sourceSize": {"w":51,"h":68},
	"pivot": {"x":0.5,"y":0.5}
},
{
	"filename": "enemy_00028.png",
	"frame": {"x":55,"y":772,"w":51,"h":68},
	"rotated": false,
	"trimmed": false,
	"spriteSourceSize": {"x":0,"y":0,"w":51,"h":68},
	"sourceSize": {"w":51,"h":68},
	"pivot": {"x":0.5,"y":0.5}
},
{
	"filename": "enemy_00029.png",
	"frame": {"x":2,"y":842,"w":51,"h":68},
	"rotated": false,
	"trimmed": false,
	"spriteSourceSize": {"x":0,"y":0,"w":51,"h":68},
	"sourceSize": {"w":51,"h":68},
	"pivot": {"x":0.5,"y":0.5}
},
{
	"filename": "enemy_00030.png",
	"frame": {"x":55,"y":842,"w":51,"h":68},
	"rotated": false,
	"trimmed": false,
	"spriteSourceSize": {"x":0,"y":0,"w":51,"h":68},
	"sourceSize": {"w":51,"h":68},
	"pivot": {"x":0.5,"y":0.5}
},
{
	"filename": "enemy_00031.png",
	"frame": {"x":2,"y":912,"w":51,"h":68},
	"rotated": false,
	"trimmed": false,
	"spriteSourceSize": {"x":0,"y":0,"w":51,"h":68},
	"sourceSize": {"w":51,"h":68},
	"pivot": {"x":0.5,"y":0.5}
},
{
	"filename": "enemy_00032.png",
	"frame": {"x":55,"y":912,"w":51,"h":68},
	"rotated": false,
	"trimmed": false,
	"spriteSourceSize": {"x":0,"y":0,"w":51,"h":68},
	"sourceSize": {"w":51,"h":68},
	"pivot": {"x":0.5,"y":0.5}
},
{
	"filename": "enemy_00033.png",
	"frame": {"x":2,"y":982,"w":51,"h":68},
	"rotated": false,
	"trimmed": false,
	"spriteSourceSize": {"x":0,"y":0,"w":51,"h":68},
	"sourceSize": {"w":51,"h":68},
	"pivot": {"x":0.5,"y":0.5}
},
{
	"filename": "enemy_00034.png",
	"frame": {"x":55,"y":982,"w":51,"h":68},
	"rotated": false,
	"trimmed": false,
	"spriteSourceSize": {"x":0,"y":0,"w":51,"h":68},
	"sourceSize": {"w":51,"h":68},
	"pivot": {"x":0.5,"y":0.5}
},
{
	"filename": "enemy_00035.png",
	"frame": {"x":2,"y":1052,"w":51,"h":68},
	"rotated": false,
	"trimmed": false,
	"spriteSourceSize": {"x":0,"y":0,"w":51,"h":68},
	"sourceSize": {"w":51,"h":68},
	"pivot": {"x":0.5,"y":0.5}
},
{
	"filename": "enemy_00036.png",
	"frame": {"x":55,"y":1052,"w":51,"h":68},
	"rotated": false,
	"trimmed": false,
	"spriteSourceSize": {"x":0,"y":0,"w":51,"h":68},
	"sourceSize": {"w":51,"h":68},
	"pivot": {"x":0.5,"y":0.5}
},
{
	"filename": "enemy_00037.png",
	"frame": {"x":2,"y":1122,"w":51,"h":68},
	"rotated": false,
	"trimmed": false,
	"spriteSourceSize": {"x":0,"y":0,"w":51,"h":68},
	"sourceSize": {"w":51,"h":68},
	"pivot": {"x":0.5,"y":0.5}
},
{
	"filename": "enemy_00038.png",
	"frame": {"x":55,"y":1122,"w":51,"h":68},
	"rotated": false,
	"trimmed": false,
	"spriteSourceSize": {"x":0,"y":0,"w":51,"h":68},
	"sourceSize": {"w":51,"h":68},
	"pivot": {"x":0.5,"y":0.5}
},
{
	"filename": "enemy_00039.png",
	"frame": {"x":2,"y":1192,"w":51,"h":68},
	"rotated": false,
	"trimmed": false,
	"spriteSourceSize": {"x":0,"y":0,"w":51,"h":68},
	"sourceSize": {"w":51,"h":68},
	"pivot": {"x":0.5,"y":0.5}
},
{
	"filename": "enemy_00040.png",
	"frame": {"x":55,"y":1192,"w":51,"h":68},
	"rotated": false,
	"trimmed": false,
	"spriteSourceSize": {"x":0,"y":0,"w":51,"h":68},
	"sourceSize": {"w":51,"h":68},
	"pivot": {"x":0.5,"y":0.5}
},
{
	"filename": "enemy_00041.png",
	"frame": {"x":2,"y":1262,"w":51,"h":68},
	"rotated": false,
	"trimmed": false,
	"spriteSourceSize": {"x":0,"y":0,"w":51,"h":68},
	"sourceSize": {"w":51,"h":68},
	"pivot": {"x":0.5,"y":0.5}
},
{
	"filename": "enemy_00042.png",
	"frame": {"x":55,"y":1262,"w":51,"h":68},
	"rotated": false,
	"trimmed": false,
	"spriteSourceSize": {"x":0,"y":0,"w":51,"h":68},
	"sourceSize": {"w":51,"h":68},
	"pivot": {"x":0.5,"y":0.5}
},
{
	"filename": "enemy_00043.png",
	"frame": {"x":2,"y":1332,"w":51,"h":68},
	"rotated": false,
	"trimmed": false,
	"spriteSourceSize": {"x":0,"y":0,"w":51,"h":68},
	"sourceSize": {"w":51,"h":68},
	"pivot": {"x":0.5,"y":0.5}
},
{
	"filename": "enemy_00044.png",
	"frame": {"x":55,"y":1332,"w":51,"h":68},
	"rotated": false,
	"trimmed": false,
	"spriteSourceSize": {"x":0,"y":0,"w":51,"h":68},
	"sourceSize": {"w":51,"h":68},
	"pivot": {"x":0.5,"y":0.5}
},
{
	"filename": "enemy_00045.png",
	"frame": {"x":2,"y":1402,"w":51,"h":68},
	"rotated": false,
	"trimmed": false,
	"spriteSourceSize": {"x":0,"y":0,"w":51,"h":68},
	"sourceSize": {"w":51,"h":68},
	"pivot": {"x":0.5,"y":0.5}
},
{
	"filename": "enemy_00046.png",
	"frame": {"x":55,"y":1402,"w":51,"h":68},
	"rotated": false,
	"trimmed": false,
	"spriteSourceSize": {"x":0,"y":0,"w":51,"h":68},
	"sourceSize": {"w":51,"h":68},
	"pivot": {"x":0.5,"y":0.5}
},
{
	"filename": "enemy_00047.png",
	"frame": {"x":2,"y":1472,"w":51,"h":68},
	"rotated": false,
	"trimmed": false,
	"spriteSourceSize": {"x":0,"y":0,"w":51,"h":68},
	"sourceSize": {"w":51,"h":68},
	"pivot": {"x":0.5,"y":0.5}
},
{
	"filename": "enemy_00048.png",
	"frame": {"x":55,"y":1472,"w":51,"h":68},
	"rotated": false,
	"trimmed": false,
	"spriteSourceSize": {"x":0,"y":0,"w":51,"h":68},
	"sourceSize": {"w":51,"h":68},
	"pivot": {"x":0.5,"y":0.5}
},
{
	"filename": "enemy_00049.png",
	"frame": {"x":2,"y":1542,"w":51,"h":68},
	"rotated": false,
	"trimmed": false,
	"spriteSourceSize": {"x":0,"y":0,"w":51,"h":68},
	"sourceSize": {"w":51,"h":68},
	"pivot": {"x":0.5,"y":0.5}
},
{
	"filename": "enemy_00050.png",
	"frame": {"x":55,"y":1542,"w":51,"h":68},
	"rotated": false,
	"trimmed": false,
	"spriteSourceSize": {"x":0,"y":0,"w":51,"h":68},
	"sourceSize": {"w":51,"h":68},
	"pivot": {"x":0.5,"y":0.5}
},
{
	"filename": "enemy_00051.png",
	"frame": {"x":2,"y":1612,"w":51,"h":68},
	"rotated": false,
	"trimmed": false,
	"spriteSourceSize": {"x":0,"y":0,"w":51,"h":68},
	"sourceSize": {"w":51,"h":68},
	"pivot": {"x":0.5,"y":0.5}
},
{
	"filename": "enemy_00052.png",
	"frame": {"x":55,"y":1612,"w":51,"h":68},
	"rotated": false,
	"trimmed": false,
	"spriteSourceSize": {"x":0,"y":0,"w":51,"h":68},
	"sourceSize": {"w":51,"h":68},
	"pivot": {"x":0.5,"y":0.5}
},
{
	"filename": "enemy_00053.png",
	"frame": {"x":2,"y":1682,"w":51,"h":68},
	"rotated": false,
	"trimmed": false,
	"spriteSourceSize": {"x":0,"y":0,"w":51,"h":68},
	"sourceSize": {"w":51,"h":68},
	"pivot": {"x":0.5,"y":0.5}
},
{
	"filename": "enemy_00054.png",
	"frame": {"x":55,"y":1682,"w":51,"h":68},
	"rotated": false,
	"trimmed": false,
	"spriteSourceSize": {"x":0,"y":0,"w":51,"h":68},
	"sourceSize": {"w":51,"h":68},
	"pivot": {"x":0.5,"y":0.5}
}],
"meta": {
	"app": "http://www.codeandweb.com/texturepacker",
	"version": "1.0",
	"image": "enemy1.png",
	"format": "RGBA8888",
	"size": {"w":108,"h":1752},
	"scale": "1",
	"smartupdate": "$TexturePacker:SmartUpdate:73fb08e8e3bf27170027074a55667873:fcd412d56570abdea90db2af06002b75:25b65a864ad92a9a51374ffe59991978$"
}
}
