{"frames": [

{
	"filename": "tan_laptop0001.png",
	"frame": {"x":2,"y":2,"w":75,"h":149},
	"rotated": false,
	"trimmed": false,
	"spriteSourceSize": {"x":0,"y":0,"w":75,"h":149},
	"sourceSize": {"w":75,"h":149},
	"pivot": {"x":0.5,"y":0.5}
},
{
	"filename": "tan_laptop0002.png",
	"frame": {"x":2,"y":2,"w":75,"h":149},
	"rotated": false,
	"trimmed": false,
	"spriteSourceSize": {"x":0,"y":0,"w":75,"h":149},
	"sourceSize": {"w":75,"h":149},
	"pivot": {"x":0.5,"y":0.5}
},
{
	"filename": "tan_laptop0003.png",
	"frame": {"x":2,"y":2,"w":75,"h":149},
	"rotated": false,
	"trimmed": false,
	"spriteSourceSize": {"x":0,"y":0,"w":75,"h":149},
	"sourceSize": {"w":75,"h":149},
	"pivot": {"x":0.5,"y":0.5}
},
{
	"filename": "tan_laptop0004.png",
	"frame": {"x":2,"y":153,"w":75,"h":149},
	"rotated": false,
	"trimmed": false,
	"spriteSourceSize": {"x":0,"y":0,"w":75,"h":149},
	"sourceSize": {"w":75,"h":149},
	"pivot": {"x":0.5,"y":0.5}
},
{
	"filename": "tan_laptop0005.png",
	"frame": {"x":2,"y":153,"w":75,"h":149},
	"rotated": false,
	"trimmed": false,
	"spriteSourceSize": {"x":0,"y":0,"w":75,"h":149},
	"sourceSize": {"w":75,"h":149},
	"pivot": {"x":0.5,"y":0.5}
},
{
	"filename": "tan_laptop0006.png",
	"frame": {"x":2,"y":2,"w":75,"h":149},
	"rotated": false,
	"trimmed": false,
	"spriteSourceSize": {"x":0,"y":0,"w":75,"h":149},
	"sourceSize": {"w":75,"h":149},
	"pivot": {"x":0.5,"y":0.5}
},
{
	"filename": "tan_laptop0007.png",
	"frame": {"x":2,"y":304,"w":75,"h":149},
	"rotated": false,
	"trimmed": false,
	"spriteSourceSize": {"x":0,"y":0,"w":75,"h":149},
	"sourceSize": {"w":75,"h":149},
	"pivot": {"x":0.5,"y":0.5}
},
{
	"filename": "tan_laptop0008.png",
	"frame": {"x":2,"y":455,"w":75,"h":149},
	"rotated": false,
	"trimmed": false,
	"spriteSourceSize": {"x":0,"y":0,"w":75,"h":149},
	"sourceSize": {"w":75,"h":149},
	"pivot": {"x":0.5,"y":0.5}
},
{
	"filename": "tan_laptop0009.png",
	"frame": {"x":2,"y":455,"w":75,"h":149},
	"rotated": false,
	"trimmed": false,
	"spriteSourceSize": {"x":0,"y":0,"w":75,"h":149},
	"sourceSize": {"w":75,"h":149},
	"pivot": {"x":0.5,"y":0.5}
},
{
	"filename": "tan_laptop0010.png",
	"frame": {"x":2,"y":455,"w":75,"h":149},
	"rotated": false,
	"trimmed": false,
	"spriteSourceSize": {"x":0,"y":0,"w":75,"h":149},
	"sourceSize": {"w":75,"h":149},
	"pivot": {"x":0.5,"y":0.5}
},
{
	"filename": "tan_laptop0011.png",
	"frame": {"x":2,"y":304,"w":75,"h":149},
	"rotated": false,
	"trimmed": false,
	"spriteSourceSize": {"x":0,"y":0,"w":75,"h":149},
	"sourceSize": {"w":75,"h":149},
	"pivot": {"x":0.5,"y":0.5}
},
{
	"filename": "tan_laptop0012.png",
	"frame": {"x":2,"y":153,"w":75,"h":149},
	"rotated": false,
	"trimmed": false,
	"spriteSourceSize": {"x":0,"y":0,"w":75,"h":149},
	"sourceSize": {"w":75,"h":149},
	"pivot": {"x":0.5,"y":0.5}
},
{
	"filename": "tan_laptop0013.png",
	"frame": {"x":2,"y":153,"w":75,"h":149},
	"rotated": false,
	"trimmed": false,
	"spriteSourceSize": {"x":0,"y":0,"w":75,"h":149},
	"sourceSize": {"w":75,"h":149},
	"pivot": {"x":0.5,"y":0.5}
},
{
	"filename": "tan_laptop0014.png",
	"frame": {"x":2,"y":153,"w":75,"h":149},
	"rotated": false,
	"trimmed": false,
	"spriteSourceSize": {"x":0,"y":0,"w":75,"h":149},
	"sourceSize": {"w":75,"h":149},
	"pivot": {"x":0.5,"y":0.5}
},
{
	"filename": "tan_laptop0015.png",
	"frame": {"x":2,"y":153,"w":75,"h":149},
	"rotated": false,
	"trimmed": false,
	"spriteSourceSize": {"x":0,"y":0,"w":75,"h":149},
	"sourceSize": {"w":75,"h":149},
	"pivot": {"x":0.5,"y":0.5}
},
{
	"filename": "tan_laptop0016.png",
	"frame": {"x":2,"y":153,"w":75,"h":149},
	"rotated": false,
	"trimmed": false,
	"spriteSourceSize": {"x":0,"y":0,"w":75,"h":149},
	"sourceSize": {"w":75,"h":149},
	"pivot": {"x":0.5,"y":0.5}
},
{
	"filename": "tan_laptop0017.png",
	"frame": {"x":2,"y":2,"w":75,"h":149},
	"rotated": false,
	"trimmed": false,
	"spriteSourceSize": {"x":0,"y":0,"w":75,"h":149},
	"sourceSize": {"w":75,"h":149},
	"pivot": {"x":0.5,"y":0.5}
},
{
	"filename": "tan_laptop0018.png",
	"frame": {"x":2,"y":153,"w":75,"h":149},
	"rotated": false,
	"trimmed": false,
	"spriteSourceSize": {"x":0,"y":0,"w":75,"h":149},
	"sourceSize": {"w":75,"h":149},
	"pivot": {"x":0.5,"y":0.5}
},
{
	"filename": "tan_laptop0019.png",
	"frame": {"x":2,"y":153,"w":75,"h":149},
	"rotated": false,
	"trimmed": false,
	"spriteSourceSize": {"x":0,"y":0,"w":75,"h":149},
	"sourceSize": {"w":75,"h":149},
	"pivot": {"x":0.5,"y":0.5}
},
{
	"filename": "tan_laptop0020.png",
	"frame": {"x":2,"y":153,"w":75,"h":149},
	"rotated": false,
	"trimmed": false,
	"spriteSourceSize": {"x":0,"y":0,"w":75,"h":149},
	"sourceSize": {"w":75,"h":149},
	"pivot": {"x":0.5,"y":0.5}
},
{
	"filename": "tan_laptop0021.png",
	"frame": {"x":2,"y":153,"w":75,"h":149},
	"rotated": false,
	"trimmed": false,
	"spriteSourceSize": {"x":0,"y":0,"w":75,"h":149},
	"sourceSize": {"w":75,"h":149},
	"pivot": {"x":0.5,"y":0.5}
},
{
	"filename": "tan_laptop0022.png",
	"frame": {"x":2,"y":606,"w":75,"h":149},
	"rotated": false,
	"trimmed": false,
	"spriteSourceSize": {"x":0,"y":0,"w":75,"h":149},
	"sourceSize": {"w":75,"h":149},
	"pivot": {"x":0.5,"y":0.5}
},
{
	"filename": "tan_laptop0023.png",
	"frame": {"x":2,"y":606,"w":75,"h":149},
	"rotated": false,
	"trimmed": false,
	"spriteSourceSize": {"x":0,"y":0,"w":75,"h":149},
	"sourceSize": {"w":75,"h":149},
	"pivot": {"x":0.5,"y":0.5}
},
{
	"filename": "tan_laptop0024.png",
	"frame": {"x":2,"y":153,"w":75,"h":149},
	"rotated": false,
	"trimmed": false,
	"spriteSourceSize": {"x":0,"y":0,"w":75,"h":149},
	"sourceSize": {"w":75,"h":149},
	"pivot": {"x":0.5,"y":0.5}
},
{
	"filename": "tan_laptop0025.png",
	"frame": {"x":2,"y":153,"w":75,"h":149},
	"rotated": false,
	"trimmed": false,
	"spriteSourceSize": {"x":0,"y":0,"w":75,"h":149},
	"sourceSize": {"w":75,"h":149},
	"pivot": {"x":0.5,"y":0.5}
},
{
	"filename": "tan_laptop0026.png",
	"frame": {"x":2,"y":153,"w":75,"h":149},
	"rotated": false,
	"trimmed": false,
	"spriteSourceSize": {"x":0,"y":0,"w":75,"h":149},
	"sourceSize": {"w":75,"h":149},
	"pivot": {"x":0.5,"y":0.5}
},
{
	"filename": "tan_laptop0027.png",
	"frame": {"x":2,"y":606,"w":75,"h":149},
	"rotated": false,
	"trimmed": false,
	"spriteSourceSize": {"x":0,"y":0,"w":75,"h":149},
	"sourceSize": {"w":75,"h":149},
	"pivot": {"x":0.5,"y":0.5}
},
{
	"filename": "tan_laptop0028.png",
	"frame": {"x":2,"y":606,"w":75,"h":149},
	"rotated": false,
	"trimmed": false,
	"spriteSourceSize": {"x":0,"y":0,"w":75,"h":149},
	"sourceSize": {"w":75,"h":149},
	"pivot": {"x":0.5,"y":0.5}
},
{
	"filename": "tan_laptop0029.png",
	"frame": {"x":2,"y":606,"w":75,"h":149},
	"rotated": false,
	"trimmed": false,
	"spriteSourceSize": {"x":0,"y":0,"w":75,"h":149},
	"sourceSize": {"w":75,"h":149},
	"pivot": {"x":0.5,"y":0.5}
},
{
	"filename": "tan_laptop0030.png",
	"frame": {"x":2,"y":606,"w":75,"h":149},
	"rotated": false,
	"trimmed": false,
	"spriteSourceSize": {"x":0,"y":0,"w":75,"h":149},
	"sourceSize": {"w":75,"h":149},
	"pivot": {"x":0.5,"y":0.5}
}],
"meta": {
	"app": "http://www.codeandweb.com/texturepacker",
	"version": "1.0",
	"image": "tan_laptop.png",
	"format": "RGBA8888",
	"size": {"w":79,"h":757},
	"scale": "1",
	"smartupdate": "$TexturePacker:SmartUpdate:5406be0a8193caa3b1205f7206a65c1d:977a0803a1ae9564a01f4b56c6098837:cb8e52d0f4c22e2af5153448c31cd522$"
}
}
