{"frames": [

{
	"filename": "btns0001.png",
	"frame": {"x":2,"y":2,"w":42,"h":42},
	"rotated": false,
	"trimmed": false,
	"spriteSourceSize": {"x":0,"y":0,"w":42,"h":42},
	"sourceSize": {"w":42,"h":42},
	"pivot": {"x":0.5,"y":0.5}
},
{
	"filename": "btns0002.png",
	"frame": {"x":46,"y":2,"w":42,"h":42},
	"rotated": false,
	"trimmed": false,
	"spriteSourceSize": {"x":0,"y":0,"w":42,"h":42},
	"sourceSize": {"w":42,"h":42},
	"pivot": {"x":0.5,"y":0.5}
},
{
	"filename": "btns0003.png",
	"frame": {"x":90,"y":2,"w":42,"h":42},
	"rotated": false,
	"trimmed": false,
	"spriteSourceSize": {"x":0,"y":0,"w":42,"h":42},
	"sourceSize": {"w":42,"h":42},
	"pivot": {"x":0.5,"y":0.5}
},
{
	"filename": "btns0004.png",
	"frame": {"x":134,"y":2,"w":42,"h":42},
	"rotated": false,
	"trimmed": false,
	"spriteSourceSize": {"x":0,"y":0,"w":42,"h":42},
	"sourceSize": {"w":42,"h":42},
	"pivot": {"x":0.5,"y":0.5}
}],
"meta": {
	"app": "http://www.codeandweb.com/texturepacker",
	"version": "1.0",
	"image": "mainMenuButtons.png",
	"format": "RGBA8888",
	"size": {"w":178,"h":46},
	"scale": "1",
	"smartupdate": "$TexturePacker:SmartUpdate:ffa62926d9281f2faa03a86f57c82417:f64363c6dd78a1de772170aa15d4a1cf:6bee2929830cf0c4523f78cb2a4dfc5a$"
}
}
