{"frames": [

{
	"filename": "btns0001.png",
	"frame": {"x":2,"y":2,"w":140,"h":66},
	"rotated": false,
	"trimmed": false,
	"spriteSourceSize": {"x":0,"y":0,"w":140,"h":66},
	"sourceSize": {"w":140,"h":66},
	"pivot": {"x":0.5,"y":0.5}
},
{
	"filename": "btns0002.png",
	"frame": {"x":144,"y":2,"w":140,"h":66},
	"rotated": false,
	"trimmed": false,
	"spriteSourceSize": {"x":0,"y":0,"w":140,"h":66},
	"sourceSize": {"w":140,"h":66},
	"pivot": {"x":0.5,"y":0.5}
},
{
	"filename": "btns0003.png",
	"frame": {"x":286,"y":2,"w":140,"h":66},
	"rotated": false,
	"trimmed": false,
	"spriteSourceSize": {"x":0,"y":0,"w":140,"h":66},
	"sourceSize": {"w":140,"h":66},
	"pivot": {"x":0.5,"y":0.5}
},
{
	"filename": "btns0004.png",
	"frame": {"x":428,"y":2,"w":140,"h":66},
	"rotated": false,
	"trimmed": false,
	"spriteSourceSize": {"x":0,"y":0,"w":140,"h":66},
	"sourceSize": {"w":140,"h":66},
	"pivot": {"x":0.5,"y":0.5}
}],
"meta": {
	"app": "http://www.codeandweb.com/texturepacker",
	"version": "1.0",
	"image": "scoreScreenButtons.png",
	"format": "RGBA8888",
	"size": {"w":570,"h":70},
	"scale": "1",
	"smartupdate": "$TexturePacker:SmartUpdate:fb4fed5701a073aa403f0834ca08a0a5:a62d87ae8330880af1cb36571055d1df:ec7b3edb408d3e54327eaaf74ec66f56$"
}
}
