{"frames": [

{
	"filename": "gate0001.png",
	"frame": {"x":2,"y":2,"w":156,"h":117},
	"rotated": false,
	"trimmed": false,
	"spriteSourceSize": {"x":0,"y":0,"w":156,"h":117},
	"sourceSize": {"w":156,"h":117},
	"pivot": {"x":0.5,"y":0.5}
},
{
	"filename": "gate0002.png",
	"frame": {"x":160,"y":2,"w":156,"h":117},
	"rotated": false,
	"trimmed": false,
	"spriteSourceSize": {"x":0,"y":0,"w":156,"h":117},
	"sourceSize": {"w":156,"h":117},
	"pivot": {"x":0.5,"y":0.5}
},
{
	"filename": "gate0003.png",
	"frame": {"x":318,"y":2,"w":156,"h":117},
	"rotated": false,
	"trimmed": false,
	"spriteSourceSize": {"x":0,"y":0,"w":156,"h":117},
	"sourceSize": {"w":156,"h":117},
	"pivot": {"x":0.5,"y":0.5}
},
{
	"filename": "gate0004.png",
	"frame": {"x":476,"y":2,"w":156,"h":117},
	"rotated": false,
	"trimmed": false,
	"spriteSourceSize": {"x":0,"y":0,"w":156,"h":117},
	"sourceSize": {"w":156,"h":117},
	"pivot": {"x":0.5,"y":0.5}
},
{
	"filename": "gate0005.png",
	"frame": {"x":634,"y":2,"w":156,"h":117},
	"rotated": false,
	"trimmed": false,
	"spriteSourceSize": {"x":0,"y":0,"w":156,"h":117},
	"sourceSize": {"w":156,"h":117},
	"pivot": {"x":0.5,"y":0.5}
},
{
	"filename": "gate0006.png",
	"frame": {"x":792,"y":2,"w":156,"h":117},
	"rotated": false,
	"trimmed": false,
	"spriteSourceSize": {"x":0,"y":0,"w":156,"h":117},
	"sourceSize": {"w":156,"h":117},
	"pivot": {"x":0.5,"y":0.5}
},
{
	"filename": "gate0007.png",
	"frame": {"x":950,"y":2,"w":156,"h":117},
	"rotated": false,
	"trimmed": false,
	"spriteSourceSize": {"x":0,"y":0,"w":156,"h":117},
	"sourceSize": {"w":156,"h":117},
	"pivot": {"x":0.5,"y":0.5}
},
{
	"filename": "gate0008.png",
	"frame": {"x":1108,"y":2,"w":156,"h":117},
	"rotated": false,
	"trimmed": false,
	"spriteSourceSize": {"x":0,"y":0,"w":156,"h":117},
	"sourceSize": {"w":156,"h":117},
	"pivot": {"x":0.5,"y":0.5}
},
{
	"filename": "gate0009.png",
	"frame": {"x":1266,"y":2,"w":156,"h":117},
	"rotated": false,
	"trimmed": false,
	"spriteSourceSize": {"x":0,"y":0,"w":156,"h":117},
	"sourceSize": {"w":156,"h":117},
	"pivot": {"x":0.5,"y":0.5}
},
{
	"filename": "gate0010.png",
	"frame": {"x":2,"y":121,"w":156,"h":117},
	"rotated": false,
	"trimmed": false,
	"spriteSourceSize": {"x":0,"y":0,"w":156,"h":117},
	"sourceSize": {"w":156,"h":117},
	"pivot": {"x":0.5,"y":0.5}
},
{
	"filename": "gate0011.png",
	"frame": {"x":160,"y":121,"w":156,"h":117},
	"rotated": false,
	"trimmed": false,
	"spriteSourceSize": {"x":0,"y":0,"w":156,"h":117},
	"sourceSize": {"w":156,"h":117},
	"pivot": {"x":0.5,"y":0.5}
},
{
	"filename": "gate0012.png",
	"frame": {"x":318,"y":121,"w":156,"h":117},
	"rotated": false,
	"trimmed": false,
	"spriteSourceSize": {"x":0,"y":0,"w":156,"h":117},
	"sourceSize": {"w":156,"h":117},
	"pivot": {"x":0.5,"y":0.5}
},
{
	"filename": "gate0013.png",
	"frame": {"x":476,"y":121,"w":156,"h":117},
	"rotated": false,
	"trimmed": false,
	"spriteSourceSize": {"x":0,"y":0,"w":156,"h":117},
	"sourceSize": {"w":156,"h":117},
	"pivot": {"x":0.5,"y":0.5}
},
{
	"filename": "gate0014.png",
	"frame": {"x":634,"y":121,"w":156,"h":117},
	"rotated": false,
	"trimmed": false,
	"spriteSourceSize": {"x":0,"y":0,"w":156,"h":117},
	"sourceSize": {"w":156,"h":117},
	"pivot": {"x":0.5,"y":0.5}
},
{
	"filename": "gate0015.png",
	"frame": {"x":792,"y":121,"w":156,"h":117},
	"rotated": false,
	"trimmed": false,
	"spriteSourceSize": {"x":0,"y":0,"w":156,"h":117},
	"sourceSize": {"w":156,"h":117},
	"pivot": {"x":0.5,"y":0.5}
},
{
	"filename": "gate0016.png",
	"frame": {"x":950,"y":121,"w":156,"h":117},
	"rotated": false,
	"trimmed": false,
	"spriteSourceSize": {"x":0,"y":0,"w":156,"h":117},
	"sourceSize": {"w":156,"h":117},
	"pivot": {"x":0.5,"y":0.5}
},
{
	"filename": "gate0017.png",
	"frame": {"x":1108,"y":121,"w":156,"h":117},
	"rotated": false,
	"trimmed": false,
	"spriteSourceSize": {"x":0,"y":0,"w":156,"h":117},
	"sourceSize": {"w":156,"h":117},
	"pivot": {"x":0.5,"y":0.5}
},
{
	"filename": "gate0018.png",
	"frame": {"x":1266,"y":121,"w":156,"h":117},
	"rotated": false,
	"trimmed": false,
	"spriteSourceSize": {"x":0,"y":0,"w":156,"h":117},
	"sourceSize": {"w":156,"h":117},
	"pivot": {"x":0.5,"y":0.5}
},
{
	"filename": "gate0019.png",
	"frame": {"x":2,"y":240,"w":156,"h":117},
	"rotated": false,
	"trimmed": false,
	"spriteSourceSize": {"x":0,"y":0,"w":156,"h":117},
	"sourceSize": {"w":156,"h":117},
	"pivot": {"x":0.5,"y":0.5}
},
{
	"filename": "gate0020.png",
	"frame": {"x":160,"y":240,"w":156,"h":117},
	"rotated": false,
	"trimmed": false,
	"spriteSourceSize": {"x":0,"y":0,"w":156,"h":117},
	"sourceSize": {"w":156,"h":117},
	"pivot": {"x":0.5,"y":0.5}
},
{
	"filename": "gate0021.png",
	"frame": {"x":318,"y":240,"w":156,"h":117},
	"rotated": false,
	"trimmed": false,
	"spriteSourceSize": {"x":0,"y":0,"w":156,"h":117},
	"sourceSize": {"w":156,"h":117},
	"pivot": {"x":0.5,"y":0.5}
},
{
	"filename": "gate0022.png",
	"frame": {"x":476,"y":240,"w":156,"h":117},
	"rotated": false,
	"trimmed": false,
	"spriteSourceSize": {"x":0,"y":0,"w":156,"h":117},
	"sourceSize": {"w":156,"h":117},
	"pivot": {"x":0.5,"y":0.5}
},
{
	"filename": "gate0023.png",
	"frame": {"x":634,"y":240,"w":156,"h":117},
	"rotated": false,
	"trimmed": false,
	"spriteSourceSize": {"x":0,"y":0,"w":156,"h":117},
	"sourceSize": {"w":156,"h":117},
	"pivot": {"x":0.5,"y":0.5}
},
{
	"filename": "gate0024.png",
	"frame": {"x":792,"y":240,"w":156,"h":117},
	"rotated": false,
	"trimmed": false,
	"spriteSourceSize": {"x":0,"y":0,"w":156,"h":117},
	"sourceSize": {"w":156,"h":117},
	"pivot": {"x":0.5,"y":0.5}
},
{
	"filename": "gate0025.png",
	"frame": {"x":950,"y":240,"w":156,"h":117},
	"rotated": false,
	"trimmed": false,
	"spriteSourceSize": {"x":0,"y":0,"w":156,"h":117},
	"sourceSize": {"w":156,"h":117},
	"pivot": {"x":0.5,"y":0.5}
},
{
	"filename": "gate0026.png",
	"frame": {"x":1108,"y":240,"w":156,"h":117},
	"rotated": false,
	"trimmed": false,
	"spriteSourceSize": {"x":0,"y":0,"w":156,"h":117},
	"sourceSize": {"w":156,"h":117},
	"pivot": {"x":0.5,"y":0.5}
}],
"meta": {
	"app": "http://www.codeandweb.com/texturepacker",
	"version": "1.0",
	"image": "gate.png",
	"format": "RGBA8888",
	"size": {"w":1424,"h":359},
	"scale": "1",
	"smartupdate": "$TexturePacker:SmartUpdate:0c80b26297a211f403b2c4af6943504e:54ed745cc96f8b41f04960106e32e2e8:d4152bb21fb333e85be9d45e9d144416$"
}
}
