{"frames": [

{
	"filename": "jump0001.png",
	"frame": {"x":2,"y":2,"w":389,"h":871},
	"rotated": false,
	"trimmed": false,
	"spriteSourceSize": {"x":0,"y":0,"w":389,"h":871},
	"sourceSize": {"w":389,"h":871},
	"pivot": {"x":0.5,"y":0.5}
},
{
	"filename": "jump0002.png",
	"frame": {"x":393,"y":2,"w":389,"h":871},
	"rotated": false,
	"trimmed": false,
	"spriteSourceSize": {"x":0,"y":0,"w":389,"h":871},
	"sourceSize": {"w":389,"h":871},
	"pivot": {"x":0.5,"y":0.5}
},
{
	"filename": "jump0003.png",
	"frame": {"x":784,"y":2,"w":389,"h":871},
	"rotated": false,
	"trimmed": false,
	"spriteSourceSize": {"x":0,"y":0,"w":389,"h":871},
	"sourceSize": {"w":389,"h":871},
	"pivot": {"x":0.5,"y":0.5}
},
{
	"filename": "jump0004.png",
	"frame": {"x":1175,"y":2,"w":389,"h":871},
	"rotated": false,
	"trimmed": false,
	"spriteSourceSize": {"x":0,"y":0,"w":389,"h":871},
	"sourceSize": {"w":389,"h":871},
	"pivot": {"x":0.5,"y":0.5}
},
{
	"filename": "jump0005.png",
	"frame": {"x":1566,"y":2,"w":389,"h":871},
	"rotated": false,
	"trimmed": false,
	"spriteSourceSize": {"x":0,"y":0,"w":389,"h":871},
	"sourceSize": {"w":389,"h":871},
	"pivot": {"x":0.5,"y":0.5}
},
{
	"filename": "jump0006.png",
	"frame": {"x":1957,"y":2,"w":389,"h":871},
	"rotated": false,
	"trimmed": false,
	"spriteSourceSize": {"x":0,"y":0,"w":389,"h":871},
	"sourceSize": {"w":389,"h":871},
	"pivot": {"x":0.5,"y":0.5}
},
{
	"filename": "jump0007.png",
	"frame": {"x":2348,"y":2,"w":389,"h":871},
	"rotated": false,
	"trimmed": false,
	"spriteSourceSize": {"x":0,"y":0,"w":389,"h":871},
	"sourceSize": {"w":389,"h":871},
	"pivot": {"x":0.5,"y":0.5}
},
{
	"filename": "jump0008.png",
	"frame": {"x":2739,"y":2,"w":389,"h":871},
	"rotated": false,
	"trimmed": false,
	"spriteSourceSize": {"x":0,"y":0,"w":389,"h":871},
	"sourceSize": {"w":389,"h":871},
	"pivot": {"x":0.5,"y":0.5}
},
{
	"filename": "jump0009.png",
	"frame": {"x":3130,"y":2,"w":389,"h":871},
	"rotated": false,
	"trimmed": false,
	"spriteSourceSize": {"x":0,"y":0,"w":389,"h":871},
	"sourceSize": {"w":389,"h":871},
	"pivot": {"x":0.5,"y":0.5}
},
{
	"filename": "jump0010.png",
	"frame": {"x":3521,"y":2,"w":389,"h":871},
	"rotated": false,
	"trimmed": false,
	"spriteSourceSize": {"x":0,"y":0,"w":389,"h":871},
	"sourceSize": {"w":389,"h":871},
	"pivot": {"x":0.5,"y":0.5}
},
{
	"filename": "jump0011.png",
	"frame": {"x":3912,"y":2,"w":389,"h":871},
	"rotated": false,
	"trimmed": false,
	"spriteSourceSize": {"x":0,"y":0,"w":389,"h":871},
	"sourceSize": {"w":389,"h":871},
	"pivot": {"x":0.5,"y":0.5}
},
{
	"filename": "jump0012.png",
	"frame": {"x":4303,"y":2,"w":389,"h":871},
	"rotated": false,
	"trimmed": false,
	"spriteSourceSize": {"x":0,"y":0,"w":389,"h":871},
	"sourceSize": {"w":389,"h":871},
	"pivot": {"x":0.5,"y":0.5}
},
{
	"filename": "jump0013.png",
	"frame": {"x":4694,"y":2,"w":389,"h":871},
	"rotated": false,
	"trimmed": false,
	"spriteSourceSize": {"x":0,"y":0,"w":389,"h":871},
	"sourceSize": {"w":389,"h":871},
	"pivot": {"x":0.5,"y":0.5}
},
{
	"filename": "jump0014.png",
	"frame": {"x":5085,"y":2,"w":389,"h":871},
	"rotated": false,
	"trimmed": false,
	"spriteSourceSize": {"x":0,"y":0,"w":389,"h":871},
	"sourceSize": {"w":389,"h":871},
	"pivot": {"x":0.5,"y":0.5}
},
{
	"filename": "jump0015.png",
	"frame": {"x":5476,"y":2,"w":389,"h":871},
	"rotated": false,
	"trimmed": false,
	"spriteSourceSize": {"x":0,"y":0,"w":389,"h":871},
	"sourceSize": {"w":389,"h":871},
	"pivot": {"x":0.5,"y":0.5}
},
{
	"filename": "jump0016.png",
	"frame": {"x":5867,"y":2,"w":389,"h":871},
	"rotated": false,
	"trimmed": false,
	"spriteSourceSize": {"x":0,"y":0,"w":389,"h":871},
	"sourceSize": {"w":389,"h":871},
	"pivot": {"x":0.5,"y":0.5}
},
{
	"filename": "jump0017.png",
	"frame": {"x":6258,"y":2,"w":389,"h":871},
	"rotated": false,
	"trimmed": false,
	"spriteSourceSize": {"x":0,"y":0,"w":389,"h":871},
	"sourceSize": {"w":389,"h":871},
	"pivot": {"x":0.5,"y":0.5}
}],
"meta": {
	"app": "http://www.codeandweb.com/texturepacker",
	"version": "1.0",
	"image": "jump.png",
	"format": "RGBA8888",
	"size": {"w":6649,"h":875},
	"scale": "1",
	"smartupdate": "$TexturePacker:SmartUpdate:5ebb74e1c5127b401de83b756e937922:1504c34c277b5e5a7126213049087332:56c9fa24931e40777fe0ddacfe328adf$"
}
}
