{"frames": [

{
	"filename": "spawn0001.png",
	"frame": {"x":2,"y":2,"w":389,"h":871},
	"rotated": false,
	"trimmed": false,
	"spriteSourceSize": {"x":0,"y":0,"w":389,"h":871},
	"sourceSize": {"w":389,"h":871},
	"pivot": {"x":0.5,"y":0.5}
},
{
	"filename": "spawn0002.png",
	"frame": {"x":393,"y":2,"w":389,"h":871},
	"rotated": false,
	"trimmed": false,
	"spriteSourceSize": {"x":0,"y":0,"w":389,"h":871},
	"sourceSize": {"w":389,"h":871},
	"pivot": {"x":0.5,"y":0.5}
},
{
	"filename": "spawn0003.png",
	"frame": {"x":784,"y":2,"w":389,"h":871},
	"rotated": false,
	"trimmed": false,
	"spriteSourceSize": {"x":0,"y":0,"w":389,"h":871},
	"sourceSize": {"w":389,"h":871},
	"pivot": {"x":0.5,"y":0.5}
},
{
	"filename": "spawn0004.png",
	"frame": {"x":1175,"y":2,"w":389,"h":871},
	"rotated": false,
	"trimmed": false,
	"spriteSourceSize": {"x":0,"y":0,"w":389,"h":871},
	"sourceSize": {"w":389,"h":871},
	"pivot": {"x":0.5,"y":0.5}
},
{
	"filename": "spawn0005.png",
	"frame": {"x":1566,"y":2,"w":389,"h":871},
	"rotated": false,
	"trimmed": false,
	"spriteSourceSize": {"x":0,"y":0,"w":389,"h":871},
	"sourceSize": {"w":389,"h":871},
	"pivot": {"x":0.5,"y":0.5}
},
{
	"filename": "spawn0006.png",
	"frame": {"x":1957,"y":2,"w":389,"h":871},
	"rotated": false,
	"trimmed": false,
	"spriteSourceSize": {"x":0,"y":0,"w":389,"h":871},
	"sourceSize": {"w":389,"h":871},
	"pivot": {"x":0.5,"y":0.5}
},
{
	"filename": "spawn0007.png",
	"frame": {"x":2348,"y":2,"w":389,"h":871},
	"rotated": false,
	"trimmed": false,
	"spriteSourceSize": {"x":0,"y":0,"w":389,"h":871},
	"sourceSize": {"w":389,"h":871},
	"pivot": {"x":0.5,"y":0.5}
},
{
	"filename": "spawn0008.png",
	"frame": {"x":2739,"y":2,"w":389,"h":871},
	"rotated": false,
	"trimmed": false,
	"spriteSourceSize": {"x":0,"y":0,"w":389,"h":871},
	"sourceSize": {"w":389,"h":871},
	"pivot": {"x":0.5,"y":0.5}
},
{
	"filename": "spawn0009.png",
	"frame": {"x":3130,"y":2,"w":389,"h":871},
	"rotated": false,
	"trimmed": false,
	"spriteSourceSize": {"x":0,"y":0,"w":389,"h":871},
	"sourceSize": {"w":389,"h":871},
	"pivot": {"x":0.5,"y":0.5}
},
{
	"filename": "spawn0010.png",
	"frame": {"x":3521,"y":2,"w":389,"h":871},
	"rotated": false,
	"trimmed": false,
	"spriteSourceSize": {"x":0,"y":0,"w":389,"h":871},
	"sourceSize": {"w":389,"h":871},
	"pivot": {"x":0.5,"y":0.5}
},
{
	"filename": "spawn0011.png",
	"frame": {"x":3912,"y":2,"w":389,"h":871},
	"rotated": false,
	"trimmed": false,
	"spriteSourceSize": {"x":0,"y":0,"w":389,"h":871},
	"sourceSize": {"w":389,"h":871},
	"pivot": {"x":0.5,"y":0.5}
},
{
	"filename": "spawn0012.png",
	"frame": {"x":4303,"y":2,"w":389,"h":871},
	"rotated": false,
	"trimmed": false,
	"spriteSourceSize": {"x":0,"y":0,"w":389,"h":871},
	"sourceSize": {"w":389,"h":871},
	"pivot": {"x":0.5,"y":0.5}
},
{
	"filename": "spawn0013.png",
	"frame": {"x":4694,"y":2,"w":389,"h":871},
	"rotated": false,
	"trimmed": false,
	"spriteSourceSize": {"x":0,"y":0,"w":389,"h":871},
	"sourceSize": {"w":389,"h":871},
	"pivot": {"x":0.5,"y":0.5}
},
{
	"filename": "spawn0014.png",
	"frame": {"x":5085,"y":2,"w":389,"h":871},
	"rotated": false,
	"trimmed": false,
	"spriteSourceSize": {"x":0,"y":0,"w":389,"h":871},
	"sourceSize": {"w":389,"h":871},
	"pivot": {"x":0.5,"y":0.5}
},
{
	"filename": "spawn0015.png",
	"frame": {"x":5476,"y":2,"w":389,"h":871},
	"rotated": false,
	"trimmed": false,
	"spriteSourceSize": {"x":0,"y":0,"w":389,"h":871},
	"sourceSize": {"w":389,"h":871},
	"pivot": {"x":0.5,"y":0.5}
},
{
	"filename": "spawn0016.png",
	"frame": {"x":5867,"y":2,"w":389,"h":871},
	"rotated": false,
	"trimmed": false,
	"spriteSourceSize": {"x":0,"y":0,"w":389,"h":871},
	"sourceSize": {"w":389,"h":871},
	"pivot": {"x":0.5,"y":0.5}
},
{
	"filename": "spawn0017.png",
	"frame": {"x":2,"y":875,"w":389,"h":871},
	"rotated": false,
	"trimmed": false,
	"spriteSourceSize": {"x":0,"y":0,"w":389,"h":871},
	"sourceSize": {"w":389,"h":871},
	"pivot": {"x":0.5,"y":0.5}
},
{
	"filename": "spawn0018.png",
	"frame": {"x":393,"y":875,"w":389,"h":871},
	"rotated": false,
	"trimmed": false,
	"spriteSourceSize": {"x":0,"y":0,"w":389,"h":871},
	"sourceSize": {"w":389,"h":871},
	"pivot": {"x":0.5,"y":0.5}
},
{
	"filename": "spawn0019.png",
	"frame": {"x":784,"y":875,"w":389,"h":871},
	"rotated": false,
	"trimmed": false,
	"spriteSourceSize": {"x":0,"y":0,"w":389,"h":871},
	"sourceSize": {"w":389,"h":871},
	"pivot": {"x":0.5,"y":0.5}
},
{
	"filename": "spawn0020.png",
	"frame": {"x":1175,"y":875,"w":389,"h":871},
	"rotated": false,
	"trimmed": false,
	"spriteSourceSize": {"x":0,"y":0,"w":389,"h":871},
	"sourceSize": {"w":389,"h":871},
	"pivot": {"x":0.5,"y":0.5}
},
{
	"filename": "spawn0021.png",
	"frame": {"x":1566,"y":875,"w":389,"h":871},
	"rotated": false,
	"trimmed": false,
	"spriteSourceSize": {"x":0,"y":0,"w":389,"h":871},
	"sourceSize": {"w":389,"h":871},
	"pivot": {"x":0.5,"y":0.5}
},
{
	"filename": "spawn0022.png",
	"frame": {"x":1957,"y":875,"w":389,"h":871},
	"rotated": false,
	"trimmed": false,
	"spriteSourceSize": {"x":0,"y":0,"w":389,"h":871},
	"sourceSize": {"w":389,"h":871},
	"pivot": {"x":0.5,"y":0.5}
},
{
	"filename": "spawn0023.png",
	"frame": {"x":2348,"y":875,"w":389,"h":871},
	"rotated": false,
	"trimmed": false,
	"spriteSourceSize": {"x":0,"y":0,"w":389,"h":871},
	"sourceSize": {"w":389,"h":871},
	"pivot": {"x":0.5,"y":0.5}
},
{
	"filename": "spawn0024.png",
	"frame": {"x":2739,"y":875,"w":389,"h":871},
	"rotated": false,
	"trimmed": false,
	"spriteSourceSize": {"x":0,"y":0,"w":389,"h":871},
	"sourceSize": {"w":389,"h":871},
	"pivot": {"x":0.5,"y":0.5}
},
{
	"filename": "spawn0025.png",
	"frame": {"x":3130,"y":875,"w":389,"h":871},
	"rotated": false,
	"trimmed": false,
	"spriteSourceSize": {"x":0,"y":0,"w":389,"h":871},
	"sourceSize": {"w":389,"h":871},
	"pivot": {"x":0.5,"y":0.5}
},
{
	"filename": "spawn0026.png",
	"frame": {"x":3521,"y":875,"w":389,"h":871},
	"rotated": false,
	"trimmed": false,
	"spriteSourceSize": {"x":0,"y":0,"w":389,"h":871},
	"sourceSize": {"w":389,"h":871},
	"pivot": {"x":0.5,"y":0.5}
},
{
	"filename": "spawn0027.png",
	"frame": {"x":3912,"y":875,"w":389,"h":871},
	"rotated": false,
	"trimmed": false,
	"spriteSourceSize": {"x":0,"y":0,"w":389,"h":871},
	"sourceSize": {"w":389,"h":871},
	"pivot": {"x":0.5,"y":0.5}
},
{
	"filename": "spawn0028.png",
	"frame": {"x":4303,"y":875,"w":389,"h":871},
	"rotated": false,
	"trimmed": false,
	"spriteSourceSize": {"x":0,"y":0,"w":389,"h":871},
	"sourceSize": {"w":389,"h":871},
	"pivot": {"x":0.5,"y":0.5}
},
{
	"filename": "spawn0029.png",
	"frame": {"x":4694,"y":875,"w":389,"h":871},
	"rotated": false,
	"trimmed": false,
	"spriteSourceSize": {"x":0,"y":0,"w":389,"h":871},
	"sourceSize": {"w":389,"h":871},
	"pivot": {"x":0.5,"y":0.5}
},
{
	"filename": "spawn0030.png",
	"frame": {"x":5085,"y":875,"w":389,"h":871},
	"rotated": false,
	"trimmed": false,
	"spriteSourceSize": {"x":0,"y":0,"w":389,"h":871},
	"sourceSize": {"w":389,"h":871},
	"pivot": {"x":0.5,"y":0.5}
},
{
	"filename": "spawn0031.png",
	"frame": {"x":5476,"y":875,"w":389,"h":871},
	"rotated": false,
	"trimmed": false,
	"spriteSourceSize": {"x":0,"y":0,"w":389,"h":871},
	"sourceSize": {"w":389,"h":871},
	"pivot": {"x":0.5,"y":0.5}
},
{
	"filename": "spawn0032.png",
	"frame": {"x":5867,"y":875,"w":389,"h":871},
	"rotated": false,
	"trimmed": false,
	"spriteSourceSize": {"x":0,"y":0,"w":389,"h":871},
	"sourceSize": {"w":389,"h":871},
	"pivot": {"x":0.5,"y":0.5}
},
{
	"filename": "spawn0033.png",
	"frame": {"x":2,"y":1748,"w":389,"h":871},
	"rotated": false,
	"trimmed": false,
	"spriteSourceSize": {"x":0,"y":0,"w":389,"h":871},
	"sourceSize": {"w":389,"h":871},
	"pivot": {"x":0.5,"y":0.5}
},
{
	"filename": "spawn0034.png",
	"frame": {"x":393,"y":1748,"w":389,"h":871},
	"rotated": false,
	"trimmed": false,
	"spriteSourceSize": {"x":0,"y":0,"w":389,"h":871},
	"sourceSize": {"w":389,"h":871},
	"pivot": {"x":0.5,"y":0.5}
},
{
	"filename": "spawn0035.png",
	"frame": {"x":784,"y":1748,"w":389,"h":871},
	"rotated": false,
	"trimmed": false,
	"spriteSourceSize": {"x":0,"y":0,"w":389,"h":871},
	"sourceSize": {"w":389,"h":871},
	"pivot": {"x":0.5,"y":0.5}
},
{
	"filename": "spawn0036.png",
	"frame": {"x":1175,"y":1748,"w":389,"h":871},
	"rotated": false,
	"trimmed": false,
	"spriteSourceSize": {"x":0,"y":0,"w":389,"h":871},
	"sourceSize": {"w":389,"h":871},
	"pivot": {"x":0.5,"y":0.5}
},
{
	"filename": "spawn0037.png",
	"frame": {"x":1566,"y":1748,"w":389,"h":871},
	"rotated": false,
	"trimmed": false,
	"spriteSourceSize": {"x":0,"y":0,"w":389,"h":871},
	"sourceSize": {"w":389,"h":871},
	"pivot": {"x":0.5,"y":0.5}
},
{
	"filename": "spawn0038.png",
	"frame": {"x":1957,"y":1748,"w":389,"h":871},
	"rotated": false,
	"trimmed": false,
	"spriteSourceSize": {"x":0,"y":0,"w":389,"h":871},
	"sourceSize": {"w":389,"h":871},
	"pivot": {"x":0.5,"y":0.5}
},
{
	"filename": "spawn0039.png",
	"frame": {"x":2348,"y":1748,"w":389,"h":871},
	"rotated": false,
	"trimmed": false,
	"spriteSourceSize": {"x":0,"y":0,"w":389,"h":871},
	"sourceSize": {"w":389,"h":871},
	"pivot": {"x":0.5,"y":0.5}
},
{
	"filename": "spawn0040.png",
	"frame": {"x":2739,"y":1748,"w":389,"h":871},
	"rotated": false,
	"trimmed": false,
	"spriteSourceSize": {"x":0,"y":0,"w":389,"h":871},
	"sourceSize": {"w":389,"h":871},
	"pivot": {"x":0.5,"y":0.5}
},
{
	"filename": "spawn0041.png",
	"frame": {"x":3130,"y":1748,"w":389,"h":871},
	"rotated": false,
	"trimmed": false,
	"spriteSourceSize": {"x":0,"y":0,"w":389,"h":871},
	"sourceSize": {"w":389,"h":871},
	"pivot": {"x":0.5,"y":0.5}
},
{
	"filename": "spawn0042.png",
	"frame": {"x":3521,"y":1748,"w":389,"h":871},
	"rotated": false,
	"trimmed": false,
	"spriteSourceSize": {"x":0,"y":0,"w":389,"h":871},
	"sourceSize": {"w":389,"h":871},
	"pivot": {"x":0.5,"y":0.5}
},
{
	"filename": "spawn0043.png",
	"frame": {"x":3912,"y":1748,"w":389,"h":871},
	"rotated": false,
	"trimmed": false,
	"spriteSourceSize": {"x":0,"y":0,"w":389,"h":871},
	"sourceSize": {"w":389,"h":871},
	"pivot": {"x":0.5,"y":0.5}
},
{
	"filename": "spawn0044.png",
	"frame": {"x":4303,"y":1748,"w":389,"h":871},
	"rotated": false,
	"trimmed": false,
	"spriteSourceSize": {"x":0,"y":0,"w":389,"h":871},
	"sourceSize": {"w":389,"h":871},
	"pivot": {"x":0.5,"y":0.5}
},
{
	"filename": "spawn0045.png",
	"frame": {"x":4694,"y":1748,"w":389,"h":871},
	"rotated": false,
	"trimmed": false,
	"spriteSourceSize": {"x":0,"y":0,"w":389,"h":871},
	"sourceSize": {"w":389,"h":871},
	"pivot": {"x":0.5,"y":0.5}
},
{
	"filename": "spawn0046.png",
	"frame": {"x":5085,"y":1748,"w":389,"h":871},
	"rotated": false,
	"trimmed": false,
	"spriteSourceSize": {"x":0,"y":0,"w":389,"h":871},
	"sourceSize": {"w":389,"h":871},
	"pivot": {"x":0.5,"y":0.5}
},
{
	"filename": "spawn0047.png",
	"frame": {"x":5476,"y":1748,"w":389,"h":871},
	"rotated": false,
	"trimmed": false,
	"spriteSourceSize": {"x":0,"y":0,"w":389,"h":871},
	"sourceSize": {"w":389,"h":871},
	"pivot": {"x":0.5,"y":0.5}
},
{
	"filename": "spawn0048.png",
	"frame": {"x":5867,"y":1748,"w":389,"h":871},
	"rotated": false,
	"trimmed": false,
	"spriteSourceSize": {"x":0,"y":0,"w":389,"h":871},
	"sourceSize": {"w":389,"h":871},
	"pivot": {"x":0.5,"y":0.5}
},
{
	"filename": "spawn0049.png",
	"frame": {"x":2,"y":2621,"w":389,"h":871},
	"rotated": false,
	"trimmed": false,
	"spriteSourceSize": {"x":0,"y":0,"w":389,"h":871},
	"sourceSize": {"w":389,"h":871},
	"pivot": {"x":0.5,"y":0.5}
},
{
	"filename": "spawn0050.png",
	"frame": {"x":393,"y":2621,"w":389,"h":871},
	"rotated": false,
	"trimmed": false,
	"spriteSourceSize": {"x":0,"y":0,"w":389,"h":871},
	"sourceSize": {"w":389,"h":871},
	"pivot": {"x":0.5,"y":0.5}
},
{
	"filename": "spawn0051.png",
	"frame": {"x":784,"y":2621,"w":389,"h":871},
	"rotated": false,
	"trimmed": false,
	"spriteSourceSize": {"x":0,"y":0,"w":389,"h":871},
	"sourceSize": {"w":389,"h":871},
	"pivot": {"x":0.5,"y":0.5}
},
{
	"filename": "spawn0052.png",
	"frame": {"x":1175,"y":2621,"w":389,"h":871},
	"rotated": false,
	"trimmed": false,
	"spriteSourceSize": {"x":0,"y":0,"w":389,"h":871},
	"sourceSize": {"w":389,"h":871},
	"pivot": {"x":0.5,"y":0.5}
},
{
	"filename": "spawn0053.png",
	"frame": {"x":1566,"y":2621,"w":389,"h":871},
	"rotated": false,
	"trimmed": false,
	"spriteSourceSize": {"x":0,"y":0,"w":389,"h":871},
	"sourceSize": {"w":389,"h":871},
	"pivot": {"x":0.5,"y":0.5}
},
{
	"filename": "spawn0054.png",
	"frame": {"x":1957,"y":2621,"w":389,"h":871},
	"rotated": false,
	"trimmed": false,
	"spriteSourceSize": {"x":0,"y":0,"w":389,"h":871},
	"sourceSize": {"w":389,"h":871},
	"pivot": {"x":0.5,"y":0.5}
},
{
	"filename": "spawn0055.png",
	"frame": {"x":2348,"y":2621,"w":389,"h":871},
	"rotated": false,
	"trimmed": false,
	"spriteSourceSize": {"x":0,"y":0,"w":389,"h":871},
	"sourceSize": {"w":389,"h":871},
	"pivot": {"x":0.5,"y":0.5}
},
{
	"filename": "spawn0056.png",
	"frame": {"x":2739,"y":2621,"w":389,"h":871},
	"rotated": false,
	"trimmed": false,
	"spriteSourceSize": {"x":0,"y":0,"w":389,"h":871},
	"sourceSize": {"w":389,"h":871},
	"pivot": {"x":0.5,"y":0.5}
},
{
	"filename": "spawn0057.png",
	"frame": {"x":3130,"y":2621,"w":389,"h":871},
	"rotated": false,
	"trimmed": false,
	"spriteSourceSize": {"x":0,"y":0,"w":389,"h":871},
	"sourceSize": {"w":389,"h":871},
	"pivot": {"x":0.5,"y":0.5}
},
{
	"filename": "spawn0058.png",
	"frame": {"x":3521,"y":2621,"w":389,"h":871},
	"rotated": false,
	"trimmed": false,
	"spriteSourceSize": {"x":0,"y":0,"w":389,"h":871},
	"sourceSize": {"w":389,"h":871},
	"pivot": {"x":0.5,"y":0.5}
},
{
	"filename": "spawn0059.png",
	"frame": {"x":3912,"y":2621,"w":389,"h":871},
	"rotated": false,
	"trimmed": false,
	"spriteSourceSize": {"x":0,"y":0,"w":389,"h":871},
	"sourceSize": {"w":389,"h":871},
	"pivot": {"x":0.5,"y":0.5}
},
{
	"filename": "spawn0060.png",
	"frame": {"x":4303,"y":2621,"w":389,"h":871},
	"rotated": false,
	"trimmed": false,
	"spriteSourceSize": {"x":0,"y":0,"w":389,"h":871},
	"sourceSize": {"w":389,"h":871},
	"pivot": {"x":0.5,"y":0.5}
},
{
	"filename": "spawn0061.png",
	"frame": {"x":4694,"y":2621,"w":389,"h":871},
	"rotated": false,
	"trimmed": false,
	"spriteSourceSize": {"x":0,"y":0,"w":389,"h":871},
	"sourceSize": {"w":389,"h":871},
	"pivot": {"x":0.5,"y":0.5}
},
{
	"filename": "spawn0062.png",
	"frame": {"x":5085,"y":2621,"w":389,"h":871},
	"rotated": false,
	"trimmed": false,
	"spriteSourceSize": {"x":0,"y":0,"w":389,"h":871},
	"sourceSize": {"w":389,"h":871},
	"pivot": {"x":0.5,"y":0.5}
},
{
	"filename": "spawn0063.png",
	"frame": {"x":5476,"y":2621,"w":389,"h":871},
	"rotated": false,
	"trimmed": false,
	"spriteSourceSize": {"x":0,"y":0,"w":389,"h":871},
	"sourceSize": {"w":389,"h":871},
	"pivot": {"x":0.5,"y":0.5}
},
{
	"filename": "spawn0064.png",
	"frame": {"x":5867,"y":2621,"w":389,"h":871},
	"rotated": false,
	"trimmed": false,
	"spriteSourceSize": {"x":0,"y":0,"w":389,"h":871},
	"sourceSize": {"w":389,"h":871},
	"pivot": {"x":0.5,"y":0.5}
}],
"meta": {
	"app": "http://www.codeandweb.com/texturepacker",
	"version": "1.0",
	"image": "spawn.png",
	"format": "RGBA8888",
	"size": {"w":6258,"h":3494},
	"scale": "1",
	"smartupdate": "$TexturePacker:SmartUpdate:8e1e9c7630d34f6af886e4f855c0b7c5:59ef24d744da302b77aaf5c1f16a3f39:e749430690f13459a61201f8e3851ebe$"
}
}
