{"frames": [

{
	"filename": "c0001.png",
	"frame": {"x":2,"y":2,"w":495,"h":120},
	"rotated": false,
	"trimmed": false,
	"spriteSourceSize": {"x":0,"y":0,"w":495,"h":120},
	"sourceSize": {"w":495,"h":120},
	"pivot": {"x":0.5,"y":0.5}
},
{
	"filename": "c0002.png",
	"frame": {"x":499,"y":2,"w":495,"h":120},
	"rotated": false,
	"trimmed": false,
	"spriteSourceSize": {"x":0,"y":0,"w":495,"h":120},
	"sourceSize": {"w":495,"h":120},
	"pivot": {"x":0.5,"y":0.5}
},
{
	"filename": "c0003.png",
	"frame": {"x":996,"y":2,"w":495,"h":120},
	"rotated": false,
	"trimmed": false,
	"spriteSourceSize": {"x":0,"y":0,"w":495,"h":120},
	"sourceSize": {"w":495,"h":120},
	"pivot": {"x":0.5,"y":0.5}
},
{
	"filename": "c0004.png",
	"frame": {"x":2,"y":124,"w":495,"h":120},
	"rotated": false,
	"trimmed": false,
	"spriteSourceSize": {"x":0,"y":0,"w":495,"h":120},
	"sourceSize": {"w":495,"h":120},
	"pivot": {"x":0.5,"y":0.5}
},
{
	"filename": "c0005.png",
	"frame": {"x":499,"y":124,"w":495,"h":120},
	"rotated": false,
	"trimmed": false,
	"spriteSourceSize": {"x":0,"y":0,"w":495,"h":120},
	"sourceSize": {"w":495,"h":120},
	"pivot": {"x":0.5,"y":0.5}
},
{
	"filename": "c0006.png",
	"frame": {"x":996,"y":124,"w":495,"h":120},
	"rotated": false,
	"trimmed": false,
	"spriteSourceSize": {"x":0,"y":0,"w":495,"h":120},
	"sourceSize": {"w":495,"h":120},
	"pivot": {"x":0.5,"y":0.5}
},
{
	"filename": "c0007.png",
	"frame": {"x":2,"y":246,"w":495,"h":120},
	"rotated": false,
	"trimmed": false,
	"spriteSourceSize": {"x":0,"y":0,"w":495,"h":120},
	"sourceSize": {"w":495,"h":120},
	"pivot": {"x":0.5,"y":0.5}
},
{
	"filename": "c0008.png",
	"frame": {"x":499,"y":246,"w":495,"h":120},
	"rotated": false,
	"trimmed": false,
	"spriteSourceSize": {"x":0,"y":0,"w":495,"h":120},
	"sourceSize": {"w":495,"h":120},
	"pivot": {"x":0.5,"y":0.5}
},
{
	"filename": "c0009.png",
	"frame": {"x":996,"y":246,"w":495,"h":120},
	"rotated": false,
	"trimmed": false,
	"spriteSourceSize": {"x":0,"y":0,"w":495,"h":120},
	"sourceSize": {"w":495,"h":120},
	"pivot": {"x":0.5,"y":0.5}
},
{
	"filename": "c0010.png",
	"frame": {"x":2,"y":368,"w":495,"h":120},
	"rotated": false,
	"trimmed": false,
	"spriteSourceSize": {"x":0,"y":0,"w":495,"h":120},
	"sourceSize": {"w":495,"h":120},
	"pivot": {"x":0.5,"y":0.5}
},
{
	"filename": "c0011.png",
	"frame": {"x":499,"y":368,"w":495,"h":120},
	"rotated": false,
	"trimmed": false,
	"spriteSourceSize": {"x":0,"y":0,"w":495,"h":120},
	"sourceSize": {"w":495,"h":120},
	"pivot": {"x":0.5,"y":0.5}
},
{
	"filename": "c0012.png",
	"frame": {"x":996,"y":368,"w":495,"h":120},
	"rotated": false,
	"trimmed": false,
	"spriteSourceSize": {"x":0,"y":0,"w":495,"h":120},
	"sourceSize": {"w":495,"h":120},
	"pivot": {"x":0.5,"y":0.5}
},
{
	"filename": "c0013.png",
	"frame": {"x":2,"y":490,"w":495,"h":120},
	"rotated": false,
	"trimmed": false,
	"spriteSourceSize": {"x":0,"y":0,"w":495,"h":120},
	"sourceSize": {"w":495,"h":120},
	"pivot": {"x":0.5,"y":0.5}
},
{
	"filename": "c0014.png",
	"frame": {"x":499,"y":490,"w":495,"h":120},
	"rotated": false,
	"trimmed": false,
	"spriteSourceSize": {"x":0,"y":0,"w":495,"h":120},
	"sourceSize": {"w":495,"h":120},
	"pivot": {"x":0.5,"y":0.5}
},
{
	"filename": "c0015.png",
	"frame": {"x":996,"y":490,"w":495,"h":120},
	"rotated": false,
	"trimmed": false,
	"spriteSourceSize": {"x":0,"y":0,"w":495,"h":120},
	"sourceSize": {"w":495,"h":120},
	"pivot": {"x":0.5,"y":0.5}
},
{
	"filename": "c0016.png",
	"frame": {"x":2,"y":612,"w":495,"h":120},
	"rotated": false,
	"trimmed": false,
	"spriteSourceSize": {"x":0,"y":0,"w":495,"h":120},
	"sourceSize": {"w":495,"h":120},
	"pivot": {"x":0.5,"y":0.5}
},
{
	"filename": "c0017.png",
	"frame": {"x":499,"y":612,"w":495,"h":120},
	"rotated": false,
	"trimmed": false,
	"spriteSourceSize": {"x":0,"y":0,"w":495,"h":120},
	"sourceSize": {"w":495,"h":120},
	"pivot": {"x":0.5,"y":0.5}
},
{
	"filename": "c0018.png",
	"frame": {"x":499,"y":612,"w":495,"h":120},
	"rotated": false,
	"trimmed": false,
	"spriteSourceSize": {"x":0,"y":0,"w":495,"h":120},
	"sourceSize": {"w":495,"h":120},
	"pivot": {"x":0.5,"y":0.5}
},
{
	"filename": "c0019.png",
	"frame": {"x":499,"y":612,"w":495,"h":120},
	"rotated": false,
	"trimmed": false,
	"spriteSourceSize": {"x":0,"y":0,"w":495,"h":120},
	"sourceSize": {"w":495,"h":120},
	"pivot": {"x":0.5,"y":0.5}
},
{
	"filename": "c0020.png",
	"frame": {"x":499,"y":612,"w":495,"h":120},
	"rotated": false,
	"trimmed": false,
	"spriteSourceSize": {"x":0,"y":0,"w":495,"h":120},
	"sourceSize": {"w":495,"h":120},
	"pivot": {"x":0.5,"y":0.5}
}],
"meta": {
	"app": "http://www.codeandweb.com/texturepacker",
	"version": "1.0",
	"image": "fail3.png",
	"format": "RGBA8888",
	"size": {"w":1493,"h":734},
	"scale": "1",
	"smartupdate": "$TexturePacker:SmartUpdate:0b46fa04b10aacb825671ef8403e35d5:03be99ea6ad0b90b1a9870b69637bb78:bc91713cf774da8367c033e10dbbb6f0$"
}
}
