{"frames": [

{
	"filename": "2_trick0001.png",
	"frame": {"x":2,"y":2,"w":800,"h":410},
	"rotated": false,
	"trimmed": false,
	"spriteSourceSize": {"x":0,"y":0,"w":800,"h":410},
	"sourceSize": {"w":800,"h":410},
	"pivot": {"x":0.5,"y":0.5}
},
{
	"filename": "2_trick0002.png",
	"frame": {"x":804,"y":2,"w":800,"h":410},
	"rotated": false,
	"trimmed": false,
	"spriteSourceSize": {"x":0,"y":0,"w":800,"h":410},
	"sourceSize": {"w":800,"h":410},
	"pivot": {"x":0.5,"y":0.5}
},
{
	"filename": "2_trick0003.png",
	"frame": {"x":1606,"y":2,"w":800,"h":410},
	"rotated": false,
	"trimmed": false,
	"spriteSourceSize": {"x":0,"y":0,"w":800,"h":410},
	"sourceSize": {"w":800,"h":410},
	"pivot": {"x":0.5,"y":0.5}
},
{
	"filename": "2_trick0004.png",
	"frame": {"x":2,"y":414,"w":800,"h":410},
	"rotated": false,
	"trimmed": false,
	"spriteSourceSize": {"x":0,"y":0,"w":800,"h":410},
	"sourceSize": {"w":800,"h":410},
	"pivot": {"x":0.5,"y":0.5}
},
{
	"filename": "2_trick0005.png",
	"frame": {"x":804,"y":414,"w":800,"h":410},
	"rotated": false,
	"trimmed": false,
	"spriteSourceSize": {"x":0,"y":0,"w":800,"h":410},
	"sourceSize": {"w":800,"h":410},
	"pivot": {"x":0.5,"y":0.5}
},
{
	"filename": "2_trick0006.png",
	"frame": {"x":1606,"y":414,"w":800,"h":410},
	"rotated": false,
	"trimmed": false,
	"spriteSourceSize": {"x":0,"y":0,"w":800,"h":410},
	"sourceSize": {"w":800,"h":410},
	"pivot": {"x":0.5,"y":0.5}
},
{
	"filename": "2_trick0007.png",
	"frame": {"x":2,"y":826,"w":800,"h":410},
	"rotated": false,
	"trimmed": false,
	"spriteSourceSize": {"x":0,"y":0,"w":800,"h":410},
	"sourceSize": {"w":800,"h":410},
	"pivot": {"x":0.5,"y":0.5}
},
{
	"filename": "2_trick0008.png",
	"frame": {"x":804,"y":826,"w":800,"h":410},
	"rotated": false,
	"trimmed": false,
	"spriteSourceSize": {"x":0,"y":0,"w":800,"h":410},
	"sourceSize": {"w":800,"h":410},
	"pivot": {"x":0.5,"y":0.5}
},
{
	"filename": "2_trick0009.png",
	"frame": {"x":1606,"y":826,"w":800,"h":410},
	"rotated": false,
	"trimmed": false,
	"spriteSourceSize": {"x":0,"y":0,"w":800,"h":410},
	"sourceSize": {"w":800,"h":410},
	"pivot": {"x":0.5,"y":0.5}
},
{
	"filename": "2_trick0010.png",
	"frame": {"x":2,"y":1238,"w":800,"h":410},
	"rotated": false,
	"trimmed": false,
	"spriteSourceSize": {"x":0,"y":0,"w":800,"h":410},
	"sourceSize": {"w":800,"h":410},
	"pivot": {"x":0.5,"y":0.5}
},
{
	"filename": "2_trick0011.png",
	"frame": {"x":804,"y":1238,"w":800,"h":410},
	"rotated": false,
	"trimmed": false,
	"spriteSourceSize": {"x":0,"y":0,"w":800,"h":410},
	"sourceSize": {"w":800,"h":410},
	"pivot": {"x":0.5,"y":0.5}
},
{
	"filename": "2_trick0012.png",
	"frame": {"x":1606,"y":1238,"w":800,"h":410},
	"rotated": false,
	"trimmed": false,
	"spriteSourceSize": {"x":0,"y":0,"w":800,"h":410},
	"sourceSize": {"w":800,"h":410},
	"pivot": {"x":0.5,"y":0.5}
},
{
	"filename": "2_trick0013.png",
	"frame": {"x":2,"y":1650,"w":800,"h":410},
	"rotated": false,
	"trimmed": false,
	"spriteSourceSize": {"x":0,"y":0,"w":800,"h":410},
	"sourceSize": {"w":800,"h":410},
	"pivot": {"x":0.5,"y":0.5}
},
{
	"filename": "2_trick0014.png",
	"frame": {"x":804,"y":1650,"w":800,"h":410},
	"rotated": false,
	"trimmed": false,
	"spriteSourceSize": {"x":0,"y":0,"w":800,"h":410},
	"sourceSize": {"w":800,"h":410},
	"pivot": {"x":0.5,"y":0.5}
},
{
	"filename": "2_trick0015.png",
	"frame": {"x":1606,"y":1650,"w":800,"h":410},
	"rotated": false,
	"trimmed": false,
	"spriteSourceSize": {"x":0,"y":0,"w":800,"h":410},
	"sourceSize": {"w":800,"h":410},
	"pivot": {"x":0.5,"y":0.5}
},
{
	"filename": "2_trick0016.png",
	"frame": {"x":2,"y":2062,"w":800,"h":410},
	"rotated": false,
	"trimmed": false,
	"spriteSourceSize": {"x":0,"y":0,"w":800,"h":410},
	"sourceSize": {"w":800,"h":410},
	"pivot": {"x":0.5,"y":0.5}
},
{
	"filename": "2_trick0017.png",
	"frame": {"x":804,"y":2062,"w":800,"h":410},
	"rotated": false,
	"trimmed": false,
	"spriteSourceSize": {"x":0,"y":0,"w":800,"h":410},
	"sourceSize": {"w":800,"h":410},
	"pivot": {"x":0.5,"y":0.5}
},
{
	"filename": "2_trick0018.png",
	"frame": {"x":1606,"y":2062,"w":800,"h":410},
	"rotated": false,
	"trimmed": false,
	"spriteSourceSize": {"x":0,"y":0,"w":800,"h":410},
	"sourceSize": {"w":800,"h":410},
	"pivot": {"x":0.5,"y":0.5}
},
{
	"filename": "2_trick0019.png",
	"frame": {"x":2,"y":2474,"w":800,"h":410},
	"rotated": false,
	"trimmed": false,
	"spriteSourceSize": {"x":0,"y":0,"w":800,"h":410},
	"sourceSize": {"w":800,"h":410},
	"pivot": {"x":0.5,"y":0.5}
},
{
	"filename": "2_trick0020.png",
	"frame": {"x":804,"y":2474,"w":800,"h":410},
	"rotated": false,
	"trimmed": false,
	"spriteSourceSize": {"x":0,"y":0,"w":800,"h":410},
	"sourceSize": {"w":800,"h":410},
	"pivot": {"x":0.5,"y":0.5}
},
{
	"filename": "2_trick0021.png",
	"frame": {"x":1606,"y":2474,"w":800,"h":410},
	"rotated": false,
	"trimmed": false,
	"spriteSourceSize": {"x":0,"y":0,"w":800,"h":410},
	"sourceSize": {"w":800,"h":410},
	"pivot": {"x":0.5,"y":0.5}
},
{
	"filename": "2_trick0022.png",
	"frame": {"x":2,"y":2886,"w":800,"h":410},
	"rotated": false,
	"trimmed": false,
	"spriteSourceSize": {"x":0,"y":0,"w":800,"h":410},
	"sourceSize": {"w":800,"h":410},
	"pivot": {"x":0.5,"y":0.5}
},
{
	"filename": "2_trick0023.png",
	"frame": {"x":804,"y":2886,"w":800,"h":410},
	"rotated": false,
	"trimmed": false,
	"spriteSourceSize": {"x":0,"y":0,"w":800,"h":410},
	"sourceSize": {"w":800,"h":410},
	"pivot": {"x":0.5,"y":0.5}
},
{
	"filename": "2_trick0024.png",
	"frame": {"x":1606,"y":2886,"w":800,"h":410},
	"rotated": false,
	"trimmed": false,
	"spriteSourceSize": {"x":0,"y":0,"w":800,"h":410},
	"sourceSize": {"w":800,"h":410},
	"pivot": {"x":0.5,"y":0.5}
},
{
	"filename": "2_trick0025.png",
	"frame": {"x":2,"y":3298,"w":800,"h":410},
	"rotated": false,
	"trimmed": false,
	"spriteSourceSize": {"x":0,"y":0,"w":800,"h":410},
	"sourceSize": {"w":800,"h":410},
	"pivot": {"x":0.5,"y":0.5}
},
{
	"filename": "2_trick0026.png",
	"frame": {"x":804,"y":3298,"w":800,"h":410},
	"rotated": false,
	"trimmed": false,
	"spriteSourceSize": {"x":0,"y":0,"w":800,"h":410},
	"sourceSize": {"w":800,"h":410},
	"pivot": {"x":0.5,"y":0.5}
},
{
	"filename": "2_trick0027.png",
	"frame": {"x":1606,"y":3298,"w":800,"h":410},
	"rotated": false,
	"trimmed": false,
	"spriteSourceSize": {"x":0,"y":0,"w":800,"h":410},
	"sourceSize": {"w":800,"h":410},
	"pivot": {"x":0.5,"y":0.5}
},
{
	"filename": "2_trick0028.png",
	"frame": {"x":2,"y":3710,"w":800,"h":410},
	"rotated": false,
	"trimmed": false,
	"spriteSourceSize": {"x":0,"y":0,"w":800,"h":410},
	"sourceSize": {"w":800,"h":410},
	"pivot": {"x":0.5,"y":0.5}
},
{
	"filename": "2_trick0029.png",
	"frame": {"x":804,"y":3710,"w":800,"h":410},
	"rotated": false,
	"trimmed": false,
	"spriteSourceSize": {"x":0,"y":0,"w":800,"h":410},
	"sourceSize": {"w":800,"h":410},
	"pivot": {"x":0.5,"y":0.5}
},
{
	"filename": "2_trick0030.png",
	"frame": {"x":1606,"y":3710,"w":800,"h":410},
	"rotated": false,
	"trimmed": false,
	"spriteSourceSize": {"x":0,"y":0,"w":800,"h":410},
	"sourceSize": {"w":800,"h":410},
	"pivot": {"x":0.5,"y":0.5}
},
{
	"filename": "2_trick0031.png",
	"frame": {"x":2,"y":4122,"w":800,"h":410},
	"rotated": false,
	"trimmed": false,
	"spriteSourceSize": {"x":0,"y":0,"w":800,"h":410},
	"sourceSize": {"w":800,"h":410},
	"pivot": {"x":0.5,"y":0.5}
},
{
	"filename": "2_trick0032.png",
	"frame": {"x":804,"y":4122,"w":800,"h":410},
	"rotated": false,
	"trimmed": false,
	"spriteSourceSize": {"x":0,"y":0,"w":800,"h":410},
	"sourceSize": {"w":800,"h":410},
	"pivot": {"x":0.5,"y":0.5}
},
{
	"filename": "2_trick0033.png",
	"frame": {"x":1606,"y":4122,"w":800,"h":410},
	"rotated": false,
	"trimmed": false,
	"spriteSourceSize": {"x":0,"y":0,"w":800,"h":410},
	"sourceSize": {"w":800,"h":410},
	"pivot": {"x":0.5,"y":0.5}
},
{
	"filename": "2_trick0034.png",
	"frame": {"x":2,"y":4534,"w":800,"h":410},
	"rotated": false,
	"trimmed": false,
	"spriteSourceSize": {"x":0,"y":0,"w":800,"h":410},
	"sourceSize": {"w":800,"h":410},
	"pivot": {"x":0.5,"y":0.5}
},
{
	"filename": "2_trick0035.png",
	"frame": {"x":804,"y":4534,"w":800,"h":410},
	"rotated": false,
	"trimmed": false,
	"spriteSourceSize": {"x":0,"y":0,"w":800,"h":410},
	"sourceSize": {"w":800,"h":410},
	"pivot": {"x":0.5,"y":0.5}
},
{
	"filename": "2_trick0036.png",
	"frame": {"x":1606,"y":4534,"w":800,"h":410},
	"rotated": false,
	"trimmed": false,
	"spriteSourceSize": {"x":0,"y":0,"w":800,"h":410},
	"sourceSize": {"w":800,"h":410},
	"pivot": {"x":0.5,"y":0.5}
},
{
	"filename": "2_trick0037.png",
	"frame": {"x":2,"y":4946,"w":800,"h":410},
	"rotated": false,
	"trimmed": false,
	"spriteSourceSize": {"x":0,"y":0,"w":800,"h":410},
	"sourceSize": {"w":800,"h":410},
	"pivot": {"x":0.5,"y":0.5}
},
{
	"filename": "2_trick0038.png",
	"frame": {"x":804,"y":4946,"w":800,"h":410},
	"rotated": false,
	"trimmed": false,
	"spriteSourceSize": {"x":0,"y":0,"w":800,"h":410},
	"sourceSize": {"w":800,"h":410},
	"pivot": {"x":0.5,"y":0.5}
},
{
	"filename": "2_trick0039.png",
	"frame": {"x":1606,"y":4946,"w":800,"h":410},
	"rotated": false,
	"trimmed": false,
	"spriteSourceSize": {"x":0,"y":0,"w":800,"h":410},
	"sourceSize": {"w":800,"h":410},
	"pivot": {"x":0.5,"y":0.5}
},
{
	"filename": "2_trick0040.png",
	"frame": {"x":2,"y":5358,"w":800,"h":410},
	"rotated": false,
	"trimmed": false,
	"spriteSourceSize": {"x":0,"y":0,"w":800,"h":410},
	"sourceSize": {"w":800,"h":410},
	"pivot": {"x":0.5,"y":0.5}
},
{
	"filename": "2_trick0041.png",
	"frame": {"x":804,"y":5358,"w":800,"h":410},
	"rotated": false,
	"trimmed": false,
	"spriteSourceSize": {"x":0,"y":0,"w":800,"h":410},
	"sourceSize": {"w":800,"h":410},
	"pivot": {"x":0.5,"y":0.5}
},
{
	"filename": "2_trick0042.png",
	"frame": {"x":1606,"y":5358,"w":800,"h":410},
	"rotated": false,
	"trimmed": false,
	"spriteSourceSize": {"x":0,"y":0,"w":800,"h":410},
	"sourceSize": {"w":800,"h":410},
	"pivot": {"x":0.5,"y":0.5}
},
{
	"filename": "2_trick0043.png",
	"frame": {"x":2,"y":5770,"w":800,"h":410},
	"rotated": false,
	"trimmed": false,
	"spriteSourceSize": {"x":0,"y":0,"w":800,"h":410},
	"sourceSize": {"w":800,"h":410},
	"pivot": {"x":0.5,"y":0.5}
},
{
	"filename": "2_trick0044.png",
	"frame": {"x":804,"y":5770,"w":800,"h":410},
	"rotated": false,
	"trimmed": false,
	"spriteSourceSize": {"x":0,"y":0,"w":800,"h":410},
	"sourceSize": {"w":800,"h":410},
	"pivot": {"x":0.5,"y":0.5}
},
{
	"filename": "2_trick0045.png",
	"frame": {"x":1606,"y":5770,"w":800,"h":410},
	"rotated": false,
	"trimmed": false,
	"spriteSourceSize": {"x":0,"y":0,"w":800,"h":410},
	"sourceSize": {"w":800,"h":410},
	"pivot": {"x":0.5,"y":0.5}
},
{
	"filename": "2_trick0046.png",
	"frame": {"x":2,"y":6182,"w":800,"h":410},
	"rotated": false,
	"trimmed": false,
	"spriteSourceSize": {"x":0,"y":0,"w":800,"h":410},
	"sourceSize": {"w":800,"h":410},
	"pivot": {"x":0.5,"y":0.5}
},
{
	"filename": "2_trick0047.png",
	"frame": {"x":804,"y":6182,"w":800,"h":410},
	"rotated": false,
	"trimmed": false,
	"spriteSourceSize": {"x":0,"y":0,"w":800,"h":410},
	"sourceSize": {"w":800,"h":410},
	"pivot": {"x":0.5,"y":0.5}
}],
"meta": {
	"app": "http://www.codeandweb.com/texturepacker",
	"version": "1.0",
	"image": "trick2.png",
	"format": "RGBA8888",
	"size": {"w":2408,"h":6594},
	"scale": "1",
	"smartupdate": "$TexturePacker:SmartUpdate:06a5907c433a7b5c9ba0a30c6a23e51a:3d587b0648f601393d4a877f663f8503:cb8fc96979b3259be531c8d24a0c182d$"
}
}
