{"frames": [

{
	"filename": "s0option3Button0000",
	"frame": {"x":0,"y":0,"w":59,"h":39},
	"rotated": false,
	"trimmed": false,
	"spriteSourceSize": {"x":0,"y":0,"w":59,"h":39},
	"sourceSize": {"w":59,"h":39}
}
,{
	"filename": "s0option3Button0001",
	"frame": {"x":0,"y":39,"w":59,"h":39},
	"rotated": false,
	"trimmed": false,
	"spriteSourceSize": {"x":0,"y":0,"w":59,"h":39},
	"sourceSize": {"w":59,"h":39}
}
,{
	"filename": "s0option3Button0002",
	"frame": {"x":0,"y":78,"w":59,"h":39},
	"rotated": false,
	"trimmed": false,
	"spriteSourceSize": {"x":0,"y":0,"w":59,"h":39},
	"sourceSize": {"w":59,"h":39}
}],
"meta": {
	"app": "Adobe Flash CS6",
	"version": "12.0.0.481",
	"image": "s0option3Button.png",
	"format": "RGBA8888",
	"size": {"w":64,"h":128},
	"scale": "1"
}
}
