{"frames": [

{
	"filename": "s1option3Button0000",
	"frame": {"x":0,"y":0,"w":35,"h":64},
	"rotated": false,
	"trimmed": false,
	"spriteSourceSize": {"x":0,"y":0,"w":35,"h":64},
	"sourceSize": {"w":35,"h":64}
}
,{
	"filename": "s1option3Button0001",
	"frame": {"x":0,"y":64,"w":35,"h":64},
	"rotated": false,
	"trimmed": false,
	"spriteSourceSize": {"x":0,"y":0,"w":35,"h":64},
	"sourceSize": {"w":35,"h":64}
}],
"meta": {
	"app": "Adobe Flash CS6",
	"version": "12.0.0.481",
	"image": "s1options3Button.png",
	"format": "RGBA8888",
	"size": {"w":64,"h":128},
	"scale": "1"
}
}
