{"frames": [

{
	"filename": "crashBack0001.png",
	"frame": {"x":2,"y":2,"w":800,"h":410},
	"rotated": false,
	"trimmed": false,
	"spriteSourceSize": {"x":0,"y":0,"w":800,"h":410},
	"sourceSize": {"w":800,"h":410},
	"pivot": {"x":0.5,"y":0.5}
},
{
	"filename": "crashBack0002.png",
	"frame": {"x":804,"y":2,"w":800,"h":410},
	"rotated": false,
	"trimmed": false,
	"spriteSourceSize": {"x":0,"y":0,"w":800,"h":410},
	"sourceSize": {"w":800,"h":410},
	"pivot": {"x":0.5,"y":0.5}
},
{
	"filename": "crashBack0003.png",
	"frame": {"x":2,"y":414,"w":800,"h":410},
	"rotated": false,
	"trimmed": false,
	"spriteSourceSize": {"x":0,"y":0,"w":800,"h":410},
	"sourceSize": {"w":800,"h":410},
	"pivot": {"x":0.5,"y":0.5}
},
{
	"filename": "crashBack0004.png",
	"frame": {"x":804,"y":414,"w":800,"h":410},
	"rotated": false,
	"trimmed": false,
	"spriteSourceSize": {"x":0,"y":0,"w":800,"h":410},
	"sourceSize": {"w":800,"h":410},
	"pivot": {"x":0.5,"y":0.5}
},
{
	"filename": "crashBack0005.png",
	"frame": {"x":2,"y":826,"w":800,"h":410},
	"rotated": false,
	"trimmed": false,
	"spriteSourceSize": {"x":0,"y":0,"w":800,"h":410},
	"sourceSize": {"w":800,"h":410},
	"pivot": {"x":0.5,"y":0.5}
},
{
	"filename": "crashBack0006.png",
	"frame": {"x":804,"y":826,"w":800,"h":410},
	"rotated": false,
	"trimmed": false,
	"spriteSourceSize": {"x":0,"y":0,"w":800,"h":410},
	"sourceSize": {"w":800,"h":410},
	"pivot": {"x":0.5,"y":0.5}
},
{
	"filename": "crashBack0007.png",
	"frame": {"x":2,"y":1238,"w":800,"h":410},
	"rotated": false,
	"trimmed": false,
	"spriteSourceSize": {"x":0,"y":0,"w":800,"h":410},
	"sourceSize": {"w":800,"h":410},
	"pivot": {"x":0.5,"y":0.5}
},
{
	"filename": "crashBack0008.png",
	"frame": {"x":804,"y":1238,"w":800,"h":410},
	"rotated": false,
	"trimmed": false,
	"spriteSourceSize": {"x":0,"y":0,"w":800,"h":410},
	"sourceSize": {"w":800,"h":410},
	"pivot": {"x":0.5,"y":0.5}
},
{
	"filename": "crashBack0009.png",
	"frame": {"x":2,"y":1650,"w":800,"h":410},
	"rotated": false,
	"trimmed": false,
	"spriteSourceSize": {"x":0,"y":0,"w":800,"h":410},
	"sourceSize": {"w":800,"h":410},
	"pivot": {"x":0.5,"y":0.5}
},
{
	"filename": "crashBack0010.png",
	"frame": {"x":804,"y":1650,"w":800,"h":410},
	"rotated": false,
	"trimmed": false,
	"spriteSourceSize": {"x":0,"y":0,"w":800,"h":410},
	"sourceSize": {"w":800,"h":410},
	"pivot": {"x":0.5,"y":0.5}
},
{
	"filename": "crashBack0011.png",
	"frame": {"x":2,"y":2062,"w":800,"h":410},
	"rotated": false,
	"trimmed": false,
	"spriteSourceSize": {"x":0,"y":0,"w":800,"h":410},
	"sourceSize": {"w":800,"h":410},
	"pivot": {"x":0.5,"y":0.5}
},
{
	"filename": "crashBack0012.png",
	"frame": {"x":804,"y":2062,"w":800,"h":410},
	"rotated": false,
	"trimmed": false,
	"spriteSourceSize": {"x":0,"y":0,"w":800,"h":410},
	"sourceSize": {"w":800,"h":410},
	"pivot": {"x":0.5,"y":0.5}
},
{
	"filename": "crashBack0013.png",
	"frame": {"x":2,"y":2474,"w":800,"h":410},
	"rotated": false,
	"trimmed": false,
	"spriteSourceSize": {"x":0,"y":0,"w":800,"h":410},
	"sourceSize": {"w":800,"h":410},
	"pivot": {"x":0.5,"y":0.5}
},
{
	"filename": "crashBack0014.png",
	"frame": {"x":804,"y":2474,"w":800,"h":410},
	"rotated": false,
	"trimmed": false,
	"spriteSourceSize": {"x":0,"y":0,"w":800,"h":410},
	"sourceSize": {"w":800,"h":410},
	"pivot": {"x":0.5,"y":0.5}
},
{
	"filename": "crashBack0015.png",
	"frame": {"x":2,"y":2886,"w":800,"h":410},
	"rotated": false,
	"trimmed": false,
	"spriteSourceSize": {"x":0,"y":0,"w":800,"h":410},
	"sourceSize": {"w":800,"h":410},
	"pivot": {"x":0.5,"y":0.5}
},
{
	"filename": "crashBack0016.png",
	"frame": {"x":804,"y":2886,"w":800,"h":410},
	"rotated": false,
	"trimmed": false,
	"spriteSourceSize": {"x":0,"y":0,"w":800,"h":410},
	"sourceSize": {"w":800,"h":410},
	"pivot": {"x":0.5,"y":0.5}
},
{
	"filename": "crashBack0017.png",
	"frame": {"x":2,"y":3298,"w":800,"h":410},
	"rotated": false,
	"trimmed": false,
	"spriteSourceSize": {"x":0,"y":0,"w":800,"h":410},
	"sourceSize": {"w":800,"h":410},
	"pivot": {"x":0.5,"y":0.5}
},
{
	"filename": "crashBack0018.png",
	"frame": {"x":804,"y":3298,"w":800,"h":410},
	"rotated": false,
	"trimmed": false,
	"spriteSourceSize": {"x":0,"y":0,"w":800,"h":410},
	"sourceSize": {"w":800,"h":410},
	"pivot": {"x":0.5,"y":0.5}
},
{
	"filename": "crashBack0019.png",
	"frame": {"x":2,"y":3710,"w":800,"h":410},
	"rotated": false,
	"trimmed": false,
	"spriteSourceSize": {"x":0,"y":0,"w":800,"h":410},
	"sourceSize": {"w":800,"h":410},
	"pivot": {"x":0.5,"y":0.5}
},
{
	"filename": "crashBack0020.png",
	"frame": {"x":804,"y":3710,"w":800,"h":410},
	"rotated": false,
	"trimmed": false,
	"spriteSourceSize": {"x":0,"y":0,"w":800,"h":410},
	"sourceSize": {"w":800,"h":410},
	"pivot": {"x":0.5,"y":0.5}
},
{
	"filename": "crashBack0021.png",
	"frame": {"x":2,"y":4122,"w":800,"h":410},
	"rotated": false,
	"trimmed": false,
	"spriteSourceSize": {"x":0,"y":0,"w":800,"h":410},
	"sourceSize": {"w":800,"h":410},
	"pivot": {"x":0.5,"y":0.5}
},
{
	"filename": "crashBack0022.png",
	"frame": {"x":804,"y":4122,"w":800,"h":410},
	"rotated": false,
	"trimmed": false,
	"spriteSourceSize": {"x":0,"y":0,"w":800,"h":410},
	"sourceSize": {"w":800,"h":410},
	"pivot": {"x":0.5,"y":0.5}
},
{
	"filename": "crashBack0023.png",
	"frame": {"x":2,"y":4534,"w":800,"h":410},
	"rotated": false,
	"trimmed": false,
	"spriteSourceSize": {"x":0,"y":0,"w":800,"h":410},
	"sourceSize": {"w":800,"h":410},
	"pivot": {"x":0.5,"y":0.5}
},
{
	"filename": "crashBack0024.png",
	"frame": {"x":804,"y":4534,"w":800,"h":410},
	"rotated": false,
	"trimmed": false,
	"spriteSourceSize": {"x":0,"y":0,"w":800,"h":410},
	"sourceSize": {"w":800,"h":410},
	"pivot": {"x":0.5,"y":0.5}
},
{
	"filename": "crashBack0025.png",
	"frame": {"x":2,"y":4946,"w":800,"h":410},
	"rotated": false,
	"trimmed": false,
	"spriteSourceSize": {"x":0,"y":0,"w":800,"h":410},
	"sourceSize": {"w":800,"h":410},
	"pivot": {"x":0.5,"y":0.5}
},
{
	"filename": "crashBack0026.png",
	"frame": {"x":804,"y":4946,"w":800,"h":410},
	"rotated": false,
	"trimmed": false,
	"spriteSourceSize": {"x":0,"y":0,"w":800,"h":410},
	"sourceSize": {"w":800,"h":410},
	"pivot": {"x":0.5,"y":0.5}
},
{
	"filename": "crashBack0027.png",
	"frame": {"x":2,"y":5358,"w":800,"h":410},
	"rotated": false,
	"trimmed": false,
	"spriteSourceSize": {"x":0,"y":0,"w":800,"h":410},
	"sourceSize": {"w":800,"h":410},
	"pivot": {"x":0.5,"y":0.5}
}],
"meta": {
	"app": "http://www.codeandweb.com/texturepacker",
	"version": "1.0",
	"image": "crashBack.png",
	"format": "RGBA8888",
	"size": {"w":1606,"h":5770},
	"scale": "1",
	"smartupdate": "$TexturePacker:SmartUpdate:1b512295d2d09341b6898b68b273d70a:d4758c9d2f3196a207b28e94cc6fee69:96e7b80f3fb184fac675ff7c05ce49ed$"
}
}
