{"frames": [

{
	"filename": "mPlayer0000",
	"frame": {"x":0,"y":0,"w":1640,"h":268},
	"rotated": false,
	"trimmed": false,
	"spriteSourceSize": {"x":0,"y":0,"w":1640,"h":268},
	"sourceSize": {"w":1640,"h":268}
}
,{
	"filename": "mPlayer0001",
	"frame": {"x":1640,"y":0,"w":1640,"h":268},
	"rotated": false,
	"trimmed": false,
	"spriteSourceSize": {"x":0,"y":0,"w":1640,"h":268},
	"sourceSize": {"w":1640,"h":268}
}
,{
	"filename": "mPlayer0002",
	"frame": {"x":0,"y":268,"w":1640,"h":268},
	"rotated": false,
	"trimmed": false,
	"spriteSourceSize": {"x":0,"y":0,"w":1640,"h":268},
	"sourceSize": {"w":1640,"h":268}
}
,{
	"filename": "mPlayer0003",
	"frame": {"x":1640,"y":268,"w":1640,"h":268},
	"rotated": false,
	"trimmed": false,
	"spriteSourceSize": {"x":0,"y":0,"w":1640,"h":268},
	"sourceSize": {"w":1640,"h":268}
}
,{
	"filename": "mPlayer0004",
	"frame": {"x":0,"y":536,"w":1640,"h":268},
	"rotated": false,
	"trimmed": false,
	"spriteSourceSize": {"x":0,"y":0,"w":1640,"h":268},
	"sourceSize": {"w":1640,"h":268}
}
,{
	"filename": "mPlayer0005",
	"frame": {"x":1640,"y":536,"w":1640,"h":268},
	"rotated": false,
	"trimmed": false,
	"spriteSourceSize": {"x":0,"y":0,"w":1640,"h":268},
	"sourceSize": {"w":1640,"h":268}
}
,{
	"filename": "mPlayer0006",
	"frame": {"x":0,"y":804,"w":1640,"h":268},
	"rotated": false,
	"trimmed": false,
	"spriteSourceSize": {"x":0,"y":0,"w":1640,"h":268},
	"sourceSize": {"w":1640,"h":268}
}
,{
	"filename": "mPlayer0007",
	"frame": {"x":1640,"y":804,"w":1640,"h":268},
	"rotated": false,
	"trimmed": false,
	"spriteSourceSize": {"x":0,"y":0,"w":1640,"h":268},
	"sourceSize": {"w":1640,"h":268}
}
,{
	"filename": "mPlayer0008",
	"frame": {"x":0,"y":1072,"w":1640,"h":268},
	"rotated": false,
	"trimmed": false,
	"spriteSourceSize": {"x":0,"y":0,"w":1640,"h":268},
	"sourceSize": {"w":1640,"h":268}
}
,{
	"filename": "mPlayer0009",
	"frame": {"x":1640,"y":1072,"w":1640,"h":268},
	"rotated": false,
	"trimmed": false,
	"spriteSourceSize": {"x":0,"y":0,"w":1640,"h":268},
	"sourceSize": {"w":1640,"h":268}
}
,{
	"filename": "mPlayer0010",
	"frame": {"x":0,"y":1340,"w":1640,"h":268},
	"rotated": false,
	"trimmed": false,
	"spriteSourceSize": {"x":0,"y":0,"w":1640,"h":268},
	"sourceSize": {"w":1640,"h":268}
}
,{
	"filename": "mPlayer0011",
	"frame": {"x":1640,"y":1340,"w":1640,"h":268},
	"rotated": false,
	"trimmed": false,
	"spriteSourceSize": {"x":0,"y":0,"w":1640,"h":268},
	"sourceSize": {"w":1640,"h":268}
}
,{
	"filename": "mPlayer0012",
	"frame": {"x":0,"y":1608,"w":1640,"h":268},
	"rotated": false,
	"trimmed": false,
	"spriteSourceSize": {"x":0,"y":0,"w":1640,"h":268},
	"sourceSize": {"w":1640,"h":268}
}
,{
	"filename": "mPlayer0013",
	"frame": {"x":1640,"y":1608,"w":1640,"h":268},
	"rotated": false,
	"trimmed": false,
	"spriteSourceSize": {"x":0,"y":0,"w":1640,"h":268},
	"sourceSize": {"w":1640,"h":268}
}
,{
	"filename": "mPlayer0014",
	"frame": {"x":0,"y":1876,"w":1640,"h":268},
	"rotated": false,
	"trimmed": false,
	"spriteSourceSize": {"x":0,"y":0,"w":1640,"h":268},
	"sourceSize": {"w":1640,"h":268}
}
,{
	"filename": "mPlayer0015",
	"frame": {"x":1640,"y":1876,"w":1640,"h":268},
	"rotated": false,
	"trimmed": false,
	"spriteSourceSize": {"x":0,"y":0,"w":1640,"h":268},
	"sourceSize": {"w":1640,"h":268}
}
,{
	"filename": "mPlayer0016",
	"frame": {"x":0,"y":2144,"w":1640,"h":268},
	"rotated": false,
	"trimmed": false,
	"spriteSourceSize": {"x":0,"y":0,"w":1640,"h":268},
	"sourceSize": {"w":1640,"h":268}
}
,{
	"filename": "mPlayer0017",
	"frame": {"x":1640,"y":2144,"w":1640,"h":268},
	"rotated": false,
	"trimmed": false,
	"spriteSourceSize": {"x":0,"y":0,"w":1640,"h":268},
	"sourceSize": {"w":1640,"h":268}
}
,{
	"filename": "mPlayer0018",
	"frame": {"x":0,"y":2412,"w":1640,"h":268},
	"rotated": false,
	"trimmed": false,
	"spriteSourceSize": {"x":0,"y":0,"w":1640,"h":268},
	"sourceSize": {"w":1640,"h":268}
}
,{
	"filename": "mPlayer0019",
	"frame": {"x":1640,"y":2412,"w":1640,"h":268},
	"rotated": false,
	"trimmed": false,
	"spriteSourceSize": {"x":0,"y":0,"w":1640,"h":268},
	"sourceSize": {"w":1640,"h":268}
}
,{
	"filename": "mPlayer0020",
	"frame": {"x":0,"y":2680,"w":1640,"h":268},
	"rotated": false,
	"trimmed": false,
	"spriteSourceSize": {"x":0,"y":0,"w":1640,"h":268},
	"sourceSize": {"w":1640,"h":268}
}
,{
	"filename": "mPlayer0021",
	"frame": {"x":1640,"y":2680,"w":1640,"h":268},
	"rotated": false,
	"trimmed": false,
	"spriteSourceSize": {"x":0,"y":0,"w":1640,"h":268},
	"sourceSize": {"w":1640,"h":268}
}
,{
	"filename": "mPlayer0022",
	"frame": {"x":0,"y":2948,"w":1640,"h":268},
	"rotated": false,
	"trimmed": false,
	"spriteSourceSize": {"x":0,"y":0,"w":1640,"h":268},
	"sourceSize": {"w":1640,"h":268}
}
,{
	"filename": "mPlayer0023",
	"frame": {"x":1640,"y":2948,"w":1640,"h":268},
	"rotated": false,
	"trimmed": false,
	"spriteSourceSize": {"x":0,"y":0,"w":1640,"h":268},
	"sourceSize": {"w":1640,"h":268}
}
,{
	"filename": "mPlayer0024",
	"frame": {"x":0,"y":3216,"w":1640,"h":268},
	"rotated": false,
	"trimmed": false,
	"spriteSourceSize": {"x":0,"y":0,"w":1640,"h":268},
	"sourceSize": {"w":1640,"h":268}
}
,{
	"filename": "mPlayer0025",
	"frame": {"x":1640,"y":3216,"w":1640,"h":268},
	"rotated": false,
	"trimmed": false,
	"spriteSourceSize": {"x":0,"y":0,"w":1640,"h":268},
	"sourceSize": {"w":1640,"h":268}
}
,{
	"filename": "mPlayer0026",
	"frame": {"x":0,"y":3484,"w":1640,"h":268},
	"rotated": false,
	"trimmed": false,
	"spriteSourceSize": {"x":0,"y":0,"w":1640,"h":268},
	"sourceSize": {"w":1640,"h":268}
}
,{
	"filename": "mPlayer0027",
	"frame": {"x":1640,"y":3484,"w":1640,"h":268},
	"rotated": false,
	"trimmed": false,
	"spriteSourceSize": {"x":0,"y":0,"w":1640,"h":268},
	"sourceSize": {"w":1640,"h":268}
}
,{
	"filename": "mPlayer0028",
	"frame": {"x":0,"y":3752,"w":1640,"h":268},
	"rotated": false,
	"trimmed": false,
	"spriteSourceSize": {"x":0,"y":0,"w":1640,"h":268},
	"sourceSize": {"w":1640,"h":268}
}
,{
	"filename": "mPlayer0029",
	"frame": {"x":1640,"y":3752,"w":1640,"h":268},
	"rotated": false,
	"trimmed": false,
	"spriteSourceSize": {"x":0,"y":0,"w":1640,"h":268},
	"sourceSize": {"w":1640,"h":268}
}
,{
	"filename": "mPlayer0030",
	"frame": {"x":0,"y":4020,"w":1640,"h":268},
	"rotated": false,
	"trimmed": false,
	"spriteSourceSize": {"x":0,"y":0,"w":1640,"h":268},
	"sourceSize": {"w":1640,"h":268}
}
,{
	"filename": "mPlayer0031",
	"frame": {"x":1640,"y":4020,"w":1640,"h":268},
	"rotated": false,
	"trimmed": false,
	"spriteSourceSize": {"x":0,"y":0,"w":1640,"h":268},
	"sourceSize": {"w":1640,"h":268}
}
,{
	"filename": "mPlayer0032",
	"frame": {"x":0,"y":4288,"w":1640,"h":268},
	"rotated": false,
	"trimmed": false,
	"spriteSourceSize": {"x":0,"y":0,"w":1640,"h":268},
	"sourceSize": {"w":1640,"h":268}
}
,{
	"filename": "mPlayer0033",
	"frame": {"x":1640,"y":4288,"w":1640,"h":268},
	"rotated": false,
	"trimmed": false,
	"spriteSourceSize": {"x":0,"y":0,"w":1640,"h":268},
	"sourceSize": {"w":1640,"h":268}
}],
"meta": {
	"app": "Adobe Flash CS6",
	"version": "12.0.0.481",
	"image": "player5.png",
	"format": "RGBA8888",
	"size": {"w":4096,"h":8192},
	"scale": "1"
}
}
