{"frames": [

{
	"filename": "ridl_default0001.png",
	"frame": {"x":2,"y":2,"w":99,"h":181},
	"rotated": false,
	"trimmed": false,
	"spriteSourceSize": {"x":0,"y":0,"w":99,"h":181},
	"sourceSize": {"w":99,"h":181},
	"pivot": {"x":0.5,"y":0.5}
},
{
	"filename": "ridl_default0002.png",
	"frame": {"x":103,"y":2,"w":99,"h":181},
	"rotated": false,
	"trimmed": false,
	"spriteSourceSize": {"x":0,"y":0,"w":99,"h":181},
	"sourceSize": {"w":99,"h":181},
	"pivot": {"x":0.5,"y":0.5}
},
{
	"filename": "ridl_default0003.png",
	"frame": {"x":204,"y":2,"w":99,"h":181},
	"rotated": false,
	"trimmed": false,
	"spriteSourceSize": {"x":0,"y":0,"w":99,"h":181},
	"sourceSize": {"w":99,"h":181},
	"pivot": {"x":0.5,"y":0.5}
},
{
	"filename": "ridl_default0004.png",
	"frame": {"x":305,"y":2,"w":99,"h":181},
	"rotated": false,
	"trimmed": false,
	"spriteSourceSize": {"x":0,"y":0,"w":99,"h":181},
	"sourceSize": {"w":99,"h":181},
	"pivot": {"x":0.5,"y":0.5}
},
{
	"filename": "ridl_default0005.png",
	"frame": {"x":406,"y":2,"w":99,"h":181},
	"rotated": false,
	"trimmed": false,
	"spriteSourceSize": {"x":0,"y":0,"w":99,"h":181},
	"sourceSize": {"w":99,"h":181},
	"pivot": {"x":0.5,"y":0.5}
},
{
	"filename": "ridl_default0006.png",
	"frame": {"x":507,"y":2,"w":99,"h":181},
	"rotated": false,
	"trimmed": false,
	"spriteSourceSize": {"x":0,"y":0,"w":99,"h":181},
	"sourceSize": {"w":99,"h":181},
	"pivot": {"x":0.5,"y":0.5}
},
{
	"filename": "ridl_default0007.png",
	"frame": {"x":608,"y":2,"w":99,"h":181},
	"rotated": false,
	"trimmed": false,
	"spriteSourceSize": {"x":0,"y":0,"w":99,"h":181},
	"sourceSize": {"w":99,"h":181},
	"pivot": {"x":0.5,"y":0.5}
},
{
	"filename": "ridl_default0008.png",
	"frame": {"x":709,"y":2,"w":99,"h":181},
	"rotated": false,
	"trimmed": false,
	"spriteSourceSize": {"x":0,"y":0,"w":99,"h":181},
	"sourceSize": {"w":99,"h":181},
	"pivot": {"x":0.5,"y":0.5}
},
{
	"filename": "ridl_default0009.png",
	"frame": {"x":810,"y":2,"w":99,"h":181},
	"rotated": false,
	"trimmed": false,
	"spriteSourceSize": {"x":0,"y":0,"w":99,"h":181},
	"sourceSize": {"w":99,"h":181},
	"pivot": {"x":0.5,"y":0.5}
},
{
	"filename": "ridl_default0010.png",
	"frame": {"x":911,"y":2,"w":99,"h":181},
	"rotated": false,
	"trimmed": false,
	"spriteSourceSize": {"x":0,"y":0,"w":99,"h":181},
	"sourceSize": {"w":99,"h":181},
	"pivot": {"x":0.5,"y":0.5}
},
{
	"filename": "ridl_default0011.png",
	"frame": {"x":1012,"y":2,"w":99,"h":181},
	"rotated": false,
	"trimmed": false,
	"spriteSourceSize": {"x":0,"y":0,"w":99,"h":181},
	"sourceSize": {"w":99,"h":181},
	"pivot": {"x":0.5,"y":0.5}
},
{
	"filename": "ridl_default0012.png",
	"frame": {"x":1113,"y":2,"w":99,"h":181},
	"rotated": false,
	"trimmed": false,
	"spriteSourceSize": {"x":0,"y":0,"w":99,"h":181},
	"sourceSize": {"w":99,"h":181},
	"pivot": {"x":0.5,"y":0.5}
},
{
	"filename": "ridl_default0013.png",
	"frame": {"x":1214,"y":2,"w":99,"h":181},
	"rotated": false,
	"trimmed": false,
	"spriteSourceSize": {"x":0,"y":0,"w":99,"h":181},
	"sourceSize": {"w":99,"h":181},
	"pivot": {"x":0.5,"y":0.5}
},
{
	"filename": "ridl_default0014.png",
	"frame": {"x":1315,"y":2,"w":99,"h":181},
	"rotated": false,
	"trimmed": false,
	"spriteSourceSize": {"x":0,"y":0,"w":99,"h":181},
	"sourceSize": {"w":99,"h":181},
	"pivot": {"x":0.5,"y":0.5}
},
{
	"filename": "ridl_default0015.png",
	"frame": {"x":1416,"y":2,"w":99,"h":181},
	"rotated": false,
	"trimmed": false,
	"spriteSourceSize": {"x":0,"y":0,"w":99,"h":181},
	"sourceSize": {"w":99,"h":181},
	"pivot": {"x":0.5,"y":0.5}
},
{
	"filename": "ridl_default0016.png",
	"frame": {"x":1517,"y":2,"w":99,"h":181},
	"rotated": false,
	"trimmed": false,
	"spriteSourceSize": {"x":0,"y":0,"w":99,"h":181},
	"sourceSize": {"w":99,"h":181},
	"pivot": {"x":0.5,"y":0.5}
},
{
	"filename": "ridl_default0017.png",
	"frame": {"x":1618,"y":2,"w":99,"h":181},
	"rotated": false,
	"trimmed": false,
	"spriteSourceSize": {"x":0,"y":0,"w":99,"h":181},
	"sourceSize": {"w":99,"h":181},
	"pivot": {"x":0.5,"y":0.5}
},
{
	"filename": "ridl_default0018.png",
	"frame": {"x":2,"y":185,"w":99,"h":181},
	"rotated": false,
	"trimmed": false,
	"spriteSourceSize": {"x":0,"y":0,"w":99,"h":181},
	"sourceSize": {"w":99,"h":181},
	"pivot": {"x":0.5,"y":0.5}
},
{
	"filename": "ridl_default0019.png",
	"frame": {"x":103,"y":185,"w":99,"h":181},
	"rotated": false,
	"trimmed": false,
	"spriteSourceSize": {"x":0,"y":0,"w":99,"h":181},
	"sourceSize": {"w":99,"h":181},
	"pivot": {"x":0.5,"y":0.5}
},
{
	"filename": "ridl_default0020.png",
	"frame": {"x":204,"y":185,"w":99,"h":181},
	"rotated": false,
	"trimmed": false,
	"spriteSourceSize": {"x":0,"y":0,"w":99,"h":181},
	"sourceSize": {"w":99,"h":181},
	"pivot": {"x":0.5,"y":0.5}
},
{
	"filename": "ridl_default0021.png",
	"frame": {"x":305,"y":185,"w":99,"h":181},
	"rotated": false,
	"trimmed": false,
	"spriteSourceSize": {"x":0,"y":0,"w":99,"h":181},
	"sourceSize": {"w":99,"h":181},
	"pivot": {"x":0.5,"y":0.5}
},
{
	"filename": "ridl_default0022.png",
	"frame": {"x":406,"y":185,"w":99,"h":181},
	"rotated": false,
	"trimmed": false,
	"spriteSourceSize": {"x":0,"y":0,"w":99,"h":181},
	"sourceSize": {"w":99,"h":181},
	"pivot": {"x":0.5,"y":0.5}
},
{
	"filename": "ridl_default0023.png",
	"frame": {"x":507,"y":185,"w":99,"h":181},
	"rotated": false,
	"trimmed": false,
	"spriteSourceSize": {"x":0,"y":0,"w":99,"h":181},
	"sourceSize": {"w":99,"h":181},
	"pivot": {"x":0.5,"y":0.5}
},
{
	"filename": "ridl_default0024.png",
	"frame": {"x":608,"y":185,"w":99,"h":181},
	"rotated": false,
	"trimmed": false,
	"spriteSourceSize": {"x":0,"y":0,"w":99,"h":181},
	"sourceSize": {"w":99,"h":181},
	"pivot": {"x":0.5,"y":0.5}
},
{
	"filename": "ridl_default0025.png",
	"frame": {"x":709,"y":185,"w":99,"h":181},
	"rotated": false,
	"trimmed": false,
	"spriteSourceSize": {"x":0,"y":0,"w":99,"h":181},
	"sourceSize": {"w":99,"h":181},
	"pivot": {"x":0.5,"y":0.5}
},
{
	"filename": "ridl_default0026.png",
	"frame": {"x":1416,"y":2,"w":99,"h":181},
	"rotated": false,
	"trimmed": false,
	"spriteSourceSize": {"x":0,"y":0,"w":99,"h":181},
	"sourceSize": {"w":99,"h":181},
	"pivot": {"x":0.5,"y":0.5}
},
{
	"filename": "ridl_default0027.png",
	"frame": {"x":810,"y":185,"w":99,"h":181},
	"rotated": false,
	"trimmed": false,
	"spriteSourceSize": {"x":0,"y":0,"w":99,"h":181},
	"sourceSize": {"w":99,"h":181},
	"pivot": {"x":0.5,"y":0.5}
},
{
	"filename": "ridl_default0028.png",
	"frame": {"x":507,"y":185,"w":99,"h":181},
	"rotated": false,
	"trimmed": false,
	"spriteSourceSize": {"x":0,"y":0,"w":99,"h":181},
	"sourceSize": {"w":99,"h":181},
	"pivot": {"x":0.5,"y":0.5}
},
{
	"filename": "ridl_default0029.png",
	"frame": {"x":911,"y":185,"w":99,"h":181},
	"rotated": false,
	"trimmed": false,
	"spriteSourceSize": {"x":0,"y":0,"w":99,"h":181},
	"sourceSize": {"w":99,"h":181},
	"pivot": {"x":0.5,"y":0.5}
},
{
	"filename": "ridl_default0030.png",
	"frame": {"x":204,"y":185,"w":99,"h":181},
	"rotated": false,
	"trimmed": false,
	"spriteSourceSize": {"x":0,"y":0,"w":99,"h":181},
	"sourceSize": {"w":99,"h":181},
	"pivot": {"x":0.5,"y":0.5}
},
{
	"filename": "ridl_default0031.png",
	"frame": {"x":305,"y":185,"w":99,"h":181},
	"rotated": false,
	"trimmed": false,
	"spriteSourceSize": {"x":0,"y":0,"w":99,"h":181},
	"sourceSize": {"w":99,"h":181},
	"pivot": {"x":0.5,"y":0.5}
},
{
	"filename": "ridl_default0032.png",
	"frame": {"x":406,"y":185,"w":99,"h":181},
	"rotated": false,
	"trimmed": false,
	"spriteSourceSize": {"x":0,"y":0,"w":99,"h":181},
	"sourceSize": {"w":99,"h":181},
	"pivot": {"x":0.5,"y":0.5}
},
{
	"filename": "ridl_default0033.png",
	"frame": {"x":507,"y":185,"w":99,"h":181},
	"rotated": false,
	"trimmed": false,
	"spriteSourceSize": {"x":0,"y":0,"w":99,"h":181},
	"sourceSize": {"w":99,"h":181},
	"pivot": {"x":0.5,"y":0.5}
},
{
	"filename": "ridl_default0034.png",
	"frame": {"x":608,"y":185,"w":99,"h":181},
	"rotated": false,
	"trimmed": false,
	"spriteSourceSize": {"x":0,"y":0,"w":99,"h":181},
	"sourceSize": {"w":99,"h":181},
	"pivot": {"x":0.5,"y":0.5}
},
{
	"filename": "ridl_default0035.png",
	"frame": {"x":709,"y":185,"w":99,"h":181},
	"rotated": false,
	"trimmed": false,
	"spriteSourceSize": {"x":0,"y":0,"w":99,"h":181},
	"sourceSize": {"w":99,"h":181},
	"pivot": {"x":0.5,"y":0.5}
},
{
	"filename": "ridl_default0036.png",
	"frame": {"x":1416,"y":2,"w":99,"h":181},
	"rotated": false,
	"trimmed": false,
	"spriteSourceSize": {"x":0,"y":0,"w":99,"h":181},
	"sourceSize": {"w":99,"h":181},
	"pivot": {"x":0.5,"y":0.5}
},
{
	"filename": "ridl_default0037.png",
	"frame": {"x":1012,"y":185,"w":99,"h":181},
	"rotated": false,
	"trimmed": false,
	"spriteSourceSize": {"x":0,"y":0,"w":99,"h":181},
	"sourceSize": {"w":99,"h":181},
	"pivot": {"x":0.5,"y":0.5}
},
{
	"filename": "ridl_default0038.png",
	"frame": {"x":1113,"y":185,"w":99,"h":181},
	"rotated": false,
	"trimmed": false,
	"spriteSourceSize": {"x":0,"y":0,"w":99,"h":181},
	"sourceSize": {"w":99,"h":181},
	"pivot": {"x":0.5,"y":0.5}
},
{
	"filename": "ridl_default0039.png",
	"frame": {"x":1214,"y":185,"w":99,"h":181},
	"rotated": false,
	"trimmed": false,
	"spriteSourceSize": {"x":0,"y":0,"w":99,"h":181},
	"sourceSize": {"w":99,"h":181},
	"pivot": {"x":0.5,"y":0.5}
},
{
	"filename": "ridl_default0040.png",
	"frame": {"x":1315,"y":185,"w":99,"h":181},
	"rotated": false,
	"trimmed": false,
	"spriteSourceSize": {"x":0,"y":0,"w":99,"h":181},
	"sourceSize": {"w":99,"h":181},
	"pivot": {"x":0.5,"y":0.5}
},
{
	"filename": "ridl_default0041.png",
	"frame": {"x":1416,"y":185,"w":99,"h":181},
	"rotated": false,
	"trimmed": false,
	"spriteSourceSize": {"x":0,"y":0,"w":99,"h":181},
	"sourceSize": {"w":99,"h":181},
	"pivot": {"x":0.5,"y":0.5}
},
{
	"filename": "ridl_default0042.png",
	"frame": {"x":1517,"y":185,"w":99,"h":181},
	"rotated": false,
	"trimmed": false,
	"spriteSourceSize": {"x":0,"y":0,"w":99,"h":181},
	"sourceSize": {"w":99,"h":181},
	"pivot": {"x":0.5,"y":0.5}
},
{
	"filename": "ridl_default0043.png",
	"frame": {"x":1618,"y":185,"w":99,"h":181},
	"rotated": false,
	"trimmed": false,
	"spriteSourceSize": {"x":0,"y":0,"w":99,"h":181},
	"sourceSize": {"w":99,"h":181},
	"pivot": {"x":0.5,"y":0.5}
},
{
	"filename": "ridl_default0044.png",
	"frame": {"x":2,"y":368,"w":99,"h":181},
	"rotated": false,
	"trimmed": false,
	"spriteSourceSize": {"x":0,"y":0,"w":99,"h":181},
	"sourceSize": {"w":99,"h":181},
	"pivot": {"x":0.5,"y":0.5}
},
{
	"filename": "ridl_default0045.png",
	"frame": {"x":103,"y":368,"w":99,"h":181},
	"rotated": false,
	"trimmed": false,
	"spriteSourceSize": {"x":0,"y":0,"w":99,"h":181},
	"sourceSize": {"w":99,"h":181},
	"pivot": {"x":0.5,"y":0.5}
},
{
	"filename": "ridl_default0046.png",
	"frame": {"x":204,"y":368,"w":99,"h":181},
	"rotated": false,
	"trimmed": false,
	"spriteSourceSize": {"x":0,"y":0,"w":99,"h":181},
	"sourceSize": {"w":99,"h":181},
	"pivot": {"x":0.5,"y":0.5}
},
{
	"filename": "ridl_default0047.png",
	"frame": {"x":305,"y":368,"w":99,"h":181},
	"rotated": false,
	"trimmed": false,
	"spriteSourceSize": {"x":0,"y":0,"w":99,"h":181},
	"sourceSize": {"w":99,"h":181},
	"pivot": {"x":0.5,"y":0.5}
},
{
	"filename": "ridl_default0048.png",
	"frame": {"x":406,"y":368,"w":99,"h":181},
	"rotated": false,
	"trimmed": false,
	"spriteSourceSize": {"x":0,"y":0,"w":99,"h":181},
	"sourceSize": {"w":99,"h":181},
	"pivot": {"x":0.5,"y":0.5}
},
{
	"filename": "ridl_default0049.png",
	"frame": {"x":507,"y":368,"w":99,"h":181},
	"rotated": false,
	"trimmed": false,
	"spriteSourceSize": {"x":0,"y":0,"w":99,"h":181},
	"sourceSize": {"w":99,"h":181},
	"pivot": {"x":0.5,"y":0.5}
},
{
	"filename": "ridl_default0050.png",
	"frame": {"x":608,"y":368,"w":99,"h":181},
	"rotated": false,
	"trimmed": false,
	"spriteSourceSize": {"x":0,"y":0,"w":99,"h":181},
	"sourceSize": {"w":99,"h":181},
	"pivot": {"x":0.5,"y":0.5}
},
{
	"filename": "ridl_default0051.png",
	"frame": {"x":709,"y":368,"w":99,"h":181},
	"rotated": false,
	"trimmed": false,
	"spriteSourceSize": {"x":0,"y":0,"w":99,"h":181},
	"sourceSize": {"w":99,"h":181},
	"pivot": {"x":0.5,"y":0.5}
},
{
	"filename": "ridl_default0052.png",
	"frame": {"x":810,"y":368,"w":99,"h":181},
	"rotated": false,
	"trimmed": false,
	"spriteSourceSize": {"x":0,"y":0,"w":99,"h":181},
	"sourceSize": {"w":99,"h":181},
	"pivot": {"x":0.5,"y":0.5}
},
{
	"filename": "ridl_default0053.png",
	"frame": {"x":911,"y":368,"w":99,"h":181},
	"rotated": false,
	"trimmed": false,
	"spriteSourceSize": {"x":0,"y":0,"w":99,"h":181},
	"sourceSize": {"w":99,"h":181},
	"pivot": {"x":0.5,"y":0.5}
},
{
	"filename": "ridl_default0054.png",
	"frame": {"x":1012,"y":368,"w":99,"h":181},
	"rotated": false,
	"trimmed": false,
	"spriteSourceSize": {"x":0,"y":0,"w":99,"h":181},
	"sourceSize": {"w":99,"h":181},
	"pivot": {"x":0.5,"y":0.5}
},
{
	"filename": "ridl_default0055.png",
	"frame": {"x":1113,"y":368,"w":99,"h":181},
	"rotated": false,
	"trimmed": false,
	"spriteSourceSize": {"x":0,"y":0,"w":99,"h":181},
	"sourceSize": {"w":99,"h":181},
	"pivot": {"x":0.5,"y":0.5}
},
{
	"filename": "ridl_default0056.png",
	"frame": {"x":1214,"y":368,"w":99,"h":181},
	"rotated": false,
	"trimmed": false,
	"spriteSourceSize": {"x":0,"y":0,"w":99,"h":181},
	"sourceSize": {"w":99,"h":181},
	"pivot": {"x":0.5,"y":0.5}
},
{
	"filename": "ridl_default0057.png",
	"frame": {"x":1315,"y":368,"w":99,"h":181},
	"rotated": false,
	"trimmed": false,
	"spriteSourceSize": {"x":0,"y":0,"w":99,"h":181},
	"sourceSize": {"w":99,"h":181},
	"pivot": {"x":0.5,"y":0.5}
},
{
	"filename": "ridl_default0058.png",
	"frame": {"x":1416,"y":368,"w":99,"h":181},
	"rotated": false,
	"trimmed": false,
	"spriteSourceSize": {"x":0,"y":0,"w":99,"h":181},
	"sourceSize": {"w":99,"h":181},
	"pivot": {"x":0.5,"y":0.5}
},
{
	"filename": "ridl_default0059.png",
	"frame": {"x":1517,"y":368,"w":99,"h":181},
	"rotated": false,
	"trimmed": false,
	"spriteSourceSize": {"x":0,"y":0,"w":99,"h":181},
	"sourceSize": {"w":99,"h":181},
	"pivot": {"x":0.5,"y":0.5}
},
{
	"filename": "ridl_default0060.png",
	"frame": {"x":1618,"y":368,"w":99,"h":181},
	"rotated": false,
	"trimmed": false,
	"spriteSourceSize": {"x":0,"y":0,"w":99,"h":181},
	"sourceSize": {"w":99,"h":181},
	"pivot": {"x":0.5,"y":0.5}
},
{
	"filename": "ridl_default0061.png",
	"frame": {"x":2,"y":551,"w":99,"h":181},
	"rotated": false,
	"trimmed": false,
	"spriteSourceSize": {"x":0,"y":0,"w":99,"h":181},
	"sourceSize": {"w":99,"h":181},
	"pivot": {"x":0.5,"y":0.5}
},
{
	"filename": "ridl_default0062.png",
	"frame": {"x":103,"y":551,"w":99,"h":181},
	"rotated": false,
	"trimmed": false,
	"spriteSourceSize": {"x":0,"y":0,"w":99,"h":181},
	"sourceSize": {"w":99,"h":181},
	"pivot": {"x":0.5,"y":0.5}
},
{
	"filename": "ridl_default0063.png",
	"frame": {"x":204,"y":551,"w":99,"h":181},
	"rotated": false,
	"trimmed": false,
	"spriteSourceSize": {"x":0,"y":0,"w":99,"h":181},
	"sourceSize": {"w":99,"h":181},
	"pivot": {"x":0.5,"y":0.5}
},
{
	"filename": "ridl_default0064.png",
	"frame": {"x":305,"y":551,"w":99,"h":181},
	"rotated": false,
	"trimmed": false,
	"spriteSourceSize": {"x":0,"y":0,"w":99,"h":181},
	"sourceSize": {"w":99,"h":181},
	"pivot": {"x":0.5,"y":0.5}
},
{
	"filename": "ridl_default0065.png",
	"frame": {"x":406,"y":551,"w":99,"h":181},
	"rotated": false,
	"trimmed": false,
	"spriteSourceSize": {"x":0,"y":0,"w":99,"h":181},
	"sourceSize": {"w":99,"h":181},
	"pivot": {"x":0.5,"y":0.5}
},
{
	"filename": "ridl_default0066.png",
	"frame": {"x":507,"y":551,"w":99,"h":181},
	"rotated": false,
	"trimmed": false,
	"spriteSourceSize": {"x":0,"y":0,"w":99,"h":181},
	"sourceSize": {"w":99,"h":181},
	"pivot": {"x":0.5,"y":0.5}
},
{
	"filename": "ridl_default0067.png",
	"frame": {"x":608,"y":551,"w":99,"h":181},
	"rotated": false,
	"trimmed": false,
	"spriteSourceSize": {"x":0,"y":0,"w":99,"h":181},
	"sourceSize": {"w":99,"h":181},
	"pivot": {"x":0.5,"y":0.5}
},
{
	"filename": "ridl_default0068.png",
	"frame": {"x":709,"y":551,"w":99,"h":181},
	"rotated": false,
	"trimmed": false,
	"spriteSourceSize": {"x":0,"y":0,"w":99,"h":181},
	"sourceSize": {"w":99,"h":181},
	"pivot": {"x":0.5,"y":0.5}
},
{
	"filename": "ridl_default0069.png",
	"frame": {"x":810,"y":551,"w":99,"h":181},
	"rotated": false,
	"trimmed": false,
	"spriteSourceSize": {"x":0,"y":0,"w":99,"h":181},
	"sourceSize": {"w":99,"h":181},
	"pivot": {"x":0.5,"y":0.5}
},
{
	"filename": "ridl_default0070.png",
	"frame": {"x":911,"y":551,"w":99,"h":181},
	"rotated": false,
	"trimmed": false,
	"spriteSourceSize": {"x":0,"y":0,"w":99,"h":181},
	"sourceSize": {"w":99,"h":181},
	"pivot": {"x":0.5,"y":0.5}
},
{
	"filename": "ridl_default0071.png",
	"frame": {"x":1012,"y":551,"w":99,"h":181},
	"rotated": false,
	"trimmed": false,
	"spriteSourceSize": {"x":0,"y":0,"w":99,"h":181},
	"sourceSize": {"w":99,"h":181},
	"pivot": {"x":0.5,"y":0.5}
},
{
	"filename": "ridl_default0072.png",
	"frame": {"x":1113,"y":551,"w":99,"h":181},
	"rotated": false,
	"trimmed": false,
	"spriteSourceSize": {"x":0,"y":0,"w":99,"h":181},
	"sourceSize": {"w":99,"h":181},
	"pivot": {"x":0.5,"y":0.5}
},
{
	"filename": "ridl_default0073.png",
	"frame": {"x":1214,"y":551,"w":99,"h":181},
	"rotated": false,
	"trimmed": false,
	"spriteSourceSize": {"x":0,"y":0,"w":99,"h":181},
	"sourceSize": {"w":99,"h":181},
	"pivot": {"x":0.5,"y":0.5}
},
{
	"filename": "ridl_default0074.png",
	"frame": {"x":1315,"y":551,"w":99,"h":181},
	"rotated": false,
	"trimmed": false,
	"spriteSourceSize": {"x":0,"y":0,"w":99,"h":181},
	"sourceSize": {"w":99,"h":181},
	"pivot": {"x":0.5,"y":0.5}
},
{
	"filename": "ridl_default0075.png",
	"frame": {"x":1012,"y":551,"w":99,"h":181},
	"rotated": false,
	"trimmed": false,
	"spriteSourceSize": {"x":0,"y":0,"w":99,"h":181},
	"sourceSize": {"w":99,"h":181},
	"pivot": {"x":0.5,"y":0.5}
},
{
	"filename": "ridl_default0076.png",
	"frame": {"x":1416,"y":551,"w":99,"h":181},
	"rotated": false,
	"trimmed": false,
	"spriteSourceSize": {"x":0,"y":0,"w":99,"h":181},
	"sourceSize": {"w":99,"h":181},
	"pivot": {"x":0.5,"y":0.5}
},
{
	"filename": "ridl_default0077.png",
	"frame": {"x":1517,"y":551,"w":99,"h":181},
	"rotated": false,
	"trimmed": false,
	"spriteSourceSize": {"x":0,"y":0,"w":99,"h":181},
	"sourceSize": {"w":99,"h":181},
	"pivot": {"x":0.5,"y":0.5}
},
{
	"filename": "ridl_default0078.png",
	"frame": {"x":1618,"y":551,"w":99,"h":181},
	"rotated": false,
	"trimmed": false,
	"spriteSourceSize": {"x":0,"y":0,"w":99,"h":181},
	"sourceSize": {"w":99,"h":181},
	"pivot": {"x":0.5,"y":0.5}
},
{
	"filename": "ridl_default0079.png",
	"frame": {"x":2,"y":734,"w":99,"h":181},
	"rotated": false,
	"trimmed": false,
	"spriteSourceSize": {"x":0,"y":0,"w":99,"h":181},
	"sourceSize": {"w":99,"h":181},
	"pivot": {"x":0.5,"y":0.5}
},
{
	"filename": "ridl_default0080.png",
	"frame": {"x":103,"y":734,"w":99,"h":181},
	"rotated": false,
	"trimmed": false,
	"spriteSourceSize": {"x":0,"y":0,"w":99,"h":181},
	"sourceSize": {"w":99,"h":181},
	"pivot": {"x":0.5,"y":0.5}
},
{
	"filename": "ridl_default0081.png",
	"frame": {"x":204,"y":734,"w":99,"h":181},
	"rotated": false,
	"trimmed": false,
	"spriteSourceSize": {"x":0,"y":0,"w":99,"h":181},
	"sourceSize": {"w":99,"h":181},
	"pivot": {"x":0.5,"y":0.5}
},
{
	"filename": "ridl_default0082.png",
	"frame": {"x":305,"y":734,"w":99,"h":181},
	"rotated": false,
	"trimmed": false,
	"spriteSourceSize": {"x":0,"y":0,"w":99,"h":181},
	"sourceSize": {"w":99,"h":181},
	"pivot": {"x":0.5,"y":0.5}
},
{
	"filename": "ridl_default0083.png",
	"frame": {"x":406,"y":734,"w":99,"h":181},
	"rotated": false,
	"trimmed": false,
	"spriteSourceSize": {"x":0,"y":0,"w":99,"h":181},
	"sourceSize": {"w":99,"h":181},
	"pivot": {"x":0.5,"y":0.5}
},
{
	"filename": "ridl_default0084.png",
	"frame": {"x":507,"y":734,"w":99,"h":181},
	"rotated": false,
	"trimmed": false,
	"spriteSourceSize": {"x":0,"y":0,"w":99,"h":181},
	"sourceSize": {"w":99,"h":181},
	"pivot": {"x":0.5,"y":0.5}
},
{
	"filename": "ridl_default0085.png",
	"frame": {"x":608,"y":734,"w":99,"h":181},
	"rotated": false,
	"trimmed": false,
	"spriteSourceSize": {"x":0,"y":0,"w":99,"h":181},
	"sourceSize": {"w":99,"h":181},
	"pivot": {"x":0.5,"y":0.5}
},
{
	"filename": "ridl_default0086.png",
	"frame": {"x":709,"y":734,"w":99,"h":181},
	"rotated": false,
	"trimmed": false,
	"spriteSourceSize": {"x":0,"y":0,"w":99,"h":181},
	"sourceSize": {"w":99,"h":181},
	"pivot": {"x":0.5,"y":0.5}
},
{
	"filename": "ridl_default0087.png",
	"frame": {"x":810,"y":734,"w":99,"h":181},
	"rotated": false,
	"trimmed": false,
	"spriteSourceSize": {"x":0,"y":0,"w":99,"h":181},
	"sourceSize": {"w":99,"h":181},
	"pivot": {"x":0.5,"y":0.5}
},
{
	"filename": "ridl_default0088.png",
	"frame": {"x":911,"y":734,"w":99,"h":181},
	"rotated": false,
	"trimmed": false,
	"spriteSourceSize": {"x":0,"y":0,"w":99,"h":181},
	"sourceSize": {"w":99,"h":181},
	"pivot": {"x":0.5,"y":0.5}
},
{
	"filename": "ridl_default0089.png",
	"frame": {"x":1012,"y":734,"w":99,"h":181},
	"rotated": false,
	"trimmed": false,
	"spriteSourceSize": {"x":0,"y":0,"w":99,"h":181},
	"sourceSize": {"w":99,"h":181},
	"pivot": {"x":0.5,"y":0.5}
},
{
	"filename": "ridl_default0090.png",
	"frame": {"x":1113,"y":734,"w":99,"h":181},
	"rotated": false,
	"trimmed": false,
	"spriteSourceSize": {"x":0,"y":0,"w":99,"h":181},
	"sourceSize": {"w":99,"h":181},
	"pivot": {"x":0.5,"y":0.5}
},
{
	"filename": "ridl_default0091.png",
	"frame": {"x":1214,"y":734,"w":99,"h":181},
	"rotated": false,
	"trimmed": false,
	"spriteSourceSize": {"x":0,"y":0,"w":99,"h":181},
	"sourceSize": {"w":99,"h":181},
	"pivot": {"x":0.5,"y":0.5}
},
{
	"filename": "ridl_default0092.png",
	"frame": {"x":1315,"y":734,"w":99,"h":181},
	"rotated": false,
	"trimmed": false,
	"spriteSourceSize": {"x":0,"y":0,"w":99,"h":181},
	"sourceSize": {"w":99,"h":181},
	"pivot": {"x":0.5,"y":0.5}
},
{
	"filename": "ridl_default0093.png",
	"frame": {"x":1416,"y":734,"w":99,"h":181},
	"rotated": false,
	"trimmed": false,
	"spriteSourceSize": {"x":0,"y":0,"w":99,"h":181},
	"sourceSize": {"w":99,"h":181},
	"pivot": {"x":0.5,"y":0.5}
},
{
	"filename": "ridl_default0094.png",
	"frame": {"x":2,"y":2,"w":99,"h":181},
	"rotated": false,
	"trimmed": false,
	"spriteSourceSize": {"x":0,"y":0,"w":99,"h":181},
	"sourceSize": {"w":99,"h":181},
	"pivot": {"x":0.5,"y":0.5}
},
{
	"filename": "ridl_default0095.png",
	"frame": {"x":2,"y":2,"w":99,"h":181},
	"rotated": false,
	"trimmed": false,
	"spriteSourceSize": {"x":0,"y":0,"w":99,"h":181},
	"sourceSize": {"w":99,"h":181},
	"pivot": {"x":0.5,"y":0.5}
},
{
	"filename": "ridl_default0096.png",
	"frame": {"x":2,"y":2,"w":99,"h":181},
	"rotated": false,
	"trimmed": false,
	"spriteSourceSize": {"x":0,"y":0,"w":99,"h":181},
	"sourceSize": {"w":99,"h":181},
	"pivot": {"x":0.5,"y":0.5}
},
{
	"filename": "ridl_default0097.png",
	"frame": {"x":2,"y":2,"w":99,"h":181},
	"rotated": false,
	"trimmed": false,
	"spriteSourceSize": {"x":0,"y":0,"w":99,"h":181},
	"sourceSize": {"w":99,"h":181},
	"pivot": {"x":0.5,"y":0.5}
},
{
	"filename": "ridl_default0098.png",
	"frame": {"x":2,"y":2,"w":99,"h":181},
	"rotated": false,
	"trimmed": false,
	"spriteSourceSize": {"x":0,"y":0,"w":99,"h":181},
	"sourceSize": {"w":99,"h":181},
	"pivot": {"x":0.5,"y":0.5}
},
{
	"filename": "ridl_default0099.png",
	"frame": {"x":2,"y":2,"w":99,"h":181},
	"rotated": false,
	"trimmed": false,
	"spriteSourceSize": {"x":0,"y":0,"w":99,"h":181},
	"sourceSize": {"w":99,"h":181},
	"pivot": {"x":0.5,"y":0.5}
},
{
	"filename": "ridl_default0100.png",
	"frame": {"x":2,"y":2,"w":99,"h":181},
	"rotated": false,
	"trimmed": false,
	"spriteSourceSize": {"x":0,"y":0,"w":99,"h":181},
	"sourceSize": {"w":99,"h":181},
	"pivot": {"x":0.5,"y":0.5}
}],
"meta": {
	"app": "http://www.codeandweb.com/texturepacker",
	"version": "1.0",
	"image": "ridl_default.png",
	"format": "RGBA8888",
	"size": {"w":1719,"h":917},
	"scale": "1",
	"smartupdate": "$TexturePacker:SmartUpdate:8118e89591b3126d1bed1c4978360fe4:98a1936977aa940f551d605b2015db7f:cf154f01e15386238560b8f702f20bce$"
}
}
