{"frames": [

{
	"filename": "ridl_laptop0001.png",
	"frame": {"x":2,"y":2,"w":99,"h":181},
	"rotated": false,
	"trimmed": false,
	"spriteSourceSize": {"x":0,"y":0,"w":99,"h":181},
	"sourceSize": {"w":99,"h":181},
	"pivot": {"x":0.5,"y":0.5}
},
{
	"filename": "ridl_laptop0002.png",
	"frame": {"x":103,"y":2,"w":99,"h":181},
	"rotated": false,
	"trimmed": false,
	"spriteSourceSize": {"x":0,"y":0,"w":99,"h":181},
	"sourceSize": {"w":99,"h":181},
	"pivot": {"x":0.5,"y":0.5}
},
{
	"filename": "ridl_laptop0003.png",
	"frame": {"x":204,"y":2,"w":99,"h":181},
	"rotated": false,
	"trimmed": false,
	"spriteSourceSize": {"x":0,"y":0,"w":99,"h":181},
	"sourceSize": {"w":99,"h":181},
	"pivot": {"x":0.5,"y":0.5}
},
{
	"filename": "ridl_laptop0004.png",
	"frame": {"x":305,"y":2,"w":99,"h":181},
	"rotated": false,
	"trimmed": false,
	"spriteSourceSize": {"x":0,"y":0,"w":99,"h":181},
	"sourceSize": {"w":99,"h":181},
	"pivot": {"x":0.5,"y":0.5}
},
{
	"filename": "ridl_laptop0005.png",
	"frame": {"x":406,"y":2,"w":99,"h":181},
	"rotated": false,
	"trimmed": false,
	"spriteSourceSize": {"x":0,"y":0,"w":99,"h":181},
	"sourceSize": {"w":99,"h":181},
	"pivot": {"x":0.5,"y":0.5}
},
{
	"filename": "ridl_laptop0006.png",
	"frame": {"x":507,"y":2,"w":99,"h":181},
	"rotated": false,
	"trimmed": false,
	"spriteSourceSize": {"x":0,"y":0,"w":99,"h":181},
	"sourceSize": {"w":99,"h":181},
	"pivot": {"x":0.5,"y":0.5}
},
{
	"filename": "ridl_laptop0007.png",
	"frame": {"x":608,"y":2,"w":99,"h":181},
	"rotated": false,
	"trimmed": false,
	"spriteSourceSize": {"x":0,"y":0,"w":99,"h":181},
	"sourceSize": {"w":99,"h":181},
	"pivot": {"x":0.5,"y":0.5}
},
{
	"filename": "ridl_laptop0008.png",
	"frame": {"x":709,"y":2,"w":99,"h":181},
	"rotated": false,
	"trimmed": false,
	"spriteSourceSize": {"x":0,"y":0,"w":99,"h":181},
	"sourceSize": {"w":99,"h":181},
	"pivot": {"x":0.5,"y":0.5}
},
{
	"filename": "ridl_laptop0009.png",
	"frame": {"x":810,"y":2,"w":99,"h":181},
	"rotated": false,
	"trimmed": false,
	"spriteSourceSize": {"x":0,"y":0,"w":99,"h":181},
	"sourceSize": {"w":99,"h":181},
	"pivot": {"x":0.5,"y":0.5}
},
{
	"filename": "ridl_laptop0010.png",
	"frame": {"x":911,"y":2,"w":99,"h":181},
	"rotated": false,
	"trimmed": false,
	"spriteSourceSize": {"x":0,"y":0,"w":99,"h":181},
	"sourceSize": {"w":99,"h":181},
	"pivot": {"x":0.5,"y":0.5}
},
{
	"filename": "ridl_laptop0011.png",
	"frame": {"x":1012,"y":2,"w":99,"h":181},
	"rotated": false,
	"trimmed": false,
	"spriteSourceSize": {"x":0,"y":0,"w":99,"h":181},
	"sourceSize": {"w":99,"h":181},
	"pivot": {"x":0.5,"y":0.5}
},
{
	"filename": "ridl_laptop0012.png",
	"frame": {"x":1113,"y":2,"w":99,"h":181},
	"rotated": false,
	"trimmed": false,
	"spriteSourceSize": {"x":0,"y":0,"w":99,"h":181},
	"sourceSize": {"w":99,"h":181},
	"pivot": {"x":0.5,"y":0.5}
},
{
	"filename": "ridl_laptop0013.png",
	"frame": {"x":1214,"y":2,"w":99,"h":181},
	"rotated": false,
	"trimmed": false,
	"spriteSourceSize": {"x":0,"y":0,"w":99,"h":181},
	"sourceSize": {"w":99,"h":181},
	"pivot": {"x":0.5,"y":0.5}
},
{
	"filename": "ridl_laptop0014.png",
	"frame": {"x":1315,"y":2,"w":99,"h":181},
	"rotated": false,
	"trimmed": false,
	"spriteSourceSize": {"x":0,"y":0,"w":99,"h":181},
	"sourceSize": {"w":99,"h":181},
	"pivot": {"x":0.5,"y":0.5}
}],
"meta": {
	"app": "http://www.codeandweb.com/texturepacker",
	"version": "1.0",
	"image": "ridl_laptop.png",
	"format": "RGBA8888",
	"size": {"w":1416,"h":185},
	"scale": "1",
	"smartupdate": "$TexturePacker:SmartUpdate:c0926e8cfa1c5d660704f326753145c4:74be38e235df218ec2b700feda7ba9d7:6280037d0e60224d5e8631322c5d0907$"
}
}
