{"frames": [

{
	"filename": "junpkey0001.png",
	"frame": {"x":2,"y":2,"w":164,"h":31},
	"rotated": false,
	"trimmed": false,
	"spriteSourceSize": {"x":0,"y":0,"w":164,"h":31},
	"sourceSize": {"w":164,"h":31},
	"pivot": {"x":0.5,"y":0.5}
},
{
	"filename": "junpkey0002.png",
	"frame": {"x":168,"y":2,"w":164,"h":31},
	"rotated": false,
	"trimmed": false,
	"spriteSourceSize": {"x":0,"y":0,"w":164,"h":31},
	"sourceSize": {"w":164,"h":31},
	"pivot": {"x":0.5,"y":0.5}
}],
"meta": {
	"app": "http://www.codeandweb.com/texturepacker",
	"version": "1.0",
	"image": "jumpBtn.png",
	"format": "RGBA8888",
	"size": {"w":334,"h":35},
	"scale": "1",
	"smartupdate": "$TexturePacker:SmartUpdate:e29542f489617c70016332bfd2f144d3:b4306bb51b4cb441c9df318a2fd08637:8a7a0b8048ae96bea67efbadcbe72b25$"
}
}
