{"frames": [

{
	"filename": "sprite 3670000",
	"frame": {"x":0,"y":0,"w":387,"h":215},
	"rotated": false,
	"trimmed": false,
	"spriteSourceSize": {"x":0,"y":0,"w":387,"h":215},
	"sourceSize": {"w":387,"h":215}
}
,{
	"filename": "sprite 3670001",
	"frame": {"x":387,"y":0,"w":387,"h":215},
	"rotated": false,
	"trimmed": false,
	"spriteSourceSize": {"x":0,"y":0,"w":387,"h":215},
	"sourceSize": {"w":387,"h":215}
}
,{
	"filename": "sprite 3670002",
	"frame": {"x":774,"y":0,"w":387,"h":215},
	"rotated": false,
	"trimmed": false,
	"spriteSourceSize": {"x":0,"y":0,"w":387,"h":215},
	"sourceSize": {"w":387,"h":215}
}
,{
	"filename": "sprite 3670003",
	"frame": {"x":1161,"y":0,"w":387,"h":215},
	"rotated": false,
	"trimmed": false,
	"spriteSourceSize": {"x":0,"y":0,"w":387,"h":215},
	"sourceSize": {"w":387,"h":215}
}
,{
	"filename": "sprite 3670004",
	"frame": {"x":1548,"y":0,"w":387,"h":215},
	"rotated": false,
	"trimmed": false,
	"spriteSourceSize": {"x":0,"y":0,"w":387,"h":215},
	"sourceSize": {"w":387,"h":215}
}
,{
	"filename": "sprite 3670005",
	"frame": {"x":0,"y":215,"w":387,"h":215},
	"rotated": false,
	"trimmed": false,
	"spriteSourceSize": {"x":0,"y":0,"w":387,"h":215},
	"sourceSize": {"w":387,"h":215}
}
,{
	"filename": "sprite 3670006",
	"frame": {"x":387,"y":215,"w":387,"h":215},
	"rotated": false,
	"trimmed": false,
	"spriteSourceSize": {"x":0,"y":0,"w":387,"h":215},
	"sourceSize": {"w":387,"h":215}
}
,{
	"filename": "sprite 3670007",
	"frame": {"x":774,"y":215,"w":387,"h":215},
	"rotated": false,
	"trimmed": false,
	"spriteSourceSize": {"x":0,"y":0,"w":387,"h":215},
	"sourceSize": {"w":387,"h":215}
}
,{
	"filename": "sprite 3670008",
	"frame": {"x":1161,"y":215,"w":387,"h":215},
	"rotated": false,
	"trimmed": false,
	"spriteSourceSize": {"x":0,"y":0,"w":387,"h":215},
	"sourceSize": {"w":387,"h":215}
}
,{
	"filename": "sprite 3670009",
	"frame": {"x":1548,"y":215,"w":387,"h":215},
	"rotated": false,
	"trimmed": false,
	"spriteSourceSize": {"x":0,"y":0,"w":387,"h":215},
	"sourceSize": {"w":387,"h":215}
}
,{
	"filename": "sprite 3670010",
	"frame": {"x":0,"y":430,"w":387,"h":215},
	"rotated": false,
	"trimmed": false,
	"spriteSourceSize": {"x":0,"y":0,"w":387,"h":215},
	"sourceSize": {"w":387,"h":215}
}
,{
	"filename": "sprite 3670011",
	"frame": {"x":387,"y":430,"w":387,"h":215},
	"rotated": false,
	"trimmed": false,
	"spriteSourceSize": {"x":0,"y":0,"w":387,"h":215},
	"sourceSize": {"w":387,"h":215}
}
,{
	"filename": "sprite 3670012",
	"frame": {"x":774,"y":430,"w":387,"h":215},
	"rotated": false,
	"trimmed": false,
	"spriteSourceSize": {"x":0,"y":0,"w":387,"h":215},
	"sourceSize": {"w":387,"h":215}
}
,{
	"filename": "sprite 3670013",
	"frame": {"x":1161,"y":430,"w":387,"h":215},
	"rotated": false,
	"trimmed": false,
	"spriteSourceSize": {"x":0,"y":0,"w":387,"h":215},
	"sourceSize": {"w":387,"h":215}
}
,{
	"filename": "sprite 3670014",
	"frame": {"x":1548,"y":430,"w":387,"h":215},
	"rotated": false,
	"trimmed": false,
	"spriteSourceSize": {"x":0,"y":0,"w":387,"h":215},
	"sourceSize": {"w":387,"h":215}
}
,{
	"filename": "sprite 3670015",
	"frame": {"x":0,"y":645,"w":387,"h":215},
	"rotated": false,
	"trimmed": false,
	"spriteSourceSize": {"x":0,"y":0,"w":387,"h":215},
	"sourceSize": {"w":387,"h":215}
}
,{
	"filename": "sprite 3670016",
	"frame": {"x":387,"y":645,"w":387,"h":215},
	"rotated": false,
	"trimmed": false,
	"spriteSourceSize": {"x":0,"y":0,"w":387,"h":215},
	"sourceSize": {"w":387,"h":215}
}
,{
	"filename": "sprite 3670017",
	"frame": {"x":774,"y":645,"w":387,"h":215},
	"rotated": false,
	"trimmed": false,
	"spriteSourceSize": {"x":0,"y":0,"w":387,"h":215},
	"sourceSize": {"w":387,"h":215}
}
,{
	"filename": "sprite 3670018",
	"frame": {"x":1161,"y":645,"w":387,"h":215},
	"rotated": false,
	"trimmed": false,
	"spriteSourceSize": {"x":0,"y":0,"w":387,"h":215},
	"sourceSize": {"w":387,"h":215}
}
,{
	"filename": "sprite 3670019",
	"frame": {"x":1548,"y":645,"w":387,"h":215},
	"rotated": false,
	"trimmed": false,
	"spriteSourceSize": {"x":0,"y":0,"w":387,"h":215},
	"sourceSize": {"w":387,"h":215}
}
,{
	"filename": "sprite 3670020",
	"frame": {"x":0,"y":860,"w":387,"h":215},
	"rotated": false,
	"trimmed": false,
	"spriteSourceSize": {"x":0,"y":0,"w":387,"h":215},
	"sourceSize": {"w":387,"h":215}
}
,{
	"filename": "sprite 3670021",
	"frame": {"x":387,"y":860,"w":387,"h":215},
	"rotated": false,
	"trimmed": false,
	"spriteSourceSize": {"x":0,"y":0,"w":387,"h":215},
	"sourceSize": {"w":387,"h":215}
}
,{
	"filename": "sprite 3670022",
	"frame": {"x":774,"y":860,"w":387,"h":215},
	"rotated": false,
	"trimmed": false,
	"spriteSourceSize": {"x":0,"y":0,"w":387,"h":215},
	"sourceSize": {"w":387,"h":215}
}
,{
	"filename": "sprite 3670023",
	"frame": {"x":1161,"y":860,"w":387,"h":215},
	"rotated": false,
	"trimmed": false,
	"spriteSourceSize": {"x":0,"y":0,"w":387,"h":215},
	"sourceSize": {"w":387,"h":215}
}
,{
	"filename": "sprite 3670024",
	"frame": {"x":1548,"y":860,"w":387,"h":215},
	"rotated": false,
	"trimmed": false,
	"spriteSourceSize": {"x":0,"y":0,"w":387,"h":215},
	"sourceSize": {"w":387,"h":215}
}
,{
	"filename": "sprite 3670025",
	"frame": {"x":0,"y":1075,"w":387,"h":215},
	"rotated": false,
	"trimmed": false,
	"spriteSourceSize": {"x":0,"y":0,"w":387,"h":215},
	"sourceSize": {"w":387,"h":215}
}
,{
	"filename": "sprite 3670026",
	"frame": {"x":387,"y":1075,"w":387,"h":215},
	"rotated": false,
	"trimmed": false,
	"spriteSourceSize": {"x":0,"y":0,"w":387,"h":215},
	"sourceSize": {"w":387,"h":215}
}
,{
	"filename": "sprite 3670027",
	"frame": {"x":774,"y":1075,"w":387,"h":215},
	"rotated": false,
	"trimmed": false,
	"spriteSourceSize": {"x":0,"y":0,"w":387,"h":215},
	"sourceSize": {"w":387,"h":215}
}
,{
	"filename": "sprite 3670028",
	"frame": {"x":1161,"y":1075,"w":387,"h":215},
	"rotated": false,
	"trimmed": false,
	"spriteSourceSize": {"x":0,"y":0,"w":387,"h":215},
	"sourceSize": {"w":387,"h":215}
}
,{
	"filename": "sprite 3670029",
	"frame": {"x":1548,"y":1075,"w":387,"h":215},
	"rotated": false,
	"trimmed": false,
	"spriteSourceSize": {"x":0,"y":0,"w":387,"h":215},
	"sourceSize": {"w":387,"h":215}
}
,{
	"filename": "sprite 3670030",
	"frame": {"x":0,"y":1290,"w":387,"h":215},
	"rotated": false,
	"trimmed": false,
	"spriteSourceSize": {"x":0,"y":0,"w":387,"h":215},
	"sourceSize": {"w":387,"h":215}
}
,{
	"filename": "sprite 3670031",
	"frame": {"x":387,"y":1290,"w":387,"h":215},
	"rotated": false,
	"trimmed": false,
	"spriteSourceSize": {"x":0,"y":0,"w":387,"h":215},
	"sourceSize": {"w":387,"h":215}
}
,{
	"filename": "sprite 3670032",
	"frame": {"x":774,"y":1290,"w":387,"h":215},
	"rotated": false,
	"trimmed": false,
	"spriteSourceSize": {"x":0,"y":0,"w":387,"h":215},
	"sourceSize": {"w":387,"h":215}
}
,{
	"filename": "sprite 3670033",
	"frame": {"x":1161,"y":1290,"w":387,"h":215},
	"rotated": false,
	"trimmed": false,
	"spriteSourceSize": {"x":0,"y":0,"w":387,"h":215},
	"sourceSize": {"w":387,"h":215}
}
,{
	"filename": "sprite 3670034",
	"frame": {"x":1548,"y":1290,"w":387,"h":215},
	"rotated": false,
	"trimmed": false,
	"spriteSourceSize": {"x":0,"y":0,"w":387,"h":215},
	"sourceSize": {"w":387,"h":215}
}
,{
	"filename": "sprite 3670035",
	"frame": {"x":0,"y":1505,"w":387,"h":215},
	"rotated": false,
	"trimmed": false,
	"spriteSourceSize": {"x":0,"y":0,"w":387,"h":215},
	"sourceSize": {"w":387,"h":215}
}
,{
	"filename": "sprite 3670036",
	"frame": {"x":387,"y":1505,"w":387,"h":215},
	"rotated": false,
	"trimmed": false,
	"spriteSourceSize": {"x":0,"y":0,"w":387,"h":215},
	"sourceSize": {"w":387,"h":215}
}
,{
	"filename": "sprite 3670037",
	"frame": {"x":774,"y":1505,"w":387,"h":215},
	"rotated": false,
	"trimmed": false,
	"spriteSourceSize": {"x":0,"y":0,"w":387,"h":215},
	"sourceSize": {"w":387,"h":215}
}
,{
	"filename": "sprite 3670038",
	"frame": {"x":1161,"y":1505,"w":387,"h":215},
	"rotated": false,
	"trimmed": false,
	"spriteSourceSize": {"x":0,"y":0,"w":387,"h":215},
	"sourceSize": {"w":387,"h":215}
}
,{
	"filename": "sprite 3670039",
	"frame": {"x":1548,"y":1505,"w":387,"h":215},
	"rotated": false,
	"trimmed": false,
	"spriteSourceSize": {"x":0,"y":0,"w":387,"h":215},
	"sourceSize": {"w":387,"h":215}
}
,{
	"filename": "sprite 3670040",
	"frame": {"x":0,"y":1720,"w":387,"h":215},
	"rotated": false,
	"trimmed": false,
	"spriteSourceSize": {"x":0,"y":0,"w":387,"h":215},
	"sourceSize": {"w":387,"h":215}
}
,{
	"filename": "sprite 3670041",
	"frame": {"x":387,"y":1720,"w":387,"h":215},
	"rotated": false,
	"trimmed": false,
	"spriteSourceSize": {"x":0,"y":0,"w":387,"h":215},
	"sourceSize": {"w":387,"h":215}
}
,{
	"filename": "sprite 3670042",
	"frame": {"x":774,"y":1720,"w":387,"h":215},
	"rotated": false,
	"trimmed": false,
	"spriteSourceSize": {"x":0,"y":0,"w":387,"h":215},
	"sourceSize": {"w":387,"h":215}
}
,{
	"filename": "sprite 3670043",
	"frame": {"x":1161,"y":1720,"w":387,"h":215},
	"rotated": false,
	"trimmed": false,
	"spriteSourceSize": {"x":0,"y":0,"w":387,"h":215},
	"sourceSize": {"w":387,"h":215}
}
,{
	"filename": "sprite 3670044",
	"frame": {"x":1548,"y":1720,"w":387,"h":215},
	"rotated": false,
	"trimmed": false,
	"spriteSourceSize": {"x":0,"y":0,"w":387,"h":215},
	"sourceSize": {"w":387,"h":215}
}
,{
	"filename": "sprite 3670045",
	"frame": {"x":0,"y":1935,"w":387,"h":215},
	"rotated": false,
	"trimmed": false,
	"spriteSourceSize": {"x":0,"y":0,"w":387,"h":215},
	"sourceSize": {"w":387,"h":215}
}
,{
	"filename": "sprite 3670046",
	"frame": {"x":387,"y":1935,"w":387,"h":215},
	"rotated": false,
	"trimmed": false,
	"spriteSourceSize": {"x":0,"y":0,"w":387,"h":215},
	"sourceSize": {"w":387,"h":215}
}
,{
	"filename": "sprite 3670047",
	"frame": {"x":774,"y":1935,"w":387,"h":215},
	"rotated": false,
	"trimmed": false,
	"spriteSourceSize": {"x":0,"y":0,"w":387,"h":215},
	"sourceSize": {"w":387,"h":215}
}
,{
	"filename": "sprite 3670048",
	"frame": {"x":1161,"y":1935,"w":387,"h":215},
	"rotated": false,
	"trimmed": false,
	"spriteSourceSize": {"x":0,"y":0,"w":387,"h":215},
	"sourceSize": {"w":387,"h":215}
}
,{
	"filename": "sprite 3670049",
	"frame": {"x":1548,"y":1935,"w":387,"h":215},
	"rotated": false,
	"trimmed": false,
	"spriteSourceSize": {"x":0,"y":0,"w":387,"h":215},
	"sourceSize": {"w":387,"h":215}
}
,{
	"filename": "sprite 3670050",
	"frame": {"x":0,"y":2150,"w":387,"h":215},
	"rotated": false,
	"trimmed": false,
	"spriteSourceSize": {"x":0,"y":0,"w":387,"h":215},
	"sourceSize": {"w":387,"h":215}
}
,{
	"filename": "sprite 3670051",
	"frame": {"x":387,"y":2150,"w":387,"h":215},
	"rotated": false,
	"trimmed": false,
	"spriteSourceSize": {"x":0,"y":0,"w":387,"h":215},
	"sourceSize": {"w":387,"h":215}
}
,{
	"filename": "sprite 3670052",
	"frame": {"x":774,"y":2150,"w":387,"h":215},
	"rotated": false,
	"trimmed": false,
	"spriteSourceSize": {"x":0,"y":0,"w":387,"h":215},
	"sourceSize": {"w":387,"h":215}
}
,{
	"filename": "sprite 3670053",
	"frame": {"x":1161,"y":2150,"w":387,"h":215},
	"rotated": false,
	"trimmed": false,
	"spriteSourceSize": {"x":0,"y":0,"w":387,"h":215},
	"sourceSize": {"w":387,"h":215}
}
,{
	"filename": "sprite 3670054",
	"frame": {"x":1548,"y":2150,"w":387,"h":215},
	"rotated": false,
	"trimmed": false,
	"spriteSourceSize": {"x":0,"y":0,"w":387,"h":215},
	"sourceSize": {"w":387,"h":215}
}
,{
	"filename": "sprite 3670055",
	"frame": {"x":0,"y":2365,"w":387,"h":215},
	"rotated": false,
	"trimmed": false,
	"spriteSourceSize": {"x":0,"y":0,"w":387,"h":215},
	"sourceSize": {"w":387,"h":215}
}
,{
	"filename": "sprite 3670056",
	"frame": {"x":387,"y":2365,"w":387,"h":215},
	"rotated": false,
	"trimmed": false,
	"spriteSourceSize": {"x":0,"y":0,"w":387,"h":215},
	"sourceSize": {"w":387,"h":215}
}
,{
	"filename": "sprite 3670057",
	"frame": {"x":774,"y":2365,"w":387,"h":215},
	"rotated": false,
	"trimmed": false,
	"spriteSourceSize": {"x":0,"y":0,"w":387,"h":215},
	"sourceSize": {"w":387,"h":215}
}
,{
	"filename": "sprite 3670058",
	"frame": {"x":1161,"y":2365,"w":387,"h":215},
	"rotated": false,
	"trimmed": false,
	"spriteSourceSize": {"x":0,"y":0,"w":387,"h":215},
	"sourceSize": {"w":387,"h":215}
}
,{
	"filename": "sprite 3670059",
	"frame": {"x":1548,"y":2365,"w":387,"h":215},
	"rotated": false,
	"trimmed": false,
	"spriteSourceSize": {"x":0,"y":0,"w":387,"h":215},
	"sourceSize": {"w":387,"h":215}
}
,{
	"filename": "sprite 3670060",
	"frame": {"x":0,"y":2580,"w":387,"h":215},
	"rotated": false,
	"trimmed": false,
	"spriteSourceSize": {"x":0,"y":0,"w":387,"h":215},
	"sourceSize": {"w":387,"h":215}
}
,{
	"filename": "sprite 3670061",
	"frame": {"x":387,"y":2580,"w":387,"h":215},
	"rotated": false,
	"trimmed": false,
	"spriteSourceSize": {"x":0,"y":0,"w":387,"h":215},
	"sourceSize": {"w":387,"h":215}
}
,{
	"filename": "sprite 3670062",
	"frame": {"x":774,"y":2580,"w":387,"h":215},
	"rotated": false,
	"trimmed": false,
	"spriteSourceSize": {"x":0,"y":0,"w":387,"h":215},
	"sourceSize": {"w":387,"h":215}
}
,{
	"filename": "sprite 3670063",
	"frame": {"x":1161,"y":2580,"w":387,"h":215},
	"rotated": false,
	"trimmed": false,
	"spriteSourceSize": {"x":0,"y":0,"w":387,"h":215},
	"sourceSize": {"w":387,"h":215}
}
,{
	"filename": "sprite 3670064",
	"frame": {"x":1548,"y":2580,"w":387,"h":215},
	"rotated": false,
	"trimmed": false,
	"spriteSourceSize": {"x":0,"y":0,"w":387,"h":215},
	"sourceSize": {"w":387,"h":215}
}
,{
	"filename": "sprite 3670065",
	"frame": {"x":0,"y":2795,"w":387,"h":215},
	"rotated": false,
	"trimmed": false,
	"spriteSourceSize": {"x":0,"y":0,"w":387,"h":215},
	"sourceSize": {"w":387,"h":215}
}
,{
	"filename": "sprite 3670066",
	"frame": {"x":387,"y":2795,"w":387,"h":215},
	"rotated": false,
	"trimmed": false,
	"spriteSourceSize": {"x":0,"y":0,"w":387,"h":215},
	"sourceSize": {"w":387,"h":215}
}
,{
	"filename": "sprite 3670067",
	"frame": {"x":774,"y":2795,"w":387,"h":215},
	"rotated": false,
	"trimmed": false,
	"spriteSourceSize": {"x":0,"y":0,"w":387,"h":215},
	"sourceSize": {"w":387,"h":215}
}
,{
	"filename": "sprite 3670068",
	"frame": {"x":1161,"y":2795,"w":387,"h":215},
	"rotated": false,
	"trimmed": false,
	"spriteSourceSize": {"x":0,"y":0,"w":387,"h":215},
	"sourceSize": {"w":387,"h":215}
}
,{
	"filename": "sprite 3670069",
	"frame": {"x":1548,"y":2795,"w":387,"h":215},
	"rotated": false,
	"trimmed": false,
	"spriteSourceSize": {"x":0,"y":0,"w":387,"h":215},
	"sourceSize": {"w":387,"h":215}
}],
"meta": {
	"app": "Adobe Flash CS6",
	"version": "12.0.0.481",
	"image": "awesome.png",
	"format": "RGBA8888",
	"size": {"w":2048,"h":4096},
	"scale": "1"
}
}
