{"frames": [

{
	"filename": "d0001.png",
	"frame": {"x":2,"y":2,"w":717,"h":194},
	"rotated": false,
	"trimmed": false,
	"spriteSourceSize": {"x":0,"y":0,"w":717,"h":194},
	"sourceSize": {"w":717,"h":194},
	"pivot": {"x":0.5,"y":0.5}
},
{
	"filename": "d0002.png",
	"frame": {"x":721,"y":2,"w":717,"h":194},
	"rotated": false,
	"trimmed": false,
	"spriteSourceSize": {"x":0,"y":0,"w":717,"h":194},
	"sourceSize": {"w":717,"h":194},
	"pivot": {"x":0.5,"y":0.5}
},
{
	"filename": "d0003.png",
	"frame": {"x":2,"y":198,"w":717,"h":194},
	"rotated": false,
	"trimmed": false,
	"spriteSourceSize": {"x":0,"y":0,"w":717,"h":194},
	"sourceSize": {"w":717,"h":194},
	"pivot": {"x":0.5,"y":0.5}
},
{
	"filename": "d0004.png",
	"frame": {"x":721,"y":198,"w":717,"h":194},
	"rotated": false,
	"trimmed": false,
	"spriteSourceSize": {"x":0,"y":0,"w":717,"h":194},
	"sourceSize": {"w":717,"h":194},
	"pivot": {"x":0.5,"y":0.5}
},
{
	"filename": "d0005.png",
	"frame": {"x":2,"y":394,"w":717,"h":194},
	"rotated": false,
	"trimmed": false,
	"spriteSourceSize": {"x":0,"y":0,"w":717,"h":194},
	"sourceSize": {"w":717,"h":194},
	"pivot": {"x":0.5,"y":0.5}
},
{
	"filename": "d0006.png",
	"frame": {"x":721,"y":394,"w":717,"h":194},
	"rotated": false,
	"trimmed": false,
	"spriteSourceSize": {"x":0,"y":0,"w":717,"h":194},
	"sourceSize": {"w":717,"h":194},
	"pivot": {"x":0.5,"y":0.5}
},
{
	"filename": "d0007.png",
	"frame": {"x":2,"y":590,"w":717,"h":194},
	"rotated": false,
	"trimmed": false,
	"spriteSourceSize": {"x":0,"y":0,"w":717,"h":194},
	"sourceSize": {"w":717,"h":194},
	"pivot": {"x":0.5,"y":0.5}
},
{
	"filename": "d0008.png",
	"frame": {"x":721,"y":590,"w":717,"h":194},
	"rotated": false,
	"trimmed": false,
	"spriteSourceSize": {"x":0,"y":0,"w":717,"h":194},
	"sourceSize": {"w":717,"h":194},
	"pivot": {"x":0.5,"y":0.5}
},
{
	"filename": "d0009.png",
	"frame": {"x":2,"y":786,"w":717,"h":194},
	"rotated": false,
	"trimmed": false,
	"spriteSourceSize": {"x":0,"y":0,"w":717,"h":194},
	"sourceSize": {"w":717,"h":194},
	"pivot": {"x":0.5,"y":0.5}
},
{
	"filename": "d0010.png",
	"frame": {"x":721,"y":786,"w":717,"h":194},
	"rotated": false,
	"trimmed": false,
	"spriteSourceSize": {"x":0,"y":0,"w":717,"h":194},
	"sourceSize": {"w":717,"h":194},
	"pivot": {"x":0.5,"y":0.5}
},
{
	"filename": "d0011.png",
	"frame": {"x":2,"y":982,"w":717,"h":194},
	"rotated": false,
	"trimmed": false,
	"spriteSourceSize": {"x":0,"y":0,"w":717,"h":194},
	"sourceSize": {"w":717,"h":194},
	"pivot": {"x":0.5,"y":0.5}
},
{
	"filename": "d0012.png",
	"frame": {"x":721,"y":982,"w":717,"h":194},
	"rotated": false,
	"trimmed": false,
	"spriteSourceSize": {"x":0,"y":0,"w":717,"h":194},
	"sourceSize": {"w":717,"h":194},
	"pivot": {"x":0.5,"y":0.5}
},
{
	"filename": "d0013.png",
	"frame": {"x":2,"y":1178,"w":717,"h":194},
	"rotated": false,
	"trimmed": false,
	"spriteSourceSize": {"x":0,"y":0,"w":717,"h":194},
	"sourceSize": {"w":717,"h":194},
	"pivot": {"x":0.5,"y":0.5}
},
{
	"filename": "d0014.png",
	"frame": {"x":721,"y":1178,"w":717,"h":194},
	"rotated": false,
	"trimmed": false,
	"spriteSourceSize": {"x":0,"y":0,"w":717,"h":194},
	"sourceSize": {"w":717,"h":194},
	"pivot": {"x":0.5,"y":0.5}
},
{
	"filename": "d0015.png",
	"frame": {"x":2,"y":1374,"w":717,"h":194},
	"rotated": false,
	"trimmed": false,
	"spriteSourceSize": {"x":0,"y":0,"w":717,"h":194},
	"sourceSize": {"w":717,"h":194},
	"pivot": {"x":0.5,"y":0.5}
},
{
	"filename": "d0016.png",
	"frame": {"x":721,"y":1374,"w":717,"h":194},
	"rotated": false,
	"trimmed": false,
	"spriteSourceSize": {"x":0,"y":0,"w":717,"h":194},
	"sourceSize": {"w":717,"h":194},
	"pivot": {"x":0.5,"y":0.5}
},
{
	"filename": "d0017.png",
	"frame": {"x":2,"y":1570,"w":717,"h":194},
	"rotated": false,
	"trimmed": false,
	"spriteSourceSize": {"x":0,"y":0,"w":717,"h":194},
	"sourceSize": {"w":717,"h":194},
	"pivot": {"x":0.5,"y":0.5}
},
{
	"filename": "d0018.png",
	"frame": {"x":721,"y":1570,"w":717,"h":194},
	"rotated": false,
	"trimmed": false,
	"spriteSourceSize": {"x":0,"y":0,"w":717,"h":194},
	"sourceSize": {"w":717,"h":194},
	"pivot": {"x":0.5,"y":0.5}
},
{
	"filename": "d0019.png",
	"frame": {"x":2,"y":1766,"w":717,"h":194},
	"rotated": false,
	"trimmed": false,
	"spriteSourceSize": {"x":0,"y":0,"w":717,"h":194},
	"sourceSize": {"w":717,"h":194},
	"pivot": {"x":0.5,"y":0.5}
},
{
	"filename": "d0020.png",
	"frame": {"x":721,"y":1766,"w":717,"h":194},
	"rotated": false,
	"trimmed": false,
	"spriteSourceSize": {"x":0,"y":0,"w":717,"h":194},
	"sourceSize": {"w":717,"h":194},
	"pivot": {"x":0.5,"y":0.5}
},
{
	"filename": "d0021.png",
	"frame": {"x":2,"y":1962,"w":717,"h":194},
	"rotated": false,
	"trimmed": false,
	"spriteSourceSize": {"x":0,"y":0,"w":717,"h":194},
	"sourceSize": {"w":717,"h":194},
	"pivot": {"x":0.5,"y":0.5}
},
{
	"filename": "d0022.png",
	"frame": {"x":2,"y":1962,"w":717,"h":194},
	"rotated": false,
	"trimmed": false,
	"spriteSourceSize": {"x":0,"y":0,"w":717,"h":194},
	"sourceSize": {"w":717,"h":194},
	"pivot": {"x":0.5,"y":0.5}
},
{
	"filename": "d0023.png",
	"frame": {"x":2,"y":1962,"w":717,"h":194},
	"rotated": false,
	"trimmed": false,
	"spriteSourceSize": {"x":0,"y":0,"w":717,"h":194},
	"sourceSize": {"w":717,"h":194},
	"pivot": {"x":0.5,"y":0.5}
}],
"meta": {
	"app": "http://www.codeandweb.com/texturepacker",
	"version": "1.0",
	"image": "fail4.png",
	"format": "RGBA8888",
	"size": {"w":1440,"h":2158},
	"scale": "1",
	"smartupdate": "$TexturePacker:SmartUpdate:0992a1a307b81979524c27b441dc2f1e:8a2c6847dc4bc62c2bdd712f0081f6cf:cb1efd0619665908290d9644028be42d$"
}
}
