{"frames": [

{
	"filename": "b10001.png",
	"frame": {"x":2,"y":2,"w":780,"h":233},
	"rotated": false,
	"trimmed": false,
	"spriteSourceSize": {"x":0,"y":0,"w":780,"h":233},
	"sourceSize": {"w":780,"h":233},
	"pivot": {"x":0.5,"y":0.5}
},
{
	"filename": "b10002.png",
	"frame": {"x":784,"y":2,"w":780,"h":233},
	"rotated": false,
	"trimmed": false,
	"spriteSourceSize": {"x":0,"y":0,"w":780,"h":233},
	"sourceSize": {"w":780,"h":233},
	"pivot": {"x":0.5,"y":0.5}
},
{
	"filename": "b10003.png",
	"frame": {"x":1566,"y":2,"w":780,"h":233},
	"rotated": false,
	"trimmed": false,
	"spriteSourceSize": {"x":0,"y":0,"w":780,"h":233},
	"sourceSize": {"w":780,"h":233},
	"pivot": {"x":0.5,"y":0.5}
},
{
	"filename": "b10004.png",
	"frame": {"x":2348,"y":2,"w":780,"h":233},
	"rotated": false,
	"trimmed": false,
	"spriteSourceSize": {"x":0,"y":0,"w":780,"h":233},
	"sourceSize": {"w":780,"h":233},
	"pivot": {"x":0.5,"y":0.5}
},
{
	"filename": "b10005.png",
	"frame": {"x":2,"y":237,"w":780,"h":233},
	"rotated": false,
	"trimmed": false,
	"spriteSourceSize": {"x":0,"y":0,"w":780,"h":233},
	"sourceSize": {"w":780,"h":233},
	"pivot": {"x":0.5,"y":0.5}
},
{
	"filename": "b10006.png",
	"frame": {"x":784,"y":237,"w":780,"h":233},
	"rotated": false,
	"trimmed": false,
	"spriteSourceSize": {"x":0,"y":0,"w":780,"h":233},
	"sourceSize": {"w":780,"h":233},
	"pivot": {"x":0.5,"y":0.5}
},
{
	"filename": "b10007.png",
	"frame": {"x":1566,"y":237,"w":780,"h":233},
	"rotated": false,
	"trimmed": false,
	"spriteSourceSize": {"x":0,"y":0,"w":780,"h":233},
	"sourceSize": {"w":780,"h":233},
	"pivot": {"x":0.5,"y":0.5}
},
{
	"filename": "b10008.png",
	"frame": {"x":2348,"y":237,"w":780,"h":233},
	"rotated": false,
	"trimmed": false,
	"spriteSourceSize": {"x":0,"y":0,"w":780,"h":233},
	"sourceSize": {"w":780,"h":233},
	"pivot": {"x":0.5,"y":0.5}
},
{
	"filename": "b10009.png",
	"frame": {"x":2,"y":472,"w":780,"h":233},
	"rotated": false,
	"trimmed": false,
	"spriteSourceSize": {"x":0,"y":0,"w":780,"h":233},
	"sourceSize": {"w":780,"h":233},
	"pivot": {"x":0.5,"y":0.5}
},
{
	"filename": "b10010.png",
	"frame": {"x":784,"y":472,"w":780,"h":233},
	"rotated": false,
	"trimmed": false,
	"spriteSourceSize": {"x":0,"y":0,"w":780,"h":233},
	"sourceSize": {"w":780,"h":233},
	"pivot": {"x":0.5,"y":0.5}
},
{
	"filename": "b10011.png",
	"frame": {"x":1566,"y":472,"w":780,"h":233},
	"rotated": false,
	"trimmed": false,
	"spriteSourceSize": {"x":0,"y":0,"w":780,"h":233},
	"sourceSize": {"w":780,"h":233},
	"pivot": {"x":0.5,"y":0.5}
},
{
	"filename": "b10012.png",
	"frame": {"x":2348,"y":472,"w":780,"h":233},
	"rotated": false,
	"trimmed": false,
	"spriteSourceSize": {"x":0,"y":0,"w":780,"h":233},
	"sourceSize": {"w":780,"h":233},
	"pivot": {"x":0.5,"y":0.5}
},
{
	"filename": "b10013.png",
	"frame": {"x":2,"y":707,"w":780,"h":233},
	"rotated": false,
	"trimmed": false,
	"spriteSourceSize": {"x":0,"y":0,"w":780,"h":233},
	"sourceSize": {"w":780,"h":233},
	"pivot": {"x":0.5,"y":0.5}
},
{
	"filename": "b10014.png",
	"frame": {"x":784,"y":707,"w":780,"h":233},
	"rotated": false,
	"trimmed": false,
	"spriteSourceSize": {"x":0,"y":0,"w":780,"h":233},
	"sourceSize": {"w":780,"h":233},
	"pivot": {"x":0.5,"y":0.5}
},
{
	"filename": "b10015.png",
	"frame": {"x":1566,"y":707,"w":780,"h":233},
	"rotated": false,
	"trimmed": false,
	"spriteSourceSize": {"x":0,"y":0,"w":780,"h":233},
	"sourceSize": {"w":780,"h":233},
	"pivot": {"x":0.5,"y":0.5}
},
{
	"filename": "b10016.png",
	"frame": {"x":2348,"y":707,"w":780,"h":233},
	"rotated": false,
	"trimmed": false,
	"spriteSourceSize": {"x":0,"y":0,"w":780,"h":233},
	"sourceSize": {"w":780,"h":233},
	"pivot": {"x":0.5,"y":0.5}
},
{
	"filename": "b10017.png",
	"frame": {"x":2,"y":942,"w":780,"h":233},
	"rotated": false,
	"trimmed": false,
	"spriteSourceSize": {"x":0,"y":0,"w":780,"h":233},
	"sourceSize": {"w":780,"h":233},
	"pivot": {"x":0.5,"y":0.5}
},
{
	"filename": "b10018.png",
	"frame": {"x":784,"y":942,"w":780,"h":233},
	"rotated": false,
	"trimmed": false,
	"spriteSourceSize": {"x":0,"y":0,"w":780,"h":233},
	"sourceSize": {"w":780,"h":233},
	"pivot": {"x":0.5,"y":0.5}
},
{
	"filename": "b10019.png",
	"frame": {"x":1566,"y":942,"w":780,"h":233},
	"rotated": false,
	"trimmed": false,
	"spriteSourceSize": {"x":0,"y":0,"w":780,"h":233},
	"sourceSize": {"w":780,"h":233},
	"pivot": {"x":0.5,"y":0.5}
},
{
	"filename": "b10020.png",
	"frame": {"x":2348,"y":942,"w":780,"h":233},
	"rotated": false,
	"trimmed": false,
	"spriteSourceSize": {"x":0,"y":0,"w":780,"h":233},
	"sourceSize": {"w":780,"h":233},
	"pivot": {"x":0.5,"y":0.5}
},
{
	"filename": "b10021.png",
	"frame": {"x":2,"y":1177,"w":780,"h":233},
	"rotated": false,
	"trimmed": false,
	"spriteSourceSize": {"x":0,"y":0,"w":780,"h":233},
	"sourceSize": {"w":780,"h":233},
	"pivot": {"x":0.5,"y":0.5}
},
{
	"filename": "b10022.png",
	"frame": {"x":784,"y":1177,"w":780,"h":233},
	"rotated": false,
	"trimmed": false,
	"spriteSourceSize": {"x":0,"y":0,"w":780,"h":233},
	"sourceSize": {"w":780,"h":233},
	"pivot": {"x":0.5,"y":0.5}
},
{
	"filename": "b10023.png",
	"frame": {"x":1566,"y":1177,"w":780,"h":233},
	"rotated": false,
	"trimmed": false,
	"spriteSourceSize": {"x":0,"y":0,"w":780,"h":233},
	"sourceSize": {"w":780,"h":233},
	"pivot": {"x":0.5,"y":0.5}
},
{
	"filename": "b10024.png",
	"frame": {"x":2348,"y":1177,"w":780,"h":233},
	"rotated": false,
	"trimmed": false,
	"spriteSourceSize": {"x":0,"y":0,"w":780,"h":233},
	"sourceSize": {"w":780,"h":233},
	"pivot": {"x":0.5,"y":0.5}
},
{
	"filename": "b10025.png",
	"frame": {"x":2,"y":1412,"w":780,"h":233},
	"rotated": false,
	"trimmed": false,
	"spriteSourceSize": {"x":0,"y":0,"w":780,"h":233},
	"sourceSize": {"w":780,"h":233},
	"pivot": {"x":0.5,"y":0.5}
},
{
	"filename": "b10026.png",
	"frame": {"x":784,"y":1412,"w":780,"h":233},
	"rotated": false,
	"trimmed": false,
	"spriteSourceSize": {"x":0,"y":0,"w":780,"h":233},
	"sourceSize": {"w":780,"h":233},
	"pivot": {"x":0.5,"y":0.5}
},
{
	"filename": "b10027.png",
	"frame": {"x":1566,"y":1412,"w":780,"h":233},
	"rotated": false,
	"trimmed": false,
	"spriteSourceSize": {"x":0,"y":0,"w":780,"h":233},
	"sourceSize": {"w":780,"h":233},
	"pivot": {"x":0.5,"y":0.5}
},
{
	"filename": "b10028.png",
	"frame": {"x":2348,"y":1412,"w":780,"h":233},
	"rotated": false,
	"trimmed": false,
	"spriteSourceSize": {"x":0,"y":0,"w":780,"h":233},
	"sourceSize": {"w":780,"h":233},
	"pivot": {"x":0.5,"y":0.5}
},
{
	"filename": "b10029.png",
	"frame": {"x":2,"y":1647,"w":780,"h":233},
	"rotated": false,
	"trimmed": false,
	"spriteSourceSize": {"x":0,"y":0,"w":780,"h":233},
	"sourceSize": {"w":780,"h":233},
	"pivot": {"x":0.5,"y":0.5}
},
{
	"filename": "b10030.png",
	"frame": {"x":784,"y":1647,"w":780,"h":233},
	"rotated": false,
	"trimmed": false,
	"spriteSourceSize": {"x":0,"y":0,"w":780,"h":233},
	"sourceSize": {"w":780,"h":233},
	"pivot": {"x":0.5,"y":0.5}
},
{
	"filename": "b10031.png",
	"frame": {"x":1566,"y":1647,"w":780,"h":233},
	"rotated": false,
	"trimmed": false,
	"spriteSourceSize": {"x":0,"y":0,"w":780,"h":233},
	"sourceSize": {"w":780,"h":233},
	"pivot": {"x":0.5,"y":0.5}
},
{
	"filename": "b10032.png",
	"frame": {"x":2348,"y":1647,"w":780,"h":233},
	"rotated": false,
	"trimmed": false,
	"spriteSourceSize": {"x":0,"y":0,"w":780,"h":233},
	"sourceSize": {"w":780,"h":233},
	"pivot": {"x":0.5,"y":0.5}
},
{
	"filename": "b10033.png",
	"frame": {"x":2,"y":1882,"w":780,"h":233},
	"rotated": false,
	"trimmed": false,
	"spriteSourceSize": {"x":0,"y":0,"w":780,"h":233},
	"sourceSize": {"w":780,"h":233},
	"pivot": {"x":0.5,"y":0.5}
},
{
	"filename": "b10034.png",
	"frame": {"x":784,"y":1882,"w":780,"h":233},
	"rotated": false,
	"trimmed": false,
	"spriteSourceSize": {"x":0,"y":0,"w":780,"h":233},
	"sourceSize": {"w":780,"h":233},
	"pivot": {"x":0.5,"y":0.5}
},
{
	"filename": "b10035.png",
	"frame": {"x":1566,"y":1882,"w":780,"h":233},
	"rotated": false,
	"trimmed": false,
	"spriteSourceSize": {"x":0,"y":0,"w":780,"h":233},
	"sourceSize": {"w":780,"h":233},
	"pivot": {"x":0.5,"y":0.5}
},
{
	"filename": "b10036.png",
	"frame": {"x":2348,"y":1882,"w":780,"h":233},
	"rotated": false,
	"trimmed": false,
	"spriteSourceSize": {"x":0,"y":0,"w":780,"h":233},
	"sourceSize": {"w":780,"h":233},
	"pivot": {"x":0.5,"y":0.5}
},
{
	"filename": "b10037.png",
	"frame": {"x":2,"y":2117,"w":780,"h":233},
	"rotated": false,
	"trimmed": false,
	"spriteSourceSize": {"x":0,"y":0,"w":780,"h":233},
	"sourceSize": {"w":780,"h":233},
	"pivot": {"x":0.5,"y":0.5}
},
{
	"filename": "b10038.png",
	"frame": {"x":784,"y":2117,"w":780,"h":233},
	"rotated": false,
	"trimmed": false,
	"spriteSourceSize": {"x":0,"y":0,"w":780,"h":233},
	"sourceSize": {"w":780,"h":233},
	"pivot": {"x":0.5,"y":0.5}
},
{
	"filename": "b10039.png",
	"frame": {"x":1566,"y":2117,"w":780,"h":233},
	"rotated": false,
	"trimmed": false,
	"spriteSourceSize": {"x":0,"y":0,"w":780,"h":233},
	"sourceSize": {"w":780,"h":233},
	"pivot": {"x":0.5,"y":0.5}
},
{
	"filename": "b10040.png",
	"frame": {"x":2348,"y":2117,"w":780,"h":233},
	"rotated": false,
	"trimmed": false,
	"spriteSourceSize": {"x":0,"y":0,"w":780,"h":233},
	"sourceSize": {"w":780,"h":233},
	"pivot": {"x":0.5,"y":0.5}
},
{
	"filename": "b10041.png",
	"frame": {"x":2,"y":2352,"w":780,"h":233},
	"rotated": false,
	"trimmed": false,
	"spriteSourceSize": {"x":0,"y":0,"w":780,"h":233},
	"sourceSize": {"w":780,"h":233},
	"pivot": {"x":0.5,"y":0.5}
},
{
	"filename": "b10042.png",
	"frame": {"x":784,"y":2352,"w":780,"h":233},
	"rotated": false,
	"trimmed": false,
	"spriteSourceSize": {"x":0,"y":0,"w":780,"h":233},
	"sourceSize": {"w":780,"h":233},
	"pivot": {"x":0.5,"y":0.5}
},
{
	"filename": "b10043.png",
	"frame": {"x":1566,"y":2352,"w":780,"h":233},
	"rotated": false,
	"trimmed": false,
	"spriteSourceSize": {"x":0,"y":0,"w":780,"h":233},
	"sourceSize": {"w":780,"h":233},
	"pivot": {"x":0.5,"y":0.5}
},
{
	"filename": "b10044.png",
	"frame": {"x":2348,"y":2352,"w":780,"h":233},
	"rotated": false,
	"trimmed": false,
	"spriteSourceSize": {"x":0,"y":0,"w":780,"h":233},
	"sourceSize": {"w":780,"h":233},
	"pivot": {"x":0.5,"y":0.5}
},
{
	"filename": "b10045.png",
	"frame": {"x":2,"y":2587,"w":780,"h":233},
	"rotated": false,
	"trimmed": false,
	"spriteSourceSize": {"x":0,"y":0,"w":780,"h":233},
	"sourceSize": {"w":780,"h":233},
	"pivot": {"x":0.5,"y":0.5}
},
{
	"filename": "b10046.png",
	"frame": {"x":784,"y":2587,"w":780,"h":233},
	"rotated": false,
	"trimmed": false,
	"spriteSourceSize": {"x":0,"y":0,"w":780,"h":233},
	"sourceSize": {"w":780,"h":233},
	"pivot": {"x":0.5,"y":0.5}
},
{
	"filename": "b10047.png",
	"frame": {"x":1566,"y":2587,"w":780,"h":233},
	"rotated": false,
	"trimmed": false,
	"spriteSourceSize": {"x":0,"y":0,"w":780,"h":233},
	"sourceSize": {"w":780,"h":233},
	"pivot": {"x":0.5,"y":0.5}
},
{
	"filename": "b10048.png",
	"frame": {"x":2348,"y":2587,"w":780,"h":233},
	"rotated": false,
	"trimmed": false,
	"spriteSourceSize": {"x":0,"y":0,"w":780,"h":233},
	"sourceSize": {"w":780,"h":233},
	"pivot": {"x":0.5,"y":0.5}
},
{
	"filename": "b10049.png",
	"frame": {"x":2,"y":2822,"w":780,"h":233},
	"rotated": false,
	"trimmed": false,
	"spriteSourceSize": {"x":0,"y":0,"w":780,"h":233},
	"sourceSize": {"w":780,"h":233},
	"pivot": {"x":0.5,"y":0.5}
},
{
	"filename": "b10050.png",
	"frame": {"x":784,"y":2822,"w":780,"h":233},
	"rotated": false,
	"trimmed": false,
	"spriteSourceSize": {"x":0,"y":0,"w":780,"h":233},
	"sourceSize": {"w":780,"h":233},
	"pivot": {"x":0.5,"y":0.5}
},
{
	"filename": "b10051.png",
	"frame": {"x":1566,"y":2822,"w":780,"h":233},
	"rotated": false,
	"trimmed": false,
	"spriteSourceSize": {"x":0,"y":0,"w":780,"h":233},
	"sourceSize": {"w":780,"h":233},
	"pivot": {"x":0.5,"y":0.5}
},
{
	"filename": "b10052.png",
	"frame": {"x":2348,"y":2822,"w":780,"h":233},
	"rotated": false,
	"trimmed": false,
	"spriteSourceSize": {"x":0,"y":0,"w":780,"h":233},
	"sourceSize": {"w":780,"h":233},
	"pivot": {"x":0.5,"y":0.5}
},
{
	"filename": "b10053.png",
	"frame": {"x":2,"y":3057,"w":780,"h":233},
	"rotated": false,
	"trimmed": false,
	"spriteSourceSize": {"x":0,"y":0,"w":780,"h":233},
	"sourceSize": {"w":780,"h":233},
	"pivot": {"x":0.5,"y":0.5}
},
{
	"filename": "b10054.png",
	"frame": {"x":784,"y":3057,"w":780,"h":233},
	"rotated": false,
	"trimmed": false,
	"spriteSourceSize": {"x":0,"y":0,"w":780,"h":233},
	"sourceSize": {"w":780,"h":233},
	"pivot": {"x":0.5,"y":0.5}
},
{
	"filename": "b10055.png",
	"frame": {"x":1566,"y":3057,"w":780,"h":233},
	"rotated": false,
	"trimmed": false,
	"spriteSourceSize": {"x":0,"y":0,"w":780,"h":233},
	"sourceSize": {"w":780,"h":233},
	"pivot": {"x":0.5,"y":0.5}
},
{
	"filename": "b10056.png",
	"frame": {"x":2348,"y":3057,"w":780,"h":233},
	"rotated": false,
	"trimmed": false,
	"spriteSourceSize": {"x":0,"y":0,"w":780,"h":233},
	"sourceSize": {"w":780,"h":233},
	"pivot": {"x":0.5,"y":0.5}
},
{
	"filename": "b10057.png",
	"frame": {"x":2,"y":3292,"w":780,"h":233},
	"rotated": false,
	"trimmed": false,
	"spriteSourceSize": {"x":0,"y":0,"w":780,"h":233},
	"sourceSize": {"w":780,"h":233},
	"pivot": {"x":0.5,"y":0.5}
},
{
	"filename": "b10058.png",
	"frame": {"x":784,"y":3292,"w":780,"h":233},
	"rotated": false,
	"trimmed": false,
	"spriteSourceSize": {"x":0,"y":0,"w":780,"h":233},
	"sourceSize": {"w":780,"h":233},
	"pivot": {"x":0.5,"y":0.5}
},
{
	"filename": "b10059.png",
	"frame": {"x":1566,"y":3292,"w":780,"h":233},
	"rotated": false,
	"trimmed": false,
	"spriteSourceSize": {"x":0,"y":0,"w":780,"h":233},
	"sourceSize": {"w":780,"h":233},
	"pivot": {"x":0.5,"y":0.5}
},
{
	"filename": "b10060.png",
	"frame": {"x":2348,"y":3292,"w":780,"h":233},
	"rotated": false,
	"trimmed": false,
	"spriteSourceSize": {"x":0,"y":0,"w":780,"h":233},
	"sourceSize": {"w":780,"h":233},
	"pivot": {"x":0.5,"y":0.5}
},
{
	"filename": "b10061.png",
	"frame": {"x":2,"y":3527,"w":780,"h":233},
	"rotated": false,
	"trimmed": false,
	"spriteSourceSize": {"x":0,"y":0,"w":780,"h":233},
	"sourceSize": {"w":780,"h":233},
	"pivot": {"x":0.5,"y":0.5}
},
{
	"filename": "b10062.png",
	"frame": {"x":784,"y":3527,"w":780,"h":233},
	"rotated": false,
	"trimmed": false,
	"spriteSourceSize": {"x":0,"y":0,"w":780,"h":233},
	"sourceSize": {"w":780,"h":233},
	"pivot": {"x":0.5,"y":0.5}
},
{
	"filename": "b10063.png",
	"frame": {"x":1566,"y":3527,"w":780,"h":233},
	"rotated": false,
	"trimmed": false,
	"spriteSourceSize": {"x":0,"y":0,"w":780,"h":233},
	"sourceSize": {"w":780,"h":233},
	"pivot": {"x":0.5,"y":0.5}
},
{
	"filename": "b10064.png",
	"frame": {"x":1566,"y":3527,"w":780,"h":233},
	"rotated": false,
	"trimmed": false,
	"spriteSourceSize": {"x":0,"y":0,"w":780,"h":233},
	"sourceSize": {"w":780,"h":233},
	"pivot": {"x":0.5,"y":0.5}
},
{
	"filename": "b10065.png",
	"frame": {"x":1566,"y":3527,"w":780,"h":233},
	"rotated": false,
	"trimmed": false,
	"spriteSourceSize": {"x":0,"y":0,"w":780,"h":233},
	"sourceSize": {"w":780,"h":233},
	"pivot": {"x":0.5,"y":0.5}
},
{
	"filename": "b10066.png",
	"frame": {"x":1566,"y":3527,"w":780,"h":233},
	"rotated": false,
	"trimmed": false,
	"spriteSourceSize": {"x":0,"y":0,"w":780,"h":233},
	"sourceSize": {"w":780,"h":233},
	"pivot": {"x":0.5,"y":0.5}
},
{
	"filename": "b10067.png",
	"frame": {"x":1566,"y":3527,"w":780,"h":233},
	"rotated": false,
	"trimmed": false,
	"spriteSourceSize": {"x":0,"y":0,"w":780,"h":233},
	"sourceSize": {"w":780,"h":233},
	"pivot": {"x":0.5,"y":0.5}
},
{
	"filename": "b10068.png",
	"frame": {"x":1566,"y":3527,"w":780,"h":233},
	"rotated": false,
	"trimmed": false,
	"spriteSourceSize": {"x":0,"y":0,"w":780,"h":233},
	"sourceSize": {"w":780,"h":233},
	"pivot": {"x":0.5,"y":0.5}
},
{
	"filename": "b10069.png",
	"frame": {"x":1566,"y":3527,"w":780,"h":233},
	"rotated": false,
	"trimmed": false,
	"spriteSourceSize": {"x":0,"y":0,"w":780,"h":233},
	"sourceSize": {"w":780,"h":233},
	"pivot": {"x":0.5,"y":0.5}
},
{
	"filename": "b10070.png",
	"frame": {"x":1566,"y":3527,"w":780,"h":233},
	"rotated": false,
	"trimmed": false,
	"spriteSourceSize": {"x":0,"y":0,"w":780,"h":233},
	"sourceSize": {"w":780,"h":233},
	"pivot": {"x":0.5,"y":0.5}
}],
"meta": {
	"app": "http://www.codeandweb.com/texturepacker",
	"version": "1.0",
	"image": "success2.png",
	"format": "RGBA8888",
	"size": {"w":3130,"h":3762},
	"scale": "1",
	"smartupdate": "$TexturePacker:SmartUpdate:fc21c0cbb347e924dde63d1b12f7a09d:879b8d5df3fb5cc773d91f7f3ea0bd83:c597b8c174d9d228bd802784c1d07272$"
}
}
