{"frames": [

{
	"filename": "paint1.png",
	"frame": {"x":2,"y":2,"w":78,"h":78},
	"rotated": false,
	"trimmed": true,
	"spriteSourceSize": {"x":6,"y":4,"w":78,"h":78},
	"sourceSize": {"w":88,"h":88},
	"pivot": {"x":0.5,"y":0.5}
},
{
	"filename": "paint2.png",
	"frame": {"x":82,"y":2,"w":78,"h":78},
	"rotated": false,
	"trimmed": true,
	"spriteSourceSize": {"x":6,"y":4,"w":78,"h":78},
	"sourceSize": {"w":88,"h":88},
	"pivot": {"x":0.5,"y":0.5}
},
{
	"filename": "paint3.png",
	"frame": {"x":162,"y":2,"w":78,"h":78},
	"rotated": false,
	"trimmed": true,
	"spriteSourceSize": {"x":6,"y":4,"w":78,"h":78},
	"sourceSize": {"w":88,"h":88},
	"pivot": {"x":0.5,"y":0.5}
},
{
	"filename": "paint4.png",
	"frame": {"x":242,"y":2,"w":78,"h":78},
	"rotated": false,
	"trimmed": true,
	"spriteSourceSize": {"x":6,"y":4,"w":78,"h":78},
	"sourceSize": {"w":88,"h":88},
	"pivot": {"x":0.5,"y":0.5}
},
{
	"filename": "paint5.png",
	"frame": {"x":322,"y":2,"w":78,"h":78},
	"rotated": false,
	"trimmed": true,
	"spriteSourceSize": {"x":6,"y":4,"w":78,"h":78},
	"sourceSize": {"w":88,"h":88},
	"pivot": {"x":0.5,"y":0.5}
},
{
	"filename": "paint6.png",
	"frame": {"x":402,"y":2,"w":78,"h":78},
	"rotated": false,
	"trimmed": true,
	"spriteSourceSize": {"x":6,"y":4,"w":78,"h":78},
	"sourceSize": {"w":88,"h":88},
	"pivot": {"x":0.5,"y":0.5}
}],
"meta": {
	"app": "http://www.codeandweb.com/texturepacker",
	"version": "1.0",
	"image": "paints.png",
	"format": "RGBA4444",
	"size": {"w":482,"h":82},
	"scale": "1",
	"smartupdate": "$TexturePacker:SmartUpdate:7949546990aad0a8c0df065b9567cd3c:16142a9218f31c8309a139b603ac6c50:cd42d3f02cb6d52926be8b90da935b77$"
}
}
