{"frames": [

{
	"filename": "large0001.png",
	"frame": {"x":2,"y":2,"w":250,"h":250},
	"rotated": false,
	"trimmed": false,
	"spriteSourceSize": {"x":0,"y":0,"w":250,"h":250},
	"sourceSize": {"w":250,"h":250},
	"pivot": {"x":0.5,"y":0.5}
},
{
	"filename": "large0002.png",
	"frame": {"x":2,"y":2,"w":250,"h":250},
	"rotated": false,
	"trimmed": false,
	"spriteSourceSize": {"x":0,"y":0,"w":250,"h":250},
	"sourceSize": {"w":250,"h":250},
	"pivot": {"x":0.5,"y":0.5}
},
{
	"filename": "large0003.png",
	"frame": {"x":2,"y":2,"w":250,"h":250},
	"rotated": false,
	"trimmed": false,
	"spriteSourceSize": {"x":0,"y":0,"w":250,"h":250},
	"sourceSize": {"w":250,"h":250},
	"pivot": {"x":0.5,"y":0.5}
},
{
	"filename": "large0004.png",
	"frame": {"x":2,"y":2,"w":250,"h":250},
	"rotated": false,
	"trimmed": false,
	"spriteSourceSize": {"x":0,"y":0,"w":250,"h":250},
	"sourceSize": {"w":250,"h":250},
	"pivot": {"x":0.5,"y":0.5}
},
{
	"filename": "large0005.png",
	"frame": {"x":2,"y":2,"w":250,"h":250},
	"rotated": false,
	"trimmed": false,
	"spriteSourceSize": {"x":0,"y":0,"w":250,"h":250},
	"sourceSize": {"w":250,"h":250},
	"pivot": {"x":0.5,"y":0.5}
},
{
	"filename": "large0006.png",
	"frame": {"x":2,"y":2,"w":250,"h":250},
	"rotated": false,
	"trimmed": false,
	"spriteSourceSize": {"x":0,"y":0,"w":250,"h":250},
	"sourceSize": {"w":250,"h":250},
	"pivot": {"x":0.5,"y":0.5}
},
{
	"filename": "large0007.png",
	"frame": {"x":2,"y":2,"w":250,"h":250},
	"rotated": false,
	"trimmed": false,
	"spriteSourceSize": {"x":0,"y":0,"w":250,"h":250},
	"sourceSize": {"w":250,"h":250},
	"pivot": {"x":0.5,"y":0.5}
},
{
	"filename": "large0008.png",
	"frame": {"x":2,"y":2,"w":250,"h":250},
	"rotated": false,
	"trimmed": false,
	"spriteSourceSize": {"x":0,"y":0,"w":250,"h":250},
	"sourceSize": {"w":250,"h":250},
	"pivot": {"x":0.5,"y":0.5}
},
{
	"filename": "large0009.png",
	"frame": {"x":2,"y":2,"w":250,"h":250},
	"rotated": false,
	"trimmed": false,
	"spriteSourceSize": {"x":0,"y":0,"w":250,"h":250},
	"sourceSize": {"w":250,"h":250},
	"pivot": {"x":0.5,"y":0.5}
},
{
	"filename": "large0010.png",
	"frame": {"x":2,"y":2,"w":250,"h":250},
	"rotated": false,
	"trimmed": false,
	"spriteSourceSize": {"x":0,"y":0,"w":250,"h":250},
	"sourceSize": {"w":250,"h":250},
	"pivot": {"x":0.5,"y":0.5}
},
{
	"filename": "large0011.png",
	"frame": {"x":2,"y":2,"w":250,"h":250},
	"rotated": false,
	"trimmed": false,
	"spriteSourceSize": {"x":0,"y":0,"w":250,"h":250},
	"sourceSize": {"w":250,"h":250},
	"pivot": {"x":0.5,"y":0.5}
},
{
	"filename": "large0012.png",
	"frame": {"x":254,"y":2,"w":250,"h":250},
	"rotated": false,
	"trimmed": false,
	"spriteSourceSize": {"x":0,"y":0,"w":250,"h":250},
	"sourceSize": {"w":250,"h":250},
	"pivot": {"x":0.5,"y":0.5}
},
{
	"filename": "large0013.png",
	"frame": {"x":506,"y":2,"w":250,"h":250},
	"rotated": false,
	"trimmed": false,
	"spriteSourceSize": {"x":0,"y":0,"w":250,"h":250},
	"sourceSize": {"w":250,"h":250},
	"pivot": {"x":0.5,"y":0.5}
},
{
	"filename": "large0014.png",
	"frame": {"x":758,"y":2,"w":250,"h":250},
	"rotated": false,
	"trimmed": false,
	"spriteSourceSize": {"x":0,"y":0,"w":250,"h":250},
	"sourceSize": {"w":250,"h":250},
	"pivot": {"x":0.5,"y":0.5}
},
{
	"filename": "large0015.png",
	"frame": {"x":1010,"y":2,"w":250,"h":250},
	"rotated": false,
	"trimmed": false,
	"spriteSourceSize": {"x":0,"y":0,"w":250,"h":250},
	"sourceSize": {"w":250,"h":250},
	"pivot": {"x":0.5,"y":0.5}
},
{
	"filename": "large0016.png",
	"frame": {"x":1262,"y":2,"w":250,"h":250},
	"rotated": false,
	"trimmed": false,
	"spriteSourceSize": {"x":0,"y":0,"w":250,"h":250},
	"sourceSize": {"w":250,"h":250},
	"pivot": {"x":0.5,"y":0.5}
},
{
	"filename": "large0017.png",
	"frame": {"x":1514,"y":2,"w":250,"h":250},
	"rotated": false,
	"trimmed": false,
	"spriteSourceSize": {"x":0,"y":0,"w":250,"h":250},
	"sourceSize": {"w":250,"h":250},
	"pivot": {"x":0.5,"y":0.5}
},
{
	"filename": "large0018.png",
	"frame": {"x":1766,"y":2,"w":250,"h":250},
	"rotated": false,
	"trimmed": false,
	"spriteSourceSize": {"x":0,"y":0,"w":250,"h":250},
	"sourceSize": {"w":250,"h":250},
	"pivot": {"x":0.5,"y":0.5}
},
{
	"filename": "large0019.png",
	"frame": {"x":2,"y":254,"w":250,"h":250},
	"rotated": false,
	"trimmed": false,
	"spriteSourceSize": {"x":0,"y":0,"w":250,"h":250},
	"sourceSize": {"w":250,"h":250},
	"pivot": {"x":0.5,"y":0.5}
},
{
	"filename": "large0020.png",
	"frame": {"x":254,"y":254,"w":250,"h":250},
	"rotated": false,
	"trimmed": false,
	"spriteSourceSize": {"x":0,"y":0,"w":250,"h":250},
	"sourceSize": {"w":250,"h":250},
	"pivot": {"x":0.5,"y":0.5}
},
{
	"filename": "large0021.png",
	"frame": {"x":506,"y":254,"w":250,"h":250},
	"rotated": false,
	"trimmed": false,
	"spriteSourceSize": {"x":0,"y":0,"w":250,"h":250},
	"sourceSize": {"w":250,"h":250},
	"pivot": {"x":0.5,"y":0.5}
},
{
	"filename": "large0022.png",
	"frame": {"x":758,"y":254,"w":250,"h":250},
	"rotated": false,
	"trimmed": false,
	"spriteSourceSize": {"x":0,"y":0,"w":250,"h":250},
	"sourceSize": {"w":250,"h":250},
	"pivot": {"x":0.5,"y":0.5}
},
{
	"filename": "large0023.png",
	"frame": {"x":1010,"y":254,"w":250,"h":250},
	"rotated": false,
	"trimmed": false,
	"spriteSourceSize": {"x":0,"y":0,"w":250,"h":250},
	"sourceSize": {"w":250,"h":250},
	"pivot": {"x":0.5,"y":0.5}
},
{
	"filename": "large0024.png",
	"frame": {"x":1262,"y":254,"w":250,"h":250},
	"rotated": false,
	"trimmed": false,
	"spriteSourceSize": {"x":0,"y":0,"w":250,"h":250},
	"sourceSize": {"w":250,"h":250},
	"pivot": {"x":0.5,"y":0.5}
},
{
	"filename": "large0025.png",
	"frame": {"x":1262,"y":254,"w":250,"h":250},
	"rotated": false,
	"trimmed": false,
	"spriteSourceSize": {"x":0,"y":0,"w":250,"h":250},
	"sourceSize": {"w":250,"h":250},
	"pivot": {"x":0.5,"y":0.5}
},
{
	"filename": "large0026.png",
	"frame": {"x":1262,"y":254,"w":250,"h":250},
	"rotated": false,
	"trimmed": false,
	"spriteSourceSize": {"x":0,"y":0,"w":250,"h":250},
	"sourceSize": {"w":250,"h":250},
	"pivot": {"x":0.5,"y":0.5}
},
{
	"filename": "large0027.png",
	"frame": {"x":1262,"y":254,"w":250,"h":250},
	"rotated": false,
	"trimmed": false,
	"spriteSourceSize": {"x":0,"y":0,"w":250,"h":250},
	"sourceSize": {"w":250,"h":250},
	"pivot": {"x":0.5,"y":0.5}
},
{
	"filename": "large0028.png",
	"frame": {"x":1262,"y":254,"w":250,"h":250},
	"rotated": false,
	"trimmed": false,
	"spriteSourceSize": {"x":0,"y":0,"w":250,"h":250},
	"sourceSize": {"w":250,"h":250},
	"pivot": {"x":0.5,"y":0.5}
},
{
	"filename": "large0029.png",
	"frame": {"x":1262,"y":254,"w":250,"h":250},
	"rotated": false,
	"trimmed": false,
	"spriteSourceSize": {"x":0,"y":0,"w":250,"h":250},
	"sourceSize": {"w":250,"h":250},
	"pivot": {"x":0.5,"y":0.5}
},
{
	"filename": "large0030.png",
	"frame": {"x":1262,"y":254,"w":250,"h":250},
	"rotated": false,
	"trimmed": false,
	"spriteSourceSize": {"x":0,"y":0,"w":250,"h":250},
	"sourceSize": {"w":250,"h":250},
	"pivot": {"x":0.5,"y":0.5}
},
{
	"filename": "large0031.png",
	"frame": {"x":1262,"y":254,"w":250,"h":250},
	"rotated": false,
	"trimmed": false,
	"spriteSourceSize": {"x":0,"y":0,"w":250,"h":250},
	"sourceSize": {"w":250,"h":250},
	"pivot": {"x":0.5,"y":0.5}
},
{
	"filename": "large0032.png",
	"frame": {"x":1262,"y":254,"w":250,"h":250},
	"rotated": false,
	"trimmed": false,
	"spriteSourceSize": {"x":0,"y":0,"w":250,"h":250},
	"sourceSize": {"w":250,"h":250},
	"pivot": {"x":0.5,"y":0.5}
},
{
	"filename": "large0033.png",
	"frame": {"x":1262,"y":254,"w":250,"h":250},
	"rotated": false,
	"trimmed": false,
	"spriteSourceSize": {"x":0,"y":0,"w":250,"h":250},
	"sourceSize": {"w":250,"h":250},
	"pivot": {"x":0.5,"y":0.5}
},
{
	"filename": "large0034.png",
	"frame": {"x":1514,"y":254,"w":250,"h":250},
	"rotated": false,
	"trimmed": false,
	"spriteSourceSize": {"x":0,"y":0,"w":250,"h":250},
	"sourceSize": {"w":250,"h":250},
	"pivot": {"x":0.5,"y":0.5}
},
{
	"filename": "large0035.png",
	"frame": {"x":1514,"y":254,"w":250,"h":250},
	"rotated": false,
	"trimmed": false,
	"spriteSourceSize": {"x":0,"y":0,"w":250,"h":250},
	"sourceSize": {"w":250,"h":250},
	"pivot": {"x":0.5,"y":0.5}
},
{
	"filename": "large0036.png",
	"frame": {"x":1514,"y":254,"w":250,"h":250},
	"rotated": false,
	"trimmed": false,
	"spriteSourceSize": {"x":0,"y":0,"w":250,"h":250},
	"sourceSize": {"w":250,"h":250},
	"pivot": {"x":0.5,"y":0.5}
},
{
	"filename": "large0037.png",
	"frame": {"x":1514,"y":254,"w":250,"h":250},
	"rotated": false,
	"trimmed": false,
	"spriteSourceSize": {"x":0,"y":0,"w":250,"h":250},
	"sourceSize": {"w":250,"h":250},
	"pivot": {"x":0.5,"y":0.5}
},
{
	"filename": "large0038.png",
	"frame": {"x":1514,"y":254,"w":250,"h":250},
	"rotated": false,
	"trimmed": false,
	"spriteSourceSize": {"x":0,"y":0,"w":250,"h":250},
	"sourceSize": {"w":250,"h":250},
	"pivot": {"x":0.5,"y":0.5}
},
{
	"filename": "large0039.png",
	"frame": {"x":1514,"y":254,"w":250,"h":250},
	"rotated": false,
	"trimmed": false,
	"spriteSourceSize": {"x":0,"y":0,"w":250,"h":250},
	"sourceSize": {"w":250,"h":250},
	"pivot": {"x":0.5,"y":0.5}
},
{
	"filename": "large0040.png",
	"frame": {"x":1514,"y":254,"w":250,"h":250},
	"rotated": false,
	"trimmed": false,
	"spriteSourceSize": {"x":0,"y":0,"w":250,"h":250},
	"sourceSize": {"w":250,"h":250},
	"pivot": {"x":0.5,"y":0.5}
},
{
	"filename": "large0041.png",
	"frame": {"x":1514,"y":254,"w":250,"h":250},
	"rotated": false,
	"trimmed": false,
	"spriteSourceSize": {"x":0,"y":0,"w":250,"h":250},
	"sourceSize": {"w":250,"h":250},
	"pivot": {"x":0.5,"y":0.5}
},
{
	"filename": "large0042.png",
	"frame": {"x":1514,"y":254,"w":250,"h":250},
	"rotated": false,
	"trimmed": false,
	"spriteSourceSize": {"x":0,"y":0,"w":250,"h":250},
	"sourceSize": {"w":250,"h":250},
	"pivot": {"x":0.5,"y":0.5}
},
{
	"filename": "large0043.png",
	"frame": {"x":1514,"y":254,"w":250,"h":250},
	"rotated": false,
	"trimmed": false,
	"spriteSourceSize": {"x":0,"y":0,"w":250,"h":250},
	"sourceSize": {"w":250,"h":250},
	"pivot": {"x":0.5,"y":0.5}
},
{
	"filename": "large0044.png",
	"frame": {"x":1766,"y":254,"w":250,"h":250},
	"rotated": false,
	"trimmed": false,
	"spriteSourceSize": {"x":0,"y":0,"w":250,"h":250},
	"sourceSize": {"w":250,"h":250},
	"pivot": {"x":0.5,"y":0.5}
},
{
	"filename": "large0045.png",
	"frame": {"x":2,"y":506,"w":250,"h":250},
	"rotated": false,
	"trimmed": false,
	"spriteSourceSize": {"x":0,"y":0,"w":250,"h":250},
	"sourceSize": {"w":250,"h":250},
	"pivot": {"x":0.5,"y":0.5}
},
{
	"filename": "large0046.png",
	"frame": {"x":254,"y":506,"w":250,"h":250},
	"rotated": false,
	"trimmed": false,
	"spriteSourceSize": {"x":0,"y":0,"w":250,"h":250},
	"sourceSize": {"w":250,"h":250},
	"pivot": {"x":0.5,"y":0.5}
},
{
	"filename": "large0047.png",
	"frame": {"x":506,"y":506,"w":250,"h":250},
	"rotated": false,
	"trimmed": false,
	"spriteSourceSize": {"x":0,"y":0,"w":250,"h":250},
	"sourceSize": {"w":250,"h":250},
	"pivot": {"x":0.5,"y":0.5}
},
{
	"filename": "large0048.png",
	"frame": {"x":758,"y":506,"w":250,"h":250},
	"rotated": false,
	"trimmed": false,
	"spriteSourceSize": {"x":0,"y":0,"w":250,"h":250},
	"sourceSize": {"w":250,"h":250},
	"pivot": {"x":0.5,"y":0.5}
},
{
	"filename": "large0049.png",
	"frame": {"x":1010,"y":506,"w":250,"h":250},
	"rotated": false,
	"trimmed": false,
	"spriteSourceSize": {"x":0,"y":0,"w":250,"h":250},
	"sourceSize": {"w":250,"h":250},
	"pivot": {"x":0.5,"y":0.5}
},
{
	"filename": "large0050.png",
	"frame": {"x":1262,"y":506,"w":250,"h":250},
	"rotated": false,
	"trimmed": false,
	"spriteSourceSize": {"x":0,"y":0,"w":250,"h":250},
	"sourceSize": {"w":250,"h":250},
	"pivot": {"x":0.5,"y":0.5}
},
{
	"filename": "large0051.png",
	"frame": {"x":1514,"y":506,"w":250,"h":250},
	"rotated": false,
	"trimmed": false,
	"spriteSourceSize": {"x":0,"y":0,"w":250,"h":250},
	"sourceSize": {"w":250,"h":250},
	"pivot": {"x":0.5,"y":0.5}
},
{
	"filename": "large0052.png",
	"frame": {"x":1766,"y":506,"w":250,"h":250},
	"rotated": false,
	"trimmed": false,
	"spriteSourceSize": {"x":0,"y":0,"w":250,"h":250},
	"sourceSize": {"w":250,"h":250},
	"pivot": {"x":0.5,"y":0.5}
},
{
	"filename": "large0053.png",
	"frame": {"x":2,"y":758,"w":250,"h":250},
	"rotated": false,
	"trimmed": false,
	"spriteSourceSize": {"x":0,"y":0,"w":250,"h":250},
	"sourceSize": {"w":250,"h":250},
	"pivot": {"x":0.5,"y":0.5}
},
{
	"filename": "large0054.png",
	"frame": {"x":254,"y":758,"w":250,"h":250},
	"rotated": false,
	"trimmed": false,
	"spriteSourceSize": {"x":0,"y":0,"w":250,"h":250},
	"sourceSize": {"w":250,"h":250},
	"pivot": {"x":0.5,"y":0.5}
},
{
	"filename": "large0055.png",
	"frame": {"x":506,"y":758,"w":250,"h":250},
	"rotated": false,
	"trimmed": false,
	"spriteSourceSize": {"x":0,"y":0,"w":250,"h":250},
	"sourceSize": {"w":250,"h":250},
	"pivot": {"x":0.5,"y":0.5}
},
{
	"filename": "large0056.png",
	"frame": {"x":758,"y":758,"w":250,"h":250},
	"rotated": false,
	"trimmed": false,
	"spriteSourceSize": {"x":0,"y":0,"w":250,"h":250},
	"sourceSize": {"w":250,"h":250},
	"pivot": {"x":0.5,"y":0.5}
},
{
	"filename": "large0057.png",
	"frame": {"x":1010,"y":758,"w":250,"h":250},
	"rotated": false,
	"trimmed": false,
	"spriteSourceSize": {"x":0,"y":0,"w":250,"h":250},
	"sourceSize": {"w":250,"h":250},
	"pivot": {"x":0.5,"y":0.5}
},
{
	"filename": "large0058.png",
	"frame": {"x":1262,"y":758,"w":250,"h":250},
	"rotated": false,
	"trimmed": false,
	"spriteSourceSize": {"x":0,"y":0,"w":250,"h":250},
	"sourceSize": {"w":250,"h":250},
	"pivot": {"x":0.5,"y":0.5}
},
{
	"filename": "large0059.png",
	"frame": {"x":1514,"y":758,"w":250,"h":250},
	"rotated": false,
	"trimmed": false,
	"spriteSourceSize": {"x":0,"y":0,"w":250,"h":250},
	"sourceSize": {"w":250,"h":250},
	"pivot": {"x":0.5,"y":0.5}
},
{
	"filename": "large0060.png",
	"frame": {"x":1514,"y":254,"w":250,"h":250},
	"rotated": false,
	"trimmed": false,
	"spriteSourceSize": {"x":0,"y":0,"w":250,"h":250},
	"sourceSize": {"w":250,"h":250},
	"pivot": {"x":0.5,"y":0.5}
},
{
	"filename": "large0061.png",
	"frame": {"x":1514,"y":254,"w":250,"h":250},
	"rotated": false,
	"trimmed": false,
	"spriteSourceSize": {"x":0,"y":0,"w":250,"h":250},
	"sourceSize": {"w":250,"h":250},
	"pivot": {"x":0.5,"y":0.5}
},
{
	"filename": "large0062.png",
	"frame": {"x":1514,"y":254,"w":250,"h":250},
	"rotated": false,
	"trimmed": false,
	"spriteSourceSize": {"x":0,"y":0,"w":250,"h":250},
	"sourceSize": {"w":250,"h":250},
	"pivot": {"x":0.5,"y":0.5}
},
{
	"filename": "large0063.png",
	"frame": {"x":1514,"y":254,"w":250,"h":250},
	"rotated": false,
	"trimmed": false,
	"spriteSourceSize": {"x":0,"y":0,"w":250,"h":250},
	"sourceSize": {"w":250,"h":250},
	"pivot": {"x":0.5,"y":0.5}
},
{
	"filename": "large0064.png",
	"frame": {"x":1514,"y":254,"w":250,"h":250},
	"rotated": false,
	"trimmed": false,
	"spriteSourceSize": {"x":0,"y":0,"w":250,"h":250},
	"sourceSize": {"w":250,"h":250},
	"pivot": {"x":0.5,"y":0.5}
},
{
	"filename": "large0065.png",
	"frame": {"x":1514,"y":254,"w":250,"h":250},
	"rotated": false,
	"trimmed": false,
	"spriteSourceSize": {"x":0,"y":0,"w":250,"h":250},
	"sourceSize": {"w":250,"h":250},
	"pivot": {"x":0.5,"y":0.5}
},
{
	"filename": "large0066.png",
	"frame": {"x":1514,"y":254,"w":250,"h":250},
	"rotated": false,
	"trimmed": false,
	"spriteSourceSize": {"x":0,"y":0,"w":250,"h":250},
	"sourceSize": {"w":250,"h":250},
	"pivot": {"x":0.5,"y":0.5}
},
{
	"filename": "large0067.png",
	"frame": {"x":1514,"y":254,"w":250,"h":250},
	"rotated": false,
	"trimmed": false,
	"spriteSourceSize": {"x":0,"y":0,"w":250,"h":250},
	"sourceSize": {"w":250,"h":250},
	"pivot": {"x":0.5,"y":0.5}
},
{
	"filename": "large0068.png",
	"frame": {"x":1514,"y":254,"w":250,"h":250},
	"rotated": false,
	"trimmed": false,
	"spriteSourceSize": {"x":0,"y":0,"w":250,"h":250},
	"sourceSize": {"w":250,"h":250},
	"pivot": {"x":0.5,"y":0.5}
},
{
	"filename": "large0069.png",
	"frame": {"x":1514,"y":254,"w":250,"h":250},
	"rotated": false,
	"trimmed": false,
	"spriteSourceSize": {"x":0,"y":0,"w":250,"h":250},
	"sourceSize": {"w":250,"h":250},
	"pivot": {"x":0.5,"y":0.5}
}],
"meta": {
	"app": "http://www.codeandweb.com/texturepacker",
	"version": "1.0",
	"image": "asteroidLarge.png",
	"format": "RGBA8888",
	"size": {"w":2018,"h":1010},
	"scale": "1",
	"smartupdate": "$TexturePacker:SmartUpdate:04fff97d6ecc3f470a8afe79e82cded2:561d36bb6916eab97fcfcc43c6711fd6:0ad1e5ef3d6d937c8e0852b204df8f70$"
}
}
