{"frames": [

{
	"filename": "c10001.png",
	"frame": {"x":2,"y":2,"w":133,"h":135},
	"rotated": false,
	"trimmed": false,
	"spriteSourceSize": {"x":0,"y":0,"w":133,"h":135},
	"sourceSize": {"w":133,"h":135},
	"pivot": {"x":0.5,"y":0.5}
},
{
	"filename": "c10002.png",
	"frame": {"x":137,"y":2,"w":133,"h":135},
	"rotated": false,
	"trimmed": false,
	"spriteSourceSize": {"x":0,"y":0,"w":133,"h":135},
	"sourceSize": {"w":133,"h":135},
	"pivot": {"x":0.5,"y":0.5}
},
{
	"filename": "c10003.png",
	"frame": {"x":272,"y":2,"w":133,"h":135},
	"rotated": false,
	"trimmed": false,
	"spriteSourceSize": {"x":0,"y":0,"w":133,"h":135},
	"sourceSize": {"w":133,"h":135},
	"pivot": {"x":0.5,"y":0.5}
},
{
	"filename": "c10004.png",
	"frame": {"x":407,"y":2,"w":133,"h":135},
	"rotated": false,
	"trimmed": false,
	"spriteSourceSize": {"x":0,"y":0,"w":133,"h":135},
	"sourceSize": {"w":133,"h":135},
	"pivot": {"x":0.5,"y":0.5}
},
{
	"filename": "c10005.png",
	"frame": {"x":542,"y":2,"w":133,"h":135},
	"rotated": false,
	"trimmed": false,
	"spriteSourceSize": {"x":0,"y":0,"w":133,"h":135},
	"sourceSize": {"w":133,"h":135},
	"pivot": {"x":0.5,"y":0.5}
},
{
	"filename": "c10006.png",
	"frame": {"x":677,"y":2,"w":133,"h":135},
	"rotated": false,
	"trimmed": false,
	"spriteSourceSize": {"x":0,"y":0,"w":133,"h":135},
	"sourceSize": {"w":133,"h":135},
	"pivot": {"x":0.5,"y":0.5}
},
{
	"filename": "c10007.png",
	"frame": {"x":812,"y":2,"w":133,"h":135},
	"rotated": false,
	"trimmed": false,
	"spriteSourceSize": {"x":0,"y":0,"w":133,"h":135},
	"sourceSize": {"w":133,"h":135},
	"pivot": {"x":0.5,"y":0.5}
},
{
	"filename": "c10008.png",
	"frame": {"x":947,"y":2,"w":133,"h":135},
	"rotated": false,
	"trimmed": false,
	"spriteSourceSize": {"x":0,"y":0,"w":133,"h":135},
	"sourceSize": {"w":133,"h":135},
	"pivot": {"x":0.5,"y":0.5}
},
{
	"filename": "c10009.png",
	"frame": {"x":1082,"y":2,"w":133,"h":135},
	"rotated": false,
	"trimmed": false,
	"spriteSourceSize": {"x":0,"y":0,"w":133,"h":135},
	"sourceSize": {"w":133,"h":135},
	"pivot": {"x":0.5,"y":0.5}
},
{
	"filename": "c10010.png",
	"frame": {"x":1217,"y":2,"w":133,"h":135},
	"rotated": false,
	"trimmed": false,
	"spriteSourceSize": {"x":0,"y":0,"w":133,"h":135},
	"sourceSize": {"w":133,"h":135},
	"pivot": {"x":0.5,"y":0.5}
},
{
	"filename": "c10011.png",
	"frame": {"x":1352,"y":2,"w":133,"h":135},
	"rotated": false,
	"trimmed": false,
	"spriteSourceSize": {"x":0,"y":0,"w":133,"h":135},
	"sourceSize": {"w":133,"h":135},
	"pivot": {"x":0.5,"y":0.5}
},
{
	"filename": "c10012.png",
	"frame": {"x":1487,"y":2,"w":133,"h":135},
	"rotated": false,
	"trimmed": false,
	"spriteSourceSize": {"x":0,"y":0,"w":133,"h":135},
	"sourceSize": {"w":133,"h":135},
	"pivot": {"x":0.5,"y":0.5}
},
{
	"filename": "c10013.png",
	"frame": {"x":1622,"y":2,"w":133,"h":135},
	"rotated": false,
	"trimmed": false,
	"spriteSourceSize": {"x":0,"y":0,"w":133,"h":135},
	"sourceSize": {"w":133,"h":135},
	"pivot": {"x":0.5,"y":0.5}
},
{
	"filename": "c10014.png",
	"frame": {"x":1757,"y":2,"w":133,"h":135},
	"rotated": false,
	"trimmed": false,
	"spriteSourceSize": {"x":0,"y":0,"w":133,"h":135},
	"sourceSize": {"w":133,"h":135},
	"pivot": {"x":0.5,"y":0.5}
},
{
	"filename": "c10015.png",
	"frame": {"x":1892,"y":2,"w":133,"h":135},
	"rotated": false,
	"trimmed": false,
	"spriteSourceSize": {"x":0,"y":0,"w":133,"h":135},
	"sourceSize": {"w":133,"h":135},
	"pivot": {"x":0.5,"y":0.5}
},
{
	"filename": "c10016.png",
	"frame": {"x":2,"y":139,"w":133,"h":135},
	"rotated": false,
	"trimmed": false,
	"spriteSourceSize": {"x":0,"y":0,"w":133,"h":135},
	"sourceSize": {"w":133,"h":135},
	"pivot": {"x":0.5,"y":0.5}
},
{
	"filename": "c10017.png",
	"frame": {"x":137,"y":139,"w":133,"h":135},
	"rotated": false,
	"trimmed": false,
	"spriteSourceSize": {"x":0,"y":0,"w":133,"h":135},
	"sourceSize": {"w":133,"h":135},
	"pivot": {"x":0.5,"y":0.5}
},
{
	"filename": "c10018.png",
	"frame": {"x":1757,"y":2,"w":133,"h":135},
	"rotated": false,
	"trimmed": false,
	"spriteSourceSize": {"x":0,"y":0,"w":133,"h":135},
	"sourceSize": {"w":133,"h":135},
	"pivot": {"x":0.5,"y":0.5}
},
{
	"filename": "c10019.png",
	"frame": {"x":272,"y":139,"w":133,"h":135},
	"rotated": false,
	"trimmed": false,
	"spriteSourceSize": {"x":0,"y":0,"w":133,"h":135},
	"sourceSize": {"w":133,"h":135},
	"pivot": {"x":0.5,"y":0.5}
},
{
	"filename": "c10020.png",
	"frame": {"x":407,"y":139,"w":133,"h":135},
	"rotated": false,
	"trimmed": false,
	"spriteSourceSize": {"x":0,"y":0,"w":133,"h":135},
	"sourceSize": {"w":133,"h":135},
	"pivot": {"x":0.5,"y":0.5}
},
{
	"filename": "c10021.png",
	"frame": {"x":542,"y":139,"w":133,"h":135},
	"rotated": false,
	"trimmed": false,
	"spriteSourceSize": {"x":0,"y":0,"w":133,"h":135},
	"sourceSize": {"w":133,"h":135},
	"pivot": {"x":0.5,"y":0.5}
},
{
	"filename": "c10022.png",
	"frame": {"x":677,"y":139,"w":133,"h":135},
	"rotated": false,
	"trimmed": false,
	"spriteSourceSize": {"x":0,"y":0,"w":133,"h":135},
	"sourceSize": {"w":133,"h":135},
	"pivot": {"x":0.5,"y":0.5}
},
{
	"filename": "c10023.png",
	"frame": {"x":1082,"y":2,"w":133,"h":135},
	"rotated": false,
	"trimmed": false,
	"spriteSourceSize": {"x":0,"y":0,"w":133,"h":135},
	"sourceSize": {"w":133,"h":135},
	"pivot": {"x":0.5,"y":0.5}
},
{
	"filename": "c10024.png",
	"frame": {"x":812,"y":139,"w":133,"h":135},
	"rotated": false,
	"trimmed": false,
	"spriteSourceSize": {"x":0,"y":0,"w":133,"h":135},
	"sourceSize": {"w":133,"h":135},
	"pivot": {"x":0.5,"y":0.5}
},
{
	"filename": "c10025.png",
	"frame": {"x":947,"y":139,"w":133,"h":135},
	"rotated": false,
	"trimmed": false,
	"spriteSourceSize": {"x":0,"y":0,"w":133,"h":135},
	"sourceSize": {"w":133,"h":135},
	"pivot": {"x":0.5,"y":0.5}
},
{
	"filename": "c10026.png",
	"frame": {"x":1082,"y":139,"w":133,"h":135},
	"rotated": false,
	"trimmed": false,
	"spriteSourceSize": {"x":0,"y":0,"w":133,"h":135},
	"sourceSize": {"w":133,"h":135},
	"pivot": {"x":0.5,"y":0.5}
},
{
	"filename": "c10027.png",
	"frame": {"x":1217,"y":139,"w":133,"h":135},
	"rotated": false,
	"trimmed": false,
	"spriteSourceSize": {"x":0,"y":0,"w":133,"h":135},
	"sourceSize": {"w":133,"h":135},
	"pivot": {"x":0.5,"y":0.5}
},
{
	"filename": "c10028.png",
	"frame": {"x":1352,"y":139,"w":133,"h":135},
	"rotated": false,
	"trimmed": false,
	"spriteSourceSize": {"x":0,"y":0,"w":133,"h":135},
	"sourceSize": {"w":133,"h":135},
	"pivot": {"x":0.5,"y":0.5}
},
{
	"filename": "c10029.png",
	"frame": {"x":272,"y":2,"w":133,"h":135},
	"rotated": false,
	"trimmed": false,
	"spriteSourceSize": {"x":0,"y":0,"w":133,"h":135},
	"sourceSize": {"w":133,"h":135},
	"pivot": {"x":0.5,"y":0.5}
},
{
	"filename": "c10030.png",
	"frame": {"x":1487,"y":139,"w":133,"h":135},
	"rotated": false,
	"trimmed": false,
	"spriteSourceSize": {"x":0,"y":0,"w":133,"h":135},
	"sourceSize": {"w":133,"h":135},
	"pivot": {"x":0.5,"y":0.5}
},
{
	"filename": "c10031.png",
	"frame": {"x":2,"y":2,"w":133,"h":135},
	"rotated": false,
	"trimmed": false,
	"spriteSourceSize": {"x":0,"y":0,"w":133,"h":135},
	"sourceSize": {"w":133,"h":135},
	"pivot": {"x":0.5,"y":0.5}
},
{
	"filename": "c10032.png",
	"frame": {"x":1622,"y":139,"w":133,"h":135},
	"rotated": false,
	"trimmed": false,
	"spriteSourceSize": {"x":0,"y":0,"w":133,"h":135},
	"sourceSize": {"w":133,"h":135},
	"pivot": {"x":0.5,"y":0.5}
},
{
	"filename": "c10033.png",
	"frame": {"x":1757,"y":139,"w":133,"h":135},
	"rotated": false,
	"trimmed": false,
	"spriteSourceSize": {"x":0,"y":0,"w":133,"h":135},
	"sourceSize": {"w":133,"h":135},
	"pivot": {"x":0.5,"y":0.5}
},
{
	"filename": "c10034.png",
	"frame": {"x":1892,"y":139,"w":133,"h":135},
	"rotated": false,
	"trimmed": false,
	"spriteSourceSize": {"x":0,"y":0,"w":133,"h":135},
	"sourceSize": {"w":133,"h":135},
	"pivot": {"x":0.5,"y":0.5}
},
{
	"filename": "c10035.png",
	"frame": {"x":2,"y":276,"w":133,"h":135},
	"rotated": false,
	"trimmed": false,
	"spriteSourceSize": {"x":0,"y":0,"w":133,"h":135},
	"sourceSize": {"w":133,"h":135},
	"pivot": {"x":0.5,"y":0.5}
},
{
	"filename": "c10036.png",
	"frame": {"x":137,"y":276,"w":133,"h":135},
	"rotated": false,
	"trimmed": false,
	"spriteSourceSize": {"x":0,"y":0,"w":133,"h":135},
	"sourceSize": {"w":133,"h":135},
	"pivot": {"x":0.5,"y":0.5}
},
{
	"filename": "c10037.png",
	"frame": {"x":272,"y":276,"w":133,"h":135},
	"rotated": false,
	"trimmed": false,
	"spriteSourceSize": {"x":0,"y":0,"w":133,"h":135},
	"sourceSize": {"w":133,"h":135},
	"pivot": {"x":0.5,"y":0.5}
},
{
	"filename": "c10038.png",
	"frame": {"x":407,"y":276,"w":133,"h":135},
	"rotated": false,
	"trimmed": false,
	"spriteSourceSize": {"x":0,"y":0,"w":133,"h":135},
	"sourceSize": {"w":133,"h":135},
	"pivot": {"x":0.5,"y":0.5}
},
{
	"filename": "c10039.png",
	"frame": {"x":542,"y":276,"w":133,"h":135},
	"rotated": false,
	"trimmed": false,
	"spriteSourceSize": {"x":0,"y":0,"w":133,"h":135},
	"sourceSize": {"w":133,"h":135},
	"pivot": {"x":0.5,"y":0.5}
},
{
	"filename": "c10040.png",
	"frame": {"x":677,"y":276,"w":133,"h":135},
	"rotated": false,
	"trimmed": false,
	"spriteSourceSize": {"x":0,"y":0,"w":133,"h":135},
	"sourceSize": {"w":133,"h":135},
	"pivot": {"x":0.5,"y":0.5}
},
{
	"filename": "c10041.png",
	"frame": {"x":812,"y":276,"w":133,"h":135},
	"rotated": false,
	"trimmed": false,
	"spriteSourceSize": {"x":0,"y":0,"w":133,"h":135},
	"sourceSize": {"w":133,"h":135},
	"pivot": {"x":0.5,"y":0.5}
},
{
	"filename": "c10042.png",
	"frame": {"x":947,"y":276,"w":133,"h":135},
	"rotated": false,
	"trimmed": false,
	"spriteSourceSize": {"x":0,"y":0,"w":133,"h":135},
	"sourceSize": {"w":133,"h":135},
	"pivot": {"x":0.5,"y":0.5}
},
{
	"filename": "c10043.png",
	"frame": {"x":1082,"y":276,"w":133,"h":135},
	"rotated": false,
	"trimmed": false,
	"spriteSourceSize": {"x":0,"y":0,"w":133,"h":135},
	"sourceSize": {"w":133,"h":135},
	"pivot": {"x":0.5,"y":0.5}
},
{
	"filename": "c10044.png",
	"frame": {"x":1217,"y":276,"w":133,"h":135},
	"rotated": false,
	"trimmed": false,
	"spriteSourceSize": {"x":0,"y":0,"w":133,"h":135},
	"sourceSize": {"w":133,"h":135},
	"pivot": {"x":0.5,"y":0.5}
},
{
	"filename": "c10045.png",
	"frame": {"x":1352,"y":276,"w":133,"h":135},
	"rotated": false,
	"trimmed": false,
	"spriteSourceSize": {"x":0,"y":0,"w":133,"h":135},
	"sourceSize": {"w":133,"h":135},
	"pivot": {"x":0.5,"y":0.5}
},
{
	"filename": "c10046.png",
	"frame": {"x":1487,"y":276,"w":133,"h":135},
	"rotated": false,
	"trimmed": false,
	"spriteSourceSize": {"x":0,"y":0,"w":133,"h":135},
	"sourceSize": {"w":133,"h":135},
	"pivot": {"x":0.5,"y":0.5}
},
{
	"filename": "c10047.png",
	"frame": {"x":1622,"y":276,"w":133,"h":135},
	"rotated": false,
	"trimmed": false,
	"spriteSourceSize": {"x":0,"y":0,"w":133,"h":135},
	"sourceSize": {"w":133,"h":135},
	"pivot": {"x":0.5,"y":0.5}
},
{
	"filename": "c10048.png",
	"frame": {"x":1757,"y":276,"w":133,"h":135},
	"rotated": false,
	"trimmed": false,
	"spriteSourceSize": {"x":0,"y":0,"w":133,"h":135},
	"sourceSize": {"w":133,"h":135},
	"pivot": {"x":0.5,"y":0.5}
},
{
	"filename": "c10049.png",
	"frame": {"x":1892,"y":276,"w":133,"h":135},
	"rotated": false,
	"trimmed": false,
	"spriteSourceSize": {"x":0,"y":0,"w":133,"h":135},
	"sourceSize": {"w":133,"h":135},
	"pivot": {"x":0.5,"y":0.5}
},
{
	"filename": "c10050.png",
	"frame": {"x":2,"y":413,"w":133,"h":135},
	"rotated": false,
	"trimmed": false,
	"spriteSourceSize": {"x":0,"y":0,"w":133,"h":135},
	"sourceSize": {"w":133,"h":135},
	"pivot": {"x":0.5,"y":0.5}
},
{
	"filename": "c10051.png",
	"frame": {"x":137,"y":413,"w":133,"h":135},
	"rotated": false,
	"trimmed": false,
	"spriteSourceSize": {"x":0,"y":0,"w":133,"h":135},
	"sourceSize": {"w":133,"h":135},
	"pivot": {"x":0.5,"y":0.5}
},
{
	"filename": "c10052.png",
	"frame": {"x":272,"y":413,"w":133,"h":135},
	"rotated": false,
	"trimmed": false,
	"spriteSourceSize": {"x":0,"y":0,"w":133,"h":135},
	"sourceSize": {"w":133,"h":135},
	"pivot": {"x":0.5,"y":0.5}
},
{
	"filename": "c10053.png",
	"frame": {"x":407,"y":413,"w":133,"h":135},
	"rotated": false,
	"trimmed": false,
	"spriteSourceSize": {"x":0,"y":0,"w":133,"h":135},
	"sourceSize": {"w":133,"h":135},
	"pivot": {"x":0.5,"y":0.5}
},
{
	"filename": "c10054.png",
	"frame": {"x":542,"y":413,"w":133,"h":135},
	"rotated": false,
	"trimmed": false,
	"spriteSourceSize": {"x":0,"y":0,"w":133,"h":135},
	"sourceSize": {"w":133,"h":135},
	"pivot": {"x":0.5,"y":0.5}
},
{
	"filename": "c10055.png",
	"frame": {"x":677,"y":413,"w":133,"h":135},
	"rotated": false,
	"trimmed": false,
	"spriteSourceSize": {"x":0,"y":0,"w":133,"h":135},
	"sourceSize": {"w":133,"h":135},
	"pivot": {"x":0.5,"y":0.5}
},
{
	"filename": "c10056.png",
	"frame": {"x":812,"y":413,"w":133,"h":135},
	"rotated": false,
	"trimmed": false,
	"spriteSourceSize": {"x":0,"y":0,"w":133,"h":135},
	"sourceSize": {"w":133,"h":135},
	"pivot": {"x":0.5,"y":0.5}
},
{
	"filename": "c10057.png",
	"frame": {"x":947,"y":413,"w":133,"h":135},
	"rotated": false,
	"trimmed": false,
	"spriteSourceSize": {"x":0,"y":0,"w":133,"h":135},
	"sourceSize": {"w":133,"h":135},
	"pivot": {"x":0.5,"y":0.5}
},
{
	"filename": "c10058.png",
	"frame": {"x":1082,"y":413,"w":133,"h":135},
	"rotated": false,
	"trimmed": false,
	"spriteSourceSize": {"x":0,"y":0,"w":133,"h":135},
	"sourceSize": {"w":133,"h":135},
	"pivot": {"x":0.5,"y":0.5}
},
{
	"filename": "c10059.png",
	"frame": {"x":1217,"y":413,"w":133,"h":135},
	"rotated": false,
	"trimmed": false,
	"spriteSourceSize": {"x":0,"y":0,"w":133,"h":135},
	"sourceSize": {"w":133,"h":135},
	"pivot": {"x":0.5,"y":0.5}
},
{
	"filename": "c10060.png",
	"frame": {"x":1352,"y":413,"w":133,"h":135},
	"rotated": false,
	"trimmed": false,
	"spriteSourceSize": {"x":0,"y":0,"w":133,"h":135},
	"sourceSize": {"w":133,"h":135},
	"pivot": {"x":0.5,"y":0.5}
},
{
	"filename": "c10061.png",
	"frame": {"x":1487,"y":413,"w":133,"h":135},
	"rotated": false,
	"trimmed": false,
	"spriteSourceSize": {"x":0,"y":0,"w":133,"h":135},
	"sourceSize": {"w":133,"h":135},
	"pivot": {"x":0.5,"y":0.5}
},
{
	"filename": "c10062.png",
	"frame": {"x":1622,"y":139,"w":133,"h":135},
	"rotated": false,
	"trimmed": false,
	"spriteSourceSize": {"x":0,"y":0,"w":133,"h":135},
	"sourceSize": {"w":133,"h":135},
	"pivot": {"x":0.5,"y":0.5}
},
{
	"filename": "c10063.png",
	"frame": {"x":1622,"y":413,"w":133,"h":135},
	"rotated": false,
	"trimmed": false,
	"spriteSourceSize": {"x":0,"y":0,"w":133,"h":135},
	"sourceSize": {"w":133,"h":135},
	"pivot": {"x":0.5,"y":0.5}
},
{
	"filename": "c10064.png",
	"frame": {"x":1757,"y":413,"w":133,"h":135},
	"rotated": false,
	"trimmed": false,
	"spriteSourceSize": {"x":0,"y":0,"w":133,"h":135},
	"sourceSize": {"w":133,"h":135},
	"pivot": {"x":0.5,"y":0.5}
},
{
	"filename": "c10065.png",
	"frame": {"x":1892,"y":413,"w":133,"h":135},
	"rotated": false,
	"trimmed": false,
	"spriteSourceSize": {"x":0,"y":0,"w":133,"h":135},
	"sourceSize": {"w":133,"h":135},
	"pivot": {"x":0.5,"y":0.5}
},
{
	"filename": "c10066.png",
	"frame": {"x":2,"y":550,"w":133,"h":135},
	"rotated": false,
	"trimmed": false,
	"spriteSourceSize": {"x":0,"y":0,"w":133,"h":135},
	"sourceSize": {"w":133,"h":135},
	"pivot": {"x":0.5,"y":0.5}
},
{
	"filename": "c10067.png",
	"frame": {"x":137,"y":550,"w":133,"h":135},
	"rotated": false,
	"trimmed": false,
	"spriteSourceSize": {"x":0,"y":0,"w":133,"h":135},
	"sourceSize": {"w":133,"h":135},
	"pivot": {"x":0.5,"y":0.5}
},
{
	"filename": "c10068.png",
	"frame": {"x":272,"y":550,"w":133,"h":135},
	"rotated": false,
	"trimmed": false,
	"spriteSourceSize": {"x":0,"y":0,"w":133,"h":135},
	"sourceSize": {"w":133,"h":135},
	"pivot": {"x":0.5,"y":0.5}
},
{
	"filename": "c10069.png",
	"frame": {"x":407,"y":550,"w":133,"h":135},
	"rotated": false,
	"trimmed": false,
	"spriteSourceSize": {"x":0,"y":0,"w":133,"h":135},
	"sourceSize": {"w":133,"h":135},
	"pivot": {"x":0.5,"y":0.5}
},
{
	"filename": "c10070.png",
	"frame": {"x":542,"y":550,"w":133,"h":135},
	"rotated": false,
	"trimmed": false,
	"spriteSourceSize": {"x":0,"y":0,"w":133,"h":135},
	"sourceSize": {"w":133,"h":135},
	"pivot": {"x":0.5,"y":0.5}
},
{
	"filename": "c10071.png",
	"frame": {"x":677,"y":550,"w":133,"h":135},
	"rotated": false,
	"trimmed": false,
	"spriteSourceSize": {"x":0,"y":0,"w":133,"h":135},
	"sourceSize": {"w":133,"h":135},
	"pivot": {"x":0.5,"y":0.5}
},
{
	"filename": "c10072.png",
	"frame": {"x":812,"y":550,"w":133,"h":135},
	"rotated": false,
	"trimmed": false,
	"spriteSourceSize": {"x":0,"y":0,"w":133,"h":135},
	"sourceSize": {"w":133,"h":135},
	"pivot": {"x":0.5,"y":0.5}
},
{
	"filename": "c10073.png",
	"frame": {"x":947,"y":550,"w":133,"h":135},
	"rotated": false,
	"trimmed": false,
	"spriteSourceSize": {"x":0,"y":0,"w":133,"h":135},
	"sourceSize": {"w":133,"h":135},
	"pivot": {"x":0.5,"y":0.5}
},
{
	"filename": "c10074.png",
	"frame": {"x":1082,"y":550,"w":133,"h":135},
	"rotated": false,
	"trimmed": false,
	"spriteSourceSize": {"x":0,"y":0,"w":133,"h":135},
	"sourceSize": {"w":133,"h":135},
	"pivot": {"x":0.5,"y":0.5}
},
{
	"filename": "c10075.png",
	"frame": {"x":1217,"y":550,"w":133,"h":135},
	"rotated": false,
	"trimmed": false,
	"spriteSourceSize": {"x":0,"y":0,"w":133,"h":135},
	"sourceSize": {"w":133,"h":135},
	"pivot": {"x":0.5,"y":0.5}
},
{
	"filename": "c10076.png",
	"frame": {"x":1352,"y":550,"w":133,"h":135},
	"rotated": false,
	"trimmed": false,
	"spriteSourceSize": {"x":0,"y":0,"w":133,"h":135},
	"sourceSize": {"w":133,"h":135},
	"pivot": {"x":0.5,"y":0.5}
},
{
	"filename": "c10077.png",
	"frame": {"x":1487,"y":550,"w":133,"h":135},
	"rotated": false,
	"trimmed": false,
	"spriteSourceSize": {"x":0,"y":0,"w":133,"h":135},
	"sourceSize": {"w":133,"h":135},
	"pivot": {"x":0.5,"y":0.5}
},
{
	"filename": "c10078.png",
	"frame": {"x":1622,"y":550,"w":133,"h":135},
	"rotated": false,
	"trimmed": false,
	"spriteSourceSize": {"x":0,"y":0,"w":133,"h":135},
	"sourceSize": {"w":133,"h":135},
	"pivot": {"x":0.5,"y":0.5}
},
{
	"filename": "c10079.png",
	"frame": {"x":1757,"y":550,"w":133,"h":135},
	"rotated": false,
	"trimmed": false,
	"spriteSourceSize": {"x":0,"y":0,"w":133,"h":135},
	"sourceSize": {"w":133,"h":135},
	"pivot": {"x":0.5,"y":0.5}
},
{
	"filename": "c10080.png",
	"frame": {"x":1892,"y":550,"w":133,"h":135},
	"rotated": false,
	"trimmed": false,
	"spriteSourceSize": {"x":0,"y":0,"w":133,"h":135},
	"sourceSize": {"w":133,"h":135},
	"pivot": {"x":0.5,"y":0.5}
},
{
	"filename": "c10081.png",
	"frame": {"x":2,"y":687,"w":133,"h":135},
	"rotated": false,
	"trimmed": false,
	"spriteSourceSize": {"x":0,"y":0,"w":133,"h":135},
	"sourceSize": {"w":133,"h":135},
	"pivot": {"x":0.5,"y":0.5}
},
{
	"filename": "c10082.png",
	"frame": {"x":137,"y":687,"w":133,"h":135},
	"rotated": false,
	"trimmed": false,
	"spriteSourceSize": {"x":0,"y":0,"w":133,"h":135},
	"sourceSize": {"w":133,"h":135},
	"pivot": {"x":0.5,"y":0.5}
},
{
	"filename": "c10083.png",
	"frame": {"x":272,"y":687,"w":133,"h":135},
	"rotated": false,
	"trimmed": false,
	"spriteSourceSize": {"x":0,"y":0,"w":133,"h":135},
	"sourceSize": {"w":133,"h":135},
	"pivot": {"x":0.5,"y":0.5}
},
{
	"filename": "c10084.png",
	"frame": {"x":407,"y":687,"w":133,"h":135},
	"rotated": false,
	"trimmed": false,
	"spriteSourceSize": {"x":0,"y":0,"w":133,"h":135},
	"sourceSize": {"w":133,"h":135},
	"pivot": {"x":0.5,"y":0.5}
},
{
	"filename": "c10085.png",
	"frame": {"x":542,"y":687,"w":133,"h":135},
	"rotated": false,
	"trimmed": false,
	"spriteSourceSize": {"x":0,"y":0,"w":133,"h":135},
	"sourceSize": {"w":133,"h":135},
	"pivot": {"x":0.5,"y":0.5}
},
{
	"filename": "c10086.png",
	"frame": {"x":677,"y":687,"w":133,"h":135},
	"rotated": false,
	"trimmed": false,
	"spriteSourceSize": {"x":0,"y":0,"w":133,"h":135},
	"sourceSize": {"w":133,"h":135},
	"pivot": {"x":0.5,"y":0.5}
},
{
	"filename": "c10087.png",
	"frame": {"x":812,"y":687,"w":133,"h":135},
	"rotated": false,
	"trimmed": false,
	"spriteSourceSize": {"x":0,"y":0,"w":133,"h":135},
	"sourceSize": {"w":133,"h":135},
	"pivot": {"x":0.5,"y":0.5}
},
{
	"filename": "c10088.png",
	"frame": {"x":947,"y":687,"w":133,"h":135},
	"rotated": false,
	"trimmed": false,
	"spriteSourceSize": {"x":0,"y":0,"w":133,"h":135},
	"sourceSize": {"w":133,"h":135},
	"pivot": {"x":0.5,"y":0.5}
},
{
	"filename": "c10089.png",
	"frame": {"x":1082,"y":687,"w":133,"h":135},
	"rotated": false,
	"trimmed": false,
	"spriteSourceSize": {"x":0,"y":0,"w":133,"h":135},
	"sourceSize": {"w":133,"h":135},
	"pivot": {"x":0.5,"y":0.5}
},
{
	"filename": "c10090.png",
	"frame": {"x":1217,"y":687,"w":133,"h":135},
	"rotated": false,
	"trimmed": false,
	"spriteSourceSize": {"x":0,"y":0,"w":133,"h":135},
	"sourceSize": {"w":133,"h":135},
	"pivot": {"x":0.5,"y":0.5}
},
{
	"filename": "c10091.png",
	"frame": {"x":1352,"y":687,"w":133,"h":135},
	"rotated": false,
	"trimmed": false,
	"spriteSourceSize": {"x":0,"y":0,"w":133,"h":135},
	"sourceSize": {"w":133,"h":135},
	"pivot": {"x":0.5,"y":0.5}
},
{
	"filename": "c10092.png",
	"frame": {"x":1487,"y":687,"w":133,"h":135},
	"rotated": false,
	"trimmed": false,
	"spriteSourceSize": {"x":0,"y":0,"w":133,"h":135},
	"sourceSize": {"w":133,"h":135},
	"pivot": {"x":0.5,"y":0.5}
},
{
	"filename": "c10093.png",
	"frame": {"x":1622,"y":687,"w":133,"h":135},
	"rotated": false,
	"trimmed": false,
	"spriteSourceSize": {"x":0,"y":0,"w":133,"h":135},
	"sourceSize": {"w":133,"h":135},
	"pivot": {"x":0.5,"y":0.5}
},
{
	"filename": "c10094.png",
	"frame": {"x":1622,"y":413,"w":133,"h":135},
	"rotated": false,
	"trimmed": false,
	"spriteSourceSize": {"x":0,"y":0,"w":133,"h":135},
	"sourceSize": {"w":133,"h":135},
	"pivot": {"x":0.5,"y":0.5}
}],
"meta": {
	"app": "http://www.codeandweb.com/texturepacker",
	"version": "1.0",
	"image": "countdown.png",
	"format": "RGBA8888",
	"size": {"w":2027,"h":824},
	"scale": "1",
	"smartupdate": "$TexturePacker:SmartUpdate:3e8bb588da1e212e24d7b0630d55baa1:6a60a0c1e80cdd022dc97f971618b2af:d7632b2ef722b276a9b266ab897c133e$"
}
}
