{"frames": [

{
	"filename": "sat20001.png",
	"frame": {"x":2,"y":2,"w":149,"h":127},
	"rotated": false,
	"trimmed": false,
	"spriteSourceSize": {"x":0,"y":0,"w":149,"h":127},
	"sourceSize": {"w":149,"h":127},
	"pivot": {"x":0.5,"y":0.5}
},
{
	"filename": "sat20002.png",
	"frame": {"x":2,"y":2,"w":149,"h":127},
	"rotated": false,
	"trimmed": false,
	"spriteSourceSize": {"x":0,"y":0,"w":149,"h":127},
	"sourceSize": {"w":149,"h":127},
	"pivot": {"x":0.5,"y":0.5}
},
{
	"filename": "sat20003.png",
	"frame": {"x":2,"y":2,"w":149,"h":127},
	"rotated": false,
	"trimmed": false,
	"spriteSourceSize": {"x":0,"y":0,"w":149,"h":127},
	"sourceSize": {"w":149,"h":127},
	"pivot": {"x":0.5,"y":0.5}
},
{
	"filename": "sat20004.png",
	"frame": {"x":2,"y":2,"w":149,"h":127},
	"rotated": false,
	"trimmed": false,
	"spriteSourceSize": {"x":0,"y":0,"w":149,"h":127},
	"sourceSize": {"w":149,"h":127},
	"pivot": {"x":0.5,"y":0.5}
},
{
	"filename": "sat20005.png",
	"frame": {"x":2,"y":2,"w":149,"h":127},
	"rotated": false,
	"trimmed": false,
	"spriteSourceSize": {"x":0,"y":0,"w":149,"h":127},
	"sourceSize": {"w":149,"h":127},
	"pivot": {"x":0.5,"y":0.5}
},
{
	"filename": "sat20006.png",
	"frame": {"x":2,"y":2,"w":149,"h":127},
	"rotated": false,
	"trimmed": false,
	"spriteSourceSize": {"x":0,"y":0,"w":149,"h":127},
	"sourceSize": {"w":149,"h":127},
	"pivot": {"x":0.5,"y":0.5}
},
{
	"filename": "sat20007.png",
	"frame": {"x":2,"y":2,"w":149,"h":127},
	"rotated": false,
	"trimmed": false,
	"spriteSourceSize": {"x":0,"y":0,"w":149,"h":127},
	"sourceSize": {"w":149,"h":127},
	"pivot": {"x":0.5,"y":0.5}
},
{
	"filename": "sat20008.png",
	"frame": {"x":2,"y":2,"w":149,"h":127},
	"rotated": false,
	"trimmed": false,
	"spriteSourceSize": {"x":0,"y":0,"w":149,"h":127},
	"sourceSize": {"w":149,"h":127},
	"pivot": {"x":0.5,"y":0.5}
},
{
	"filename": "sat20009.png",
	"frame": {"x":2,"y":2,"w":149,"h":127},
	"rotated": false,
	"trimmed": false,
	"spriteSourceSize": {"x":0,"y":0,"w":149,"h":127},
	"sourceSize": {"w":149,"h":127},
	"pivot": {"x":0.5,"y":0.5}
},
{
	"filename": "sat20010.png",
	"frame": {"x":2,"y":2,"w":149,"h":127},
	"rotated": false,
	"trimmed": false,
	"spriteSourceSize": {"x":0,"y":0,"w":149,"h":127},
	"sourceSize": {"w":149,"h":127},
	"pivot": {"x":0.5,"y":0.5}
},
{
	"filename": "sat20011.png",
	"frame": {"x":2,"y":2,"w":149,"h":127},
	"rotated": false,
	"trimmed": false,
	"spriteSourceSize": {"x":0,"y":0,"w":149,"h":127},
	"sourceSize": {"w":149,"h":127},
	"pivot": {"x":0.5,"y":0.5}
},
{
	"filename": "sat20012.png",
	"frame": {"x":2,"y":2,"w":149,"h":127},
	"rotated": false,
	"trimmed": false,
	"spriteSourceSize": {"x":0,"y":0,"w":149,"h":127},
	"sourceSize": {"w":149,"h":127},
	"pivot": {"x":0.5,"y":0.5}
},
{
	"filename": "sat20013.png",
	"frame": {"x":2,"y":2,"w":149,"h":127},
	"rotated": false,
	"trimmed": false,
	"spriteSourceSize": {"x":0,"y":0,"w":149,"h":127},
	"sourceSize": {"w":149,"h":127},
	"pivot": {"x":0.5,"y":0.5}
},
{
	"filename": "sat20014.png",
	"frame": {"x":2,"y":2,"w":149,"h":127},
	"rotated": false,
	"trimmed": false,
	"spriteSourceSize": {"x":0,"y":0,"w":149,"h":127},
	"sourceSize": {"w":149,"h":127},
	"pivot": {"x":0.5,"y":0.5}
},
{
	"filename": "sat20015.png",
	"frame": {"x":2,"y":2,"w":149,"h":127},
	"rotated": false,
	"trimmed": false,
	"spriteSourceSize": {"x":0,"y":0,"w":149,"h":127},
	"sourceSize": {"w":149,"h":127},
	"pivot": {"x":0.5,"y":0.5}
},
{
	"filename": "sat20016.png",
	"frame": {"x":2,"y":2,"w":149,"h":127},
	"rotated": false,
	"trimmed": false,
	"spriteSourceSize": {"x":0,"y":0,"w":149,"h":127},
	"sourceSize": {"w":149,"h":127},
	"pivot": {"x":0.5,"y":0.5}
},
{
	"filename": "sat20017.png",
	"frame": {"x":2,"y":2,"w":149,"h":127},
	"rotated": false,
	"trimmed": false,
	"spriteSourceSize": {"x":0,"y":0,"w":149,"h":127},
	"sourceSize": {"w":149,"h":127},
	"pivot": {"x":0.5,"y":0.5}
},
{
	"filename": "sat20018.png",
	"frame": {"x":2,"y":2,"w":149,"h":127},
	"rotated": false,
	"trimmed": false,
	"spriteSourceSize": {"x":0,"y":0,"w":149,"h":127},
	"sourceSize": {"w":149,"h":127},
	"pivot": {"x":0.5,"y":0.5}
},
{
	"filename": "sat20019.png",
	"frame": {"x":2,"y":2,"w":149,"h":127},
	"rotated": false,
	"trimmed": false,
	"spriteSourceSize": {"x":0,"y":0,"w":149,"h":127},
	"sourceSize": {"w":149,"h":127},
	"pivot": {"x":0.5,"y":0.5}
},
{
	"filename": "sat20020.png",
	"frame": {"x":153,"y":2,"w":149,"h":127},
	"rotated": false,
	"trimmed": false,
	"spriteSourceSize": {"x":0,"y":0,"w":149,"h":127},
	"sourceSize": {"w":149,"h":127},
	"pivot": {"x":0.5,"y":0.5}
},
{
	"filename": "sat20021.png",
	"frame": {"x":153,"y":2,"w":149,"h":127},
	"rotated": false,
	"trimmed": false,
	"spriteSourceSize": {"x":0,"y":0,"w":149,"h":127},
	"sourceSize": {"w":149,"h":127},
	"pivot": {"x":0.5,"y":0.5}
},
{
	"filename": "sat20022.png",
	"frame": {"x":153,"y":2,"w":149,"h":127},
	"rotated": false,
	"trimmed": false,
	"spriteSourceSize": {"x":0,"y":0,"w":149,"h":127},
	"sourceSize": {"w":149,"h":127},
	"pivot": {"x":0.5,"y":0.5}
},
{
	"filename": "sat20023.png",
	"frame": {"x":153,"y":2,"w":149,"h":127},
	"rotated": false,
	"trimmed": false,
	"spriteSourceSize": {"x":0,"y":0,"w":149,"h":127},
	"sourceSize": {"w":149,"h":127},
	"pivot": {"x":0.5,"y":0.5}
},
{
	"filename": "sat20024.png",
	"frame": {"x":153,"y":2,"w":149,"h":127},
	"rotated": false,
	"trimmed": false,
	"spriteSourceSize": {"x":0,"y":0,"w":149,"h":127},
	"sourceSize": {"w":149,"h":127},
	"pivot": {"x":0.5,"y":0.5}
},
{
	"filename": "sat20025.png",
	"frame": {"x":153,"y":2,"w":149,"h":127},
	"rotated": false,
	"trimmed": false,
	"spriteSourceSize": {"x":0,"y":0,"w":149,"h":127},
	"sourceSize": {"w":149,"h":127},
	"pivot": {"x":0.5,"y":0.5}
},
{
	"filename": "sat20026.png",
	"frame": {"x":153,"y":2,"w":149,"h":127},
	"rotated": false,
	"trimmed": false,
	"spriteSourceSize": {"x":0,"y":0,"w":149,"h":127},
	"sourceSize": {"w":149,"h":127},
	"pivot": {"x":0.5,"y":0.5}
},
{
	"filename": "sat20027.png",
	"frame": {"x":153,"y":2,"w":149,"h":127},
	"rotated": false,
	"trimmed": false,
	"spriteSourceSize": {"x":0,"y":0,"w":149,"h":127},
	"sourceSize": {"w":149,"h":127},
	"pivot": {"x":0.5,"y":0.5}
},
{
	"filename": "sat20028.png",
	"frame": {"x":153,"y":2,"w":149,"h":127},
	"rotated": false,
	"trimmed": false,
	"spriteSourceSize": {"x":0,"y":0,"w":149,"h":127},
	"sourceSize": {"w":149,"h":127},
	"pivot": {"x":0.5,"y":0.5}
},
{
	"filename": "sat20029.png",
	"frame": {"x":153,"y":2,"w":149,"h":127},
	"rotated": false,
	"trimmed": false,
	"spriteSourceSize": {"x":0,"y":0,"w":149,"h":127},
	"sourceSize": {"w":149,"h":127},
	"pivot": {"x":0.5,"y":0.5}
},
{
	"filename": "sat20030.png",
	"frame": {"x":153,"y":2,"w":149,"h":127},
	"rotated": false,
	"trimmed": false,
	"spriteSourceSize": {"x":0,"y":0,"w":149,"h":127},
	"sourceSize": {"w":149,"h":127},
	"pivot": {"x":0.5,"y":0.5}
},
{
	"filename": "sat20031.png",
	"frame": {"x":153,"y":2,"w":149,"h":127},
	"rotated": false,
	"trimmed": false,
	"spriteSourceSize": {"x":0,"y":0,"w":149,"h":127},
	"sourceSize": {"w":149,"h":127},
	"pivot": {"x":0.5,"y":0.5}
},
{
	"filename": "sat20032.png",
	"frame": {"x":153,"y":2,"w":149,"h":127},
	"rotated": false,
	"trimmed": false,
	"spriteSourceSize": {"x":0,"y":0,"w":149,"h":127},
	"sourceSize": {"w":149,"h":127},
	"pivot": {"x":0.5,"y":0.5}
},
{
	"filename": "sat20033.png",
	"frame": {"x":153,"y":2,"w":149,"h":127},
	"rotated": false,
	"trimmed": false,
	"spriteSourceSize": {"x":0,"y":0,"w":149,"h":127},
	"sourceSize": {"w":149,"h":127},
	"pivot": {"x":0.5,"y":0.5}
},
{
	"filename": "sat20034.png",
	"frame": {"x":153,"y":2,"w":149,"h":127},
	"rotated": false,
	"trimmed": false,
	"spriteSourceSize": {"x":0,"y":0,"w":149,"h":127},
	"sourceSize": {"w":149,"h":127},
	"pivot": {"x":0.5,"y":0.5}
},
{
	"filename": "sat20035.png",
	"frame": {"x":153,"y":2,"w":149,"h":127},
	"rotated": false,
	"trimmed": false,
	"spriteSourceSize": {"x":0,"y":0,"w":149,"h":127},
	"sourceSize": {"w":149,"h":127},
	"pivot": {"x":0.5,"y":0.5}
},
{
	"filename": "sat20036.png",
	"frame": {"x":153,"y":2,"w":149,"h":127},
	"rotated": false,
	"trimmed": false,
	"spriteSourceSize": {"x":0,"y":0,"w":149,"h":127},
	"sourceSize": {"w":149,"h":127},
	"pivot": {"x":0.5,"y":0.5}
},
{
	"filename": "sat20037.png",
	"frame": {"x":153,"y":2,"w":149,"h":127},
	"rotated": false,
	"trimmed": false,
	"spriteSourceSize": {"x":0,"y":0,"w":149,"h":127},
	"sourceSize": {"w":149,"h":127},
	"pivot": {"x":0.5,"y":0.5}
},
{
	"filename": "sat20038.png",
	"frame": {"x":153,"y":2,"w":149,"h":127},
	"rotated": false,
	"trimmed": false,
	"spriteSourceSize": {"x":0,"y":0,"w":149,"h":127},
	"sourceSize": {"w":149,"h":127},
	"pivot": {"x":0.5,"y":0.5}
},
{
	"filename": "sat20039.png",
	"frame": {"x":153,"y":2,"w":149,"h":127},
	"rotated": false,
	"trimmed": false,
	"spriteSourceSize": {"x":0,"y":0,"w":149,"h":127},
	"sourceSize": {"w":149,"h":127},
	"pivot": {"x":0.5,"y":0.5}
},
{
	"filename": "sat20040.png",
	"frame": {"x":153,"y":2,"w":149,"h":127},
	"rotated": false,
	"trimmed": false,
	"spriteSourceSize": {"x":0,"y":0,"w":149,"h":127},
	"sourceSize": {"w":149,"h":127},
	"pivot": {"x":0.5,"y":0.5}
},
{
	"filename": "sat20041.png",
	"frame": {"x":304,"y":2,"w":149,"h":127},
	"rotated": false,
	"trimmed": false,
	"spriteSourceSize": {"x":0,"y":0,"w":149,"h":127},
	"sourceSize": {"w":149,"h":127},
	"pivot": {"x":0.5,"y":0.5}
},
{
	"filename": "sat20042.png",
	"frame": {"x":455,"y":2,"w":149,"h":127},
	"rotated": false,
	"trimmed": false,
	"spriteSourceSize": {"x":0,"y":0,"w":149,"h":127},
	"sourceSize": {"w":149,"h":127},
	"pivot": {"x":0.5,"y":0.5}
},
{
	"filename": "sat20043.png",
	"frame": {"x":606,"y":2,"w":149,"h":127},
	"rotated": false,
	"trimmed": false,
	"spriteSourceSize": {"x":0,"y":0,"w":149,"h":127},
	"sourceSize": {"w":149,"h":127},
	"pivot": {"x":0.5,"y":0.5}
},
{
	"filename": "sat20044.png",
	"frame": {"x":757,"y":2,"w":149,"h":127},
	"rotated": false,
	"trimmed": false,
	"spriteSourceSize": {"x":0,"y":0,"w":149,"h":127},
	"sourceSize": {"w":149,"h":127},
	"pivot": {"x":0.5,"y":0.5}
},
{
	"filename": "sat20045.png",
	"frame": {"x":908,"y":2,"w":149,"h":127},
	"rotated": false,
	"trimmed": false,
	"spriteSourceSize": {"x":0,"y":0,"w":149,"h":127},
	"sourceSize": {"w":149,"h":127},
	"pivot": {"x":0.5,"y":0.5}
},
{
	"filename": "sat20046.png",
	"frame": {"x":1059,"y":2,"w":149,"h":127},
	"rotated": false,
	"trimmed": false,
	"spriteSourceSize": {"x":0,"y":0,"w":149,"h":127},
	"sourceSize": {"w":149,"h":127},
	"pivot": {"x":0.5,"y":0.5}
},
{
	"filename": "sat20047.png",
	"frame": {"x":1210,"y":2,"w":149,"h":127},
	"rotated": false,
	"trimmed": false,
	"spriteSourceSize": {"x":0,"y":0,"w":149,"h":127},
	"sourceSize": {"w":149,"h":127},
	"pivot": {"x":0.5,"y":0.5}
},
{
	"filename": "sat20048.png",
	"frame": {"x":1361,"y":2,"w":149,"h":127},
	"rotated": false,
	"trimmed": false,
	"spriteSourceSize": {"x":0,"y":0,"w":149,"h":127},
	"sourceSize": {"w":149,"h":127},
	"pivot": {"x":0.5,"y":0.5}
},
{
	"filename": "sat20049.png",
	"frame": {"x":1512,"y":2,"w":149,"h":127},
	"rotated": false,
	"trimmed": false,
	"spriteSourceSize": {"x":0,"y":0,"w":149,"h":127},
	"sourceSize": {"w":149,"h":127},
	"pivot": {"x":0.5,"y":0.5}
},
{
	"filename": "sat20050.png",
	"frame": {"x":1663,"y":2,"w":149,"h":127},
	"rotated": false,
	"trimmed": false,
	"spriteSourceSize": {"x":0,"y":0,"w":149,"h":127},
	"sourceSize": {"w":149,"h":127},
	"pivot": {"x":0.5,"y":0.5}
},
{
	"filename": "sat20051.png",
	"frame": {"x":2,"y":131,"w":149,"h":127},
	"rotated": false,
	"trimmed": false,
	"spriteSourceSize": {"x":0,"y":0,"w":149,"h":127},
	"sourceSize": {"w":149,"h":127},
	"pivot": {"x":0.5,"y":0.5}
},
{
	"filename": "sat20052.png",
	"frame": {"x":153,"y":131,"w":149,"h":127},
	"rotated": false,
	"trimmed": false,
	"spriteSourceSize": {"x":0,"y":0,"w":149,"h":127},
	"sourceSize": {"w":149,"h":127},
	"pivot": {"x":0.5,"y":0.5}
},
{
	"filename": "sat20053.png",
	"frame": {"x":304,"y":131,"w":149,"h":127},
	"rotated": false,
	"trimmed": false,
	"spriteSourceSize": {"x":0,"y":0,"w":149,"h":127},
	"sourceSize": {"w":149,"h":127},
	"pivot": {"x":0.5,"y":0.5}
},
{
	"filename": "sat20054.png",
	"frame": {"x":455,"y":131,"w":149,"h":127},
	"rotated": false,
	"trimmed": false,
	"spriteSourceSize": {"x":0,"y":0,"w":149,"h":127},
	"sourceSize": {"w":149,"h":127},
	"pivot": {"x":0.5,"y":0.5}
},
{
	"filename": "sat20055.png",
	"frame": {"x":606,"y":131,"w":149,"h":127},
	"rotated": false,
	"trimmed": false,
	"spriteSourceSize": {"x":0,"y":0,"w":149,"h":127},
	"sourceSize": {"w":149,"h":127},
	"pivot": {"x":0.5,"y":0.5}
},
{
	"filename": "sat20056.png",
	"frame": {"x":757,"y":131,"w":149,"h":127},
	"rotated": false,
	"trimmed": false,
	"spriteSourceSize": {"x":0,"y":0,"w":149,"h":127},
	"sourceSize": {"w":149,"h":127},
	"pivot": {"x":0.5,"y":0.5}
},
{
	"filename": "sat20057.png",
	"frame": {"x":908,"y":131,"w":149,"h":127},
	"rotated": false,
	"trimmed": false,
	"spriteSourceSize": {"x":0,"y":0,"w":149,"h":127},
	"sourceSize": {"w":149,"h":127},
	"pivot": {"x":0.5,"y":0.5}
},
{
	"filename": "sat20058.png",
	"frame": {"x":1059,"y":131,"w":149,"h":127},
	"rotated": false,
	"trimmed": false,
	"spriteSourceSize": {"x":0,"y":0,"w":149,"h":127},
	"sourceSize": {"w":149,"h":127},
	"pivot": {"x":0.5,"y":0.5}
},
{
	"filename": "sat20059.png",
	"frame": {"x":1210,"y":131,"w":149,"h":127},
	"rotated": false,
	"trimmed": false,
	"spriteSourceSize": {"x":0,"y":0,"w":149,"h":127},
	"sourceSize": {"w":149,"h":127},
	"pivot": {"x":0.5,"y":0.5}
},
{
	"filename": "sat20060.png",
	"frame": {"x":1361,"y":131,"w":149,"h":127},
	"rotated": false,
	"trimmed": false,
	"spriteSourceSize": {"x":0,"y":0,"w":149,"h":127},
	"sourceSize": {"w":149,"h":127},
	"pivot": {"x":0.5,"y":0.5}
},
{
	"filename": "sat20061.png",
	"frame": {"x":1512,"y":131,"w":149,"h":127},
	"rotated": false,
	"trimmed": false,
	"spriteSourceSize": {"x":0,"y":0,"w":149,"h":127},
	"sourceSize": {"w":149,"h":127},
	"pivot": {"x":0.5,"y":0.5}
},
{
	"filename": "sat20062.png",
	"frame": {"x":1663,"y":131,"w":149,"h":127},
	"rotated": false,
	"trimmed": false,
	"spriteSourceSize": {"x":0,"y":0,"w":149,"h":127},
	"sourceSize": {"w":149,"h":127},
	"pivot": {"x":0.5,"y":0.5}
},
{
	"filename": "sat20063.png",
	"frame": {"x":2,"y":260,"w":149,"h":127},
	"rotated": false,
	"trimmed": false,
	"spriteSourceSize": {"x":0,"y":0,"w":149,"h":127},
	"sourceSize": {"w":149,"h":127},
	"pivot": {"x":0.5,"y":0.5}
},
{
	"filename": "sat20064.png",
	"frame": {"x":153,"y":260,"w":149,"h":127},
	"rotated": false,
	"trimmed": false,
	"spriteSourceSize": {"x":0,"y":0,"w":149,"h":127},
	"sourceSize": {"w":149,"h":127},
	"pivot": {"x":0.5,"y":0.5}
},
{
	"filename": "sat20065.png",
	"frame": {"x":304,"y":260,"w":149,"h":127},
	"rotated": false,
	"trimmed": false,
	"spriteSourceSize": {"x":0,"y":0,"w":149,"h":127},
	"sourceSize": {"w":149,"h":127},
	"pivot": {"x":0.5,"y":0.5}
},
{
	"filename": "sat20066.png",
	"frame": {"x":455,"y":260,"w":149,"h":127},
	"rotated": false,
	"trimmed": false,
	"spriteSourceSize": {"x":0,"y":0,"w":149,"h":127},
	"sourceSize": {"w":149,"h":127},
	"pivot": {"x":0.5,"y":0.5}
},
{
	"filename": "sat20067.png",
	"frame": {"x":606,"y":260,"w":149,"h":127},
	"rotated": false,
	"trimmed": false,
	"spriteSourceSize": {"x":0,"y":0,"w":149,"h":127},
	"sourceSize": {"w":149,"h":127},
	"pivot": {"x":0.5,"y":0.5}
},
{
	"filename": "sat20068.png",
	"frame": {"x":757,"y":260,"w":149,"h":127},
	"rotated": false,
	"trimmed": false,
	"spriteSourceSize": {"x":0,"y":0,"w":149,"h":127},
	"sourceSize": {"w":149,"h":127},
	"pivot": {"x":0.5,"y":0.5}
},
{
	"filename": "sat20069.png",
	"frame": {"x":908,"y":260,"w":149,"h":127},
	"rotated": false,
	"trimmed": false,
	"spriteSourceSize": {"x":0,"y":0,"w":149,"h":127},
	"sourceSize": {"w":149,"h":127},
	"pivot": {"x":0.5,"y":0.5}
},
{
	"filename": "sat20070.png",
	"frame": {"x":1059,"y":260,"w":149,"h":127},
	"rotated": false,
	"trimmed": false,
	"spriteSourceSize": {"x":0,"y":0,"w":149,"h":127},
	"sourceSize": {"w":149,"h":127},
	"pivot": {"x":0.5,"y":0.5}
},
{
	"filename": "sat20071.png",
	"frame": {"x":1210,"y":260,"w":149,"h":127},
	"rotated": false,
	"trimmed": false,
	"spriteSourceSize": {"x":0,"y":0,"w":149,"h":127},
	"sourceSize": {"w":149,"h":127},
	"pivot": {"x":0.5,"y":0.5}
},
{
	"filename": "sat20072.png",
	"frame": {"x":1361,"y":260,"w":149,"h":127},
	"rotated": false,
	"trimmed": false,
	"spriteSourceSize": {"x":0,"y":0,"w":149,"h":127},
	"sourceSize": {"w":149,"h":127},
	"pivot": {"x":0.5,"y":0.5}
},
{
	"filename": "sat20073.png",
	"frame": {"x":1512,"y":260,"w":149,"h":127},
	"rotated": false,
	"trimmed": false,
	"spriteSourceSize": {"x":0,"y":0,"w":149,"h":127},
	"sourceSize": {"w":149,"h":127},
	"pivot": {"x":0.5,"y":0.5}
},
{
	"filename": "sat20074.png",
	"frame": {"x":1512,"y":260,"w":149,"h":127},
	"rotated": false,
	"trimmed": false,
	"spriteSourceSize": {"x":0,"y":0,"w":149,"h":127},
	"sourceSize": {"w":149,"h":127},
	"pivot": {"x":0.5,"y":0.5}
},
{
	"filename": "sat20075.png",
	"frame": {"x":1512,"y":260,"w":149,"h":127},
	"rotated": false,
	"trimmed": false,
	"spriteSourceSize": {"x":0,"y":0,"w":149,"h":127},
	"sourceSize": {"w":149,"h":127},
	"pivot": {"x":0.5,"y":0.5}
},
{
	"filename": "sat20076.png",
	"frame": {"x":1512,"y":260,"w":149,"h":127},
	"rotated": false,
	"trimmed": false,
	"spriteSourceSize": {"x":0,"y":0,"w":149,"h":127},
	"sourceSize": {"w":149,"h":127},
	"pivot": {"x":0.5,"y":0.5}
},
{
	"filename": "sat20077.png",
	"frame": {"x":1512,"y":260,"w":149,"h":127},
	"rotated": false,
	"trimmed": false,
	"spriteSourceSize": {"x":0,"y":0,"w":149,"h":127},
	"sourceSize": {"w":149,"h":127},
	"pivot": {"x":0.5,"y":0.5}
},
{
	"filename": "sat20078.png",
	"frame": {"x":1512,"y":260,"w":149,"h":127},
	"rotated": false,
	"trimmed": false,
	"spriteSourceSize": {"x":0,"y":0,"w":149,"h":127},
	"sourceSize": {"w":149,"h":127},
	"pivot": {"x":0.5,"y":0.5}
},
{
	"filename": "sat20079.png",
	"frame": {"x":1512,"y":260,"w":149,"h":127},
	"rotated": false,
	"trimmed": false,
	"spriteSourceSize": {"x":0,"y":0,"w":149,"h":127},
	"sourceSize": {"w":149,"h":127},
	"pivot": {"x":0.5,"y":0.5}
},
{
	"filename": "sat20080.png",
	"frame": {"x":1512,"y":260,"w":149,"h":127},
	"rotated": false,
	"trimmed": false,
	"spriteSourceSize": {"x":0,"y":0,"w":149,"h":127},
	"sourceSize": {"w":149,"h":127},
	"pivot": {"x":0.5,"y":0.5}
}],
"meta": {
	"app": "http://www.codeandweb.com/texturepacker",
	"version": "1.0",
	"image": "satelite1.png",
	"format": "RGBA8888",
	"size": {"w":1814,"h":389},
	"scale": "1",
	"smartupdate": "$TexturePacker:SmartUpdate:424025efc893cdee04becf375bd84ce5:0598bcdb6b008de57f0441258f5ff0b9:02a4dfe32a3efbb791a8aee51ed2c30c$"
}
}
