{"frames": [

{
	"filename": "sat10001.png",
	"frame": {"x":2,"y":2,"w":137,"h":153},
	"rotated": false,
	"trimmed": false,
	"spriteSourceSize": {"x":0,"y":0,"w":137,"h":153},
	"sourceSize": {"w":137,"h":153},
	"pivot": {"x":0.5,"y":0.5}
},
{
	"filename": "sat10002.png",
	"frame": {"x":2,"y":2,"w":137,"h":153},
	"rotated": false,
	"trimmed": false,
	"spriteSourceSize": {"x":0,"y":0,"w":137,"h":153},
	"sourceSize": {"w":137,"h":153},
	"pivot": {"x":0.5,"y":0.5}
},
{
	"filename": "sat10003.png",
	"frame": {"x":2,"y":2,"w":137,"h":153},
	"rotated": false,
	"trimmed": false,
	"spriteSourceSize": {"x":0,"y":0,"w":137,"h":153},
	"sourceSize": {"w":137,"h":153},
	"pivot": {"x":0.5,"y":0.5}
},
{
	"filename": "sat10004.png",
	"frame": {"x":2,"y":2,"w":137,"h":153},
	"rotated": false,
	"trimmed": false,
	"spriteSourceSize": {"x":0,"y":0,"w":137,"h":153},
	"sourceSize": {"w":137,"h":153},
	"pivot": {"x":0.5,"y":0.5}
},
{
	"filename": "sat10005.png",
	"frame": {"x":2,"y":2,"w":137,"h":153},
	"rotated": false,
	"trimmed": false,
	"spriteSourceSize": {"x":0,"y":0,"w":137,"h":153},
	"sourceSize": {"w":137,"h":153},
	"pivot": {"x":0.5,"y":0.5}
},
{
	"filename": "sat10006.png",
	"frame": {"x":2,"y":2,"w":137,"h":153},
	"rotated": false,
	"trimmed": false,
	"spriteSourceSize": {"x":0,"y":0,"w":137,"h":153},
	"sourceSize": {"w":137,"h":153},
	"pivot": {"x":0.5,"y":0.5}
},
{
	"filename": "sat10007.png",
	"frame": {"x":2,"y":2,"w":137,"h":153},
	"rotated": false,
	"trimmed": false,
	"spriteSourceSize": {"x":0,"y":0,"w":137,"h":153},
	"sourceSize": {"w":137,"h":153},
	"pivot": {"x":0.5,"y":0.5}
},
{
	"filename": "sat10008.png",
	"frame": {"x":2,"y":2,"w":137,"h":153},
	"rotated": false,
	"trimmed": false,
	"spriteSourceSize": {"x":0,"y":0,"w":137,"h":153},
	"sourceSize": {"w":137,"h":153},
	"pivot": {"x":0.5,"y":0.5}
},
{
	"filename": "sat10009.png",
	"frame": {"x":2,"y":2,"w":137,"h":153},
	"rotated": false,
	"trimmed": false,
	"spriteSourceSize": {"x":0,"y":0,"w":137,"h":153},
	"sourceSize": {"w":137,"h":153},
	"pivot": {"x":0.5,"y":0.5}
},
{
	"filename": "sat10010.png",
	"frame": {"x":2,"y":2,"w":137,"h":153},
	"rotated": false,
	"trimmed": false,
	"spriteSourceSize": {"x":0,"y":0,"w":137,"h":153},
	"sourceSize": {"w":137,"h":153},
	"pivot": {"x":0.5,"y":0.5}
},
{
	"filename": "sat10011.png",
	"frame": {"x":2,"y":2,"w":137,"h":153},
	"rotated": false,
	"trimmed": false,
	"spriteSourceSize": {"x":0,"y":0,"w":137,"h":153},
	"sourceSize": {"w":137,"h":153},
	"pivot": {"x":0.5,"y":0.5}
},
{
	"filename": "sat10012.png",
	"frame": {"x":2,"y":2,"w":137,"h":153},
	"rotated": false,
	"trimmed": false,
	"spriteSourceSize": {"x":0,"y":0,"w":137,"h":153},
	"sourceSize": {"w":137,"h":153},
	"pivot": {"x":0.5,"y":0.5}
},
{
	"filename": "sat10013.png",
	"frame": {"x":2,"y":2,"w":137,"h":153},
	"rotated": false,
	"trimmed": false,
	"spriteSourceSize": {"x":0,"y":0,"w":137,"h":153},
	"sourceSize": {"w":137,"h":153},
	"pivot": {"x":0.5,"y":0.5}
},
{
	"filename": "sat10014.png",
	"frame": {"x":2,"y":2,"w":137,"h":153},
	"rotated": false,
	"trimmed": false,
	"spriteSourceSize": {"x":0,"y":0,"w":137,"h":153},
	"sourceSize": {"w":137,"h":153},
	"pivot": {"x":0.5,"y":0.5}
},
{
	"filename": "sat10015.png",
	"frame": {"x":2,"y":2,"w":137,"h":153},
	"rotated": false,
	"trimmed": false,
	"spriteSourceSize": {"x":0,"y":0,"w":137,"h":153},
	"sourceSize": {"w":137,"h":153},
	"pivot": {"x":0.5,"y":0.5}
},
{
	"filename": "sat10016.png",
	"frame": {"x":2,"y":2,"w":137,"h":153},
	"rotated": false,
	"trimmed": false,
	"spriteSourceSize": {"x":0,"y":0,"w":137,"h":153},
	"sourceSize": {"w":137,"h":153},
	"pivot": {"x":0.5,"y":0.5}
},
{
	"filename": "sat10017.png",
	"frame": {"x":2,"y":2,"w":137,"h":153},
	"rotated": false,
	"trimmed": false,
	"spriteSourceSize": {"x":0,"y":0,"w":137,"h":153},
	"sourceSize": {"w":137,"h":153},
	"pivot": {"x":0.5,"y":0.5}
},
{
	"filename": "sat10018.png",
	"frame": {"x":2,"y":2,"w":137,"h":153},
	"rotated": false,
	"trimmed": false,
	"spriteSourceSize": {"x":0,"y":0,"w":137,"h":153},
	"sourceSize": {"w":137,"h":153},
	"pivot": {"x":0.5,"y":0.5}
},
{
	"filename": "sat10019.png",
	"frame": {"x":2,"y":2,"w":137,"h":153},
	"rotated": false,
	"trimmed": false,
	"spriteSourceSize": {"x":0,"y":0,"w":137,"h":153},
	"sourceSize": {"w":137,"h":153},
	"pivot": {"x":0.5,"y":0.5}
},
{
	"filename": "sat10020.png",
	"frame": {"x":141,"y":2,"w":137,"h":153},
	"rotated": false,
	"trimmed": false,
	"spriteSourceSize": {"x":0,"y":0,"w":137,"h":153},
	"sourceSize": {"w":137,"h":153},
	"pivot": {"x":0.5,"y":0.5}
},
{
	"filename": "sat10021.png",
	"frame": {"x":141,"y":2,"w":137,"h":153},
	"rotated": false,
	"trimmed": false,
	"spriteSourceSize": {"x":0,"y":0,"w":137,"h":153},
	"sourceSize": {"w":137,"h":153},
	"pivot": {"x":0.5,"y":0.5}
},
{
	"filename": "sat10022.png",
	"frame": {"x":141,"y":2,"w":137,"h":153},
	"rotated": false,
	"trimmed": false,
	"spriteSourceSize": {"x":0,"y":0,"w":137,"h":153},
	"sourceSize": {"w":137,"h":153},
	"pivot": {"x":0.5,"y":0.5}
},
{
	"filename": "sat10023.png",
	"frame": {"x":141,"y":2,"w":137,"h":153},
	"rotated": false,
	"trimmed": false,
	"spriteSourceSize": {"x":0,"y":0,"w":137,"h":153},
	"sourceSize": {"w":137,"h":153},
	"pivot": {"x":0.5,"y":0.5}
},
{
	"filename": "sat10024.png",
	"frame": {"x":141,"y":2,"w":137,"h":153},
	"rotated": false,
	"trimmed": false,
	"spriteSourceSize": {"x":0,"y":0,"w":137,"h":153},
	"sourceSize": {"w":137,"h":153},
	"pivot": {"x":0.5,"y":0.5}
},
{
	"filename": "sat10025.png",
	"frame": {"x":141,"y":2,"w":137,"h":153},
	"rotated": false,
	"trimmed": false,
	"spriteSourceSize": {"x":0,"y":0,"w":137,"h":153},
	"sourceSize": {"w":137,"h":153},
	"pivot": {"x":0.5,"y":0.5}
},
{
	"filename": "sat10026.png",
	"frame": {"x":141,"y":2,"w":137,"h":153},
	"rotated": false,
	"trimmed": false,
	"spriteSourceSize": {"x":0,"y":0,"w":137,"h":153},
	"sourceSize": {"w":137,"h":153},
	"pivot": {"x":0.5,"y":0.5}
},
{
	"filename": "sat10027.png",
	"frame": {"x":141,"y":2,"w":137,"h":153},
	"rotated": false,
	"trimmed": false,
	"spriteSourceSize": {"x":0,"y":0,"w":137,"h":153},
	"sourceSize": {"w":137,"h":153},
	"pivot": {"x":0.5,"y":0.5}
},
{
	"filename": "sat10028.png",
	"frame": {"x":141,"y":2,"w":137,"h":153},
	"rotated": false,
	"trimmed": false,
	"spriteSourceSize": {"x":0,"y":0,"w":137,"h":153},
	"sourceSize": {"w":137,"h":153},
	"pivot": {"x":0.5,"y":0.5}
},
{
	"filename": "sat10029.png",
	"frame": {"x":141,"y":2,"w":137,"h":153},
	"rotated": false,
	"trimmed": false,
	"spriteSourceSize": {"x":0,"y":0,"w":137,"h":153},
	"sourceSize": {"w":137,"h":153},
	"pivot": {"x":0.5,"y":0.5}
},
{
	"filename": "sat10030.png",
	"frame": {"x":141,"y":2,"w":137,"h":153},
	"rotated": false,
	"trimmed": false,
	"spriteSourceSize": {"x":0,"y":0,"w":137,"h":153},
	"sourceSize": {"w":137,"h":153},
	"pivot": {"x":0.5,"y":0.5}
},
{
	"filename": "sat10031.png",
	"frame": {"x":141,"y":2,"w":137,"h":153},
	"rotated": false,
	"trimmed": false,
	"spriteSourceSize": {"x":0,"y":0,"w":137,"h":153},
	"sourceSize": {"w":137,"h":153},
	"pivot": {"x":0.5,"y":0.5}
},
{
	"filename": "sat10032.png",
	"frame": {"x":141,"y":2,"w":137,"h":153},
	"rotated": false,
	"trimmed": false,
	"spriteSourceSize": {"x":0,"y":0,"w":137,"h":153},
	"sourceSize": {"w":137,"h":153},
	"pivot": {"x":0.5,"y":0.5}
},
{
	"filename": "sat10033.png",
	"frame": {"x":141,"y":2,"w":137,"h":153},
	"rotated": false,
	"trimmed": false,
	"spriteSourceSize": {"x":0,"y":0,"w":137,"h":153},
	"sourceSize": {"w":137,"h":153},
	"pivot": {"x":0.5,"y":0.5}
},
{
	"filename": "sat10034.png",
	"frame": {"x":141,"y":2,"w":137,"h":153},
	"rotated": false,
	"trimmed": false,
	"spriteSourceSize": {"x":0,"y":0,"w":137,"h":153},
	"sourceSize": {"w":137,"h":153},
	"pivot": {"x":0.5,"y":0.5}
},
{
	"filename": "sat10035.png",
	"frame": {"x":141,"y":2,"w":137,"h":153},
	"rotated": false,
	"trimmed": false,
	"spriteSourceSize": {"x":0,"y":0,"w":137,"h":153},
	"sourceSize": {"w":137,"h":153},
	"pivot": {"x":0.5,"y":0.5}
},
{
	"filename": "sat10036.png",
	"frame": {"x":141,"y":2,"w":137,"h":153},
	"rotated": false,
	"trimmed": false,
	"spriteSourceSize": {"x":0,"y":0,"w":137,"h":153},
	"sourceSize": {"w":137,"h":153},
	"pivot": {"x":0.5,"y":0.5}
},
{
	"filename": "sat10037.png",
	"frame": {"x":141,"y":2,"w":137,"h":153},
	"rotated": false,
	"trimmed": false,
	"spriteSourceSize": {"x":0,"y":0,"w":137,"h":153},
	"sourceSize": {"w":137,"h":153},
	"pivot": {"x":0.5,"y":0.5}
},
{
	"filename": "sat10038.png",
	"frame": {"x":141,"y":2,"w":137,"h":153},
	"rotated": false,
	"trimmed": false,
	"spriteSourceSize": {"x":0,"y":0,"w":137,"h":153},
	"sourceSize": {"w":137,"h":153},
	"pivot": {"x":0.5,"y":0.5}
},
{
	"filename": "sat10039.png",
	"frame": {"x":141,"y":2,"w":137,"h":153},
	"rotated": false,
	"trimmed": false,
	"spriteSourceSize": {"x":0,"y":0,"w":137,"h":153},
	"sourceSize": {"w":137,"h":153},
	"pivot": {"x":0.5,"y":0.5}
},
{
	"filename": "sat10040.png",
	"frame": {"x":141,"y":2,"w":137,"h":153},
	"rotated": false,
	"trimmed": false,
	"spriteSourceSize": {"x":0,"y":0,"w":137,"h":153},
	"sourceSize": {"w":137,"h":153},
	"pivot": {"x":0.5,"y":0.5}
},
{
	"filename": "sat10041.png",
	"frame": {"x":280,"y":2,"w":137,"h":153},
	"rotated": false,
	"trimmed": false,
	"spriteSourceSize": {"x":0,"y":0,"w":137,"h":153},
	"sourceSize": {"w":137,"h":153},
	"pivot": {"x":0.5,"y":0.5}
},
{
	"filename": "sat10042.png",
	"frame": {"x":280,"y":2,"w":137,"h":153},
	"rotated": false,
	"trimmed": false,
	"spriteSourceSize": {"x":0,"y":0,"w":137,"h":153},
	"sourceSize": {"w":137,"h":153},
	"pivot": {"x":0.5,"y":0.5}
},
{
	"filename": "sat10043.png",
	"frame": {"x":280,"y":2,"w":137,"h":153},
	"rotated": false,
	"trimmed": false,
	"spriteSourceSize": {"x":0,"y":0,"w":137,"h":153},
	"sourceSize": {"w":137,"h":153},
	"pivot": {"x":0.5,"y":0.5}
},
{
	"filename": "sat10044.png",
	"frame": {"x":280,"y":2,"w":137,"h":153},
	"rotated": false,
	"trimmed": false,
	"spriteSourceSize": {"x":0,"y":0,"w":137,"h":153},
	"sourceSize": {"w":137,"h":153},
	"pivot": {"x":0.5,"y":0.5}
},
{
	"filename": "sat10045.png",
	"frame": {"x":280,"y":2,"w":137,"h":153},
	"rotated": false,
	"trimmed": false,
	"spriteSourceSize": {"x":0,"y":0,"w":137,"h":153},
	"sourceSize": {"w":137,"h":153},
	"pivot": {"x":0.5,"y":0.5}
},
{
	"filename": "sat10046.png",
	"frame": {"x":280,"y":2,"w":137,"h":153},
	"rotated": false,
	"trimmed": false,
	"spriteSourceSize": {"x":0,"y":0,"w":137,"h":153},
	"sourceSize": {"w":137,"h":153},
	"pivot": {"x":0.5,"y":0.5}
},
{
	"filename": "sat10047.png",
	"frame": {"x":280,"y":2,"w":137,"h":153},
	"rotated": false,
	"trimmed": false,
	"spriteSourceSize": {"x":0,"y":0,"w":137,"h":153},
	"sourceSize": {"w":137,"h":153},
	"pivot": {"x":0.5,"y":0.5}
},
{
	"filename": "sat10048.png",
	"frame": {"x":280,"y":2,"w":137,"h":153},
	"rotated": false,
	"trimmed": false,
	"spriteSourceSize": {"x":0,"y":0,"w":137,"h":153},
	"sourceSize": {"w":137,"h":153},
	"pivot": {"x":0.5,"y":0.5}
},
{
	"filename": "sat10049.png",
	"frame": {"x":280,"y":2,"w":137,"h":153},
	"rotated": false,
	"trimmed": false,
	"spriteSourceSize": {"x":0,"y":0,"w":137,"h":153},
	"sourceSize": {"w":137,"h":153},
	"pivot": {"x":0.5,"y":0.5}
},
{
	"filename": "sat10050.png",
	"frame": {"x":280,"y":2,"w":137,"h":153},
	"rotated": false,
	"trimmed": false,
	"spriteSourceSize": {"x":0,"y":0,"w":137,"h":153},
	"sourceSize": {"w":137,"h":153},
	"pivot": {"x":0.5,"y":0.5}
},
{
	"filename": "sat10051.png",
	"frame": {"x":280,"y":2,"w":137,"h":153},
	"rotated": false,
	"trimmed": false,
	"spriteSourceSize": {"x":0,"y":0,"w":137,"h":153},
	"sourceSize": {"w":137,"h":153},
	"pivot": {"x":0.5,"y":0.5}
},
{
	"filename": "sat10052.png",
	"frame": {"x":280,"y":2,"w":137,"h":153},
	"rotated": false,
	"trimmed": false,
	"spriteSourceSize": {"x":0,"y":0,"w":137,"h":153},
	"sourceSize": {"w":137,"h":153},
	"pivot": {"x":0.5,"y":0.5}
},
{
	"filename": "sat10053.png",
	"frame": {"x":280,"y":2,"w":137,"h":153},
	"rotated": false,
	"trimmed": false,
	"spriteSourceSize": {"x":0,"y":0,"w":137,"h":153},
	"sourceSize": {"w":137,"h":153},
	"pivot": {"x":0.5,"y":0.5}
},
{
	"filename": "sat10054.png",
	"frame": {"x":280,"y":2,"w":137,"h":153},
	"rotated": false,
	"trimmed": false,
	"spriteSourceSize": {"x":0,"y":0,"w":137,"h":153},
	"sourceSize": {"w":137,"h":153},
	"pivot": {"x":0.5,"y":0.5}
},
{
	"filename": "sat10055.png",
	"frame": {"x":419,"y":2,"w":137,"h":153},
	"rotated": false,
	"trimmed": false,
	"spriteSourceSize": {"x":0,"y":0,"w":137,"h":153},
	"sourceSize": {"w":137,"h":153},
	"pivot": {"x":0.5,"y":0.5}
},
{
	"filename": "sat10056.png",
	"frame": {"x":558,"y":2,"w":137,"h":153},
	"rotated": false,
	"trimmed": false,
	"spriteSourceSize": {"x":0,"y":0,"w":137,"h":153},
	"sourceSize": {"w":137,"h":153},
	"pivot": {"x":0.5,"y":0.5}
},
{
	"filename": "sat10057.png",
	"frame": {"x":697,"y":2,"w":137,"h":153},
	"rotated": false,
	"trimmed": false,
	"spriteSourceSize": {"x":0,"y":0,"w":137,"h":153},
	"sourceSize": {"w":137,"h":153},
	"pivot": {"x":0.5,"y":0.5}
},
{
	"filename": "sat10058.png",
	"frame": {"x":836,"y":2,"w":137,"h":153},
	"rotated": false,
	"trimmed": false,
	"spriteSourceSize": {"x":0,"y":0,"w":137,"h":153},
	"sourceSize": {"w":137,"h":153},
	"pivot": {"x":0.5,"y":0.5}
},
{
	"filename": "sat10059.png",
	"frame": {"x":975,"y":2,"w":137,"h":153},
	"rotated": false,
	"trimmed": false,
	"spriteSourceSize": {"x":0,"y":0,"w":137,"h":153},
	"sourceSize": {"w":137,"h":153},
	"pivot": {"x":0.5,"y":0.5}
},
{
	"filename": "sat10060.png",
	"frame": {"x":2,"y":157,"w":137,"h":153},
	"rotated": false,
	"trimmed": false,
	"spriteSourceSize": {"x":0,"y":0,"w":137,"h":153},
	"sourceSize": {"w":137,"h":153},
	"pivot": {"x":0.5,"y":0.5}
},
{
	"filename": "sat10061.png",
	"frame": {"x":141,"y":157,"w":137,"h":153},
	"rotated": false,
	"trimmed": false,
	"spriteSourceSize": {"x":0,"y":0,"w":137,"h":153},
	"sourceSize": {"w":137,"h":153},
	"pivot": {"x":0.5,"y":0.5}
},
{
	"filename": "sat10062.png",
	"frame": {"x":280,"y":157,"w":137,"h":153},
	"rotated": false,
	"trimmed": false,
	"spriteSourceSize": {"x":0,"y":0,"w":137,"h":153},
	"sourceSize": {"w":137,"h":153},
	"pivot": {"x":0.5,"y":0.5}
},
{
	"filename": "sat10063.png",
	"frame": {"x":419,"y":157,"w":137,"h":153},
	"rotated": false,
	"trimmed": false,
	"spriteSourceSize": {"x":0,"y":0,"w":137,"h":153},
	"sourceSize": {"w":137,"h":153},
	"pivot": {"x":0.5,"y":0.5}
},
{
	"filename": "sat10064.png",
	"frame": {"x":558,"y":157,"w":137,"h":153},
	"rotated": false,
	"trimmed": false,
	"spriteSourceSize": {"x":0,"y":0,"w":137,"h":153},
	"sourceSize": {"w":137,"h":153},
	"pivot": {"x":0.5,"y":0.5}
},
{
	"filename": "sat10065.png",
	"frame": {"x":697,"y":157,"w":137,"h":153},
	"rotated": false,
	"trimmed": false,
	"spriteSourceSize": {"x":0,"y":0,"w":137,"h":153},
	"sourceSize": {"w":137,"h":153},
	"pivot": {"x":0.5,"y":0.5}
},
{
	"filename": "sat10066.png",
	"frame": {"x":836,"y":157,"w":137,"h":153},
	"rotated": false,
	"trimmed": false,
	"spriteSourceSize": {"x":0,"y":0,"w":137,"h":153},
	"sourceSize": {"w":137,"h":153},
	"pivot": {"x":0.5,"y":0.5}
},
{
	"filename": "sat10067.png",
	"frame": {"x":975,"y":157,"w":137,"h":153},
	"rotated": false,
	"trimmed": false,
	"spriteSourceSize": {"x":0,"y":0,"w":137,"h":153},
	"sourceSize": {"w":137,"h":153},
	"pivot": {"x":0.5,"y":0.5}
},
{
	"filename": "sat10068.png",
	"frame": {"x":2,"y":312,"w":137,"h":153},
	"rotated": false,
	"trimmed": false,
	"spriteSourceSize": {"x":0,"y":0,"w":137,"h":153},
	"sourceSize": {"w":137,"h":153},
	"pivot": {"x":0.5,"y":0.5}
},
{
	"filename": "sat10069.png",
	"frame": {"x":141,"y":312,"w":137,"h":153},
	"rotated": false,
	"trimmed": false,
	"spriteSourceSize": {"x":0,"y":0,"w":137,"h":153},
	"sourceSize": {"w":137,"h":153},
	"pivot": {"x":0.5,"y":0.5}
},
{
	"filename": "sat10070.png",
	"frame": {"x":280,"y":312,"w":137,"h":153},
	"rotated": false,
	"trimmed": false,
	"spriteSourceSize": {"x":0,"y":0,"w":137,"h":153},
	"sourceSize": {"w":137,"h":153},
	"pivot": {"x":0.5,"y":0.5}
},
{
	"filename": "sat10071.png",
	"frame": {"x":419,"y":312,"w":137,"h":153},
	"rotated": false,
	"trimmed": false,
	"spriteSourceSize": {"x":0,"y":0,"w":137,"h":153},
	"sourceSize": {"w":137,"h":153},
	"pivot": {"x":0.5,"y":0.5}
},
{
	"filename": "sat10072.png",
	"frame": {"x":558,"y":312,"w":137,"h":153},
	"rotated": false,
	"trimmed": false,
	"spriteSourceSize": {"x":0,"y":0,"w":137,"h":153},
	"sourceSize": {"w":137,"h":153},
	"pivot": {"x":0.5,"y":0.5}
},
{
	"filename": "sat10073.png",
	"frame": {"x":697,"y":312,"w":137,"h":153},
	"rotated": false,
	"trimmed": false,
	"spriteSourceSize": {"x":0,"y":0,"w":137,"h":153},
	"sourceSize": {"w":137,"h":153},
	"pivot": {"x":0.5,"y":0.5}
},
{
	"filename": "sat10074.png",
	"frame": {"x":836,"y":312,"w":137,"h":153},
	"rotated": false,
	"trimmed": false,
	"spriteSourceSize": {"x":0,"y":0,"w":137,"h":153},
	"sourceSize": {"w":137,"h":153},
	"pivot": {"x":0.5,"y":0.5}
},
{
	"filename": "sat10075.png",
	"frame": {"x":975,"y":312,"w":137,"h":153},
	"rotated": false,
	"trimmed": false,
	"spriteSourceSize": {"x":0,"y":0,"w":137,"h":153},
	"sourceSize": {"w":137,"h":153},
	"pivot": {"x":0.5,"y":0.5}
},
{
	"filename": "sat10076.png",
	"frame": {"x":975,"y":312,"w":137,"h":153},
	"rotated": false,
	"trimmed": false,
	"spriteSourceSize": {"x":0,"y":0,"w":137,"h":153},
	"sourceSize": {"w":137,"h":153},
	"pivot": {"x":0.5,"y":0.5}
},
{
	"filename": "sat10077.png",
	"frame": {"x":975,"y":312,"w":137,"h":153},
	"rotated": false,
	"trimmed": false,
	"spriteSourceSize": {"x":0,"y":0,"w":137,"h":153},
	"sourceSize": {"w":137,"h":153},
	"pivot": {"x":0.5,"y":0.5}
},
{
	"filename": "sat10078.png",
	"frame": {"x":975,"y":312,"w":137,"h":153},
	"rotated": false,
	"trimmed": false,
	"spriteSourceSize": {"x":0,"y":0,"w":137,"h":153},
	"sourceSize": {"w":137,"h":153},
	"pivot": {"x":0.5,"y":0.5}
},
{
	"filename": "sat10079.png",
	"frame": {"x":975,"y":312,"w":137,"h":153},
	"rotated": false,
	"trimmed": false,
	"spriteSourceSize": {"x":0,"y":0,"w":137,"h":153},
	"sourceSize": {"w":137,"h":153},
	"pivot": {"x":0.5,"y":0.5}
},
{
	"filename": "sat10080.png",
	"frame": {"x":975,"y":312,"w":137,"h":153},
	"rotated": false,
	"trimmed": false,
	"spriteSourceSize": {"x":0,"y":0,"w":137,"h":153},
	"sourceSize": {"w":137,"h":153},
	"pivot": {"x":0.5,"y":0.5}
}],
"meta": {
	"app": "http://www.codeandweb.com/texturepacker",
	"version": "1.0",
	"image": "satelite0.png",
	"format": "RGBA8888",
	"size": {"w":1114,"h":467},
	"scale": "1",
	"smartupdate": "$TexturePacker:SmartUpdate:356f770207ba82cde137909252690946:4dbed53ebc553acbb7d6538d009d04f6:97c22290934785a43d515a6f6584d6c0$"
}
}
