	{ 
		
		"game": [
			
				{
					"density": 2, "friction": 0, "bounce": 0, 
					"filter": { "categoryBits": 1, "maskBits": 65535 },
					"shape": [   121, 84.5  ,  121.5, 90  ,  116.5, 88  ]
				}  ,
				{
					"density": 2, "friction": 0, "bounce": 0, 
					"filter": { "categoryBits": 1, "maskBits": 65535 },
					"shape": [   121.5, 130  ,  121.5, 90  ,  122.5, 78  ,  130, 26.5  ,  131, 24.5  ,  130.5, 126  ,  127, 131.5  ]
				}  ,
				{
					"density": 2, "friction": 0, "bounce": 0, 
					"filter": { "categoryBits": 1, "maskBits": 65535 },
					"shape": [   26.5, 106  ,  45.5, 69  ,  31, 114.5  ,  27, 114.5  ]
				}  ,
				{
					"density": 2, "friction": 0, "bounce": 0, 
					"filter": { "categoryBits": 1, "maskBits": 65535 },
					"shape": [   131, 24.5  ,  191.5, 144  ,  161.5, 307  ,  158, 310.5  ,  132, 309.5  ]
				}  ,
				{
					"density": 2, "friction": 0, "bounce": 0, 
					"filter": { "categoryBits": 1, "maskBits": 65535 },
					"shape": [   163, 18.5  ,  192, 18.5  ,  192.5, 21  ,  191.5, 117  ,  159, 24.5  ,  160.5, 19  ]
				}  ,
				{
					"density": 2, "friction": 0, "bounce": 0, 
					"filter": { "categoryBits": 1, "maskBits": 65535 },
					"shape": [   163, 315.5  ,  161.5, 307  ,  190.5, 206  ,  192.5, 306  ,  189, 315.5  ]
				}  ,
				{
					"density": 2, "friction": 0, "bounce": 0, 
					"filter": { "categoryBits": 1, "maskBits": 65535 },
					"shape": [   31, 114.5  ,  45.5, 69  ,  45.5, 131  ,  41, 131.5  ]
				}  ,
				{
					"density": 2, "friction": 0, "bounce": 0, 
					"filter": { "categoryBits": 1, "maskBits": 65535 },
					"shape": [   22.5, 98  ,  24, 26.5  ,  48, 63.5  ,  45.5, 69  ,  26.5, 106  ]
				}  ,
				{
					"density": 2, "friction": 0, "bounce": 0, 
					"filter": { "categoryBits": 1, "maskBits": 65535 },
					"shape": [   122.5, 78  ,  121.5, 90  ,  121, 84.5  ]
				}  ,
				{
					"density": 2, "friction": 0, "bounce": 0, 
					"filter": { "categoryBits": 1, "maskBits": 65535 },
					"shape": [   130, 26.5  ,  120.5, 64  ,  48, 63.5  ,  24, 26.5  ]
				}  ,
				{
					"density": 2, "friction": 0, "bounce": 0, 
					"filter": { "categoryBits": 1, "maskBits": 65535 },
					"shape": [   130, 26.5  ,  122.5, 78  ,  120.5, 64  ]
				}  ,
				{
					"density": 2, "friction": 0, "bounce": 0, 
					"filter": { "categoryBits": 1, "maskBits": 65535 },
					"shape": [   161.5, 307  ,  191.5, 144  ,  190.5, 206  ]
				}  ,
				{
					"density": 2, "friction": 0, "bounce": 0, 
					"filter": { "categoryBits": 1, "maskBits": 65535 },
					"shape": [   193.5, 138  ,  191.5, 144  ,  191.5, 117  ,  193.5, 118  ]
				}  ,
				{
					"density": 2, "friction": 0, "bounce": 0, 
					"filter": { "categoryBits": 1, "maskBits": 65535 },
					"shape": [   191.5, 117  ,  191.5, 144  ,  131, 24.5  ,  159, 24.5  ]
				}  ,
				{
					"density": 2, "friction": 0, "bounce": 0, 
					"filter": { "categoryBits": 1, "maskBits": 65535 },
					"shape": [   130.5, 126  ,  130.5, 235  ,  127.5, 223  ]
				}   ,
				{
					"density": 2, "friction": 0, "bounce": 0, 
					"filter": { "categoryBits": 1, "maskBits": 65535 },
					"shape": [   167.5, 384  ,  161.5, 393  ,  158.5, 365  ,  169.5, 372  ]
				}  ,
				{
					"density": 2, "friction": 0, "bounce": 0, 
					"filter": { "categoryBits": 1, "maskBits": 65535 },
					"shape": [   128.5, 440  ,  130.5, 436  ,  161.5, 393  ,  159.5, 485  ,  156, 494.5  ,  130, 494.5  ]
				}  ,
				{
					"density": 2, "friction": 0, "bounce": 0, 
					"filter": { "categoryBits": 1, "maskBits": 65535 },
					"shape": [   148, 316.5  ,  130.5, 412  ,  127.5, 404  ,  128.5, 318  ]
				}  ,
				{
					"density": 2, "friction": 0, "bounce": 0, 
					"filter": { "categoryBits": 1, "maskBits": 65535 },
					"shape": [   158.5, 365  ,  149, 316.5  ,  159, 316.5  ]
				}  ,
				{
					"density": 2, "friction": 0, "bounce": 0, 
					"filter": { "categoryBits": 1, "maskBits": 65535 },
					"shape": [   148, 316.5  ,  149, 316.5  ,  161.5, 393  ,  130.5, 436  ,  130.5, 412  ]
				}  ,
				{
					"density": 2, "friction": 0, "bounce": 0, 
					"filter": { "categoryBits": 1, "maskBits": 65535 },
					"shape": [   161.5, 393  ,  149, 316.5  ,  158.5, 365  ]
				}   ,
				{
					"density": 2, "friction": 0, "bounce": 0, 
					"filter": { "categoryBits": 1, "maskBits": 65535 },
					"shape": [   269, 301.5  ,  285.5, 380  ,  273.5, 354  ,  261.5, 304  ,  263, 298.5  ]
				}  ,
				{
					"density": 2, "friction": 0, "bounce": 0, 
					"filter": { "categoryBits": 1, "maskBits": 65535 },
					"shape": [   511.5, 145  ,  503, 151.5  ,  433, 164.5  ,  431.5, 158  ,  429, 89.5  ,  509.5, 91  ]
				}  ,
				{
					"density": 2, "friction": 0, "bounce": 0, 
					"filter": { "categoryBits": 1, "maskBits": 65535 },
					"shape": [   313.5, 305  ,  308, 309.5  ,  311.5, 299  ]
				}  ,
				{
					"density": 2, "friction": 0, "bounce": 0, 
					"filter": { "categoryBits": 1, "maskBits": 65535 },
					"shape": [   320.5, 302  ,  313.5, 305  ,  318.5, 298  ]
				}  ,
				{
					"density": 2, "friction": 0, "bounce": 0, 
					"filter": { "categoryBits": 1, "maskBits": 65535 },
					"shape": [   375, 160.5  ,  399.5, 157  ,  386, 167.5  ]
				}  ,
				{
					"density": 2, "friction": 0, "bounce": 0, 
					"filter": { "categoryBits": 1, "maskBits": 65535 },
					"shape": [   308, 309.5  ,  307.5, 393  ,  285.5, 380  ,  305, 297.5  ]
				}  ,
				{
					"density": 2, "friction": 0, "bounce": 0, 
					"filter": { "categoryBits": 1, "maskBits": 65535 },
					"shape": [   336, 89.5  ,  269.5, 134  ,  265.5, 122  ,  265.5, 90  ]
				}  ,
				{
					"density": 2, "friction": 0, "bounce": 0, 
					"filter": { "categoryBits": 1, "maskBits": 65535 },
					"shape": [   352, 591.5  ,  336, 592.5  ,  326.5, 585  ,  326.5, 565  ,  359.5, 564  ,  363.5, 576  ,  361.5, 586  ]
				}  ,
				{
					"density": 2, "friction": 0, "bounce": 0, 
					"filter": { "categoryBits": 1, "maskBits": 65535 },
					"shape": [   279, 559.5  ,  272.5, 546  ,  273.5, 534  ,  289.5, 524  ,  309, 555.5  ,  292, 565.5  ]
				}  ,
				{
					"density": 2, "friction": 0, "bounce": 0, 
					"filter": { "categoryBits": 1, "maskBits": 65535 },
					"shape": [   263.5, 496  ,  269.5, 420  ,  274, 497.5  ,  266, 499.5  ]
				}  ,
				{
					"density": 2, "friction": 0, "bounce": 0, 
					"filter": { "categoryBits": 1, "maskBits": 65535 },
					"shape": [   334.5, 301  ,  323.5, 357  ,  307.5, 393  ,  320.5, 302  ,  326, 298.5  ]
				}  ,
				{
					"density": 2, "friction": 0, "bounce": 0, 
					"filter": { "categoryBits": 1, "maskBits": 65535 },
					"shape": [   326.5, 585  ,  336, 592.5  ,  330, 590.5  ]
				}  ,
				{
					"density": 2, "friction": 0, "bounce": 0, 
					"filter": { "categoryBits": 1, "maskBits": 65535 },
					"shape": [   399.5, 157  ,  431.5, 158  ,  427, 166.5  ,  403, 166.5  ]
				}  ,
				{
					"density": 2, "friction": 0, "bounce": 0, 
					"filter": { "categoryBits": 1, "maskBits": 65535 },
					"shape": [   343.5, 155  ,  375, 160.5  ,  371, 164.5  ,  347, 164.5  ]
				}  ,
				{
					"density": 2, "friction": 0, "bounce": 0, 
					"filter": { "categoryBits": 1, "maskBits": 65535 },
					"shape": [   274, 497.5  ,  269.5, 420  ,  285.5, 380  ,  307.5, 393  ,  321.5, 414  ,  321.5, 480  ,  290.5, 516  ,  278.5, 509  ]
				}  ,
				{
					"density": 2, "friction": 0, "bounce": 0, 
					"filter": { "categoryBits": 1, "maskBits": 65535 },
					"shape": [   364, 559.5  ,  321.5, 480  ,  359, 496.5  ,  378, 513.5  ,  387.5, 525  ,  393.5, 547  ,  386, 568.5  ,  376, 568.5  ]
				}  ,
				{
					"density": 2, "friction": 0, "bounce": 0, 
					"filter": { "categoryBits": 1, "maskBits": 65535 },
					"shape": [   386, 568.5  ,  393.5, 547  ,  391.5, 565  ]
				}  ,
				{
					"density": 2, "friction": 0, "bounce": 0, 
					"filter": { "categoryBits": 1, "maskBits": 65535 },
					"shape": [   309, 555.5  ,  289.5, 524  ,  290.5, 516  ,  321.5, 480  ,  364, 559.5  ,  359.5, 564  ,  326.5, 565  ]
				}  ,
				{
					"density": 2, "friction": 0, "bounce": 0, 
					"filter": { "categoryBits": 1, "maskBits": 65535 },
					"shape": [   302, 163.5  ,  270.5, 152  ,  336, 89.5  ,  343.5, 155  ,  340.5, 163  ]
				}  ,
				{
					"density": 2, "friction": 0, "bounce": 0, 
					"filter": { "categoryBits": 1, "maskBits": 65535 },
					"shape": [   433, 164.5  ,  503, 151.5  ,  499.5, 164  ]
				}  ,
				{
					"density": 2, "friction": 0, "bounce": 0, 
					"filter": { "categoryBits": 1, "maskBits": 65535 },
					"shape": [   336, 89.5  ,  270.5, 152  ,  269.5, 134  ]
				}  ,
				{
					"density": 2, "friction": 0, "bounce": 0, 
					"filter": { "categoryBits": 1, "maskBits": 65535 },
					"shape": [   343.5, 155  ,  336, 89.5  ,  399.5, 157  ,  375, 160.5  ]
				}  ,
				{
					"density": 2, "friction": 0, "bounce": 0, 
					"filter": { "categoryBits": 1, "maskBits": 65535 },
					"shape": [   320.5, 302  ,  307.5, 393  ,  308, 309.5  ,  313.5, 305  ]
				}  ,
				{
					"density": 2, "friction": 0, "bounce": 0, 
					"filter": { "categoryBits": 1, "maskBits": 65535 },
					"shape": [   269.5, 257  ,  271.5, 256  ,  301.5, 311  ,  285.5, 380  ,  269, 301.5  ]
				}  ,
				{
					"density": 2, "friction": 0, "bounce": 0, 
					"filter": { "categoryBits": 1, "maskBits": 65535 },
					"shape": [   271.5, 256  ,  270.5, 152  ,  301.5, 166  ,  301.5, 311  ]
				}  ,
				{
					"density": 2, "friction": 0, "bounce": 0, 
					"filter": { "categoryBits": 1, "maskBits": 65535 },
					"shape": [   270.5, 152  ,  302, 163.5  ,  301.5, 166  ]
				}  ,
				{
					"density": 2, "friction": 0, "bounce": 0, 
					"filter": { "categoryBits": 1, "maskBits": 65535 },
					"shape": [   336, 89.5  ,  340, 87.5  ,  429, 89.5  ,  431.5, 158  ,  399.5, 157  ]
				}   ,
				{
					"density": 2, "friction": 0, "bounce": 0, 
					"filter": { "categoryBits": 1, "maskBits": 65535 },
					"shape": [   596, 104.5  ,  576.5, 123  ,  576.5, 105  ]
				}  ,
				{
					"density": 2, "friction": 0, "bounce": 0, 
					"filter": { "categoryBits": 1, "maskBits": 65535 },
					"shape": [   575.5, 302  ,  569.5, 278  ,  570.5, 134  ,  572.5, 133  ,  607.5, 256  ,  609.5, 280  ,  604.5, 300  ,  590, 311.5  ]
				}  ,
				{
					"density": 2, "friction": 0, "bounce": 0, 
					"filter": { "categoryBits": 1, "maskBits": 65535 },
					"shape": [   576.5, 123  ,  572.5, 133  ,  572.5, 125  ]
				}  ,
				{
					"density": 2, "friction": 0, "bounce": 0, 
					"filter": { "categoryBits": 1, "maskBits": 65535 },
					"shape": [   607.5, 107  ,  607.5, 256  ,  572.5, 133  ,  596, 104.5  ,  607, 104.5  ]
				}  ,
				{
					"density": 2, "friction": 0, "bounce": 0, 
					"filter": { "categoryBits": 1, "maskBits": 65535 },
					"shape": [   596, 104.5  ,  572.5, 133  ,  576.5, 123  ]
				}   ,
				{
					"density": 2, "friction": 0, "bounce": 0, 
					"filter": { "categoryBits": 1, "maskBits": 65535 },
					"shape": [   799.5, 439  ,  777.5, 425  ,  799, 392.5  ]
				}  ,
				{
					"density": 2, "friction": 0, "bounce": 0, 
					"filter": { "categoryBits": 1, "maskBits": 65535 },
					"shape": [   686.5, 387  ,  653.5, 382  ,  656, 370.5  ,  686, 370.5  ]
				}  ,
				{
					"density": 2, "friction": 0, "bounce": 0, 
					"filter": { "categoryBits": 1, "maskBits": 65535 },
					"shape": [   500, 259.5  ,  497.5, 372  ,  467.5, 315  ,  470, 259.5  ]
				}  ,
				{
					"density": 2, "friction": 0, "bounce": 0, 
					"filter": { "categoryBits": 1, "maskBits": 65535 },
					"shape": [   744, 372.5  ,  780.5, 375  ,  777.5, 425  ,  705, 387.5  ,  705.5, 373  ]
				}  ,
				{
					"density": 2, "friction": 0, "bounce": 0, 
					"filter": { "categoryBits": 1, "maskBits": 65535 },
					"shape": [   750, 341.5  ,  760, 337.5  ,  774, 339.5  ,  780.5, 345  ,  785.5, 365  ,  780.5, 375  ,  744, 372.5  ,  741.5, 354  ]
				}  ,
				{
					"density": 2, "friction": 0, "bounce": 0, 
					"filter": { "categoryBits": 1, "maskBits": 65535 },
					"shape": [   522.5, 484  ,  534, 482.5  ,  533.5, 517  ,  524, 519.5  ]
				}  ,
				{
					"density": 2, "friction": 0, "bounce": 0, 
					"filter": { "categoryBits": 1, "maskBits": 65535 },
					"shape": [   508.5, 474  ,  504.5, 464  ,  505.5, 448  ,  545, 439.5  ,  550.5, 451  ,  550.5, 467  ,  534, 482.5  ,  522.5, 484  ]
				}  ,
				{
					"density": 2, "friction": 0, "bounce": 0, 
					"filter": { "categoryBits": 1, "maskBits": 65535 },
					"shape": [   686.5, 387  ,  608, 440.5  ,  606, 436.5  ,  642.5, 392  ,  653.5, 382  ]
				}  ,
				{
					"density": 2, "friction": 0, "bounce": 0, 
					"filter": { "categoryBits": 1, "maskBits": 65535 },
					"shape": [   534, 482.5  ,  550.5, 467  ,  545, 476.5  ]
				}  ,
				{
					"density": 2, "friction": 0, "bounce": 0, 
					"filter": { "categoryBits": 1, "maskBits": 65535 },
					"shape": [   785.5, 365  ,  780.5, 345  ,  785.5, 355  ]
				}  ,
				{
					"density": 2, "friction": 0, "bounce": 0, 
					"filter": { "categoryBits": 1, "maskBits": 65535 },
					"shape": [   640.5, 392  ,  545, 439.5  ,  539, 372.5  ,  639, 371.5  ]
				}  ,
				{
					"density": 2, "friction": 0, "bounce": 0, 
					"filter": { "categoryBits": 1, "maskBits": 65535 },
					"shape": [   464.5, 430  ,  462.5, 328  ,  497.5, 372  ,  545, 439.5  ,  510.5, 441  ,  469, 439.5  ]
				}  ,
				{
					"density": 2, "friction": 0, "bounce": 0, 
					"filter": { "categoryBits": 1, "maskBits": 65535 },
					"shape": [   510.5, 441  ,  545, 439.5  ,  505.5, 448  ]
				}  ,
				{
					"density": 2, "friction": 0, "bounce": 0, 
					"filter": { "categoryBits": 1, "maskBits": 65535 },
					"shape": [   497.5, 372  ,  465.5, 325  ,  467.5, 315  ]
				}  ,
				{
					"density": 2, "friction": 0, "bounce": 0, 
					"filter": { "categoryBits": 1, "maskBits": 65535 },
					"shape": [   608, 440.5  ,  686.5, 387  ,  705, 387.5  ,  777.5, 425  ,  799.5, 439  ]
				}  ,
				{
					"density": 2, "friction": 0, "bounce": 0, 
					"filter": { "categoryBits": 1, "maskBits": 65535 },
					"shape": [   497.5, 372  ,  462.5, 328  ,  465.5, 325  ]
				}  ,
				{
					"density": 2, "friction": 0, "bounce": 0, 
					"filter": { "categoryBits": 1, "maskBits": 65535 },
					"shape": [   545, 439.5  ,  640.5, 392  ,  642.5, 392  ,  606, 436.5  ,  603, 439.5  ]
				}  ,
				{
					"density": 2, "friction": 0, "bounce": 0, 
					"filter": { "categoryBits": 1, "maskBits": 65535 },
					"shape": [   538, 372.5  ,  545, 439.5  ,  497.5, 372  ]
				}  ,
				{
					"density": 2, "friction": 0, "bounce": 0, 
					"filter": { "categoryBits": 1, "maskBits": 65535 },
					"shape": [   539, 372.5  ,  545, 439.5  ,  538, 372.5  ]
				}  ,
			
				{
					"density": 2, "friction": 0, "bounce": 0, 
					"filter": { "categoryBits": 1, "maskBits": 65535 },
					"shape": [   799.5, 2  ,  773, 21  ,  760, -0.5  ,  799, -0.5  ]
				}  ,
				{
					"density": 2, "friction": 0, "bounce": 0, 
					"filter": { "categoryBits": 1, "maskBits": 65535 },
					"shape": [   21, 24  ,  19, 586  ,  0, 599.5  ,  1, -0.5  ]
				}  ,
				{
					"density": 2, "friction": 0, "bounce": 0, 
					"filter": { "categoryBits": 1, "maskBits": 65535 },
					"shape": [   760, -0.5  ,  773, 21  ,  21, 23  ,  3, -2  ]
				}  ,
				{
					"density": 2, "friction": 0, "bounce": 0, 
					"filter": { "categoryBits": 1, "maskBits": 65535 },
					"shape": [   798, 599.5  ,  773, 586  ,  773, 21  ,  799.5, 2  ]
				}  ,
				{
					"density": 2, "friction": 0, "bounce": 0, 
					"filter": { "categoryBits": 1, "maskBits": 65535 },
					"shape": [   0, 599.5  ,  19, 586  ,  773, 586  ,  798, 599.5  ]
				}  
		]
		
	}