{"frames": [

{
	"filename": "whistle0000",
	"frame": {"x":0,"y":0,"w":234,"h":163},
	"rotated": false,
	"trimmed": false,
	"spriteSourceSize": {"x":0,"y":0,"w":234,"h":163},
	"sourceSize": {"w":234,"h":163}
}
,{
	"filename": "whistle0001",
	"frame": {"x":234,"y":0,"w":234,"h":163},
	"rotated": false,
	"trimmed": false,
	"spriteSourceSize": {"x":0,"y":0,"w":234,"h":163},
	"sourceSize": {"w":234,"h":163}
}
,{
	"filename": "whistle0002",
	"frame": {"x":468,"y":0,"w":234,"h":163},
	"rotated": false,
	"trimmed": false,
	"spriteSourceSize": {"x":0,"y":0,"w":234,"h":163},
	"sourceSize": {"w":234,"h":163}
}
,{
	"filename": "whistle0003",
	"frame": {"x":702,"y":0,"w":234,"h":163},
	"rotated": false,
	"trimmed": false,
	"spriteSourceSize": {"x":0,"y":0,"w":234,"h":163},
	"sourceSize": {"w":234,"h":163}
}
,{
	"filename": "whistle0004",
	"frame": {"x":0,"y":163,"w":234,"h":163},
	"rotated": false,
	"trimmed": false,
	"spriteSourceSize": {"x":0,"y":0,"w":234,"h":163},
	"sourceSize": {"w":234,"h":163}
}
,{
	"filename": "whistle0005",
	"frame": {"x":234,"y":163,"w":234,"h":163},
	"rotated": false,
	"trimmed": false,
	"spriteSourceSize": {"x":0,"y":0,"w":234,"h":163},
	"sourceSize": {"w":234,"h":163}
}
,{
	"filename": "whistle0006",
	"frame": {"x":468,"y":163,"w":234,"h":163},
	"rotated": false,
	"trimmed": false,
	"spriteSourceSize": {"x":0,"y":0,"w":234,"h":163},
	"sourceSize": {"w":234,"h":163}
}
,{
	"filename": "whistle0007",
	"frame": {"x":702,"y":163,"w":234,"h":163},
	"rotated": false,
	"trimmed": false,
	"spriteSourceSize": {"x":0,"y":0,"w":234,"h":163},
	"sourceSize": {"w":234,"h":163}
}
,{
	"filename": "whistle0008",
	"frame": {"x":0,"y":326,"w":234,"h":163},
	"rotated": false,
	"trimmed": false,
	"spriteSourceSize": {"x":0,"y":0,"w":234,"h":163},
	"sourceSize": {"w":234,"h":163}
}
,{
	"filename": "whistle0009",
	"frame": {"x":234,"y":326,"w":234,"h":163},
	"rotated": false,
	"trimmed": false,
	"spriteSourceSize": {"x":0,"y":0,"w":234,"h":163},
	"sourceSize": {"w":234,"h":163}
}
,{
	"filename": "whistle0010",
	"frame": {"x":468,"y":326,"w":234,"h":163},
	"rotated": false,
	"trimmed": false,
	"spriteSourceSize": {"x":0,"y":0,"w":234,"h":163},
	"sourceSize": {"w":234,"h":163}
}
,{
	"filename": "whistle0011",
	"frame": {"x":702,"y":326,"w":234,"h":163},
	"rotated": false,
	"trimmed": false,
	"spriteSourceSize": {"x":0,"y":0,"w":234,"h":163},
	"sourceSize": {"w":234,"h":163}
}
,{
	"filename": "whistle0012",
	"frame": {"x":0,"y":489,"w":234,"h":163},
	"rotated": false,
	"trimmed": false,
	"spriteSourceSize": {"x":0,"y":0,"w":234,"h":163},
	"sourceSize": {"w":234,"h":163}
}
,{
	"filename": "whistle0013",
	"frame": {"x":234,"y":489,"w":234,"h":163},
	"rotated": false,
	"trimmed": false,
	"spriteSourceSize": {"x":0,"y":0,"w":234,"h":163},
	"sourceSize": {"w":234,"h":163}
}
,{
	"filename": "whistle0014",
	"frame": {"x":468,"y":489,"w":234,"h":163},
	"rotated": false,
	"trimmed": false,
	"spriteSourceSize": {"x":0,"y":0,"w":234,"h":163},
	"sourceSize": {"w":234,"h":163}
}
,{
	"filename": "whistle0015",
	"frame": {"x":702,"y":489,"w":234,"h":163},
	"rotated": false,
	"trimmed": false,
	"spriteSourceSize": {"x":0,"y":0,"w":234,"h":163},
	"sourceSize": {"w":234,"h":163}
}
,{
	"filename": "whistle0016",
	"frame": {"x":0,"y":652,"w":234,"h":163},
	"rotated": false,
	"trimmed": false,
	"spriteSourceSize": {"x":0,"y":0,"w":234,"h":163},
	"sourceSize": {"w":234,"h":163}
}
,{
	"filename": "whistle0017",
	"frame": {"x":234,"y":652,"w":234,"h":163},
	"rotated": false,
	"trimmed": false,
	"spriteSourceSize": {"x":0,"y":0,"w":234,"h":163},
	"sourceSize": {"w":234,"h":163}
}
,{
	"filename": "whistle0018",
	"frame": {"x":468,"y":652,"w":234,"h":163},
	"rotated": false,
	"trimmed": false,
	"spriteSourceSize": {"x":0,"y":0,"w":234,"h":163},
	"sourceSize": {"w":234,"h":163}
}
,{
	"filename": "whistle0019",
	"frame": {"x":702,"y":652,"w":234,"h":163},
	"rotated": false,
	"trimmed": false,
	"spriteSourceSize": {"x":0,"y":0,"w":234,"h":163},
	"sourceSize": {"w":234,"h":163}
}
,{
	"filename": "whistle0020",
	"frame": {"x":0,"y":815,"w":234,"h":163},
	"rotated": false,
	"trimmed": false,
	"spriteSourceSize": {"x":0,"y":0,"w":234,"h":163},
	"sourceSize": {"w":234,"h":163}
}
,{
	"filename": "whistle0021",
	"frame": {"x":234,"y":815,"w":234,"h":163},
	"rotated": false,
	"trimmed": false,
	"spriteSourceSize": {"x":0,"y":0,"w":234,"h":163},
	"sourceSize": {"w":234,"h":163}
}
,{
	"filename": "whistle0022",
	"frame": {"x":468,"y":815,"w":234,"h":163},
	"rotated": false,
	"trimmed": false,
	"spriteSourceSize": {"x":0,"y":0,"w":234,"h":163},
	"sourceSize": {"w":234,"h":163}
}
,{
	"filename": "whistle0023",
	"frame": {"x":702,"y":815,"w":234,"h":163},
	"rotated": false,
	"trimmed": false,
	"spriteSourceSize": {"x":0,"y":0,"w":234,"h":163},
	"sourceSize": {"w":234,"h":163}
}
,{
	"filename": "whistle0024",
	"frame": {"x":0,"y":978,"w":234,"h":163},
	"rotated": false,
	"trimmed": false,
	"spriteSourceSize": {"x":0,"y":0,"w":234,"h":163},
	"sourceSize": {"w":234,"h":163}
}
,{
	"filename": "whistle0025",
	"frame": {"x":234,"y":978,"w":234,"h":163},
	"rotated": false,
	"trimmed": false,
	"spriteSourceSize": {"x":0,"y":0,"w":234,"h":163},
	"sourceSize": {"w":234,"h":163}
}
,{
	"filename": "whistle0026",
	"frame": {"x":468,"y":978,"w":234,"h":163},
	"rotated": false,
	"trimmed": false,
	"spriteSourceSize": {"x":0,"y":0,"w":234,"h":163},
	"sourceSize": {"w":234,"h":163}
}
,{
	"filename": "whistle0027",
	"frame": {"x":702,"y":978,"w":234,"h":163},
	"rotated": false,
	"trimmed": false,
	"spriteSourceSize": {"x":0,"y":0,"w":234,"h":163},
	"sourceSize": {"w":234,"h":163}
}
,{
	"filename": "whistle0028",
	"frame": {"x":0,"y":1141,"w":234,"h":163},
	"rotated": false,
	"trimmed": false,
	"spriteSourceSize": {"x":0,"y":0,"w":234,"h":163},
	"sourceSize": {"w":234,"h":163}
}
,{
	"filename": "whistle0029",
	"frame": {"x":234,"y":1141,"w":234,"h":163},
	"rotated": false,
	"trimmed": false,
	"spriteSourceSize": {"x":0,"y":0,"w":234,"h":163},
	"sourceSize": {"w":234,"h":163}
}
,{
	"filename": "whistle0030",
	"frame": {"x":468,"y":1141,"w":234,"h":163},
	"rotated": false,
	"trimmed": false,
	"spriteSourceSize": {"x":0,"y":0,"w":234,"h":163},
	"sourceSize": {"w":234,"h":163}
}
,{
	"filename": "whistle0031",
	"frame": {"x":702,"y":1141,"w":234,"h":163},
	"rotated": false,
	"trimmed": false,
	"spriteSourceSize": {"x":0,"y":0,"w":234,"h":163},
	"sourceSize": {"w":234,"h":163}
}
,{
	"filename": "whistle0032",
	"frame": {"x":0,"y":1304,"w":234,"h":163},
	"rotated": false,
	"trimmed": false,
	"spriteSourceSize": {"x":0,"y":0,"w":234,"h":163},
	"sourceSize": {"w":234,"h":163}
}
,{
	"filename": "whistle0033",
	"frame": {"x":234,"y":1304,"w":234,"h":163},
	"rotated": false,
	"trimmed": false,
	"spriteSourceSize": {"x":0,"y":0,"w":234,"h":163},
	"sourceSize": {"w":234,"h":163}
}
,{
	"filename": "whistle0034",
	"frame": {"x":468,"y":1304,"w":234,"h":163},
	"rotated": false,
	"trimmed": false,
	"spriteSourceSize": {"x":0,"y":0,"w":234,"h":163},
	"sourceSize": {"w":234,"h":163}
}
,{
	"filename": "whistle0035",
	"frame": {"x":702,"y":1304,"w":234,"h":163},
	"rotated": false,
	"trimmed": false,
	"spriteSourceSize": {"x":0,"y":0,"w":234,"h":163},
	"sourceSize": {"w":234,"h":163}
}
,{
	"filename": "whistle0036",
	"frame": {"x":0,"y":1467,"w":234,"h":163},
	"rotated": false,
	"trimmed": false,
	"spriteSourceSize": {"x":0,"y":0,"w":234,"h":163},
	"sourceSize": {"w":234,"h":163}
}
,{
	"filename": "whistle0037",
	"frame": {"x":234,"y":1467,"w":234,"h":163},
	"rotated": false,
	"trimmed": false,
	"spriteSourceSize": {"x":0,"y":0,"w":234,"h":163},
	"sourceSize": {"w":234,"h":163}
}
,{
	"filename": "whistle0038",
	"frame": {"x":468,"y":1467,"w":234,"h":163},
	"rotated": false,
	"trimmed": false,
	"spriteSourceSize": {"x":0,"y":0,"w":234,"h":163},
	"sourceSize": {"w":234,"h":163}
}
,{
	"filename": "whistle0039",
	"frame": {"x":702,"y":1467,"w":234,"h":163},
	"rotated": false,
	"trimmed": false,
	"spriteSourceSize": {"x":0,"y":0,"w":234,"h":163},
	"sourceSize": {"w":234,"h":163}
}
,{
	"filename": "whistle0040",
	"frame": {"x":0,"y":1630,"w":234,"h":163},
	"rotated": false,
	"trimmed": false,
	"spriteSourceSize": {"x":0,"y":0,"w":234,"h":163},
	"sourceSize": {"w":234,"h":163}
}],
"meta": {
	"app": "Adobe Flash CS6",
	"version": "12.0.0.481",
	"image": "gwizdek.png",
	"format": "RGBA8888",
	"size": {"w":1024,"h":2048},
	"scale": "1"
}
}
