{"frames": [

{
	"filename": "countdown0000",
	"frame": {"x":0,"y":0,"w":134,"h":136},
	"rotated": false,
	"trimmed": false,
	"spriteSourceSize": {"x":0,"y":0,"w":134,"h":136},
	"sourceSize": {"w":134,"h":136}
}
,{
	"filename": "countdown0001",
	"frame": {"x":134,"y":0,"w":134,"h":136},
	"rotated": false,
	"trimmed": false,
	"spriteSourceSize": {"x":0,"y":0,"w":134,"h":136},
	"sourceSize": {"w":134,"h":136}
}
,{
	"filename": "countdown0002",
	"frame": {"x":268,"y":0,"w":134,"h":136},
	"rotated": false,
	"trimmed": false,
	"spriteSourceSize": {"x":0,"y":0,"w":134,"h":136},
	"sourceSize": {"w":134,"h":136}
}
,{
	"filename": "countdown0003",
	"frame": {"x":402,"y":0,"w":134,"h":136},
	"rotated": false,
	"trimmed": false,
	"spriteSourceSize": {"x":0,"y":0,"w":134,"h":136},
	"sourceSize": {"w":134,"h":136}
}
,{
	"filename": "countdown0004",
	"frame": {"x":536,"y":0,"w":134,"h":136},
	"rotated": false,
	"trimmed": false,
	"spriteSourceSize": {"x":0,"y":0,"w":134,"h":136},
	"sourceSize": {"w":134,"h":136}
}
,{
	"filename": "countdown0005",
	"frame": {"x":670,"y":0,"w":134,"h":136},
	"rotated": false,
	"trimmed": false,
	"spriteSourceSize": {"x":0,"y":0,"w":134,"h":136},
	"sourceSize": {"w":134,"h":136}
}
,{
	"filename": "countdown0006",
	"frame": {"x":804,"y":0,"w":134,"h":136},
	"rotated": false,
	"trimmed": false,
	"spriteSourceSize": {"x":0,"y":0,"w":134,"h":136},
	"sourceSize": {"w":134,"h":136}
}
,{
	"filename": "countdown0007",
	"frame": {"x":0,"y":136,"w":134,"h":136},
	"rotated": false,
	"trimmed": false,
	"spriteSourceSize": {"x":0,"y":0,"w":134,"h":136},
	"sourceSize": {"w":134,"h":136}
}
,{
	"filename": "countdown0008",
	"frame": {"x":134,"y":136,"w":134,"h":136},
	"rotated": false,
	"trimmed": false,
	"spriteSourceSize": {"x":0,"y":0,"w":134,"h":136},
	"sourceSize": {"w":134,"h":136}
}
,{
	"filename": "countdown0009",
	"frame": {"x":268,"y":136,"w":134,"h":136},
	"rotated": false,
	"trimmed": false,
	"spriteSourceSize": {"x":0,"y":0,"w":134,"h":136},
	"sourceSize": {"w":134,"h":136}
}
,{
	"filename": "countdown0010",
	"frame": {"x":402,"y":136,"w":134,"h":136},
	"rotated": false,
	"trimmed": false,
	"spriteSourceSize": {"x":0,"y":0,"w":134,"h":136},
	"sourceSize": {"w":134,"h":136}
}
,{
	"filename": "countdown0011",
	"frame": {"x":536,"y":136,"w":134,"h":136},
	"rotated": false,
	"trimmed": false,
	"spriteSourceSize": {"x":0,"y":0,"w":134,"h":136},
	"sourceSize": {"w":134,"h":136}
}
,{
	"filename": "countdown0012",
	"frame": {"x":670,"y":136,"w":134,"h":136},
	"rotated": false,
	"trimmed": false,
	"spriteSourceSize": {"x":0,"y":0,"w":134,"h":136},
	"sourceSize": {"w":134,"h":136}
}
,{
	"filename": "countdown0013",
	"frame": {"x":804,"y":136,"w":134,"h":136},
	"rotated": false,
	"trimmed": false,
	"spriteSourceSize": {"x":0,"y":0,"w":134,"h":136},
	"sourceSize": {"w":134,"h":136}
}
,{
	"filename": "countdown0014",
	"frame": {"x":0,"y":272,"w":134,"h":136},
	"rotated": false,
	"trimmed": false,
	"spriteSourceSize": {"x":0,"y":0,"w":134,"h":136},
	"sourceSize": {"w":134,"h":136}
}
,{
	"filename": "countdown0015",
	"frame": {"x":134,"y":272,"w":134,"h":136},
	"rotated": false,
	"trimmed": false,
	"spriteSourceSize": {"x":0,"y":0,"w":134,"h":136},
	"sourceSize": {"w":134,"h":136}
}
,{
	"filename": "countdown0016",
	"frame": {"x":268,"y":272,"w":134,"h":136},
	"rotated": false,
	"trimmed": false,
	"spriteSourceSize": {"x":0,"y":0,"w":134,"h":136},
	"sourceSize": {"w":134,"h":136}
}
,{
	"filename": "countdown0017",
	"frame": {"x":402,"y":272,"w":134,"h":136},
	"rotated": false,
	"trimmed": false,
	"spriteSourceSize": {"x":0,"y":0,"w":134,"h":136},
	"sourceSize": {"w":134,"h":136}
}
,{
	"filename": "countdown0018",
	"frame": {"x":536,"y":272,"w":134,"h":136},
	"rotated": false,
	"trimmed": false,
	"spriteSourceSize": {"x":0,"y":0,"w":134,"h":136},
	"sourceSize": {"w":134,"h":136}
}
,{
	"filename": "countdown0019",
	"frame": {"x":670,"y":272,"w":134,"h":136},
	"rotated": false,
	"trimmed": false,
	"spriteSourceSize": {"x":0,"y":0,"w":134,"h":136},
	"sourceSize": {"w":134,"h":136}
}
,{
	"filename": "countdown0020",
	"frame": {"x":804,"y":272,"w":134,"h":136},
	"rotated": false,
	"trimmed": false,
	"spriteSourceSize": {"x":0,"y":0,"w":134,"h":136},
	"sourceSize": {"w":134,"h":136}
}
,{
	"filename": "countdown0021",
	"frame": {"x":0,"y":408,"w":134,"h":136},
	"rotated": false,
	"trimmed": false,
	"spriteSourceSize": {"x":0,"y":0,"w":134,"h":136},
	"sourceSize": {"w":134,"h":136}
}
,{
	"filename": "countdown0022",
	"frame": {"x":134,"y":408,"w":134,"h":136},
	"rotated": false,
	"trimmed": false,
	"spriteSourceSize": {"x":0,"y":0,"w":134,"h":136},
	"sourceSize": {"w":134,"h":136}
}
,{
	"filename": "countdown0023",
	"frame": {"x":268,"y":408,"w":134,"h":136},
	"rotated": false,
	"trimmed": false,
	"spriteSourceSize": {"x":0,"y":0,"w":134,"h":136},
	"sourceSize": {"w":134,"h":136}
}
,{
	"filename": "countdown0024",
	"frame": {"x":402,"y":408,"w":134,"h":136},
	"rotated": false,
	"trimmed": false,
	"spriteSourceSize": {"x":0,"y":0,"w":134,"h":136},
	"sourceSize": {"w":134,"h":136}
}
,{
	"filename": "countdown0025",
	"frame": {"x":536,"y":408,"w":134,"h":136},
	"rotated": false,
	"trimmed": false,
	"spriteSourceSize": {"x":0,"y":0,"w":134,"h":136},
	"sourceSize": {"w":134,"h":136}
}
,{
	"filename": "countdown0026",
	"frame": {"x":670,"y":408,"w":134,"h":136},
	"rotated": false,
	"trimmed": false,
	"spriteSourceSize": {"x":0,"y":0,"w":134,"h":136},
	"sourceSize": {"w":134,"h":136}
}
,{
	"filename": "countdown0027",
	"frame": {"x":804,"y":408,"w":134,"h":136},
	"rotated": false,
	"trimmed": false,
	"spriteSourceSize": {"x":0,"y":0,"w":134,"h":136},
	"sourceSize": {"w":134,"h":136}
}
,{
	"filename": "countdown0028",
	"frame": {"x":0,"y":544,"w":134,"h":136},
	"rotated": false,
	"trimmed": false,
	"spriteSourceSize": {"x":0,"y":0,"w":134,"h":136},
	"sourceSize": {"w":134,"h":136}
}
,{
	"filename": "countdown0029",
	"frame": {"x":134,"y":544,"w":134,"h":136},
	"rotated": false,
	"trimmed": false,
	"spriteSourceSize": {"x":0,"y":0,"w":134,"h":136},
	"sourceSize": {"w":134,"h":136}
}
,{
	"filename": "countdown0030",
	"frame": {"x":268,"y":544,"w":134,"h":136},
	"rotated": false,
	"trimmed": false,
	"spriteSourceSize": {"x":0,"y":0,"w":134,"h":136},
	"sourceSize": {"w":134,"h":136}
}
,{
	"filename": "countdown0031",
	"frame": {"x":402,"y":544,"w":134,"h":136},
	"rotated": false,
	"trimmed": false,
	"spriteSourceSize": {"x":0,"y":0,"w":134,"h":136},
	"sourceSize": {"w":134,"h":136}
}
,{
	"filename": "countdown0032",
	"frame": {"x":536,"y":544,"w":134,"h":136},
	"rotated": false,
	"trimmed": false,
	"spriteSourceSize": {"x":0,"y":0,"w":134,"h":136},
	"sourceSize": {"w":134,"h":136}
}
,{
	"filename": "countdown0033",
	"frame": {"x":670,"y":544,"w":134,"h":136},
	"rotated": false,
	"trimmed": false,
	"spriteSourceSize": {"x":0,"y":0,"w":134,"h":136},
	"sourceSize": {"w":134,"h":136}
}
,{
	"filename": "countdown0034",
	"frame": {"x":804,"y":544,"w":134,"h":136},
	"rotated": false,
	"trimmed": false,
	"spriteSourceSize": {"x":0,"y":0,"w":134,"h":136},
	"sourceSize": {"w":134,"h":136}
}
,{
	"filename": "countdown0035",
	"frame": {"x":0,"y":680,"w":134,"h":136},
	"rotated": false,
	"trimmed": false,
	"spriteSourceSize": {"x":0,"y":0,"w":134,"h":136},
	"sourceSize": {"w":134,"h":136}
}
,{
	"filename": "countdown0036",
	"frame": {"x":134,"y":680,"w":134,"h":136},
	"rotated": false,
	"trimmed": false,
	"spriteSourceSize": {"x":0,"y":0,"w":134,"h":136},
	"sourceSize": {"w":134,"h":136}
}
,{
	"filename": "countdown0037",
	"frame": {"x":268,"y":680,"w":134,"h":136},
	"rotated": false,
	"trimmed": false,
	"spriteSourceSize": {"x":0,"y":0,"w":134,"h":136},
	"sourceSize": {"w":134,"h":136}
}
,{
	"filename": "countdown0038",
	"frame": {"x":402,"y":680,"w":134,"h":136},
	"rotated": false,
	"trimmed": false,
	"spriteSourceSize": {"x":0,"y":0,"w":134,"h":136},
	"sourceSize": {"w":134,"h":136}
}
,{
	"filename": "countdown0039",
	"frame": {"x":536,"y":680,"w":134,"h":136},
	"rotated": false,
	"trimmed": false,
	"spriteSourceSize": {"x":0,"y":0,"w":134,"h":136},
	"sourceSize": {"w":134,"h":136}
}
,{
	"filename": "countdown0040",
	"frame": {"x":670,"y":680,"w":134,"h":136},
	"rotated": false,
	"trimmed": false,
	"spriteSourceSize": {"x":0,"y":0,"w":134,"h":136},
	"sourceSize": {"w":134,"h":136}
}
,{
	"filename": "countdown0041",
	"frame": {"x":804,"y":680,"w":134,"h":136},
	"rotated": false,
	"trimmed": false,
	"spriteSourceSize": {"x":0,"y":0,"w":134,"h":136},
	"sourceSize": {"w":134,"h":136}
}
,{
	"filename": "countdown0042",
	"frame": {"x":0,"y":816,"w":134,"h":136},
	"rotated": false,
	"trimmed": false,
	"spriteSourceSize": {"x":0,"y":0,"w":134,"h":136},
	"sourceSize": {"w":134,"h":136}
}
,{
	"filename": "countdown0043",
	"frame": {"x":134,"y":816,"w":134,"h":136},
	"rotated": false,
	"trimmed": false,
	"spriteSourceSize": {"x":0,"y":0,"w":134,"h":136},
	"sourceSize": {"w":134,"h":136}
}
,{
	"filename": "countdown0044",
	"frame": {"x":268,"y":816,"w":134,"h":136},
	"rotated": false,
	"trimmed": false,
	"spriteSourceSize": {"x":0,"y":0,"w":134,"h":136},
	"sourceSize": {"w":134,"h":136}
}
,{
	"filename": "countdown0045",
	"frame": {"x":402,"y":816,"w":134,"h":136},
	"rotated": false,
	"trimmed": false,
	"spriteSourceSize": {"x":0,"y":0,"w":134,"h":136},
	"sourceSize": {"w":134,"h":136}
}
,{
	"filename": "countdown0046",
	"frame": {"x":536,"y":816,"w":134,"h":136},
	"rotated": false,
	"trimmed": false,
	"spriteSourceSize": {"x":0,"y":0,"w":134,"h":136},
	"sourceSize": {"w":134,"h":136}
}
,{
	"filename": "countdown0047",
	"frame": {"x":670,"y":816,"w":134,"h":136},
	"rotated": false,
	"trimmed": false,
	"spriteSourceSize": {"x":0,"y":0,"w":134,"h":136},
	"sourceSize": {"w":134,"h":136}
}
,{
	"filename": "countdown0048",
	"frame": {"x":804,"y":816,"w":134,"h":136},
	"rotated": false,
	"trimmed": false,
	"spriteSourceSize": {"x":0,"y":0,"w":134,"h":136},
	"sourceSize": {"w":134,"h":136}
}
,{
	"filename": "countdown0049",
	"frame": {"x":0,"y":952,"w":134,"h":136},
	"rotated": false,
	"trimmed": false,
	"spriteSourceSize": {"x":0,"y":0,"w":134,"h":136},
	"sourceSize": {"w":134,"h":136}
}
,{
	"filename": "countdown0050",
	"frame": {"x":134,"y":952,"w":134,"h":136},
	"rotated": false,
	"trimmed": false,
	"spriteSourceSize": {"x":0,"y":0,"w":134,"h":136},
	"sourceSize": {"w":134,"h":136}
}
,{
	"filename": "countdown0051",
	"frame": {"x":268,"y":952,"w":134,"h":136},
	"rotated": false,
	"trimmed": false,
	"spriteSourceSize": {"x":0,"y":0,"w":134,"h":136},
	"sourceSize": {"w":134,"h":136}
}
,{
	"filename": "countdown0052",
	"frame": {"x":402,"y":952,"w":134,"h":136},
	"rotated": false,
	"trimmed": false,
	"spriteSourceSize": {"x":0,"y":0,"w":134,"h":136},
	"sourceSize": {"w":134,"h":136}
}
,{
	"filename": "countdown0053",
	"frame": {"x":536,"y":952,"w":134,"h":136},
	"rotated": false,
	"trimmed": false,
	"spriteSourceSize": {"x":0,"y":0,"w":134,"h":136},
	"sourceSize": {"w":134,"h":136}
}
,{
	"filename": "countdown0054",
	"frame": {"x":670,"y":952,"w":134,"h":136},
	"rotated": false,
	"trimmed": false,
	"spriteSourceSize": {"x":0,"y":0,"w":134,"h":136},
	"sourceSize": {"w":134,"h":136}
}
,{
	"filename": "countdown0055",
	"frame": {"x":804,"y":952,"w":134,"h":136},
	"rotated": false,
	"trimmed": false,
	"spriteSourceSize": {"x":0,"y":0,"w":134,"h":136},
	"sourceSize": {"w":134,"h":136}
}
,{
	"filename": "countdown0056",
	"frame": {"x":0,"y":1088,"w":134,"h":136},
	"rotated": false,
	"trimmed": false,
	"spriteSourceSize": {"x":0,"y":0,"w":134,"h":136},
	"sourceSize": {"w":134,"h":136}
}
,{
	"filename": "countdown0057",
	"frame": {"x":134,"y":1088,"w":134,"h":136},
	"rotated": false,
	"trimmed": false,
	"spriteSourceSize": {"x":0,"y":0,"w":134,"h":136},
	"sourceSize": {"w":134,"h":136}
}
,{
	"filename": "countdown0058",
	"frame": {"x":268,"y":1088,"w":134,"h":136},
	"rotated": false,
	"trimmed": false,
	"spriteSourceSize": {"x":0,"y":0,"w":134,"h":136},
	"sourceSize": {"w":134,"h":136}
}
,{
	"filename": "countdown0059",
	"frame": {"x":402,"y":1088,"w":134,"h":136},
	"rotated": false,
	"trimmed": false,
	"spriteSourceSize": {"x":0,"y":0,"w":134,"h":136},
	"sourceSize": {"w":134,"h":136}
}
,{
	"filename": "countdown0060",
	"frame": {"x":536,"y":1088,"w":134,"h":136},
	"rotated": false,
	"trimmed": false,
	"spriteSourceSize": {"x":0,"y":0,"w":134,"h":136},
	"sourceSize": {"w":134,"h":136}
}
,{
	"filename": "countdown0061",
	"frame": {"x":670,"y":1088,"w":134,"h":136},
	"rotated": false,
	"trimmed": false,
	"spriteSourceSize": {"x":0,"y":0,"w":134,"h":136},
	"sourceSize": {"w":134,"h":136}
}
,{
	"filename": "countdown0062",
	"frame": {"x":804,"y":1088,"w":134,"h":136},
	"rotated": false,
	"trimmed": false,
	"spriteSourceSize": {"x":0,"y":0,"w":134,"h":136},
	"sourceSize": {"w":134,"h":136}
}
,{
	"filename": "countdown0063",
	"frame": {"x":0,"y":1224,"w":134,"h":136},
	"rotated": false,
	"trimmed": false,
	"spriteSourceSize": {"x":0,"y":0,"w":134,"h":136},
	"sourceSize": {"w":134,"h":136}
}
,{
	"filename": "countdown0064",
	"frame": {"x":134,"y":1224,"w":134,"h":136},
	"rotated": false,
	"trimmed": false,
	"spriteSourceSize": {"x":0,"y":0,"w":134,"h":136},
	"sourceSize": {"w":134,"h":136}
}
,{
	"filename": "countdown0065",
	"frame": {"x":268,"y":1224,"w":134,"h":136},
	"rotated": false,
	"trimmed": false,
	"spriteSourceSize": {"x":0,"y":0,"w":134,"h":136},
	"sourceSize": {"w":134,"h":136}
}
,{
	"filename": "countdown0066",
	"frame": {"x":402,"y":1224,"w":134,"h":136},
	"rotated": false,
	"trimmed": false,
	"spriteSourceSize": {"x":0,"y":0,"w":134,"h":136},
	"sourceSize": {"w":134,"h":136}
}
,{
	"filename": "countdown0067",
	"frame": {"x":536,"y":1224,"w":134,"h":136},
	"rotated": false,
	"trimmed": false,
	"spriteSourceSize": {"x":0,"y":0,"w":134,"h":136},
	"sourceSize": {"w":134,"h":136}
}
,{
	"filename": "countdown0068",
	"frame": {"x":670,"y":1224,"w":134,"h":136},
	"rotated": false,
	"trimmed": false,
	"spriteSourceSize": {"x":0,"y":0,"w":134,"h":136},
	"sourceSize": {"w":134,"h":136}
}
,{
	"filename": "countdown0069",
	"frame": {"x":804,"y":1224,"w":134,"h":136},
	"rotated": false,
	"trimmed": false,
	"spriteSourceSize": {"x":0,"y":0,"w":134,"h":136},
	"sourceSize": {"w":134,"h":136}
}
,{
	"filename": "countdown0070",
	"frame": {"x":0,"y":1360,"w":134,"h":136},
	"rotated": false,
	"trimmed": false,
	"spriteSourceSize": {"x":0,"y":0,"w":134,"h":136},
	"sourceSize": {"w":134,"h":136}
}
,{
	"filename": "countdown0071",
	"frame": {"x":134,"y":1360,"w":134,"h":136},
	"rotated": false,
	"trimmed": false,
	"spriteSourceSize": {"x":0,"y":0,"w":134,"h":136},
	"sourceSize": {"w":134,"h":136}
}
,{
	"filename": "countdown0072",
	"frame": {"x":268,"y":1360,"w":134,"h":136},
	"rotated": false,
	"trimmed": false,
	"spriteSourceSize": {"x":0,"y":0,"w":134,"h":136},
	"sourceSize": {"w":134,"h":136}
}
,{
	"filename": "countdown0073",
	"frame": {"x":402,"y":1360,"w":134,"h":136},
	"rotated": false,
	"trimmed": false,
	"spriteSourceSize": {"x":0,"y":0,"w":134,"h":136},
	"sourceSize": {"w":134,"h":136}
}
,{
	"filename": "countdown0074",
	"frame": {"x":536,"y":1360,"w":134,"h":136},
	"rotated": false,
	"trimmed": false,
	"spriteSourceSize": {"x":0,"y":0,"w":134,"h":136},
	"sourceSize": {"w":134,"h":136}
}
,{
	"filename": "countdown0075",
	"frame": {"x":670,"y":1360,"w":134,"h":136},
	"rotated": false,
	"trimmed": false,
	"spriteSourceSize": {"x":0,"y":0,"w":134,"h":136},
	"sourceSize": {"w":134,"h":136}
}
,{
	"filename": "countdown0076",
	"frame": {"x":804,"y":1360,"w":134,"h":136},
	"rotated": false,
	"trimmed": false,
	"spriteSourceSize": {"x":0,"y":0,"w":134,"h":136},
	"sourceSize": {"w":134,"h":136}
}
,{
	"filename": "countdown0077",
	"frame": {"x":0,"y":1496,"w":134,"h":136},
	"rotated": false,
	"trimmed": false,
	"spriteSourceSize": {"x":0,"y":0,"w":134,"h":136},
	"sourceSize": {"w":134,"h":136}
}
,{
	"filename": "countdown0078",
	"frame": {"x":134,"y":1496,"w":134,"h":136},
	"rotated": false,
	"trimmed": false,
	"spriteSourceSize": {"x":0,"y":0,"w":134,"h":136},
	"sourceSize": {"w":134,"h":136}
}
,{
	"filename": "countdown0079",
	"frame": {"x":268,"y":1496,"w":134,"h":136},
	"rotated": false,
	"trimmed": false,
	"spriteSourceSize": {"x":0,"y":0,"w":134,"h":136},
	"sourceSize": {"w":134,"h":136}
}
,{
	"filename": "countdown0080",
	"frame": {"x":402,"y":1496,"w":134,"h":136},
	"rotated": false,
	"trimmed": false,
	"spriteSourceSize": {"x":0,"y":0,"w":134,"h":136},
	"sourceSize": {"w":134,"h":136}
}
,{
	"filename": "countdown0081",
	"frame": {"x":536,"y":1496,"w":134,"h":136},
	"rotated": false,
	"trimmed": false,
	"spriteSourceSize": {"x":0,"y":0,"w":134,"h":136},
	"sourceSize": {"w":134,"h":136}
}
,{
	"filename": "countdown0082",
	"frame": {"x":670,"y":1496,"w":134,"h":136},
	"rotated": false,
	"trimmed": false,
	"spriteSourceSize": {"x":0,"y":0,"w":134,"h":136},
	"sourceSize": {"w":134,"h":136}
}
,{
	"filename": "countdown0083",
	"frame": {"x":804,"y":1496,"w":134,"h":136},
	"rotated": false,
	"trimmed": false,
	"spriteSourceSize": {"x":0,"y":0,"w":134,"h":136},
	"sourceSize": {"w":134,"h":136}
}
,{
	"filename": "countdown0084",
	"frame": {"x":0,"y":1632,"w":134,"h":136},
	"rotated": false,
	"trimmed": false,
	"spriteSourceSize": {"x":0,"y":0,"w":134,"h":136},
	"sourceSize": {"w":134,"h":136}
}
,{
	"filename": "countdown0085",
	"frame": {"x":134,"y":1632,"w":134,"h":136},
	"rotated": false,
	"trimmed": false,
	"spriteSourceSize": {"x":0,"y":0,"w":134,"h":136},
	"sourceSize": {"w":134,"h":136}
}
,{
	"filename": "countdown0086",
	"frame": {"x":268,"y":1632,"w":134,"h":136},
	"rotated": false,
	"trimmed": false,
	"spriteSourceSize": {"x":0,"y":0,"w":134,"h":136},
	"sourceSize": {"w":134,"h":136}
}
,{
	"filename": "countdown0087",
	"frame": {"x":402,"y":1632,"w":134,"h":136},
	"rotated": false,
	"trimmed": false,
	"spriteSourceSize": {"x":0,"y":0,"w":134,"h":136},
	"sourceSize": {"w":134,"h":136}
}
,{
	"filename": "countdown0088",
	"frame": {"x":536,"y":1632,"w":134,"h":136},
	"rotated": false,
	"trimmed": false,
	"spriteSourceSize": {"x":0,"y":0,"w":134,"h":136},
	"sourceSize": {"w":134,"h":136}
}
,{
	"filename": "countdown0089",
	"frame": {"x":670,"y":1632,"w":134,"h":136},
	"rotated": false,
	"trimmed": false,
	"spriteSourceSize": {"x":0,"y":0,"w":134,"h":136},
	"sourceSize": {"w":134,"h":136}
}
,{
	"filename": "countdown0090",
	"frame": {"x":804,"y":1632,"w":134,"h":136},
	"rotated": false,
	"trimmed": false,
	"spriteSourceSize": {"x":0,"y":0,"w":134,"h":136},
	"sourceSize": {"w":134,"h":136}
}
,{
	"filename": "countdown0091",
	"frame": {"x":0,"y":1768,"w":134,"h":136},
	"rotated": false,
	"trimmed": false,
	"spriteSourceSize": {"x":0,"y":0,"w":134,"h":136},
	"sourceSize": {"w":134,"h":136}
}
,{
	"filename": "countdown0092",
	"frame": {"x":134,"y":1768,"w":134,"h":136},
	"rotated": false,
	"trimmed": false,
	"spriteSourceSize": {"x":0,"y":0,"w":134,"h":136},
	"sourceSize": {"w":134,"h":136}
}
,{
	"filename": "countdown0093",
	"frame": {"x":268,"y":1768,"w":134,"h":136},
	"rotated": false,
	"trimmed": false,
	"spriteSourceSize": {"x":0,"y":0,"w":134,"h":136},
	"sourceSize": {"w":134,"h":136}
}],
"meta": {
	"app": "Adobe Flash CS6",
	"version": "12.0.0.481",
	"image": "countdown.png",
	"format": "RGBA8888",
	"size": {"w":1024,"h":2048},
	"scale": "1"
}
}
