{"frames": [

{
	"filename": "FinishButton0000",
	"frame": {"x":0,"y":0,"w":135,"h":135},
	"rotated": false,
	"trimmed": false,
	"spriteSourceSize": {"x":0,"y":0,"w":135,"h":135},
	"sourceSize": {"w":135,"h":135}
}
,{
	"filename": "FinishButton0001",
	"frame": {"x":0,"y":135,"w":135,"h":135},
	"rotated": false,
	"trimmed": false,
	"spriteSourceSize": {"x":0,"y":0,"w":135,"h":135},
	"sourceSize": {"w":135,"h":135}
}
,{
	"filename": "FinishButton0002",
	"frame": {"x":0,"y":270,"w":135,"h":135},
	"rotated": false,
	"trimmed": false,
	"spriteSourceSize": {"x":0,"y":0,"w":135,"h":135},
	"sourceSize": {"w":135,"h":135}
}],
"meta": {
	"app": "Adobe Flash CS6",
	"version": "12.0.0.481",
	"image": "finishBtn.png",
	"format": "RGBA8888",
	"size": {"w":256,"h":512},
	"scale": "1"
}
}
