{"frames": [

{
	"filename": "obstacleContainer40000",
	"frame": {"x":0,"y":0,"w":245,"h":110},
	"rotated": false,
	"trimmed": false,
	"spriteSourceSize": {"x":0,"y":0,"w":245,"h":110},
	"sourceSize": {"w":245,"h":110}
}],
"meta": {
	"app": "Adobe Flash CS6",
	"version": "12.0.0.481",
	"image": "electro.png",
	"format": "RGBA8888",
	"size": {"w":256,"h":256},
	"scale": "1"
}
}
