{"frames": [

{
	"filename": "conveyor0000",
	"frame": {"x":0,"y":0,"w":1693,"h":172},
	"rotated": false,
	"trimmed": false,
	"spriteSourceSize": {"x":0,"y":0,"w":1693,"h":172},
	"sourceSize": {"w":1693,"h":172}
}
,{
	"filename": "conveyor0001",
	"frame": {"x":1693,"y":0,"w":1693,"h":172},
	"rotated": false,
	"trimmed": false,
	"spriteSourceSize": {"x":0,"y":0,"w":1693,"h":172},
	"sourceSize": {"w":1693,"h":172}
}
,{
	"filename": "conveyor0002",
	"frame": {"x":0,"y":172,"w":1693,"h":172},
	"rotated": false,
	"trimmed": false,
	"spriteSourceSize": {"x":0,"y":0,"w":1693,"h":172},
	"sourceSize": {"w":1693,"h":172}
}
,{
	"filename": "conveyor0003",
	"frame": {"x":1693,"y":172,"w":1693,"h":172},
	"rotated": false,
	"trimmed": false,
	"spriteSourceSize": {"x":0,"y":0,"w":1693,"h":172},
	"sourceSize": {"w":1693,"h":172}
}
,{
	"filename": "conveyor0004",
	"frame": {"x":0,"y":344,"w":1693,"h":172},
	"rotated": false,
	"trimmed": false,
	"spriteSourceSize": {"x":0,"y":0,"w":1693,"h":172},
	"sourceSize": {"w":1693,"h":172}
}
,{
	"filename": "conveyor0005",
	"frame": {"x":1693,"y":344,"w":1693,"h":172},
	"rotated": false,
	"trimmed": false,
	"spriteSourceSize": {"x":0,"y":0,"w":1693,"h":172},
	"sourceSize": {"w":1693,"h":172}
}
,{
	"filename": "conveyor0006",
	"frame": {"x":0,"y":516,"w":1693,"h":172},
	"rotated": false,
	"trimmed": false,
	"spriteSourceSize": {"x":0,"y":0,"w":1693,"h":172},
	"sourceSize": {"w":1693,"h":172}
}
,{
	"filename": "conveyor0007",
	"frame": {"x":1693,"y":516,"w":1693,"h":172},
	"rotated": false,
	"trimmed": false,
	"spriteSourceSize": {"x":0,"y":0,"w":1693,"h":172},
	"sourceSize": {"w":1693,"h":172}
}
,{
	"filename": "conveyor0008",
	"frame": {"x":0,"y":688,"w":1693,"h":172},
	"rotated": false,
	"trimmed": false,
	"spriteSourceSize": {"x":0,"y":0,"w":1693,"h":172},
	"sourceSize": {"w":1693,"h":172}
}
,{
	"filename": "conveyor0009",
	"frame": {"x":1693,"y":688,"w":1693,"h":172},
	"rotated": false,
	"trimmed": false,
	"spriteSourceSize": {"x":0,"y":0,"w":1693,"h":172},
	"sourceSize": {"w":1693,"h":172}
}
,{
	"filename": "conveyor0010",
	"frame": {"x":0,"y":860,"w":1693,"h":172},
	"rotated": false,
	"trimmed": false,
	"spriteSourceSize": {"x":0,"y":0,"w":1693,"h":172},
	"sourceSize": {"w":1693,"h":172}
}
,{
	"filename": "conveyor0011",
	"frame": {"x":1693,"y":860,"w":1693,"h":172},
	"rotated": false,
	"trimmed": false,
	"spriteSourceSize": {"x":0,"y":0,"w":1693,"h":172},
	"sourceSize": {"w":1693,"h":172}
}
,{
	"filename": "conveyor0012",
	"frame": {"x":0,"y":1032,"w":1693,"h":172},
	"rotated": false,
	"trimmed": false,
	"spriteSourceSize": {"x":0,"y":0,"w":1693,"h":172},
	"sourceSize": {"w":1693,"h":172}
}
,{
	"filename": "conveyor0013",
	"frame": {"x":1693,"y":1032,"w":1693,"h":172},
	"rotated": false,
	"trimmed": false,
	"spriteSourceSize": {"x":0,"y":0,"w":1693,"h":172},
	"sourceSize": {"w":1693,"h":172}
}
,{
	"filename": "conveyor0014",
	"frame": {"x":0,"y":1204,"w":1693,"h":172},
	"rotated": false,
	"trimmed": false,
	"spriteSourceSize": {"x":0,"y":0,"w":1693,"h":172},
	"sourceSize": {"w":1693,"h":172}
}
,{
	"filename": "conveyor0015",
	"frame": {"x":1693,"y":1204,"w":1693,"h":172},
	"rotated": false,
	"trimmed": false,
	"spriteSourceSize": {"x":0,"y":0,"w":1693,"h":172},
	"sourceSize": {"w":1693,"h":172}
}
,{
	"filename": "conveyor0016",
	"frame": {"x":0,"y":1376,"w":1693,"h":172},
	"rotated": false,
	"trimmed": false,
	"spriteSourceSize": {"x":0,"y":0,"w":1693,"h":172},
	"sourceSize": {"w":1693,"h":172}
}
,{
	"filename": "conveyor0017",
	"frame": {"x":1693,"y":1376,"w":1693,"h":172},
	"rotated": false,
	"trimmed": false,
	"spriteSourceSize": {"x":0,"y":0,"w":1693,"h":172},
	"sourceSize": {"w":1693,"h":172}
}
,{
	"filename": "conveyor0018",
	"frame": {"x":0,"y":1548,"w":1693,"h":172},
	"rotated": false,
	"trimmed": false,
	"spriteSourceSize": {"x":0,"y":0,"w":1693,"h":172},
	"sourceSize": {"w":1693,"h":172}
}
,{
	"filename": "conveyor0019",
	"frame": {"x":1693,"y":1548,"w":1693,"h":172},
	"rotated": false,
	"trimmed": false,
	"spriteSourceSize": {"x":0,"y":0,"w":1693,"h":172},
	"sourceSize": {"w":1693,"h":172}
}
,{
	"filename": "conveyor0020",
	"frame": {"x":0,"y":1720,"w":1693,"h":172},
	"rotated": false,
	"trimmed": false,
	"spriteSourceSize": {"x":0,"y":0,"w":1693,"h":172},
	"sourceSize": {"w":1693,"h":172}
}
,{
	"filename": "conveyor0021",
	"frame": {"x":1693,"y":1720,"w":1693,"h":172},
	"rotated": false,
	"trimmed": false,
	"spriteSourceSize": {"x":0,"y":0,"w":1693,"h":172},
	"sourceSize": {"w":1693,"h":172}
}
,{
	"filename": "conveyor0022",
	"frame": {"x":0,"y":1892,"w":1693,"h":172},
	"rotated": false,
	"trimmed": false,
	"spriteSourceSize": {"x":0,"y":0,"w":1693,"h":172},
	"sourceSize": {"w":1693,"h":172}
}
,{
	"filename": "conveyor0023",
	"frame": {"x":1693,"y":1892,"w":1693,"h":172},
	"rotated": false,
	"trimmed": false,
	"spriteSourceSize": {"x":0,"y":0,"w":1693,"h":172},
	"sourceSize": {"w":1693,"h":172}
}
,{
	"filename": "conveyor0024",
	"frame": {"x":0,"y":2064,"w":1693,"h":172},
	"rotated": false,
	"trimmed": false,
	"spriteSourceSize": {"x":0,"y":0,"w":1693,"h":172},
	"sourceSize": {"w":1693,"h":172}
}
,{
	"filename": "conveyor0025",
	"frame": {"x":1693,"y":2064,"w":1693,"h":172},
	"rotated": false,
	"trimmed": false,
	"spriteSourceSize": {"x":0,"y":0,"w":1693,"h":172},
	"sourceSize": {"w":1693,"h":172}
}
,{
	"filename": "conveyor0026",
	"frame": {"x":0,"y":2236,"w":1693,"h":172},
	"rotated": false,
	"trimmed": false,
	"spriteSourceSize": {"x":0,"y":0,"w":1693,"h":172},
	"sourceSize": {"w":1693,"h":172}
}
,{
	"filename": "conveyor0027",
	"frame": {"x":1693,"y":2236,"w":1693,"h":172},
	"rotated": false,
	"trimmed": false,
	"spriteSourceSize": {"x":0,"y":0,"w":1693,"h":172},
	"sourceSize": {"w":1693,"h":172}
}
,{
	"filename": "conveyor0028",
	"frame": {"x":0,"y":2408,"w":1693,"h":172},
	"rotated": false,
	"trimmed": false,
	"spriteSourceSize": {"x":0,"y":0,"w":1693,"h":172},
	"sourceSize": {"w":1693,"h":172}
}
,{
	"filename": "conveyor0029",
	"frame": {"x":1693,"y":2408,"w":1693,"h":172},
	"rotated": false,
	"trimmed": false,
	"spriteSourceSize": {"x":0,"y":0,"w":1693,"h":172},
	"sourceSize": {"w":1693,"h":172}
}
,{
	"filename": "conveyor0030",
	"frame": {"x":0,"y":2580,"w":1693,"h":172},
	"rotated": false,
	"trimmed": false,
	"spriteSourceSize": {"x":0,"y":0,"w":1693,"h":172},
	"sourceSize": {"w":1693,"h":172}
}
,{
	"filename": "conveyor0031",
	"frame": {"x":1693,"y":2580,"w":1693,"h":172},
	"rotated": false,
	"trimmed": false,
	"spriteSourceSize": {"x":0,"y":0,"w":1693,"h":172},
	"sourceSize": {"w":1693,"h":172}
}
,{
	"filename": "conveyor0032",
	"frame": {"x":0,"y":2752,"w":1693,"h":172},
	"rotated": false,
	"trimmed": false,
	"spriteSourceSize": {"x":0,"y":0,"w":1693,"h":172},
	"sourceSize": {"w":1693,"h":172}
}
,{
	"filename": "conveyor0033",
	"frame": {"x":1693,"y":2752,"w":1693,"h":172},
	"rotated": false,
	"trimmed": false,
	"spriteSourceSize": {"x":0,"y":0,"w":1693,"h":172},
	"sourceSize": {"w":1693,"h":172}
}
,{
	"filename": "conveyor0034",
	"frame": {"x":0,"y":2924,"w":1693,"h":172},
	"rotated": false,
	"trimmed": false,
	"spriteSourceSize": {"x":0,"y":0,"w":1693,"h":172},
	"sourceSize": {"w":1693,"h":172}
}
,{
	"filename": "conveyor0035",
	"frame": {"x":1693,"y":2924,"w":1693,"h":172},
	"rotated": false,
	"trimmed": false,
	"spriteSourceSize": {"x":0,"y":0,"w":1693,"h":172},
	"sourceSize": {"w":1693,"h":172}
}
,{
	"filename": "conveyor0036",
	"frame": {"x":0,"y":3096,"w":1693,"h":172},
	"rotated": false,
	"trimmed": false,
	"spriteSourceSize": {"x":0,"y":0,"w":1693,"h":172},
	"sourceSize": {"w":1693,"h":172}
}
,{
	"filename": "conveyor0037",
	"frame": {"x":1693,"y":3096,"w":1693,"h":172},
	"rotated": false,
	"trimmed": false,
	"spriteSourceSize": {"x":0,"y":0,"w":1693,"h":172},
	"sourceSize": {"w":1693,"h":172}
}
,{
	"filename": "conveyor0038",
	"frame": {"x":0,"y":3268,"w":1693,"h":172},
	"rotated": false,
	"trimmed": false,
	"spriteSourceSize": {"x":0,"y":0,"w":1693,"h":172},
	"sourceSize": {"w":1693,"h":172}
}
,{
	"filename": "conveyor0039",
	"frame": {"x":1693,"y":3268,"w":1693,"h":172},
	"rotated": false,
	"trimmed": false,
	"spriteSourceSize": {"x":0,"y":0,"w":1693,"h":172},
	"sourceSize": {"w":1693,"h":172}
}
,{
	"filename": "conveyor0040",
	"frame": {"x":0,"y":3440,"w":1693,"h":172},
	"rotated": false,
	"trimmed": false,
	"spriteSourceSize": {"x":0,"y":0,"w":1693,"h":172},
	"sourceSize": {"w":1693,"h":172}
}
,{
	"filename": "conveyor0041",
	"frame": {"x":1693,"y":3440,"w":1693,"h":172},
	"rotated": false,
	"trimmed": false,
	"spriteSourceSize": {"x":0,"y":0,"w":1693,"h":172},
	"sourceSize": {"w":1693,"h":172}
}
,{
	"filename": "conveyor0042",
	"frame": {"x":0,"y":3612,"w":1693,"h":172},
	"rotated": false,
	"trimmed": false,
	"spriteSourceSize": {"x":0,"y":0,"w":1693,"h":172},
	"sourceSize": {"w":1693,"h":172}
}
,{
	"filename": "conveyor0043",
	"frame": {"x":1693,"y":3612,"w":1693,"h":172},
	"rotated": false,
	"trimmed": false,
	"spriteSourceSize": {"x":0,"y":0,"w":1693,"h":172},
	"sourceSize": {"w":1693,"h":172}
}
,{
	"filename": "conveyor0044",
	"frame": {"x":0,"y":3784,"w":1693,"h":172},
	"rotated": false,
	"trimmed": false,
	"spriteSourceSize": {"x":0,"y":0,"w":1693,"h":172},
	"sourceSize": {"w":1693,"h":172}
}],
"meta": {
	"app": "Adobe Flash CS6",
	"version": "12.0.0.481",
	"image": "tasma_skrzynki.png",
	"format": "RGBA8888",
	"size": {"w":4096,"h":4096},
	"scale": "1"
}
}
