{"frames": [

{
	"filename": "EnlargeButton0000",
	"frame": {"x":0,"y":0,"w":89,"h":38},
	"rotated": false,
	"trimmed": false,
	"spriteSourceSize": {"x":0,"y":0,"w":89,"h":38},
	"sourceSize": {"w":89,"h":38}
}
,{
	"filename": "EnlargeButton0001",
	"frame": {"x":0,"y":38,"w":89,"h":38},
	"rotated": false,
	"trimmed": false,
	"spriteSourceSize": {"x":0,"y":0,"w":89,"h":38},
	"sourceSize": {"w":89,"h":38}
}
,{
	"filename": "EnlargeButton0002",
	"frame": {"x":0,"y":76,"w":89,"h":38},
	"rotated": false,
	"trimmed": false,
	"spriteSourceSize": {"x":0,"y":0,"w":89,"h":38},
	"sourceSize": {"w":89,"h":38}
}],
"meta": {
	"app": "Adobe Flash CS6",
	"version": "12.0.0.481",
	"image": "enlarge.png",
	"format": "RGBA8888",
	"size": {"w":128,"h":128},
	"scale": "1"
}
}
