{"frames": [

{
	"filename": "rotateRight0001.png",
	"frame": {"x":2,"y":2,"w":58,"h":58},
	"rotated": false,
	"trimmed": false,
	"spriteSourceSize": {"x":0,"y":0,"w":58,"h":58},
	"sourceSize": {"w":58,"h":58},
	"pivot": {"x":0.5,"y":0.5}
},
{
	"filename": "rotateRight0002.png",
	"frame": {"x":62,"y":2,"w":58,"h":58},
	"rotated": false,
	"trimmed": false,
	"spriteSourceSize": {"x":0,"y":0,"w":58,"h":58},
	"sourceSize": {"w":58,"h":58},
	"pivot": {"x":0.5,"y":0.5}
},
{
	"filename": "rotateRight0003.png",
	"frame": {"x":122,"y":2,"w":58,"h":58},
	"rotated": false,
	"trimmed": false,
	"spriteSourceSize": {"x":0,"y":0,"w":58,"h":58},
	"sourceSize": {"w":58,"h":58},
	"pivot": {"x":0.5,"y":0.5}
}],
"meta": {
	"app": "http://www.codeandweb.com/texturepacker",
	"version": "1.0",
	"image": "rotateRightBtn.png",
	"format": "RGBA8888",
	"size": {"w":182,"h":62},
	"scale": "1",
	"smartupdate": "$TexturePacker:SmartUpdate:997f5e79e8fba5515657c4a052c15bbb:f13b91da6981fbeda9e42603dd943866:01f80403dc50c71a5df84f2ae93ca4c6$"
}
}
