{"frames": [

{
	"filename": "sprite 78 (AllShapes)0000",
	"frame": {"x":0,"y":0,"w":141,"h":130},
	"rotated": false,
	"trimmed": false,
	"spriteSourceSize": {"x":0,"y":0,"w":141,"h":130},
	"sourceSize": {"w":141,"h":130}
}
,{
	"filename": "sprite 78 (AllShapes)0001",
	"frame": {"x":141,"y":0,"w":141,"h":130},
	"rotated": false,
	"trimmed": false,
	"spriteSourceSize": {"x":0,"y":0,"w":141,"h":130},
	"sourceSize": {"w":141,"h":130}
}
,{
	"filename": "sprite 78 (AllShapes)0002",
	"frame": {"x":282,"y":0,"w":141,"h":130},
	"rotated": false,
	"trimmed": false,
	"spriteSourceSize": {"x":0,"y":0,"w":141,"h":130},
	"sourceSize": {"w":141,"h":130}
}
,{
	"filename": "sprite 78 (AllShapes)0003",
	"frame": {"x":0,"y":130,"w":141,"h":130},
	"rotated": false,
	"trimmed": false,
	"spriteSourceSize": {"x":0,"y":0,"w":141,"h":130},
	"sourceSize": {"w":141,"h":130}
}
,{
	"filename": "sprite 78 (AllShapes)0004",
	"frame": {"x":141,"y":130,"w":141,"h":130},
	"rotated": false,
	"trimmed": false,
	"spriteSourceSize": {"x":0,"y":0,"w":141,"h":130},
	"sourceSize": {"w":141,"h":130}
}
,{
	"filename": "sprite 78 (AllShapes)0005",
	"frame": {"x":282,"y":130,"w":141,"h":130},
	"rotated": false,
	"trimmed": false,
	"spriteSourceSize": {"x":0,"y":0,"w":141,"h":130},
	"sourceSize": {"w":141,"h":130}
}
,{
	"filename": "sprite 78 (AllShapes)0006",
	"frame": {"x":0,"y":260,"w":141,"h":130},
	"rotated": false,
	"trimmed": false,
	"spriteSourceSize": {"x":0,"y":0,"w":141,"h":130},
	"sourceSize": {"w":141,"h":130}
}
,{
	"filename": "sprite 78 (AllShapes)0007",
	"frame": {"x":141,"y":260,"w":141,"h":130},
	"rotated": false,
	"trimmed": false,
	"spriteSourceSize": {"x":0,"y":0,"w":141,"h":130},
	"sourceSize": {"w":141,"h":130}
}
,{
	"filename": "sprite 78 (AllShapes)0008",
	"frame": {"x":282,"y":260,"w":141,"h":130},
	"rotated": false,
	"trimmed": false,
	"spriteSourceSize": {"x":0,"y":0,"w":141,"h":130},
	"sourceSize": {"w":141,"h":130}
}
,{
	"filename": "sprite 78 (AllShapes)0009",
	"frame": {"x":0,"y":390,"w":141,"h":130},
	"rotated": false,
	"trimmed": false,
	"spriteSourceSize": {"x":0,"y":0,"w":141,"h":130},
	"sourceSize": {"w":141,"h":130}
}
,{
	"filename": "sprite 78 (AllShapes)0010",
	"frame": {"x":141,"y":390,"w":141,"h":130},
	"rotated": false,
	"trimmed": false,
	"spriteSourceSize": {"x":0,"y":0,"w":141,"h":130},
	"sourceSize": {"w":141,"h":130}
}
,{
	"filename": "sprite 78 (AllShapes)0011",
	"frame": {"x":282,"y":390,"w":141,"h":130},
	"rotated": false,
	"trimmed": false,
	"spriteSourceSize": {"x":0,"y":0,"w":141,"h":130},
	"sourceSize": {"w":141,"h":130}
}
,{
	"filename": "sprite 78 (AllShapes)0012",
	"frame": {"x":0,"y":520,"w":141,"h":130},
	"rotated": false,
	"trimmed": false,
	"spriteSourceSize": {"x":0,"y":0,"w":141,"h":130},
	"sourceSize": {"w":141,"h":130}
}],
"meta": {
	"app": "Adobe Flash CS6",
	"version": "12.0.0.481",
	"image": "shapes.png",
	"format": "RGBA8888",
	"size": {"w":512,"h":1024},
	"scale": "1"
}
}
