{"frames": [

{
	"filename": "TrickObstacle100000",
	"frame": {"x":0,"y":0,"w":493,"h":168},
	"rotated": false,
	"trimmed": false,
	"spriteSourceSize": {"x":0,"y":0,"w":493,"h":168},
	"sourceSize": {"w":493,"h":168}
}
,{
	"filename": "TrickObstacle100001",
	"frame": {"x":493,"y":0,"w":493,"h":168},
	"rotated": false,
	"trimmed": false,
	"spriteSourceSize": {"x":0,"y":0,"w":493,"h":168},
	"sourceSize": {"w":493,"h":168}
}
,{
	"filename": "TrickObstacle100002",
	"frame": {"x":986,"y":0,"w":493,"h":168},
	"rotated": false,
	"trimmed": false,
	"spriteSourceSize": {"x":0,"y":0,"w":493,"h":168},
	"sourceSize": {"w":493,"h":168}
}
,{
	"filename": "TrickObstacle100003",
	"frame": {"x":1479,"y":0,"w":493,"h":168},
	"rotated": false,
	"trimmed": false,
	"spriteSourceSize": {"x":0,"y":0,"w":493,"h":168},
	"sourceSize": {"w":493,"h":168}
}
,{
	"filename": "TrickObstacle100004",
	"frame": {"x":0,"y":168,"w":493,"h":168},
	"rotated": false,
	"trimmed": false,
	"spriteSourceSize": {"x":0,"y":0,"w":493,"h":168},
	"sourceSize": {"w":493,"h":168}
}
,{
	"filename": "TrickObstacle100005",
	"frame": {"x":493,"y":168,"w":493,"h":168},
	"rotated": false,
	"trimmed": false,
	"spriteSourceSize": {"x":0,"y":0,"w":493,"h":168},
	"sourceSize": {"w":493,"h":168}
}
,{
	"filename": "TrickObstacle100006",
	"frame": {"x":986,"y":168,"w":493,"h":168},
	"rotated": false,
	"trimmed": false,
	"spriteSourceSize": {"x":0,"y":0,"w":493,"h":168},
	"sourceSize": {"w":493,"h":168}
}
,{
	"filename": "TrickObstacle100007",
	"frame": {"x":1479,"y":168,"w":493,"h":168},
	"rotated": false,
	"trimmed": false,
	"spriteSourceSize": {"x":0,"y":0,"w":493,"h":168},
	"sourceSize": {"w":493,"h":168}
}
,{
	"filename": "TrickObstacle100008",
	"frame": {"x":0,"y":336,"w":493,"h":168},
	"rotated": false,
	"trimmed": false,
	"spriteSourceSize": {"x":0,"y":0,"w":493,"h":168},
	"sourceSize": {"w":493,"h":168}
}
,{
	"filename": "TrickObstacle100009",
	"frame": {"x":493,"y":336,"w":493,"h":168},
	"rotated": false,
	"trimmed": false,
	"spriteSourceSize": {"x":0,"y":0,"w":493,"h":168},
	"sourceSize": {"w":493,"h":168}
}
,{
	"filename": "TrickObstacle100010",
	"frame": {"x":986,"y":336,"w":493,"h":168},
	"rotated": false,
	"trimmed": false,
	"spriteSourceSize": {"x":0,"y":0,"w":493,"h":168},
	"sourceSize": {"w":493,"h":168}
}
,{
	"filename": "TrickObstacle100011",
	"frame": {"x":1479,"y":336,"w":493,"h":168},
	"rotated": false,
	"trimmed": false,
	"spriteSourceSize": {"x":0,"y":0,"w":493,"h":168},
	"sourceSize": {"w":493,"h":168}
}
,{
	"filename": "TrickObstacle100012",
	"frame": {"x":0,"y":504,"w":493,"h":168},
	"rotated": false,
	"trimmed": false,
	"spriteSourceSize": {"x":0,"y":0,"w":493,"h":168},
	"sourceSize": {"w":493,"h":168}
}
,{
	"filename": "TrickObstacle100013",
	"frame": {"x":493,"y":504,"w":493,"h":168},
	"rotated": false,
	"trimmed": false,
	"spriteSourceSize": {"x":0,"y":0,"w":493,"h":168},
	"sourceSize": {"w":493,"h":168}
}
,{
	"filename": "TrickObstacle100014",
	"frame": {"x":986,"y":504,"w":493,"h":168},
	"rotated": false,
	"trimmed": false,
	"spriteSourceSize": {"x":0,"y":0,"w":493,"h":168},
	"sourceSize": {"w":493,"h":168}
}
,{
	"filename": "TrickObstacle100015",
	"frame": {"x":1479,"y":504,"w":493,"h":168},
	"rotated": false,
	"trimmed": false,
	"spriteSourceSize": {"x":0,"y":0,"w":493,"h":168},
	"sourceSize": {"w":493,"h":168}
}
,{
	"filename": "TrickObstacle100016",
	"frame": {"x":0,"y":672,"w":493,"h":168},
	"rotated": false,
	"trimmed": false,
	"spriteSourceSize": {"x":0,"y":0,"w":493,"h":168},
	"sourceSize": {"w":493,"h":168}
}
,{
	"filename": "TrickObstacle100017",
	"frame": {"x":493,"y":672,"w":493,"h":168},
	"rotated": false,
	"trimmed": false,
	"spriteSourceSize": {"x":0,"y":0,"w":493,"h":168},
	"sourceSize": {"w":493,"h":168}
}
,{
	"filename": "TrickObstacle100018",
	"frame": {"x":986,"y":672,"w":493,"h":168},
	"rotated": false,
	"trimmed": false,
	"spriteSourceSize": {"x":0,"y":0,"w":493,"h":168},
	"sourceSize": {"w":493,"h":168}
}
,{
	"filename": "TrickObstacle100019",
	"frame": {"x":1479,"y":672,"w":493,"h":168},
	"rotated": false,
	"trimmed": false,
	"spriteSourceSize": {"x":0,"y":0,"w":493,"h":168},
	"sourceSize": {"w":493,"h":168}
}
,{
	"filename": "TrickObstacle100020",
	"frame": {"x":0,"y":840,"w":493,"h":168},
	"rotated": false,
	"trimmed": false,
	"spriteSourceSize": {"x":0,"y":0,"w":493,"h":168},
	"sourceSize": {"w":493,"h":168}
}
,{
	"filename": "TrickObstacle100021",
	"frame": {"x":493,"y":840,"w":493,"h":168},
	"rotated": false,
	"trimmed": false,
	"spriteSourceSize": {"x":0,"y":0,"w":493,"h":168},
	"sourceSize": {"w":493,"h":168}
}
,{
	"filename": "TrickObstacle100022",
	"frame": {"x":986,"y":840,"w":493,"h":168},
	"rotated": false,
	"trimmed": false,
	"spriteSourceSize": {"x":0,"y":0,"w":493,"h":168},
	"sourceSize": {"w":493,"h":168}
}
,{
	"filename": "TrickObstacle100023",
	"frame": {"x":1479,"y":840,"w":493,"h":168},
	"rotated": false,
	"trimmed": false,
	"spriteSourceSize": {"x":0,"y":0,"w":493,"h":168},
	"sourceSize": {"w":493,"h":168}
}
,{
	"filename": "TrickObstacle100024",
	"frame": {"x":0,"y":1008,"w":493,"h":168},
	"rotated": false,
	"trimmed": false,
	"spriteSourceSize": {"x":0,"y":0,"w":493,"h":168},
	"sourceSize": {"w":493,"h":168}
}
,{
	"filename": "TrickObstacle100025",
	"frame": {"x":493,"y":1008,"w":493,"h":168},
	"rotated": false,
	"trimmed": false,
	"spriteSourceSize": {"x":0,"y":0,"w":493,"h":168},
	"sourceSize": {"w":493,"h":168}
}
,{
	"filename": "TrickObstacle100026",
	"frame": {"x":986,"y":1008,"w":493,"h":168},
	"rotated": false,
	"trimmed": false,
	"spriteSourceSize": {"x":0,"y":0,"w":493,"h":168},
	"sourceSize": {"w":493,"h":168}
}
,{
	"filename": "TrickObstacle100027",
	"frame": {"x":1479,"y":1008,"w":493,"h":168},
	"rotated": false,
	"trimmed": false,
	"spriteSourceSize": {"x":0,"y":0,"w":493,"h":168},
	"sourceSize": {"w":493,"h":168}
}
,{
	"filename": "TrickObstacle100028",
	"frame": {"x":0,"y":1176,"w":493,"h":168},
	"rotated": false,
	"trimmed": false,
	"spriteSourceSize": {"x":0,"y":0,"w":493,"h":168},
	"sourceSize": {"w":493,"h":168}
}
,{
	"filename": "TrickObstacle100029",
	"frame": {"x":493,"y":1176,"w":493,"h":168},
	"rotated": false,
	"trimmed": false,
	"spriteSourceSize": {"x":0,"y":0,"w":493,"h":168},
	"sourceSize": {"w":493,"h":168}
}
,{
	"filename": "TrickObstacle100030",
	"frame": {"x":986,"y":1176,"w":493,"h":168},
	"rotated": false,
	"trimmed": false,
	"spriteSourceSize": {"x":0,"y":0,"w":493,"h":168},
	"sourceSize": {"w":493,"h":168}
}
,{
	"filename": "TrickObstacle100031",
	"frame": {"x":1479,"y":1176,"w":493,"h":168},
	"rotated": false,
	"trimmed": false,
	"spriteSourceSize": {"x":0,"y":0,"w":493,"h":168},
	"sourceSize": {"w":493,"h":168}
}
,{
	"filename": "TrickObstacle100032",
	"frame": {"x":0,"y":1344,"w":493,"h":168},
	"rotated": false,
	"trimmed": false,
	"spriteSourceSize": {"x":0,"y":0,"w":493,"h":168},
	"sourceSize": {"w":493,"h":168}
}
,{
	"filename": "TrickObstacle100033",
	"frame": {"x":493,"y":1344,"w":493,"h":168},
	"rotated": false,
	"trimmed": false,
	"spriteSourceSize": {"x":0,"y":0,"w":493,"h":168},
	"sourceSize": {"w":493,"h":168}
}
,{
	"filename": "TrickObstacle100034",
	"frame": {"x":986,"y":1344,"w":493,"h":168},
	"rotated": false,
	"trimmed": false,
	"spriteSourceSize": {"x":0,"y":0,"w":493,"h":168},
	"sourceSize": {"w":493,"h":168}
}
,{
	"filename": "TrickObstacle100035",
	"frame": {"x":1479,"y":1344,"w":493,"h":168},
	"rotated": false,
	"trimmed": false,
	"spriteSourceSize": {"x":0,"y":0,"w":493,"h":168},
	"sourceSize": {"w":493,"h":168}
}
,{
	"filename": "TrickObstacle100036",
	"frame": {"x":0,"y":1512,"w":493,"h":168},
	"rotated": false,
	"trimmed": false,
	"spriteSourceSize": {"x":0,"y":0,"w":493,"h":168},
	"sourceSize": {"w":493,"h":168}
}
,{
	"filename": "TrickObstacle100037",
	"frame": {"x":493,"y":1512,"w":493,"h":168},
	"rotated": false,
	"trimmed": false,
	"spriteSourceSize": {"x":0,"y":0,"w":493,"h":168},
	"sourceSize": {"w":493,"h":168}
}
,{
	"filename": "TrickObstacle100038",
	"frame": {"x":986,"y":1512,"w":493,"h":168},
	"rotated": false,
	"trimmed": false,
	"spriteSourceSize": {"x":0,"y":0,"w":493,"h":168},
	"sourceSize": {"w":493,"h":168}
}
,{
	"filename": "TrickObstacle100039",
	"frame": {"x":1479,"y":1512,"w":493,"h":168},
	"rotated": false,
	"trimmed": false,
	"spriteSourceSize": {"x":0,"y":0,"w":493,"h":168},
	"sourceSize": {"w":493,"h":168}
}
,{
	"filename": "TrickObstacle100040",
	"frame": {"x":0,"y":1680,"w":493,"h":168},
	"rotated": false,
	"trimmed": false,
	"spriteSourceSize": {"x":0,"y":0,"w":493,"h":168},
	"sourceSize": {"w":493,"h":168}
}
,{
	"filename": "TrickObstacle100041",
	"frame": {"x":493,"y":1680,"w":493,"h":168},
	"rotated": false,
	"trimmed": false,
	"spriteSourceSize": {"x":0,"y":0,"w":493,"h":168},
	"sourceSize": {"w":493,"h":168}
}
,{
	"filename": "TrickObstacle100042",
	"frame": {"x":986,"y":1680,"w":493,"h":168},
	"rotated": false,
	"trimmed": false,
	"spriteSourceSize": {"x":0,"y":0,"w":493,"h":168},
	"sourceSize": {"w":493,"h":168}
}
,{
	"filename": "TrickObstacle100043",
	"frame": {"x":1479,"y":1680,"w":493,"h":168},
	"rotated": false,
	"trimmed": false,
	"spriteSourceSize": {"x":0,"y":0,"w":493,"h":168},
	"sourceSize": {"w":493,"h":168}
}
,{
	"filename": "TrickObstacle100044",
	"frame": {"x":0,"y":1848,"w":493,"h":168},
	"rotated": false,
	"trimmed": false,
	"spriteSourceSize": {"x":0,"y":0,"w":493,"h":168},
	"sourceSize": {"w":493,"h":168}
}
,{
	"filename": "TrickObstacle100045",
	"frame": {"x":493,"y":1848,"w":493,"h":168},
	"rotated": false,
	"trimmed": false,
	"spriteSourceSize": {"x":0,"y":0,"w":493,"h":168},
	"sourceSize": {"w":493,"h":168}
}
,{
	"filename": "TrickObstacle100046",
	"frame": {"x":986,"y":1848,"w":493,"h":168},
	"rotated": false,
	"trimmed": false,
	"spriteSourceSize": {"x":0,"y":0,"w":493,"h":168},
	"sourceSize": {"w":493,"h":168}
}
,{
	"filename": "TrickObstacle100047",
	"frame": {"x":1479,"y":1848,"w":493,"h":168},
	"rotated": false,
	"trimmed": false,
	"spriteSourceSize": {"x":0,"y":0,"w":493,"h":168},
	"sourceSize": {"w":493,"h":168}
}
,{
	"filename": "TrickObstacle100048",
	"frame": {"x":0,"y":2016,"w":493,"h":168},
	"rotated": false,
	"trimmed": false,
	"spriteSourceSize": {"x":0,"y":0,"w":493,"h":168},
	"sourceSize": {"w":493,"h":168}
}
,{
	"filename": "TrickObstacle100049",
	"frame": {"x":493,"y":2016,"w":493,"h":168},
	"rotated": false,
	"trimmed": false,
	"spriteSourceSize": {"x":0,"y":0,"w":493,"h":168},
	"sourceSize": {"w":493,"h":168}
}
,{
	"filename": "TrickObstacle100050",
	"frame": {"x":986,"y":2016,"w":493,"h":168},
	"rotated": false,
	"trimmed": false,
	"spriteSourceSize": {"x":0,"y":0,"w":493,"h":168},
	"sourceSize": {"w":493,"h":168}
}
,{
	"filename": "TrickObstacle100051",
	"frame": {"x":1479,"y":2016,"w":493,"h":168},
	"rotated": false,
	"trimmed": false,
	"spriteSourceSize": {"x":0,"y":0,"w":493,"h":168},
	"sourceSize": {"w":493,"h":168}
}
,{
	"filename": "TrickObstacle100052",
	"frame": {"x":0,"y":2184,"w":493,"h":168},
	"rotated": false,
	"trimmed": false,
	"spriteSourceSize": {"x":0,"y":0,"w":493,"h":168},
	"sourceSize": {"w":493,"h":168}
}
,{
	"filename": "TrickObstacle100053",
	"frame": {"x":493,"y":2184,"w":493,"h":168},
	"rotated": false,
	"trimmed": false,
	"spriteSourceSize": {"x":0,"y":0,"w":493,"h":168},
	"sourceSize": {"w":493,"h":168}
}
,{
	"filename": "TrickObstacle100054",
	"frame": {"x":986,"y":2184,"w":493,"h":168},
	"rotated": false,
	"trimmed": false,
	"spriteSourceSize": {"x":0,"y":0,"w":493,"h":168},
	"sourceSize": {"w":493,"h":168}
}
,{
	"filename": "TrickObstacle100055",
	"frame": {"x":1479,"y":2184,"w":493,"h":168},
	"rotated": false,
	"trimmed": false,
	"spriteSourceSize": {"x":0,"y":0,"w":493,"h":168},
	"sourceSize": {"w":493,"h":168}
}
,{
	"filename": "TrickObstacle100056",
	"frame": {"x":0,"y":2352,"w":493,"h":168},
	"rotated": false,
	"trimmed": false,
	"spriteSourceSize": {"x":0,"y":0,"w":493,"h":168},
	"sourceSize": {"w":493,"h":168}
}
,{
	"filename": "TrickObstacle100057",
	"frame": {"x":493,"y":2352,"w":493,"h":168},
	"rotated": false,
	"trimmed": false,
	"spriteSourceSize": {"x":0,"y":0,"w":493,"h":168},
	"sourceSize": {"w":493,"h":168}
}
,{
	"filename": "TrickObstacle100058",
	"frame": {"x":986,"y":2352,"w":493,"h":168},
	"rotated": false,
	"trimmed": false,
	"spriteSourceSize": {"x":0,"y":0,"w":493,"h":168},
	"sourceSize": {"w":493,"h":168}
}
,{
	"filename": "TrickObstacle100059",
	"frame": {"x":1479,"y":2352,"w":493,"h":168},
	"rotated": false,
	"trimmed": false,
	"spriteSourceSize": {"x":0,"y":0,"w":493,"h":168},
	"sourceSize": {"w":493,"h":168}
}
,{
	"filename": "TrickObstacle100060",
	"frame": {"x":0,"y":2520,"w":493,"h":168},
	"rotated": false,
	"trimmed": false,
	"spriteSourceSize": {"x":0,"y":0,"w":493,"h":168},
	"sourceSize": {"w":493,"h":168}
}
,{
	"filename": "TrickObstacle100061",
	"frame": {"x":493,"y":2520,"w":493,"h":168},
	"rotated": false,
	"trimmed": false,
	"spriteSourceSize": {"x":0,"y":0,"w":493,"h":168},
	"sourceSize": {"w":493,"h":168}
}
,{
	"filename": "TrickObstacle100062",
	"frame": {"x":986,"y":2520,"w":493,"h":168},
	"rotated": false,
	"trimmed": false,
	"spriteSourceSize": {"x":0,"y":0,"w":493,"h":168},
	"sourceSize": {"w":493,"h":168}
}
,{
	"filename": "TrickObstacle100063",
	"frame": {"x":1479,"y":2520,"w":493,"h":168},
	"rotated": false,
	"trimmed": false,
	"spriteSourceSize": {"x":0,"y":0,"w":493,"h":168},
	"sourceSize": {"w":493,"h":168}
}
,{
	"filename": "TrickObstacle100064",
	"frame": {"x":0,"y":2688,"w":493,"h":168},
	"rotated": false,
	"trimmed": false,
	"spriteSourceSize": {"x":0,"y":0,"w":493,"h":168},
	"sourceSize": {"w":493,"h":168}
}
,{
	"filename": "TrickObstacle100065",
	"frame": {"x":493,"y":2688,"w":493,"h":168},
	"rotated": false,
	"trimmed": false,
	"spriteSourceSize": {"x":0,"y":0,"w":493,"h":168},
	"sourceSize": {"w":493,"h":168}
}
,{
	"filename": "TrickObstacle100066",
	"frame": {"x":986,"y":2688,"w":493,"h":168},
	"rotated": false,
	"trimmed": false,
	"spriteSourceSize": {"x":0,"y":0,"w":493,"h":168},
	"sourceSize": {"w":493,"h":168}
}
,{
	"filename": "TrickObstacle100067",
	"frame": {"x":1479,"y":2688,"w":493,"h":168},
	"rotated": false,
	"trimmed": false,
	"spriteSourceSize": {"x":0,"y":0,"w":493,"h":168},
	"sourceSize": {"w":493,"h":168}
}
,{
	"filename": "TrickObstacle100068",
	"frame": {"x":0,"y":2856,"w":493,"h":168},
	"rotated": false,
	"trimmed": false,
	"spriteSourceSize": {"x":0,"y":0,"w":493,"h":168},
	"sourceSize": {"w":493,"h":168}
}
,{
	"filename": "TrickObstacle100069",
	"frame": {"x":493,"y":2856,"w":493,"h":168},
	"rotated": false,
	"trimmed": false,
	"spriteSourceSize": {"x":0,"y":0,"w":493,"h":168},
	"sourceSize": {"w":493,"h":168}
}
,{
	"filename": "TrickObstacle100070",
	"frame": {"x":986,"y":2856,"w":493,"h":168},
	"rotated": false,
	"trimmed": false,
	"spriteSourceSize": {"x":0,"y":0,"w":493,"h":168},
	"sourceSize": {"w":493,"h":168}
}
,{
	"filename": "TrickObstacle100071",
	"frame": {"x":1479,"y":2856,"w":493,"h":168},
	"rotated": false,
	"trimmed": false,
	"spriteSourceSize": {"x":0,"y":0,"w":493,"h":168},
	"sourceSize": {"w":493,"h":168}
}
,{
	"filename": "TrickObstacle100072",
	"frame": {"x":0,"y":3024,"w":493,"h":168},
	"rotated": false,
	"trimmed": false,
	"spriteSourceSize": {"x":0,"y":0,"w":493,"h":168},
	"sourceSize": {"w":493,"h":168}
}
,{
	"filename": "TrickObstacle100073",
	"frame": {"x":493,"y":3024,"w":493,"h":168},
	"rotated": false,
	"trimmed": false,
	"spriteSourceSize": {"x":0,"y":0,"w":493,"h":168},
	"sourceSize": {"w":493,"h":168}
}
,{
	"filename": "TrickObstacle100074",
	"frame": {"x":986,"y":3024,"w":493,"h":168},
	"rotated": false,
	"trimmed": false,
	"spriteSourceSize": {"x":0,"y":0,"w":493,"h":168},
	"sourceSize": {"w":493,"h":168}
}
,{
	"filename": "TrickObstacle100075",
	"frame": {"x":1479,"y":3024,"w":493,"h":168},
	"rotated": false,
	"trimmed": false,
	"spriteSourceSize": {"x":0,"y":0,"w":493,"h":168},
	"sourceSize": {"w":493,"h":168}
}
,{
	"filename": "TrickObstacle100076",
	"frame": {"x":0,"y":3192,"w":493,"h":168},
	"rotated": false,
	"trimmed": false,
	"spriteSourceSize": {"x":0,"y":0,"w":493,"h":168},
	"sourceSize": {"w":493,"h":168}
}
,{
	"filename": "TrickObstacle100077",
	"frame": {"x":493,"y":3192,"w":493,"h":168},
	"rotated": false,
	"trimmed": false,
	"spriteSourceSize": {"x":0,"y":0,"w":493,"h":168},
	"sourceSize": {"w":493,"h":168}
}
,{
	"filename": "TrickObstacle100078",
	"frame": {"x":986,"y":3192,"w":493,"h":168},
	"rotated": false,
	"trimmed": false,
	"spriteSourceSize": {"x":0,"y":0,"w":493,"h":168},
	"sourceSize": {"w":493,"h":168}
}
,{
	"filename": "TrickObstacle100079",
	"frame": {"x":1479,"y":3192,"w":493,"h":168},
	"rotated": false,
	"trimmed": false,
	"spriteSourceSize": {"x":0,"y":0,"w":493,"h":168},
	"sourceSize": {"w":493,"h":168}
}],
"meta": {
	"app": "Adobe Flash CS6",
	"version": "12.0.0.481",
	"image": "shark.png",
	"format": "RGBA8888",
	"size": {"w":2048,"h":4096},
	"scale": "1"
}
}
