{"frames": [

{
	"filename": "customer30001.png",
	"frame": {"x":2,"y":2,"w":180,"h":307},
	"rotated": false,
	"trimmed": false,
	"spriteSourceSize": {"x":0,"y":0,"w":180,"h":307},
	"sourceSize": {"w":180,"h":307},
	"pivot": {"x":0.5,"y":0.5}
},
{
	"filename": "customer30002.png",
	"frame": {"x":184,"y":2,"w":180,"h":307},
	"rotated": false,
	"trimmed": false,
	"spriteSourceSize": {"x":0,"y":0,"w":180,"h":307},
	"sourceSize": {"w":180,"h":307},
	"pivot": {"x":0.5,"y":0.5}
},
{
	"filename": "customer30003.png",
	"frame": {"x":366,"y":2,"w":180,"h":307},
	"rotated": false,
	"trimmed": false,
	"spriteSourceSize": {"x":0,"y":0,"w":180,"h":307},
	"sourceSize": {"w":180,"h":307},
	"pivot": {"x":0.5,"y":0.5}
},
{
	"filename": "customer30004.png",
	"frame": {"x":366,"y":2,"w":180,"h":307},
	"rotated": false,
	"trimmed": false,
	"spriteSourceSize": {"x":0,"y":0,"w":180,"h":307},
	"sourceSize": {"w":180,"h":307},
	"pivot": {"x":0.5,"y":0.5}
},
{
	"filename": "customer30005.png",
	"frame": {"x":366,"y":2,"w":180,"h":307},
	"rotated": false,
	"trimmed": false,
	"spriteSourceSize": {"x":0,"y":0,"w":180,"h":307},
	"sourceSize": {"w":180,"h":307},
	"pivot": {"x":0.5,"y":0.5}
},
{
	"filename": "customer30006.png",
	"frame": {"x":366,"y":2,"w":180,"h":307},
	"rotated": false,
	"trimmed": false,
	"spriteSourceSize": {"x":0,"y":0,"w":180,"h":307},
	"sourceSize": {"w":180,"h":307},
	"pivot": {"x":0.5,"y":0.5}
},
{
	"filename": "customer30007.png",
	"frame": {"x":366,"y":2,"w":180,"h":307},
	"rotated": false,
	"trimmed": false,
	"spriteSourceSize": {"x":0,"y":0,"w":180,"h":307},
	"sourceSize": {"w":180,"h":307},
	"pivot": {"x":0.5,"y":0.5}
},
{
	"filename": "customer30008.png",
	"frame": {"x":366,"y":2,"w":180,"h":307},
	"rotated": false,
	"trimmed": false,
	"spriteSourceSize": {"x":0,"y":0,"w":180,"h":307},
	"sourceSize": {"w":180,"h":307},
	"pivot": {"x":0.5,"y":0.5}
},
{
	"filename": "customer30009.png",
	"frame": {"x":366,"y":2,"w":180,"h":307},
	"rotated": false,
	"trimmed": false,
	"spriteSourceSize": {"x":0,"y":0,"w":180,"h":307},
	"sourceSize": {"w":180,"h":307},
	"pivot": {"x":0.5,"y":0.5}
},
{
	"filename": "customer30010.png",
	"frame": {"x":366,"y":2,"w":180,"h":307},
	"rotated": false,
	"trimmed": false,
	"spriteSourceSize": {"x":0,"y":0,"w":180,"h":307},
	"sourceSize": {"w":180,"h":307},
	"pivot": {"x":0.5,"y":0.5}
},
{
	"filename": "customer30011.png",
	"frame": {"x":366,"y":2,"w":180,"h":307},
	"rotated": false,
	"trimmed": false,
	"spriteSourceSize": {"x":0,"y":0,"w":180,"h":307},
	"sourceSize": {"w":180,"h":307},
	"pivot": {"x":0.5,"y":0.5}
},
{
	"filename": "customer30012.png",
	"frame": {"x":366,"y":2,"w":180,"h":307},
	"rotated": false,
	"trimmed": false,
	"spriteSourceSize": {"x":0,"y":0,"w":180,"h":307},
	"sourceSize": {"w":180,"h":307},
	"pivot": {"x":0.5,"y":0.5}
},
{
	"filename": "customer30013.png",
	"frame": {"x":548,"y":2,"w":180,"h":307},
	"rotated": false,
	"trimmed": false,
	"spriteSourceSize": {"x":0,"y":0,"w":180,"h":307},
	"sourceSize": {"w":180,"h":307},
	"pivot": {"x":0.5,"y":0.5}
},
{
	"filename": "customer30014.png",
	"frame": {"x":730,"y":2,"w":180,"h":307},
	"rotated": false,
	"trimmed": false,
	"spriteSourceSize": {"x":0,"y":0,"w":180,"h":307},
	"sourceSize": {"w":180,"h":307},
	"pivot": {"x":0.5,"y":0.5}
},
{
	"filename": "customer30015.png",
	"frame": {"x":912,"y":2,"w":180,"h":307},
	"rotated": false,
	"trimmed": false,
	"spriteSourceSize": {"x":0,"y":0,"w":180,"h":307},
	"sourceSize": {"w":180,"h":307},
	"pivot": {"x":0.5,"y":0.5}
},
{
	"filename": "customer30016.png",
	"frame": {"x":1094,"y":2,"w":180,"h":307},
	"rotated": false,
	"trimmed": false,
	"spriteSourceSize": {"x":0,"y":0,"w":180,"h":307},
	"sourceSize": {"w":180,"h":307},
	"pivot": {"x":0.5,"y":0.5}
},
{
	"filename": "customer30017.png",
	"frame": {"x":1094,"y":2,"w":180,"h":307},
	"rotated": false,
	"trimmed": false,
	"spriteSourceSize": {"x":0,"y":0,"w":180,"h":307},
	"sourceSize": {"w":180,"h":307},
	"pivot": {"x":0.5,"y":0.5}
},
{
	"filename": "customer30018.png",
	"frame": {"x":1094,"y":2,"w":180,"h":307},
	"rotated": false,
	"trimmed": false,
	"spriteSourceSize": {"x":0,"y":0,"w":180,"h":307},
	"sourceSize": {"w":180,"h":307},
	"pivot": {"x":0.5,"y":0.5}
},
{
	"filename": "customer30019.png",
	"frame": {"x":1094,"y":2,"w":180,"h":307},
	"rotated": false,
	"trimmed": false,
	"spriteSourceSize": {"x":0,"y":0,"w":180,"h":307},
	"sourceSize": {"w":180,"h":307},
	"pivot": {"x":0.5,"y":0.5}
},
{
	"filename": "customer30020.png",
	"frame": {"x":912,"y":2,"w":180,"h":307},
	"rotated": false,
	"trimmed": false,
	"spriteSourceSize": {"x":0,"y":0,"w":180,"h":307},
	"sourceSize": {"w":180,"h":307},
	"pivot": {"x":0.5,"y":0.5}
},
{
	"filename": "customer30021.png",
	"frame": {"x":548,"y":2,"w":180,"h":307},
	"rotated": false,
	"trimmed": false,
	"spriteSourceSize": {"x":0,"y":0,"w":180,"h":307},
	"sourceSize": {"w":180,"h":307},
	"pivot": {"x":0.5,"y":0.5}
},
{
	"filename": "customer30022.png",
	"frame": {"x":366,"y":2,"w":180,"h":307},
	"rotated": false,
	"trimmed": false,
	"spriteSourceSize": {"x":0,"y":0,"w":180,"h":307},
	"sourceSize": {"w":180,"h":307},
	"pivot": {"x":0.5,"y":0.5}
},
{
	"filename": "customer30023.png",
	"frame": {"x":366,"y":2,"w":180,"h":307},
	"rotated": false,
	"trimmed": false,
	"spriteSourceSize": {"x":0,"y":0,"w":180,"h":307},
	"sourceSize": {"w":180,"h":307},
	"pivot": {"x":0.5,"y":0.5}
},
{
	"filename": "customer30024.png",
	"frame": {"x":366,"y":2,"w":180,"h":307},
	"rotated": false,
	"trimmed": false,
	"spriteSourceSize": {"x":0,"y":0,"w":180,"h":307},
	"sourceSize": {"w":180,"h":307},
	"pivot": {"x":0.5,"y":0.5}
},
{
	"filename": "customer30025.png",
	"frame": {"x":366,"y":2,"w":180,"h":307},
	"rotated": false,
	"trimmed": false,
	"spriteSourceSize": {"x":0,"y":0,"w":180,"h":307},
	"sourceSize": {"w":180,"h":307},
	"pivot": {"x":0.5,"y":0.5}
},
{
	"filename": "customer30026.png",
	"frame": {"x":366,"y":2,"w":180,"h":307},
	"rotated": false,
	"trimmed": false,
	"spriteSourceSize": {"x":0,"y":0,"w":180,"h":307},
	"sourceSize": {"w":180,"h":307},
	"pivot": {"x":0.5,"y":0.5}
},
{
	"filename": "customer30027.png",
	"frame": {"x":366,"y":2,"w":180,"h":307},
	"rotated": false,
	"trimmed": false,
	"spriteSourceSize": {"x":0,"y":0,"w":180,"h":307},
	"sourceSize": {"w":180,"h":307},
	"pivot": {"x":0.5,"y":0.5}
},
{
	"filename": "customer30028.png",
	"frame": {"x":366,"y":2,"w":180,"h":307},
	"rotated": false,
	"trimmed": false,
	"spriteSourceSize": {"x":0,"y":0,"w":180,"h":307},
	"sourceSize": {"w":180,"h":307},
	"pivot": {"x":0.5,"y":0.5}
},
{
	"filename": "customer30029.png",
	"frame": {"x":366,"y":2,"w":180,"h":307},
	"rotated": false,
	"trimmed": false,
	"spriteSourceSize": {"x":0,"y":0,"w":180,"h":307},
	"sourceSize": {"w":180,"h":307},
	"pivot": {"x":0.5,"y":0.5}
},
{
	"filename": "customer30030.png",
	"frame": {"x":366,"y":2,"w":180,"h":307},
	"rotated": false,
	"trimmed": false,
	"spriteSourceSize": {"x":0,"y":0,"w":180,"h":307},
	"sourceSize": {"w":180,"h":307},
	"pivot": {"x":0.5,"y":0.5}
},
{
	"filename": "customer30031.png",
	"frame": {"x":366,"y":2,"w":180,"h":307},
	"rotated": false,
	"trimmed": false,
	"spriteSourceSize": {"x":0,"y":0,"w":180,"h":307},
	"sourceSize": {"w":180,"h":307},
	"pivot": {"x":0.5,"y":0.5}
},
{
	"filename": "customer30032.png",
	"frame": {"x":366,"y":2,"w":180,"h":307},
	"rotated": false,
	"trimmed": false,
	"spriteSourceSize": {"x":0,"y":0,"w":180,"h":307},
	"sourceSize": {"w":180,"h":307},
	"pivot": {"x":0.5,"y":0.5}
},
{
	"filename": "customer30033.png",
	"frame": {"x":1276,"y":2,"w":180,"h":307},
	"rotated": false,
	"trimmed": false,
	"spriteSourceSize": {"x":0,"y":0,"w":180,"h":307},
	"sourceSize": {"w":180,"h":307},
	"pivot": {"x":0.5,"y":0.5}
},
{
	"filename": "customer30034.png",
	"frame": {"x":1458,"y":2,"w":180,"h":307},
	"rotated": false,
	"trimmed": false,
	"spriteSourceSize": {"x":0,"y":0,"w":180,"h":307},
	"sourceSize": {"w":180,"h":307},
	"pivot": {"x":0.5,"y":0.5}
},
{
	"filename": "customer30035.png",
	"frame": {"x":1640,"y":2,"w":180,"h":307},
	"rotated": false,
	"trimmed": false,
	"spriteSourceSize": {"x":0,"y":0,"w":180,"h":307},
	"sourceSize": {"w":180,"h":307},
	"pivot": {"x":0.5,"y":0.5}
},
{
	"filename": "customer30036.png",
	"frame": {"x":1822,"y":2,"w":180,"h":307},
	"rotated": false,
	"trimmed": false,
	"spriteSourceSize": {"x":0,"y":0,"w":180,"h":307},
	"sourceSize": {"w":180,"h":307},
	"pivot": {"x":0.5,"y":0.5}
},
{
	"filename": "customer30037.png",
	"frame": {"x":2004,"y":2,"w":180,"h":307},
	"rotated": false,
	"trimmed": false,
	"spriteSourceSize": {"x":0,"y":0,"w":180,"h":307},
	"sourceSize": {"w":180,"h":307},
	"pivot": {"x":0.5,"y":0.5}
},
{
	"filename": "customer30038.png",
	"frame": {"x":2186,"y":2,"w":180,"h":307},
	"rotated": false,
	"trimmed": false,
	"spriteSourceSize": {"x":0,"y":0,"w":180,"h":307},
	"sourceSize": {"w":180,"h":307},
	"pivot": {"x":0.5,"y":0.5}
},
{
	"filename": "customer30039.png",
	"frame": {"x":2368,"y":2,"w":180,"h":307},
	"rotated": false,
	"trimmed": false,
	"spriteSourceSize": {"x":0,"y":0,"w":180,"h":307},
	"sourceSize": {"w":180,"h":307},
	"pivot": {"x":0.5,"y":0.5}
},
{
	"filename": "customer30040.png",
	"frame": {"x":2550,"y":2,"w":180,"h":307},
	"rotated": false,
	"trimmed": false,
	"spriteSourceSize": {"x":0,"y":0,"w":180,"h":307},
	"sourceSize": {"w":180,"h":307},
	"pivot": {"x":0.5,"y":0.5}
},
{
	"filename": "customer30041.png",
	"frame": {"x":2732,"y":2,"w":180,"h":307},
	"rotated": false,
	"trimmed": false,
	"spriteSourceSize": {"x":0,"y":0,"w":180,"h":307},
	"sourceSize": {"w":180,"h":307},
	"pivot": {"x":0.5,"y":0.5}
},
{
	"filename": "customer30042.png",
	"frame": {"x":2914,"y":2,"w":180,"h":307},
	"rotated": false,
	"trimmed": false,
	"spriteSourceSize": {"x":0,"y":0,"w":180,"h":307},
	"sourceSize": {"w":180,"h":307},
	"pivot": {"x":0.5,"y":0.5}
},
{
	"filename": "customer30043.png",
	"frame": {"x":3096,"y":2,"w":180,"h":307},
	"rotated": false,
	"trimmed": false,
	"spriteSourceSize": {"x":0,"y":0,"w":180,"h":307},
	"sourceSize": {"w":180,"h":307},
	"pivot": {"x":0.5,"y":0.5}
},
{
	"filename": "customer30044.png",
	"frame": {"x":3278,"y":2,"w":180,"h":307},
	"rotated": false,
	"trimmed": false,
	"spriteSourceSize": {"x":0,"y":0,"w":180,"h":307},
	"sourceSize": {"w":180,"h":307},
	"pivot": {"x":0.5,"y":0.5}
},
{
	"filename": "customer30045.png",
	"frame": {"x":3460,"y":2,"w":180,"h":307},
	"rotated": false,
	"trimmed": false,
	"spriteSourceSize": {"x":0,"y":0,"w":180,"h":307},
	"sourceSize": {"w":180,"h":307},
	"pivot": {"x":0.5,"y":0.5}
},
{
	"filename": "customer30046.png",
	"frame": {"x":3642,"y":2,"w":180,"h":307},
	"rotated": false,
	"trimmed": false,
	"spriteSourceSize": {"x":0,"y":0,"w":180,"h":307},
	"sourceSize": {"w":180,"h":307},
	"pivot": {"x":0.5,"y":0.5}
},
{
	"filename": "customer30047.png",
	"frame": {"x":3824,"y":2,"w":180,"h":307},
	"rotated": false,
	"trimmed": false,
	"spriteSourceSize": {"x":0,"y":0,"w":180,"h":307},
	"sourceSize": {"w":180,"h":307},
	"pivot": {"x":0.5,"y":0.5}
},
{
	"filename": "customer30048.png",
	"frame": {"x":4006,"y":2,"w":180,"h":307},
	"rotated": false,
	"trimmed": false,
	"spriteSourceSize": {"x":0,"y":0,"w":180,"h":307},
	"sourceSize": {"w":180,"h":307},
	"pivot": {"x":0.5,"y":0.5}
},
{
	"filename": "customer30049.png",
	"frame": {"x":4188,"y":2,"w":180,"h":307},
	"rotated": false,
	"trimmed": false,
	"spriteSourceSize": {"x":0,"y":0,"w":180,"h":307},
	"sourceSize": {"w":180,"h":307},
	"pivot": {"x":0.5,"y":0.5}
},
{
	"filename": "customer30050.png",
	"frame": {"x":4370,"y":2,"w":180,"h":307},
	"rotated": false,
	"trimmed": false,
	"spriteSourceSize": {"x":0,"y":0,"w":180,"h":307},
	"sourceSize": {"w":180,"h":307},
	"pivot": {"x":0.5,"y":0.5}
},
{
	"filename": "customer30051.png",
	"frame": {"x":4552,"y":2,"w":180,"h":307},
	"rotated": false,
	"trimmed": false,
	"spriteSourceSize": {"x":0,"y":0,"w":180,"h":307},
	"sourceSize": {"w":180,"h":307},
	"pivot": {"x":0.5,"y":0.5}
},
{
	"filename": "customer30052.png",
	"frame": {"x":4734,"y":2,"w":180,"h":307},
	"rotated": false,
	"trimmed": false,
	"spriteSourceSize": {"x":0,"y":0,"w":180,"h":307},
	"sourceSize": {"w":180,"h":307},
	"pivot": {"x":0.5,"y":0.5}
},
{
	"filename": "customer30053.png",
	"frame": {"x":4916,"y":2,"w":180,"h":307},
	"rotated": false,
	"trimmed": false,
	"spriteSourceSize": {"x":0,"y":0,"w":180,"h":307},
	"sourceSize": {"w":180,"h":307},
	"pivot": {"x":0.5,"y":0.5}
},
{
	"filename": "customer30054.png",
	"frame": {"x":5098,"y":2,"w":180,"h":307},
	"rotated": false,
	"trimmed": false,
	"spriteSourceSize": {"x":0,"y":0,"w":180,"h":307},
	"sourceSize": {"w":180,"h":307},
	"pivot": {"x":0.5,"y":0.5}
},
{
	"filename": "customer30055.png",
	"frame": {"x":5280,"y":2,"w":180,"h":307},
	"rotated": false,
	"trimmed": false,
	"spriteSourceSize": {"x":0,"y":0,"w":180,"h":307},
	"sourceSize": {"w":180,"h":307},
	"pivot": {"x":0.5,"y":0.5}
},
{
	"filename": "customer30056.png",
	"frame": {"x":5462,"y":2,"w":180,"h":307},
	"rotated": false,
	"trimmed": false,
	"spriteSourceSize": {"x":0,"y":0,"w":180,"h":307},
	"sourceSize": {"w":180,"h":307},
	"pivot": {"x":0.5,"y":0.5}
},
{
	"filename": "customer30057.png",
	"frame": {"x":5644,"y":2,"w":180,"h":307},
	"rotated": false,
	"trimmed": false,
	"spriteSourceSize": {"x":0,"y":0,"w":180,"h":307},
	"sourceSize": {"w":180,"h":307},
	"pivot": {"x":0.5,"y":0.5}
},
{
	"filename": "customer30058.png",
	"frame": {"x":5826,"y":2,"w":180,"h":307},
	"rotated": false,
	"trimmed": false,
	"spriteSourceSize": {"x":0,"y":0,"w":180,"h":307},
	"sourceSize": {"w":180,"h":307},
	"pivot": {"x":0.5,"y":0.5}
},
{
	"filename": "customer30059.png",
	"frame": {"x":6008,"y":2,"w":180,"h":307},
	"rotated": false,
	"trimmed": false,
	"spriteSourceSize": {"x":0,"y":0,"w":180,"h":307},
	"sourceSize": {"w":180,"h":307},
	"pivot": {"x":0.5,"y":0.5}
},
{
	"filename": "customer30060.png",
	"frame": {"x":6190,"y":2,"w":180,"h":307},
	"rotated": false,
	"trimmed": false,
	"spriteSourceSize": {"x":0,"y":0,"w":180,"h":307},
	"sourceSize": {"w":180,"h":307},
	"pivot": {"x":0.5,"y":0.5}
},
{
	"filename": "customer30061.png",
	"frame": {"x":6372,"y":2,"w":180,"h":307},
	"rotated": false,
	"trimmed": false,
	"spriteSourceSize": {"x":0,"y":0,"w":180,"h":307},
	"sourceSize": {"w":180,"h":307},
	"pivot": {"x":0.5,"y":0.5}
},
{
	"filename": "customer30062.png",
	"frame": {"x":6554,"y":2,"w":180,"h":307},
	"rotated": false,
	"trimmed": false,
	"spriteSourceSize": {"x":0,"y":0,"w":180,"h":307},
	"sourceSize": {"w":180,"h":307},
	"pivot": {"x":0.5,"y":0.5}
},
{
	"filename": "customer30063.png",
	"frame": {"x":6736,"y":2,"w":180,"h":307},
	"rotated": false,
	"trimmed": false,
	"spriteSourceSize": {"x":0,"y":0,"w":180,"h":307},
	"sourceSize": {"w":180,"h":307},
	"pivot": {"x":0.5,"y":0.5}
},
{
	"filename": "customer30064.png",
	"frame": {"x":6918,"y":2,"w":180,"h":307},
	"rotated": false,
	"trimmed": false,
	"spriteSourceSize": {"x":0,"y":0,"w":180,"h":307},
	"sourceSize": {"w":180,"h":307},
	"pivot": {"x":0.5,"y":0.5}
},
{
	"filename": "customer30065.png",
	"frame": {"x":2,"y":311,"w":180,"h":307},
	"rotated": false,
	"trimmed": false,
	"spriteSourceSize": {"x":0,"y":0,"w":180,"h":307},
	"sourceSize": {"w":180,"h":307},
	"pivot": {"x":0.5,"y":0.5}
},
{
	"filename": "customer30066.png",
	"frame": {"x":184,"y":311,"w":180,"h":307},
	"rotated": false,
	"trimmed": false,
	"spriteSourceSize": {"x":0,"y":0,"w":180,"h":307},
	"sourceSize": {"w":180,"h":307},
	"pivot": {"x":0.5,"y":0.5}
},
{
	"filename": "customer30067.png",
	"frame": {"x":366,"y":311,"w":180,"h":307},
	"rotated": false,
	"trimmed": false,
	"spriteSourceSize": {"x":0,"y":0,"w":180,"h":307},
	"sourceSize": {"w":180,"h":307},
	"pivot": {"x":0.5,"y":0.5}
},
{
	"filename": "customer30068.png",
	"frame": {"x":548,"y":311,"w":180,"h":307},
	"rotated": false,
	"trimmed": false,
	"spriteSourceSize": {"x":0,"y":0,"w":180,"h":307},
	"sourceSize": {"w":180,"h":307},
	"pivot": {"x":0.5,"y":0.5}
},
{
	"filename": "customer30069.png",
	"frame": {"x":730,"y":311,"w":180,"h":307},
	"rotated": false,
	"trimmed": false,
	"spriteSourceSize": {"x":0,"y":0,"w":180,"h":307},
	"sourceSize": {"w":180,"h":307},
	"pivot": {"x":0.5,"y":0.5}
},
{
	"filename": "customer30070.png",
	"frame": {"x":912,"y":311,"w":180,"h":307},
	"rotated": false,
	"trimmed": false,
	"spriteSourceSize": {"x":0,"y":0,"w":180,"h":307},
	"sourceSize": {"w":180,"h":307},
	"pivot": {"x":0.5,"y":0.5}
},
{
	"filename": "customer30071.png",
	"frame": {"x":1094,"y":311,"w":180,"h":307},
	"rotated": false,
	"trimmed": false,
	"spriteSourceSize": {"x":0,"y":0,"w":180,"h":307},
	"sourceSize": {"w":180,"h":307},
	"pivot": {"x":0.5,"y":0.5}
},
{
	"filename": "customer30072.png",
	"frame": {"x":1276,"y":311,"w":180,"h":307},
	"rotated": false,
	"trimmed": false,
	"spriteSourceSize": {"x":0,"y":0,"w":180,"h":307},
	"sourceSize": {"w":180,"h":307},
	"pivot": {"x":0.5,"y":0.5}
},
{
	"filename": "customer30073.png",
	"frame": {"x":1458,"y":311,"w":180,"h":307},
	"rotated": false,
	"trimmed": false,
	"spriteSourceSize": {"x":0,"y":0,"w":180,"h":307},
	"sourceSize": {"w":180,"h":307},
	"pivot": {"x":0.5,"y":0.5}
},
{
	"filename": "customer30074.png",
	"frame": {"x":1640,"y":311,"w":180,"h":307},
	"rotated": false,
	"trimmed": false,
	"spriteSourceSize": {"x":0,"y":0,"w":180,"h":307},
	"sourceSize": {"w":180,"h":307},
	"pivot": {"x":0.5,"y":0.5}
},
{
	"filename": "customer30075.png",
	"frame": {"x":1822,"y":311,"w":180,"h":307},
	"rotated": false,
	"trimmed": false,
	"spriteSourceSize": {"x":0,"y":0,"w":180,"h":307},
	"sourceSize": {"w":180,"h":307},
	"pivot": {"x":0.5,"y":0.5}
},
{
	"filename": "customer30076.png",
	"frame": {"x":2004,"y":311,"w":180,"h":307},
	"rotated": false,
	"trimmed": false,
	"spriteSourceSize": {"x":0,"y":0,"w":180,"h":307},
	"sourceSize": {"w":180,"h":307},
	"pivot": {"x":0.5,"y":0.5}
},
{
	"filename": "customer30077.png",
	"frame": {"x":2186,"y":311,"w":180,"h":307},
	"rotated": false,
	"trimmed": false,
	"spriteSourceSize": {"x":0,"y":0,"w":180,"h":307},
	"sourceSize": {"w":180,"h":307},
	"pivot": {"x":0.5,"y":0.5}
},
{
	"filename": "customer30078.png",
	"frame": {"x":2368,"y":311,"w":180,"h":307},
	"rotated": false,
	"trimmed": false,
	"spriteSourceSize": {"x":0,"y":0,"w":180,"h":307},
	"sourceSize": {"w":180,"h":307},
	"pivot": {"x":0.5,"y":0.5}
},
{
	"filename": "customer30079.png",
	"frame": {"x":2550,"y":311,"w":180,"h":307},
	"rotated": false,
	"trimmed": false,
	"spriteSourceSize": {"x":0,"y":0,"w":180,"h":307},
	"sourceSize": {"w":180,"h":307},
	"pivot": {"x":0.5,"y":0.5}
},
{
	"filename": "customer30080.png",
	"frame": {"x":2732,"y":311,"w":180,"h":307},
	"rotated": false,
	"trimmed": false,
	"spriteSourceSize": {"x":0,"y":0,"w":180,"h":307},
	"sourceSize": {"w":180,"h":307},
	"pivot": {"x":0.5,"y":0.5}
},
{
	"filename": "customer30081.png",
	"frame": {"x":2914,"y":311,"w":180,"h":307},
	"rotated": false,
	"trimmed": false,
	"spriteSourceSize": {"x":0,"y":0,"w":180,"h":307},
	"sourceSize": {"w":180,"h":307},
	"pivot": {"x":0.5,"y":0.5}
},
{
	"filename": "customer30082.png",
	"frame": {"x":3096,"y":311,"w":180,"h":307},
	"rotated": false,
	"trimmed": false,
	"spriteSourceSize": {"x":0,"y":0,"w":180,"h":307},
	"sourceSize": {"w":180,"h":307},
	"pivot": {"x":0.5,"y":0.5}
},
{
	"filename": "customer30083.png",
	"frame": {"x":3278,"y":311,"w":180,"h":307},
	"rotated": false,
	"trimmed": false,
	"spriteSourceSize": {"x":0,"y":0,"w":180,"h":307},
	"sourceSize": {"w":180,"h":307},
	"pivot": {"x":0.5,"y":0.5}
},
{
	"filename": "customer30084.png",
	"frame": {"x":3460,"y":311,"w":180,"h":307},
	"rotated": false,
	"trimmed": false,
	"spriteSourceSize": {"x":0,"y":0,"w":180,"h":307},
	"sourceSize": {"w":180,"h":307},
	"pivot": {"x":0.5,"y":0.5}
},
{
	"filename": "customer30085.png",
	"frame": {"x":3642,"y":311,"w":180,"h":307},
	"rotated": false,
	"trimmed": false,
	"spriteSourceSize": {"x":0,"y":0,"w":180,"h":307},
	"sourceSize": {"w":180,"h":307},
	"pivot": {"x":0.5,"y":0.5}
},
{
	"filename": "customer30086.png",
	"frame": {"x":3642,"y":311,"w":180,"h":307},
	"rotated": false,
	"trimmed": false,
	"spriteSourceSize": {"x":0,"y":0,"w":180,"h":307},
	"sourceSize": {"w":180,"h":307},
	"pivot": {"x":0.5,"y":0.5}
},
{
	"filename": "customer30087.png",
	"frame": {"x":3642,"y":311,"w":180,"h":307},
	"rotated": false,
	"trimmed": false,
	"spriteSourceSize": {"x":0,"y":0,"w":180,"h":307},
	"sourceSize": {"w":180,"h":307},
	"pivot": {"x":0.5,"y":0.5}
},
{
	"filename": "customer30088.png",
	"frame": {"x":3642,"y":311,"w":180,"h":307},
	"rotated": false,
	"trimmed": false,
	"spriteSourceSize": {"x":0,"y":0,"w":180,"h":307},
	"sourceSize": {"w":180,"h":307},
	"pivot": {"x":0.5,"y":0.5}
},
{
	"filename": "customer30089.png",
	"frame": {"x":3642,"y":311,"w":180,"h":307},
	"rotated": false,
	"trimmed": false,
	"spriteSourceSize": {"x":0,"y":0,"w":180,"h":307},
	"sourceSize": {"w":180,"h":307},
	"pivot": {"x":0.5,"y":0.5}
},
{
	"filename": "customer30090.png",
	"frame": {"x":3642,"y":311,"w":180,"h":307},
	"rotated": false,
	"trimmed": false,
	"spriteSourceSize": {"x":0,"y":0,"w":180,"h":307},
	"sourceSize": {"w":180,"h":307},
	"pivot": {"x":0.5,"y":0.5}
},
{
	"filename": "customer30091.png",
	"frame": {"x":3642,"y":311,"w":180,"h":307},
	"rotated": false,
	"trimmed": false,
	"spriteSourceSize": {"x":0,"y":0,"w":180,"h":307},
	"sourceSize": {"w":180,"h":307},
	"pivot": {"x":0.5,"y":0.5}
},
{
	"filename": "customer30092.png",
	"frame": {"x":3642,"y":311,"w":180,"h":307},
	"rotated": false,
	"trimmed": false,
	"spriteSourceSize": {"x":0,"y":0,"w":180,"h":307},
	"sourceSize": {"w":180,"h":307},
	"pivot": {"x":0.5,"y":0.5}
},
{
	"filename": "customer30093.png",
	"frame": {"x":3642,"y":311,"w":180,"h":307},
	"rotated": false,
	"trimmed": false,
	"spriteSourceSize": {"x":0,"y":0,"w":180,"h":307},
	"sourceSize": {"w":180,"h":307},
	"pivot": {"x":0.5,"y":0.5}
},
{
	"filename": "customer30094.png",
	"frame": {"x":3642,"y":311,"w":180,"h":307},
	"rotated": false,
	"trimmed": false,
	"spriteSourceSize": {"x":0,"y":0,"w":180,"h":307},
	"sourceSize": {"w":180,"h":307},
	"pivot": {"x":0.5,"y":0.5}
},
{
	"filename": "customer30095.png",
	"frame": {"x":3642,"y":311,"w":180,"h":307},
	"rotated": false,
	"trimmed": false,
	"spriteSourceSize": {"x":0,"y":0,"w":180,"h":307},
	"sourceSize": {"w":180,"h":307},
	"pivot": {"x":0.5,"y":0.5}
},
{
	"filename": "customer30096.png",
	"frame": {"x":3642,"y":311,"w":180,"h":307},
	"rotated": false,
	"trimmed": false,
	"spriteSourceSize": {"x":0,"y":0,"w":180,"h":307},
	"sourceSize": {"w":180,"h":307},
	"pivot": {"x":0.5,"y":0.5}
},
{
	"filename": "customer30097.png",
	"frame": {"x":3642,"y":311,"w":180,"h":307},
	"rotated": false,
	"trimmed": false,
	"spriteSourceSize": {"x":0,"y":0,"w":180,"h":307},
	"sourceSize": {"w":180,"h":307},
	"pivot": {"x":0.5,"y":0.5}
},
{
	"filename": "customer30098.png",
	"frame": {"x":3642,"y":311,"w":180,"h":307},
	"rotated": false,
	"trimmed": false,
	"spriteSourceSize": {"x":0,"y":0,"w":180,"h":307},
	"sourceSize": {"w":180,"h":307},
	"pivot": {"x":0.5,"y":0.5}
},
{
	"filename": "customer30099.png",
	"frame": {"x":3642,"y":311,"w":180,"h":307},
	"rotated": false,
	"trimmed": false,
	"spriteSourceSize": {"x":0,"y":0,"w":180,"h":307},
	"sourceSize": {"w":180,"h":307},
	"pivot": {"x":0.5,"y":0.5}
},
{
	"filename": "customer30100.png",
	"frame": {"x":3642,"y":311,"w":180,"h":307},
	"rotated": false,
	"trimmed": false,
	"spriteSourceSize": {"x":0,"y":0,"w":180,"h":307},
	"sourceSize": {"w":180,"h":307},
	"pivot": {"x":0.5,"y":0.5}
},
{
	"filename": "customer30101.png",
	"frame": {"x":3642,"y":311,"w":180,"h":307},
	"rotated": false,
	"trimmed": false,
	"spriteSourceSize": {"x":0,"y":0,"w":180,"h":307},
	"sourceSize": {"w":180,"h":307},
	"pivot": {"x":0.5,"y":0.5}
},
{
	"filename": "customer30102.png",
	"frame": {"x":3642,"y":311,"w":180,"h":307},
	"rotated": false,
	"trimmed": false,
	"spriteSourceSize": {"x":0,"y":0,"w":180,"h":307},
	"sourceSize": {"w":180,"h":307},
	"pivot": {"x":0.5,"y":0.5}
},
{
	"filename": "customer30103.png",
	"frame": {"x":3824,"y":311,"w":180,"h":307},
	"rotated": false,
	"trimmed": false,
	"spriteSourceSize": {"x":0,"y":0,"w":180,"h":307},
	"sourceSize": {"w":180,"h":307},
	"pivot": {"x":0.5,"y":0.5}
},
{
	"filename": "customer30104.png",
	"frame": {"x":4006,"y":311,"w":180,"h":307},
	"rotated": false,
	"trimmed": false,
	"spriteSourceSize": {"x":0,"y":0,"w":180,"h":307},
	"sourceSize": {"w":180,"h":307},
	"pivot": {"x":0.5,"y":0.5}
},
{
	"filename": "customer30105.png",
	"frame": {"x":4188,"y":311,"w":180,"h":307},
	"rotated": false,
	"trimmed": false,
	"spriteSourceSize": {"x":0,"y":0,"w":180,"h":307},
	"sourceSize": {"w":180,"h":307},
	"pivot": {"x":0.5,"y":0.5}
},
{
	"filename": "customer30106.png",
	"frame": {"x":4370,"y":311,"w":180,"h":307},
	"rotated": false,
	"trimmed": false,
	"spriteSourceSize": {"x":0,"y":0,"w":180,"h":307},
	"sourceSize": {"w":180,"h":307},
	"pivot": {"x":0.5,"y":0.5}
},
{
	"filename": "customer30107.png",
	"frame": {"x":4552,"y":311,"w":180,"h":307},
	"rotated": false,
	"trimmed": false,
	"spriteSourceSize": {"x":0,"y":0,"w":180,"h":307},
	"sourceSize": {"w":180,"h":307},
	"pivot": {"x":0.5,"y":0.5}
},
{
	"filename": "customer30108.png",
	"frame": {"x":4734,"y":311,"w":180,"h":307},
	"rotated": false,
	"trimmed": false,
	"spriteSourceSize": {"x":0,"y":0,"w":180,"h":307},
	"sourceSize": {"w":180,"h":307},
	"pivot": {"x":0.5,"y":0.5}
},
{
	"filename": "customer30109.png",
	"frame": {"x":4916,"y":311,"w":180,"h":307},
	"rotated": false,
	"trimmed": false,
	"spriteSourceSize": {"x":0,"y":0,"w":180,"h":307},
	"sourceSize": {"w":180,"h":307},
	"pivot": {"x":0.5,"y":0.5}
},
{
	"filename": "customer30110.png",
	"frame": {"x":5098,"y":311,"w":180,"h":307},
	"rotated": false,
	"trimmed": false,
	"spriteSourceSize": {"x":0,"y":0,"w":180,"h":307},
	"sourceSize": {"w":180,"h":307},
	"pivot": {"x":0.5,"y":0.5}
},
{
	"filename": "customer30111.png",
	"frame": {"x":5280,"y":311,"w":180,"h":307},
	"rotated": false,
	"trimmed": false,
	"spriteSourceSize": {"x":0,"y":0,"w":180,"h":307},
	"sourceSize": {"w":180,"h":307},
	"pivot": {"x":0.5,"y":0.5}
},
{
	"filename": "customer30112.png",
	"frame": {"x":5462,"y":311,"w":180,"h":307},
	"rotated": false,
	"trimmed": false,
	"spriteSourceSize": {"x":0,"y":0,"w":180,"h":307},
	"sourceSize": {"w":180,"h":307},
	"pivot": {"x":0.5,"y":0.5}
},
{
	"filename": "customer30113.png",
	"frame": {"x":5644,"y":311,"w":180,"h":307},
	"rotated": false,
	"trimmed": false,
	"spriteSourceSize": {"x":0,"y":0,"w":180,"h":307},
	"sourceSize": {"w":180,"h":307},
	"pivot": {"x":0.5,"y":0.5}
},
{
	"filename": "customer30114.png",
	"frame": {"x":5826,"y":311,"w":180,"h":307},
	"rotated": false,
	"trimmed": false,
	"spriteSourceSize": {"x":0,"y":0,"w":180,"h":307},
	"sourceSize": {"w":180,"h":307},
	"pivot": {"x":0.5,"y":0.5}
},
{
	"filename": "customer30115.png",
	"frame": {"x":6008,"y":311,"w":180,"h":307},
	"rotated": false,
	"trimmed": false,
	"spriteSourceSize": {"x":0,"y":0,"w":180,"h":307},
	"sourceSize": {"w":180,"h":307},
	"pivot": {"x":0.5,"y":0.5}
},
{
	"filename": "customer30116.png",
	"frame": {"x":6190,"y":311,"w":180,"h":307},
	"rotated": false,
	"trimmed": false,
	"spriteSourceSize": {"x":0,"y":0,"w":180,"h":307},
	"sourceSize": {"w":180,"h":307},
	"pivot": {"x":0.5,"y":0.5}
},
{
	"filename": "customer30117.png",
	"frame": {"x":6372,"y":311,"w":180,"h":307},
	"rotated": false,
	"trimmed": false,
	"spriteSourceSize": {"x":0,"y":0,"w":180,"h":307},
	"sourceSize": {"w":180,"h":307},
	"pivot": {"x":0.5,"y":0.5}
},
{
	"filename": "customer30118.png",
	"frame": {"x":6372,"y":311,"w":180,"h":307},
	"rotated": false,
	"trimmed": false,
	"spriteSourceSize": {"x":0,"y":0,"w":180,"h":307},
	"sourceSize": {"w":180,"h":307},
	"pivot": {"x":0.5,"y":0.5}
},
{
	"filename": "customer30119.png",
	"frame": {"x":6554,"y":311,"w":180,"h":307},
	"rotated": false,
	"trimmed": false,
	"spriteSourceSize": {"x":0,"y":0,"w":180,"h":307},
	"sourceSize": {"w":180,"h":307},
	"pivot": {"x":0.5,"y":0.5}
},
{
	"filename": "customer30120.png",
	"frame": {"x":6736,"y":311,"w":180,"h":307},
	"rotated": false,
	"trimmed": false,
	"spriteSourceSize": {"x":0,"y":0,"w":180,"h":307},
	"sourceSize": {"w":180,"h":307},
	"pivot": {"x":0.5,"y":0.5}
},
{
	"filename": "customer30121.png",
	"frame": {"x":6918,"y":311,"w":180,"h":307},
	"rotated": false,
	"trimmed": false,
	"spriteSourceSize": {"x":0,"y":0,"w":180,"h":307},
	"sourceSize": {"w":180,"h":307},
	"pivot": {"x":0.5,"y":0.5}
},
{
	"filename": "customer30122.png",
	"frame": {"x":2,"y":620,"w":180,"h":307},
	"rotated": false,
	"trimmed": false,
	"spriteSourceSize": {"x":0,"y":0,"w":180,"h":307},
	"sourceSize": {"w":180,"h":307},
	"pivot": {"x":0.5,"y":0.5}
},
{
	"filename": "customer30123.png",
	"frame": {"x":184,"y":620,"w":180,"h":307},
	"rotated": false,
	"trimmed": false,
	"spriteSourceSize": {"x":0,"y":0,"w":180,"h":307},
	"sourceSize": {"w":180,"h":307},
	"pivot": {"x":0.5,"y":0.5}
},
{
	"filename": "customer30124.png",
	"frame": {"x":366,"y":620,"w":180,"h":307},
	"rotated": false,
	"trimmed": false,
	"spriteSourceSize": {"x":0,"y":0,"w":180,"h":307},
	"sourceSize": {"w":180,"h":307},
	"pivot": {"x":0.5,"y":0.5}
},
{
	"filename": "customer30125.png",
	"frame": {"x":366,"y":620,"w":180,"h":307},
	"rotated": false,
	"trimmed": false,
	"spriteSourceSize": {"x":0,"y":0,"w":180,"h":307},
	"sourceSize": {"w":180,"h":307},
	"pivot": {"x":0.5,"y":0.5}
},
{
	"filename": "customer30126.png",
	"frame": {"x":366,"y":620,"w":180,"h":307},
	"rotated": false,
	"trimmed": false,
	"spriteSourceSize": {"x":0,"y":0,"w":180,"h":307},
	"sourceSize": {"w":180,"h":307},
	"pivot": {"x":0.5,"y":0.5}
},
{
	"filename": "customer30127.png",
	"frame": {"x":366,"y":620,"w":180,"h":307},
	"rotated": false,
	"trimmed": false,
	"spriteSourceSize": {"x":0,"y":0,"w":180,"h":307},
	"sourceSize": {"w":180,"h":307},
	"pivot": {"x":0.5,"y":0.5}
},
{
	"filename": "customer30128.png",
	"frame": {"x":366,"y":620,"w":180,"h":307},
	"rotated": false,
	"trimmed": false,
	"spriteSourceSize": {"x":0,"y":0,"w":180,"h":307},
	"sourceSize": {"w":180,"h":307},
	"pivot": {"x":0.5,"y":0.5}
},
{
	"filename": "customer30129.png",
	"frame": {"x":366,"y":620,"w":180,"h":307},
	"rotated": false,
	"trimmed": false,
	"spriteSourceSize": {"x":0,"y":0,"w":180,"h":307},
	"sourceSize": {"w":180,"h":307},
	"pivot": {"x":0.5,"y":0.5}
},
{
	"filename": "customer30130.png",
	"frame": {"x":548,"y":620,"w":180,"h":307},
	"rotated": false,
	"trimmed": false,
	"spriteSourceSize": {"x":0,"y":0,"w":180,"h":307},
	"sourceSize": {"w":180,"h":307},
	"pivot": {"x":0.5,"y":0.5}
},
{
	"filename": "customer30131.png",
	"frame": {"x":730,"y":620,"w":180,"h":307},
	"rotated": false,
	"trimmed": false,
	"spriteSourceSize": {"x":0,"y":0,"w":180,"h":307},
	"sourceSize": {"w":180,"h":307},
	"pivot": {"x":0.5,"y":0.5}
},
{
	"filename": "customer30132.png",
	"frame": {"x":912,"y":620,"w":180,"h":307},
	"rotated": false,
	"trimmed": false,
	"spriteSourceSize": {"x":0,"y":0,"w":180,"h":307},
	"sourceSize": {"w":180,"h":307},
	"pivot": {"x":0.5,"y":0.5}
},
{
	"filename": "customer30133.png",
	"frame": {"x":1094,"y":620,"w":180,"h":307},
	"rotated": false,
	"trimmed": false,
	"spriteSourceSize": {"x":0,"y":0,"w":180,"h":307},
	"sourceSize": {"w":180,"h":307},
	"pivot": {"x":0.5,"y":0.5}
},
{
	"filename": "customer30134.png",
	"frame": {"x":1276,"y":620,"w":180,"h":307},
	"rotated": false,
	"trimmed": false,
	"spriteSourceSize": {"x":0,"y":0,"w":180,"h":307},
	"sourceSize": {"w":180,"h":307},
	"pivot": {"x":0.5,"y":0.5}
},
{
	"filename": "customer30135.png",
	"frame": {"x":1458,"y":620,"w":180,"h":307},
	"rotated": false,
	"trimmed": false,
	"spriteSourceSize": {"x":0,"y":0,"w":180,"h":307},
	"sourceSize": {"w":180,"h":307},
	"pivot": {"x":0.5,"y":0.5}
},
{
	"filename": "customer30136.png",
	"frame": {"x":1640,"y":620,"w":180,"h":307},
	"rotated": false,
	"trimmed": false,
	"spriteSourceSize": {"x":0,"y":0,"w":180,"h":307},
	"sourceSize": {"w":180,"h":307},
	"pivot": {"x":0.5,"y":0.5}
},
{
	"filename": "customer30137.png",
	"frame": {"x":1822,"y":620,"w":180,"h":307},
	"rotated": false,
	"trimmed": false,
	"spriteSourceSize": {"x":0,"y":0,"w":180,"h":307},
	"sourceSize": {"w":180,"h":307},
	"pivot": {"x":0.5,"y":0.5}
},
{
	"filename": "customer30138.png",
	"frame": {"x":2004,"y":620,"w":180,"h":307},
	"rotated": false,
	"trimmed": false,
	"spriteSourceSize": {"x":0,"y":0,"w":180,"h":307},
	"sourceSize": {"w":180,"h":307},
	"pivot": {"x":0.5,"y":0.5}
},
{
	"filename": "customer30139.png",
	"frame": {"x":2186,"y":620,"w":180,"h":307},
	"rotated": false,
	"trimmed": false,
	"spriteSourceSize": {"x":0,"y":0,"w":180,"h":307},
	"sourceSize": {"w":180,"h":307},
	"pivot": {"x":0.5,"y":0.5}
},
{
	"filename": "customer30140.png",
	"frame": {"x":2368,"y":620,"w":180,"h":307},
	"rotated": false,
	"trimmed": false,
	"spriteSourceSize": {"x":0,"y":0,"w":180,"h":307},
	"sourceSize": {"w":180,"h":307},
	"pivot": {"x":0.5,"y":0.5}
},
{
	"filename": "customer30141.png",
	"frame": {"x":2368,"y":620,"w":180,"h":307},
	"rotated": false,
	"trimmed": false,
	"spriteSourceSize": {"x":0,"y":0,"w":180,"h":307},
	"sourceSize": {"w":180,"h":307},
	"pivot": {"x":0.5,"y":0.5}
},
{
	"filename": "customer30142.png",
	"frame": {"x":2368,"y":620,"w":180,"h":307},
	"rotated": false,
	"trimmed": false,
	"spriteSourceSize": {"x":0,"y":0,"w":180,"h":307},
	"sourceSize": {"w":180,"h":307},
	"pivot": {"x":0.5,"y":0.5}
},
{
	"filename": "customer30143.png",
	"frame": {"x":2368,"y":620,"w":180,"h":307},
	"rotated": false,
	"trimmed": false,
	"spriteSourceSize": {"x":0,"y":0,"w":180,"h":307},
	"sourceSize": {"w":180,"h":307},
	"pivot": {"x":0.5,"y":0.5}
},
{
	"filename": "customer30144.png",
	"frame": {"x":2368,"y":620,"w":180,"h":307},
	"rotated": false,
	"trimmed": false,
	"spriteSourceSize": {"x":0,"y":0,"w":180,"h":307},
	"sourceSize": {"w":180,"h":307},
	"pivot": {"x":0.5,"y":0.5}
},
{
	"filename": "customer30145.png",
	"frame": {"x":2368,"y":620,"w":180,"h":307},
	"rotated": false,
	"trimmed": false,
	"spriteSourceSize": {"x":0,"y":0,"w":180,"h":307},
	"sourceSize": {"w":180,"h":307},
	"pivot": {"x":0.5,"y":0.5}
},
{
	"filename": "customer30146.png",
	"frame": {"x":2368,"y":620,"w":180,"h":307},
	"rotated": false,
	"trimmed": false,
	"spriteSourceSize": {"x":0,"y":0,"w":180,"h":307},
	"sourceSize": {"w":180,"h":307},
	"pivot": {"x":0.5,"y":0.5}
},
{
	"filename": "customer30147.png",
	"frame": {"x":2368,"y":620,"w":180,"h":307},
	"rotated": false,
	"trimmed": false,
	"spriteSourceSize": {"x":0,"y":0,"w":180,"h":307},
	"sourceSize": {"w":180,"h":307},
	"pivot": {"x":0.5,"y":0.5}
},
{
	"filename": "customer30148.png",
	"frame": {"x":2368,"y":620,"w":180,"h":307},
	"rotated": false,
	"trimmed": false,
	"spriteSourceSize": {"x":0,"y":0,"w":180,"h":307},
	"sourceSize": {"w":180,"h":307},
	"pivot": {"x":0.5,"y":0.5}
},
{
	"filename": "customer30149.png",
	"frame": {"x":2368,"y":620,"w":180,"h":307},
	"rotated": false,
	"trimmed": false,
	"spriteSourceSize": {"x":0,"y":0,"w":180,"h":307},
	"sourceSize": {"w":180,"h":307},
	"pivot": {"x":0.5,"y":0.5}
},
{
	"filename": "customer30150.png",
	"frame": {"x":2368,"y":620,"w":180,"h":307},
	"rotated": false,
	"trimmed": false,
	"spriteSourceSize": {"x":0,"y":0,"w":180,"h":307},
	"sourceSize": {"w":180,"h":307},
	"pivot": {"x":0.5,"y":0.5}
},
{
	"filename": "customer30151.png",
	"frame": {"x":2368,"y":620,"w":180,"h":307},
	"rotated": false,
	"trimmed": false,
	"spriteSourceSize": {"x":0,"y":0,"w":180,"h":307},
	"sourceSize": {"w":180,"h":307},
	"pivot": {"x":0.5,"y":0.5}
},
{
	"filename": "customer30152.png",
	"frame": {"x":2550,"y":620,"w":180,"h":307},
	"rotated": false,
	"trimmed": false,
	"spriteSourceSize": {"x":0,"y":0,"w":180,"h":307},
	"sourceSize": {"w":180,"h":307},
	"pivot": {"x":0.5,"y":0.5}
},
{
	"filename": "customer30153.png",
	"frame": {"x":2732,"y":620,"w":180,"h":307},
	"rotated": false,
	"trimmed": false,
	"spriteSourceSize": {"x":0,"y":0,"w":180,"h":307},
	"sourceSize": {"w":180,"h":307},
	"pivot": {"x":0.5,"y":0.5}
},
{
	"filename": "customer30154.png",
	"frame": {"x":2914,"y":620,"w":180,"h":307},
	"rotated": false,
	"trimmed": false,
	"spriteSourceSize": {"x":0,"y":0,"w":180,"h":307},
	"sourceSize": {"w":180,"h":307},
	"pivot": {"x":0.5,"y":0.5}
},
{
	"filename": "customer30155.png",
	"frame": {"x":3096,"y":620,"w":180,"h":307},
	"rotated": false,
	"trimmed": false,
	"spriteSourceSize": {"x":0,"y":0,"w":180,"h":307},
	"sourceSize": {"w":180,"h":307},
	"pivot": {"x":0.5,"y":0.5}
},
{
	"filename": "customer30156.png",
	"frame": {"x":3278,"y":620,"w":180,"h":307},
	"rotated": false,
	"trimmed": false,
	"spriteSourceSize": {"x":0,"y":0,"w":180,"h":307},
	"sourceSize": {"w":180,"h":307},
	"pivot": {"x":0.5,"y":0.5}
},
{
	"filename": "customer30157.png",
	"frame": {"x":3460,"y":620,"w":180,"h":307},
	"rotated": false,
	"trimmed": false,
	"spriteSourceSize": {"x":0,"y":0,"w":180,"h":307},
	"sourceSize": {"w":180,"h":307},
	"pivot": {"x":0.5,"y":0.5}
},
{
	"filename": "customer30158.png",
	"frame": {"x":3642,"y":620,"w":180,"h":307},
	"rotated": false,
	"trimmed": false,
	"spriteSourceSize": {"x":0,"y":0,"w":180,"h":307},
	"sourceSize": {"w":180,"h":307},
	"pivot": {"x":0.5,"y":0.5}
},
{
	"filename": "customer30159.png",
	"frame": {"x":3824,"y":620,"w":180,"h":307},
	"rotated": false,
	"trimmed": false,
	"spriteSourceSize": {"x":0,"y":0,"w":180,"h":307},
	"sourceSize": {"w":180,"h":307},
	"pivot": {"x":0.5,"y":0.5}
},
{
	"filename": "customer30160.png",
	"frame": {"x":4006,"y":620,"w":180,"h":307},
	"rotated": false,
	"trimmed": false,
	"spriteSourceSize": {"x":0,"y":0,"w":180,"h":307},
	"sourceSize": {"w":180,"h":307},
	"pivot": {"x":0.5,"y":0.5}
},
{
	"filename": "customer30161.png",
	"frame": {"x":4188,"y":620,"w":180,"h":307},
	"rotated": false,
	"trimmed": false,
	"spriteSourceSize": {"x":0,"y":0,"w":180,"h":307},
	"sourceSize": {"w":180,"h":307},
	"pivot": {"x":0.5,"y":0.5}
},
{
	"filename": "customer30162.png",
	"frame": {"x":4370,"y":620,"w":180,"h":307},
	"rotated": false,
	"trimmed": false,
	"spriteSourceSize": {"x":0,"y":0,"w":180,"h":307},
	"sourceSize": {"w":180,"h":307},
	"pivot": {"x":0.5,"y":0.5}
},
{
	"filename": "customer30163.png",
	"frame": {"x":4552,"y":620,"w":180,"h":307},
	"rotated": false,
	"trimmed": false,
	"spriteSourceSize": {"x":0,"y":0,"w":180,"h":307},
	"sourceSize": {"w":180,"h":307},
	"pivot": {"x":0.5,"y":0.5}
},
{
	"filename": "customer30164.png",
	"frame": {"x":4734,"y":620,"w":180,"h":307},
	"rotated": false,
	"trimmed": false,
	"spriteSourceSize": {"x":0,"y":0,"w":180,"h":307},
	"sourceSize": {"w":180,"h":307},
	"pivot": {"x":0.5,"y":0.5}
},
{
	"filename": "customer30165.png",
	"frame": {"x":4916,"y":620,"w":180,"h":307},
	"rotated": false,
	"trimmed": false,
	"spriteSourceSize": {"x":0,"y":0,"w":180,"h":307},
	"sourceSize": {"w":180,"h":307},
	"pivot": {"x":0.5,"y":0.5}
},
{
	"filename": "customer30166.png",
	"frame": {"x":5098,"y":620,"w":180,"h":307},
	"rotated": false,
	"trimmed": false,
	"spriteSourceSize": {"x":0,"y":0,"w":180,"h":307},
	"sourceSize": {"w":180,"h":307},
	"pivot": {"x":0.5,"y":0.5}
},
{
	"filename": "customer30167.png",
	"frame": {"x":5280,"y":620,"w":180,"h":307},
	"rotated": false,
	"trimmed": false,
	"spriteSourceSize": {"x":0,"y":0,"w":180,"h":307},
	"sourceSize": {"w":180,"h":307},
	"pivot": {"x":0.5,"y":0.5}
},
{
	"filename": "customer30168.png",
	"frame": {"x":5462,"y":620,"w":180,"h":307},
	"rotated": false,
	"trimmed": false,
	"spriteSourceSize": {"x":0,"y":0,"w":180,"h":307},
	"sourceSize": {"w":180,"h":307},
	"pivot": {"x":0.5,"y":0.5}
},
{
	"filename": "customer30169.png",
	"frame": {"x":5644,"y":620,"w":180,"h":307},
	"rotated": false,
	"trimmed": false,
	"spriteSourceSize": {"x":0,"y":0,"w":180,"h":307},
	"sourceSize": {"w":180,"h":307},
	"pivot": {"x":0.5,"y":0.5}
},
{
	"filename": "customer30170.png",
	"frame": {"x":5826,"y":620,"w":180,"h":307},
	"rotated": false,
	"trimmed": false,
	"spriteSourceSize": {"x":0,"y":0,"w":180,"h":307},
	"sourceSize": {"w":180,"h":307},
	"pivot": {"x":0.5,"y":0.5}
},
{
	"filename": "customer30171.png",
	"frame": {"x":6008,"y":620,"w":180,"h":307},
	"rotated": false,
	"trimmed": false,
	"spriteSourceSize": {"x":0,"y":0,"w":180,"h":307},
	"sourceSize": {"w":180,"h":307},
	"pivot": {"x":0.5,"y":0.5}
},
{
	"filename": "customer30172.png",
	"frame": {"x":6190,"y":620,"w":180,"h":307},
	"rotated": false,
	"trimmed": false,
	"spriteSourceSize": {"x":0,"y":0,"w":180,"h":307},
	"sourceSize": {"w":180,"h":307},
	"pivot": {"x":0.5,"y":0.5}
},
{
	"filename": "customer30173.png",
	"frame": {"x":6372,"y":620,"w":180,"h":307},
	"rotated": false,
	"trimmed": false,
	"spriteSourceSize": {"x":0,"y":0,"w":180,"h":307},
	"sourceSize": {"w":180,"h":307},
	"pivot": {"x":0.5,"y":0.5}
},
{
	"filename": "customer30174.png",
	"frame": {"x":6554,"y":620,"w":180,"h":307},
	"rotated": false,
	"trimmed": false,
	"spriteSourceSize": {"x":0,"y":0,"w":180,"h":307},
	"sourceSize": {"w":180,"h":307},
	"pivot": {"x":0.5,"y":0.5}
},
{
	"filename": "customer30175.png",
	"frame": {"x":6736,"y":620,"w":180,"h":307},
	"rotated": false,
	"trimmed": false,
	"spriteSourceSize": {"x":0,"y":0,"w":180,"h":307},
	"sourceSize": {"w":180,"h":307},
	"pivot": {"x":0.5,"y":0.5}
},
{
	"filename": "customer30176.png",
	"frame": {"x":6918,"y":620,"w":180,"h":307},
	"rotated": false,
	"trimmed": false,
	"spriteSourceSize": {"x":0,"y":0,"w":180,"h":307},
	"sourceSize": {"w":180,"h":307},
	"pivot": {"x":0.5,"y":0.5}
},
{
	"filename": "customer30177.png",
	"frame": {"x":366,"y":620,"w":180,"h":307},
	"rotated": false,
	"trimmed": false,
	"spriteSourceSize": {"x":0,"y":0,"w":180,"h":307},
	"sourceSize": {"w":180,"h":307},
	"pivot": {"x":0.5,"y":0.5}
},
{
	"filename": "customer30178.png",
	"frame": {"x":366,"y":620,"w":180,"h":307},
	"rotated": false,
	"trimmed": false,
	"spriteSourceSize": {"x":0,"y":0,"w":180,"h":307},
	"sourceSize": {"w":180,"h":307},
	"pivot": {"x":0.5,"y":0.5}
},
{
	"filename": "customer30179.png",
	"frame": {"x":366,"y":620,"w":180,"h":307},
	"rotated": false,
	"trimmed": false,
	"spriteSourceSize": {"x":0,"y":0,"w":180,"h":307},
	"sourceSize": {"w":180,"h":307},
	"pivot": {"x":0.5,"y":0.5}
},
{
	"filename": "customer30180.png",
	"frame": {"x":366,"y":620,"w":180,"h":307},
	"rotated": false,
	"trimmed": false,
	"spriteSourceSize": {"x":0,"y":0,"w":180,"h":307},
	"sourceSize": {"w":180,"h":307},
	"pivot": {"x":0.5,"y":0.5}
},
{
	"filename": "customer30181.png",
	"frame": {"x":366,"y":620,"w":180,"h":307},
	"rotated": false,
	"trimmed": false,
	"spriteSourceSize": {"x":0,"y":0,"w":180,"h":307},
	"sourceSize": {"w":180,"h":307},
	"pivot": {"x":0.5,"y":0.5}
},
{
	"filename": "customer30182.png",
	"frame": {"x":366,"y":620,"w":180,"h":307},
	"rotated": false,
	"trimmed": false,
	"spriteSourceSize": {"x":0,"y":0,"w":180,"h":307},
	"sourceSize": {"w":180,"h":307},
	"pivot": {"x":0.5,"y":0.5}
},
{
	"filename": "customer30183.png",
	"frame": {"x":366,"y":620,"w":180,"h":307},
	"rotated": false,
	"trimmed": false,
	"spriteSourceSize": {"x":0,"y":0,"w":180,"h":307},
	"sourceSize": {"w":180,"h":307},
	"pivot": {"x":0.5,"y":0.5}
},
{
	"filename": "customer30184.png",
	"frame": {"x":366,"y":620,"w":180,"h":307},
	"rotated": false,
	"trimmed": false,
	"spriteSourceSize": {"x":0,"y":0,"w":180,"h":307},
	"sourceSize": {"w":180,"h":307},
	"pivot": {"x":0.5,"y":0.5}
},
{
	"filename": "customer30185.png",
	"frame": {"x":366,"y":620,"w":180,"h":307},
	"rotated": false,
	"trimmed": false,
	"spriteSourceSize": {"x":0,"y":0,"w":180,"h":307},
	"sourceSize": {"w":180,"h":307},
	"pivot": {"x":0.5,"y":0.5}
},
{
	"filename": "customer30186.png",
	"frame": {"x":366,"y":620,"w":180,"h":307},
	"rotated": false,
	"trimmed": false,
	"spriteSourceSize": {"x":0,"y":0,"w":180,"h":307},
	"sourceSize": {"w":180,"h":307},
	"pivot": {"x":0.5,"y":0.5}
},
{
	"filename": "customer30187.png",
	"frame": {"x":366,"y":620,"w":180,"h":307},
	"rotated": false,
	"trimmed": false,
	"spriteSourceSize": {"x":0,"y":0,"w":180,"h":307},
	"sourceSize": {"w":180,"h":307},
	"pivot": {"x":0.5,"y":0.5}
},
{
	"filename": "customer30188.png",
	"frame": {"x":366,"y":620,"w":180,"h":307},
	"rotated": false,
	"trimmed": false,
	"spriteSourceSize": {"x":0,"y":0,"w":180,"h":307},
	"sourceSize": {"w":180,"h":307},
	"pivot": {"x":0.5,"y":0.5}
},
{
	"filename": "customer30189.png",
	"frame": {"x":366,"y":620,"w":180,"h":307},
	"rotated": false,
	"trimmed": false,
	"spriteSourceSize": {"x":0,"y":0,"w":180,"h":307},
	"sourceSize": {"w":180,"h":307},
	"pivot": {"x":0.5,"y":0.5}
},
{
	"filename": "customer30190.png",
	"frame": {"x":366,"y":620,"w":180,"h":307},
	"rotated": false,
	"trimmed": false,
	"spriteSourceSize": {"x":0,"y":0,"w":180,"h":307},
	"sourceSize": {"w":180,"h":307},
	"pivot": {"x":0.5,"y":0.5}
}],
"meta": {
	"app": "http://www.codeandweb.com/texturepacker",
	"version": "1.0",
	"image": "customer3.png",
	"format": "RGBA8888",
	"size": {"w":7100,"h":929},
	"scale": "1",
	"smartupdate": "$TexturePacker:SmartUpdate:b4ef5f79869d71d6b9226ae46afba3c0:c11f1d1f0453492f485217efacdcea23:05ebe76a5afa97b2e4c99d99cfac7180$"
}
}
