{"frames": [

{
	"filename": "layer30001.png",
	"frame": {"x":2,"y":2,"w":54,"h":48},
	"rotated": false,
	"trimmed": false,
	"spriteSourceSize": {"x":0,"y":0,"w":54,"h":48},
	"sourceSize": {"w":54,"h":48},
	"pivot": {"x":0.5,"y":0.5}
},
{
	"filename": "layer30002.png",
	"frame": {"x":58,"y":2,"w":54,"h":48},
	"rotated": false,
	"trimmed": false,
	"spriteSourceSize": {"x":0,"y":0,"w":54,"h":48},
	"sourceSize": {"w":54,"h":48},
	"pivot": {"x":0.5,"y":0.5}
},
{
	"filename": "layer30003.png",
	"frame": {"x":2,"y":2,"w":54,"h":48},
	"rotated": false,
	"trimmed": false,
	"spriteSourceSize": {"x":0,"y":0,"w":54,"h":48},
	"sourceSize": {"w":54,"h":48},
	"pivot": {"x":0.5,"y":0.5}
},
{
	"filename": "layer30004.png",
	"frame": {"x":58,"y":2,"w":54,"h":48},
	"rotated": false,
	"trimmed": false,
	"spriteSourceSize": {"x":0,"y":0,"w":54,"h":48},
	"sourceSize": {"w":54,"h":48},
	"pivot": {"x":0.5,"y":0.5}
}],
"meta": {
	"app": "http://www.codeandweb.com/texturepacker",
	"version": "1.0",
	"image": "layer3.png",
	"format": "RGBA8888",
	"size": {"w":114,"h":52},
	"scale": "1",
	"smartupdate": "$TexturePacker:SmartUpdate:956f195e50f860f37056696825c1f1ff:609d92161ee56827efa2865f3173da68:6a5597880fbadf4e48fae94451213f5c$"
}
}
