{"frames": [

{
	"filename": "layer20001.png",
	"frame": {"x":2,"y":2,"w":54,"h":48},
	"rotated": false,
	"trimmed": false,
	"spriteSourceSize": {"x":0,"y":0,"w":54,"h":48},
	"sourceSize": {"w":54,"h":48},
	"pivot": {"x":0.5,"y":0.5}
},
{
	"filename": "layer20002.png",
	"frame": {"x":58,"y":2,"w":54,"h":48},
	"rotated": false,
	"trimmed": false,
	"spriteSourceSize": {"x":0,"y":0,"w":54,"h":48},
	"sourceSize": {"w":54,"h":48},
	"pivot": {"x":0.5,"y":0.5}
},
{
	"filename": "layer20003.png",
	"frame": {"x":114,"y":2,"w":54,"h":48},
	"rotated": false,
	"trimmed": false,
	"spriteSourceSize": {"x":0,"y":0,"w":54,"h":48},
	"sourceSize": {"w":54,"h":48},
	"pivot": {"x":0.5,"y":0.5}
},
{
	"filename": "layer20004.png",
	"frame": {"x":170,"y":2,"w":54,"h":48},
	"rotated": false,
	"trimmed": false,
	"spriteSourceSize": {"x":0,"y":0,"w":54,"h":48},
	"sourceSize": {"w":54,"h":48},
	"pivot": {"x":0.5,"y":0.5}
}],
"meta": {
	"app": "http://www.codeandweb.com/texturepacker",
	"version": "1.0",
	"image": "layer2.png",
	"format": "RGBA8888",
	"size": {"w":226,"h":52},
	"scale": "1",
	"smartupdate": "$TexturePacker:SmartUpdate:951491f504549927c9664fce676ee8af:69b831210c8c80033b1fb5d0ff213e69:d5cea3d782bd958fbb8b57dc89206ad5$"
}
}
