{"frames": [

{
	"filename": "timer0001.png",
	"frame": {"x":2,"y":2,"w":78,"h":27},
	"rotated": false,
	"trimmed": false,
	"spriteSourceSize": {"x":0,"y":0,"w":78,"h":27},
	"sourceSize": {"w":78,"h":27},
	"pivot": {"x":0.5,"y":0.5}
},
{
	"filename": "timer0002.png",
	"frame": {"x":82,"y":2,"w":78,"h":27},
	"rotated": false,
	"trimmed": false,
	"spriteSourceSize": {"x":0,"y":0,"w":78,"h":27},
	"sourceSize": {"w":78,"h":27},
	"pivot": {"x":0.5,"y":0.5}
},
{
	"filename": "timer0003.png",
	"frame": {"x":162,"y":2,"w":78,"h":27},
	"rotated": false,
	"trimmed": false,
	"spriteSourceSize": {"x":0,"y":0,"w":78,"h":27},
	"sourceSize": {"w":78,"h":27},
	"pivot": {"x":0.5,"y":0.5}
},
{
	"filename": "timer0004.png",
	"frame": {"x":242,"y":2,"w":78,"h":27},
	"rotated": false,
	"trimmed": false,
	"spriteSourceSize": {"x":0,"y":0,"w":78,"h":27},
	"sourceSize": {"w":78,"h":27},
	"pivot": {"x":0.5,"y":0.5}
},
{
	"filename": "timer0005.png",
	"frame": {"x":322,"y":2,"w":78,"h":27},
	"rotated": false,
	"trimmed": false,
	"spriteSourceSize": {"x":0,"y":0,"w":78,"h":27},
	"sourceSize": {"w":78,"h":27},
	"pivot": {"x":0.5,"y":0.5}
}],
"meta": {
	"app": "http://www.codeandweb.com/texturepacker",
	"version": "1.0",
	"image": "timer.png",
	"format": "RGBA8888",
	"size": {"w":402,"h":31},
	"scale": "1",
	"smartupdate": "$TexturePacker:SmartUpdate:6363e4a8b3ab7f775ebcb3faedf760f9:d4cd848510d328e4a76eb5b2a0701140:af97b94046b90be4e30b7f1b3d68dcbb$"
}
}
