{"frames": [

{
	"filename": "player0000",
	"frame": {"x":0,"y":0,"w":141,"h":237},
	"rotated": false,
	"trimmed": false,
	"spriteSourceSize": {"x":0,"y":0,"w":141,"h":237},
	"sourceSize": {"w":141,"h":237}
}
,{
	"filename": "player0001",
	"frame": {"x":141,"y":0,"w":141,"h":237},
	"rotated": false,
	"trimmed": false,
	"spriteSourceSize": {"x":0,"y":0,"w":141,"h":237},
	"sourceSize": {"w":141,"h":237}
}
,{
	"filename": "player0002",
	"frame": {"x":282,"y":0,"w":141,"h":237},
	"rotated": false,
	"trimmed": false,
	"spriteSourceSize": {"x":0,"y":0,"w":141,"h":237},
	"sourceSize": {"w":141,"h":237}
}
,{
	"filename": "player0003",
	"frame": {"x":423,"y":0,"w":141,"h":237},
	"rotated": false,
	"trimmed": false,
	"spriteSourceSize": {"x":0,"y":0,"w":141,"h":237},
	"sourceSize": {"w":141,"h":237}
}
,{
	"filename": "player0004",
	"frame": {"x":564,"y":0,"w":141,"h":237},
	"rotated": false,
	"trimmed": false,
	"spriteSourceSize": {"x":0,"y":0,"w":141,"h":237},
	"sourceSize": {"w":141,"h":237}
}
,{
	"filename": "player0005",
	"frame": {"x":705,"y":0,"w":141,"h":237},
	"rotated": false,
	"trimmed": false,
	"spriteSourceSize": {"x":0,"y":0,"w":141,"h":237},
	"sourceSize": {"w":141,"h":237}
}
,{
	"filename": "player0006",
	"frame": {"x":846,"y":0,"w":141,"h":237},
	"rotated": false,
	"trimmed": false,
	"spriteSourceSize": {"x":0,"y":0,"w":141,"h":237},
	"sourceSize": {"w":141,"h":237}
}
,{
	"filename": "player0007",
	"frame": {"x":0,"y":237,"w":141,"h":237},
	"rotated": false,
	"trimmed": false,
	"spriteSourceSize": {"x":0,"y":0,"w":141,"h":237},
	"sourceSize": {"w":141,"h":237}
}
,{
	"filename": "player0008",
	"frame": {"x":141,"y":237,"w":141,"h":237},
	"rotated": false,
	"trimmed": false,
	"spriteSourceSize": {"x":0,"y":0,"w":141,"h":237},
	"sourceSize": {"w":141,"h":237}
}
,{
	"filename": "player0009",
	"frame": {"x":282,"y":237,"w":141,"h":237},
	"rotated": false,
	"trimmed": false,
	"spriteSourceSize": {"x":0,"y":0,"w":141,"h":237},
	"sourceSize": {"w":141,"h":237}
}
,{
	"filename": "player0010",
	"frame": {"x":423,"y":237,"w":141,"h":237},
	"rotated": false,
	"trimmed": false,
	"spriteSourceSize": {"x":0,"y":0,"w":141,"h":237},
	"sourceSize": {"w":141,"h":237}
}
,{
	"filename": "player0011",
	"frame": {"x":564,"y":237,"w":141,"h":237},
	"rotated": false,
	"trimmed": false,
	"spriteSourceSize": {"x":0,"y":0,"w":141,"h":237},
	"sourceSize": {"w":141,"h":237}
}
,{
	"filename": "player0012",
	"frame": {"x":705,"y":237,"w":141,"h":237},
	"rotated": false,
	"trimmed": false,
	"spriteSourceSize": {"x":0,"y":0,"w":141,"h":237},
	"sourceSize": {"w":141,"h":237}
}
,{
	"filename": "player0013",
	"frame": {"x":846,"y":237,"w":141,"h":237},
	"rotated": false,
	"trimmed": false,
	"spriteSourceSize": {"x":0,"y":0,"w":141,"h":237},
	"sourceSize": {"w":141,"h":237}
}
,{
	"filename": "player0014",
	"frame": {"x":0,"y":474,"w":141,"h":237},
	"rotated": false,
	"trimmed": false,
	"spriteSourceSize": {"x":0,"y":0,"w":141,"h":237},
	"sourceSize": {"w":141,"h":237}
}
,{
	"filename": "player0015",
	"frame": {"x":141,"y":474,"w":141,"h":237},
	"rotated": false,
	"trimmed": false,
	"spriteSourceSize": {"x":0,"y":0,"w":141,"h":237},
	"sourceSize": {"w":141,"h":237}
}
,{
	"filename": "player0016",
	"frame": {"x":282,"y":474,"w":141,"h":237},
	"rotated": false,
	"trimmed": false,
	"spriteSourceSize": {"x":0,"y":0,"w":141,"h":237},
	"sourceSize": {"w":141,"h":237}
}
,{
	"filename": "player0017",
	"frame": {"x":423,"y":474,"w":141,"h":237},
	"rotated": false,
	"trimmed": false,
	"spriteSourceSize": {"x":0,"y":0,"w":141,"h":237},
	"sourceSize": {"w":141,"h":237}
}
,{
	"filename": "player0018",
	"frame": {"x":564,"y":474,"w":141,"h":237},
	"rotated": false,
	"trimmed": false,
	"spriteSourceSize": {"x":0,"y":0,"w":141,"h":237},
	"sourceSize": {"w":141,"h":237}
}
,{
	"filename": "player0019",
	"frame": {"x":705,"y":474,"w":141,"h":237},
	"rotated": false,
	"trimmed": false,
	"spriteSourceSize": {"x":0,"y":0,"w":141,"h":237},
	"sourceSize": {"w":141,"h":237}
}
,{
	"filename": "player0020",
	"frame": {"x":846,"y":474,"w":141,"h":237},
	"rotated": false,
	"trimmed": false,
	"spriteSourceSize": {"x":0,"y":0,"w":141,"h":237},
	"sourceSize": {"w":141,"h":237}
}
,{
	"filename": "player0021",
	"frame": {"x":0,"y":711,"w":141,"h":237},
	"rotated": false,
	"trimmed": false,
	"spriteSourceSize": {"x":0,"y":0,"w":141,"h":237},
	"sourceSize": {"w":141,"h":237}
}],
"meta": {
	"app": "Adobe Flash CS6",
	"version": "12.0.0.481",
	"image": "player.png",
	"format": "RGBA8888",
	"size": {"w":1024,"h":1024},
	"scale": "1"
}
}
