{"frames": [

{
	"filename": "f0001.png",
	"frame": {"x":2,"y":2,"w":2280,"h":71},
	"rotated": false,
	"trimmed": false,
	"spriteSourceSize": {"x":0,"y":0,"w":2280,"h":71},
	"sourceSize": {"w":2280,"h":71},
	"pivot": {"x":0.5,"y":0.5}
},
{
	"filename": "f0002.png",
	"frame": {"x":2,"y":75,"w":2280,"h":71},
	"rotated": false,
	"trimmed": false,
	"spriteSourceSize": {"x":0,"y":0,"w":2280,"h":71},
	"sourceSize": {"w":2280,"h":71},
	"pivot": {"x":0.5,"y":0.5}
},
{
	"filename": "f0003.png",
	"frame": {"x":2,"y":148,"w":2280,"h":71},
	"rotated": false,
	"trimmed": false,
	"spriteSourceSize": {"x":0,"y":0,"w":2280,"h":71},
	"sourceSize": {"w":2280,"h":71},
	"pivot": {"x":0.5,"y":0.5}
},
{
	"filename": "f0004.png",
	"frame": {"x":2,"y":221,"w":2280,"h":71},
	"rotated": false,
	"trimmed": false,
	"spriteSourceSize": {"x":0,"y":0,"w":2280,"h":71},
	"sourceSize": {"w":2280,"h":71},
	"pivot": {"x":0.5,"y":0.5}
},
{
	"filename": "f0005.png",
	"frame": {"x":2,"y":294,"w":2280,"h":71},
	"rotated": false,
	"trimmed": false,
	"spriteSourceSize": {"x":0,"y":0,"w":2280,"h":71},
	"sourceSize": {"w":2280,"h":71},
	"pivot": {"x":0.5,"y":0.5}
},
{
	"filename": "f0006.png",
	"frame": {"x":2,"y":367,"w":2280,"h":71},
	"rotated": false,
	"trimmed": false,
	"spriteSourceSize": {"x":0,"y":0,"w":2280,"h":71},
	"sourceSize": {"w":2280,"h":71},
	"pivot": {"x":0.5,"y":0.5}
},
{
	"filename": "f0007.png",
	"frame": {"x":2,"y":440,"w":2280,"h":71},
	"rotated": false,
	"trimmed": false,
	"spriteSourceSize": {"x":0,"y":0,"w":2280,"h":71},
	"sourceSize": {"w":2280,"h":71},
	"pivot": {"x":0.5,"y":0.5}
},
{
	"filename": "f0008.png",
	"frame": {"x":2,"y":513,"w":2280,"h":71},
	"rotated": false,
	"trimmed": false,
	"spriteSourceSize": {"x":0,"y":0,"w":2280,"h":71},
	"sourceSize": {"w":2280,"h":71},
	"pivot": {"x":0.5,"y":0.5}
},
{
	"filename": "f0009.png",
	"frame": {"x":2,"y":586,"w":2280,"h":71},
	"rotated": false,
	"trimmed": false,
	"spriteSourceSize": {"x":0,"y":0,"w":2280,"h":71},
	"sourceSize": {"w":2280,"h":71},
	"pivot": {"x":0.5,"y":0.5}
},
{
	"filename": "f0010.png",
	"frame": {"x":2,"y":659,"w":2280,"h":71},
	"rotated": false,
	"trimmed": false,
	"spriteSourceSize": {"x":0,"y":0,"w":2280,"h":71},
	"sourceSize": {"w":2280,"h":71},
	"pivot": {"x":0.5,"y":0.5}
},
{
	"filename": "f0011.png",
	"frame": {"x":2,"y":732,"w":2280,"h":71},
	"rotated": false,
	"trimmed": false,
	"spriteSourceSize": {"x":0,"y":0,"w":2280,"h":71},
	"sourceSize": {"w":2280,"h":71},
	"pivot": {"x":0.5,"y":0.5}
},
{
	"filename": "f0012.png",
	"frame": {"x":2,"y":805,"w":2280,"h":71},
	"rotated": false,
	"trimmed": false,
	"spriteSourceSize": {"x":0,"y":0,"w":2280,"h":71},
	"sourceSize": {"w":2280,"h":71},
	"pivot": {"x":0.5,"y":0.5}
},
{
	"filename": "f0013.png",
	"frame": {"x":2,"y":878,"w":2280,"h":71},
	"rotated": false,
	"trimmed": false,
	"spriteSourceSize": {"x":0,"y":0,"w":2280,"h":71},
	"sourceSize": {"w":2280,"h":71},
	"pivot": {"x":0.5,"y":0.5}
},
{
	"filename": "f0014.png",
	"frame": {"x":2,"y":951,"w":2280,"h":71},
	"rotated": false,
	"trimmed": false,
	"spriteSourceSize": {"x":0,"y":0,"w":2280,"h":71},
	"sourceSize": {"w":2280,"h":71},
	"pivot": {"x":0.5,"y":0.5}
},
{
	"filename": "f0015.png",
	"frame": {"x":2,"y":1024,"w":2280,"h":71},
	"rotated": false,
	"trimmed": false,
	"spriteSourceSize": {"x":0,"y":0,"w":2280,"h":71},
	"sourceSize": {"w":2280,"h":71},
	"pivot": {"x":0.5,"y":0.5}
}],
"meta": {
	"app": "http://www.codeandweb.com/texturepacker",
	"version": "1.0",
	"image": "fail5.png",
	"format": "RGBA8888",
	"size": {"w":2284,"h":1097},
	"scale": "1",
	"smartupdate": "$TexturePacker:SmartUpdate:874f16588e7e772bd0498b7cac4aec6c:a8f5d284492fac97395480fa7a6894e7:21ac8e223139e7177f1df2bc7e5f6062$"
}
}
