{"frames": [

{
	"filename": "ridl_drink0001.png",
	"frame": {"x":2,"y":2,"w":147,"h":270},
	"rotated": false,
	"trimmed": false,
	"spriteSourceSize": {"x":0,"y":0,"w":147,"h":270},
	"sourceSize": {"w":147,"h":270},
	"pivot": {"x":0.5,"y":0.5}
},
{
	"filename": "ridl_drink0002.png",
	"frame": {"x":2,"y":274,"w":147,"h":270},
	"rotated": false,
	"trimmed": false,
	"spriteSourceSize": {"x":0,"y":0,"w":147,"h":270},
	"sourceSize": {"w":147,"h":270},
	"pivot": {"x":0.5,"y":0.5}
},
{
	"filename": "ridl_drink0003.png",
	"frame": {"x":2,"y":546,"w":147,"h":270},
	"rotated": false,
	"trimmed": false,
	"spriteSourceSize": {"x":0,"y":0,"w":147,"h":270},
	"sourceSize": {"w":147,"h":270},
	"pivot": {"x":0.5,"y":0.5}
},
{
	"filename": "ridl_drink0004.png",
	"frame": {"x":2,"y":546,"w":147,"h":270},
	"rotated": false,
	"trimmed": false,
	"spriteSourceSize": {"x":0,"y":0,"w":147,"h":270},
	"sourceSize": {"w":147,"h":270},
	"pivot": {"x":0.5,"y":0.5}
},
{
	"filename": "ridl_drink0005.png",
	"frame": {"x":2,"y":546,"w":147,"h":270},
	"rotated": false,
	"trimmed": false,
	"spriteSourceSize": {"x":0,"y":0,"w":147,"h":270},
	"sourceSize": {"w":147,"h":270},
	"pivot": {"x":0.5,"y":0.5}
},
{
	"filename": "ridl_drink0006.png",
	"frame": {"x":2,"y":546,"w":147,"h":270},
	"rotated": false,
	"trimmed": false,
	"spriteSourceSize": {"x":0,"y":0,"w":147,"h":270},
	"sourceSize": {"w":147,"h":270},
	"pivot": {"x":0.5,"y":0.5}
},
{
	"filename": "ridl_drink0007.png",
	"frame": {"x":2,"y":546,"w":147,"h":270},
	"rotated": false,
	"trimmed": false,
	"spriteSourceSize": {"x":0,"y":0,"w":147,"h":270},
	"sourceSize": {"w":147,"h":270},
	"pivot": {"x":0.5,"y":0.5}
},
{
	"filename": "ridl_drink0008.png",
	"frame": {"x":2,"y":546,"w":147,"h":270},
	"rotated": false,
	"trimmed": false,
	"spriteSourceSize": {"x":0,"y":0,"w":147,"h":270},
	"sourceSize": {"w":147,"h":270},
	"pivot": {"x":0.5,"y":0.5}
},
{
	"filename": "ridl_drink0009.png",
	"frame": {"x":2,"y":546,"w":147,"h":270},
	"rotated": false,
	"trimmed": false,
	"spriteSourceSize": {"x":0,"y":0,"w":147,"h":270},
	"sourceSize": {"w":147,"h":270},
	"pivot": {"x":0.5,"y":0.5}
},
{
	"filename": "ridl_drink0010.png",
	"frame": {"x":2,"y":546,"w":147,"h":270},
	"rotated": false,
	"trimmed": false,
	"spriteSourceSize": {"x":0,"y":0,"w":147,"h":270},
	"sourceSize": {"w":147,"h":270},
	"pivot": {"x":0.5,"y":0.5}
},
{
	"filename": "ridl_drink0011.png",
	"frame": {"x":2,"y":546,"w":147,"h":270},
	"rotated": false,
	"trimmed": false,
	"spriteSourceSize": {"x":0,"y":0,"w":147,"h":270},
	"sourceSize": {"w":147,"h":270},
	"pivot": {"x":0.5,"y":0.5}
},
{
	"filename": "ridl_drink0012.png",
	"frame": {"x":2,"y":546,"w":147,"h":270},
	"rotated": false,
	"trimmed": false,
	"spriteSourceSize": {"x":0,"y":0,"w":147,"h":270},
	"sourceSize": {"w":147,"h":270},
	"pivot": {"x":0.5,"y":0.5}
},
{
	"filename": "ridl_drink0013.png",
	"frame": {"x":2,"y":546,"w":147,"h":270},
	"rotated": false,
	"trimmed": false,
	"spriteSourceSize": {"x":0,"y":0,"w":147,"h":270},
	"sourceSize": {"w":147,"h":270},
	"pivot": {"x":0.5,"y":0.5}
},
{
	"filename": "ridl_drink0014.png",
	"frame": {"x":2,"y":546,"w":147,"h":270},
	"rotated": false,
	"trimmed": false,
	"spriteSourceSize": {"x":0,"y":0,"w":147,"h":270},
	"sourceSize": {"w":147,"h":270},
	"pivot": {"x":0.5,"y":0.5}
},
{
	"filename": "ridl_drink0015.png",
	"frame": {"x":2,"y":546,"w":147,"h":270},
	"rotated": false,
	"trimmed": false,
	"spriteSourceSize": {"x":0,"y":0,"w":147,"h":270},
	"sourceSize": {"w":147,"h":270},
	"pivot": {"x":0.5,"y":0.5}
},
{
	"filename": "ridl_drink0016.png",
	"frame": {"x":2,"y":546,"w":147,"h":270},
	"rotated": false,
	"trimmed": false,
	"spriteSourceSize": {"x":0,"y":0,"w":147,"h":270},
	"sourceSize": {"w":147,"h":270},
	"pivot": {"x":0.5,"y":0.5}
},
{
	"filename": "ridl_drink0017.png",
	"frame": {"x":2,"y":546,"w":147,"h":270},
	"rotated": false,
	"trimmed": false,
	"spriteSourceSize": {"x":0,"y":0,"w":147,"h":270},
	"sourceSize": {"w":147,"h":270},
	"pivot": {"x":0.5,"y":0.5}
},
{
	"filename": "ridl_drink0018.png",
	"frame": {"x":2,"y":546,"w":147,"h":270},
	"rotated": false,
	"trimmed": false,
	"spriteSourceSize": {"x":0,"y":0,"w":147,"h":270},
	"sourceSize": {"w":147,"h":270},
	"pivot": {"x":0.5,"y":0.5}
},
{
	"filename": "ridl_drink0019.png",
	"frame": {"x":2,"y":546,"w":147,"h":270},
	"rotated": false,
	"trimmed": false,
	"spriteSourceSize": {"x":0,"y":0,"w":147,"h":270},
	"sourceSize": {"w":147,"h":270},
	"pivot": {"x":0.5,"y":0.5}
},
{
	"filename": "ridl_drink0020.png",
	"frame": {"x":2,"y":546,"w":147,"h":270},
	"rotated": false,
	"trimmed": false,
	"spriteSourceSize": {"x":0,"y":0,"w":147,"h":270},
	"sourceSize": {"w":147,"h":270},
	"pivot": {"x":0.5,"y":0.5}
},
{
	"filename": "ridl_drink0021.png",
	"frame": {"x":2,"y":546,"w":147,"h":270},
	"rotated": false,
	"trimmed": false,
	"spriteSourceSize": {"x":0,"y":0,"w":147,"h":270},
	"sourceSize": {"w":147,"h":270},
	"pivot": {"x":0.5,"y":0.5}
},
{
	"filename": "ridl_drink0022.png",
	"frame": {"x":2,"y":546,"w":147,"h":270},
	"rotated": false,
	"trimmed": false,
	"spriteSourceSize": {"x":0,"y":0,"w":147,"h":270},
	"sourceSize": {"w":147,"h":270},
	"pivot": {"x":0.5,"y":0.5}
},
{
	"filename": "ridl_drink0023.png",
	"frame": {"x":2,"y":546,"w":147,"h":270},
	"rotated": false,
	"trimmed": false,
	"spriteSourceSize": {"x":0,"y":0,"w":147,"h":270},
	"sourceSize": {"w":147,"h":270},
	"pivot": {"x":0.5,"y":0.5}
},
{
	"filename": "ridl_drink0024.png",
	"frame": {"x":2,"y":546,"w":147,"h":270},
	"rotated": false,
	"trimmed": false,
	"spriteSourceSize": {"x":0,"y":0,"w":147,"h":270},
	"sourceSize": {"w":147,"h":270},
	"pivot": {"x":0.5,"y":0.5}
},
{
	"filename": "ridl_drink0025.png",
	"frame": {"x":2,"y":546,"w":147,"h":270},
	"rotated": false,
	"trimmed": false,
	"spriteSourceSize": {"x":0,"y":0,"w":147,"h":270},
	"sourceSize": {"w":147,"h":270},
	"pivot": {"x":0.5,"y":0.5}
},
{
	"filename": "ridl_drink0026.png",
	"frame": {"x":2,"y":546,"w":147,"h":270},
	"rotated": false,
	"trimmed": false,
	"spriteSourceSize": {"x":0,"y":0,"w":147,"h":270},
	"sourceSize": {"w":147,"h":270},
	"pivot": {"x":0.5,"y":0.5}
},
{
	"filename": "ridl_drink0027.png",
	"frame": {"x":2,"y":546,"w":147,"h":270},
	"rotated": false,
	"trimmed": false,
	"spriteSourceSize": {"x":0,"y":0,"w":147,"h":270},
	"sourceSize": {"w":147,"h":270},
	"pivot": {"x":0.5,"y":0.5}
},
{
	"filename": "ridl_drink0028.png",
	"frame": {"x":2,"y":546,"w":147,"h":270},
	"rotated": false,
	"trimmed": false,
	"spriteSourceSize": {"x":0,"y":0,"w":147,"h":270},
	"sourceSize": {"w":147,"h":270},
	"pivot": {"x":0.5,"y":0.5}
},
{
	"filename": "ridl_drink0029.png",
	"frame": {"x":2,"y":546,"w":147,"h":270},
	"rotated": false,
	"trimmed": false,
	"spriteSourceSize": {"x":0,"y":0,"w":147,"h":270},
	"sourceSize": {"w":147,"h":270},
	"pivot": {"x":0.5,"y":0.5}
},
{
	"filename": "ridl_drink0030.png",
	"frame": {"x":2,"y":546,"w":147,"h":270},
	"rotated": false,
	"trimmed": false,
	"spriteSourceSize": {"x":0,"y":0,"w":147,"h":270},
	"sourceSize": {"w":147,"h":270},
	"pivot": {"x":0.5,"y":0.5}
},
{
	"filename": "ridl_drink0031.png",
	"frame": {"x":2,"y":546,"w":147,"h":270},
	"rotated": false,
	"trimmed": false,
	"spriteSourceSize": {"x":0,"y":0,"w":147,"h":270},
	"sourceSize": {"w":147,"h":270},
	"pivot": {"x":0.5,"y":0.5}
},
{
	"filename": "ridl_drink0032.png",
	"frame": {"x":2,"y":546,"w":147,"h":270},
	"rotated": false,
	"trimmed": false,
	"spriteSourceSize": {"x":0,"y":0,"w":147,"h":270},
	"sourceSize": {"w":147,"h":270},
	"pivot": {"x":0.5,"y":0.5}
},
{
	"filename": "ridl_drink0033.png",
	"frame": {"x":2,"y":546,"w":147,"h":270},
	"rotated": false,
	"trimmed": false,
	"spriteSourceSize": {"x":0,"y":0,"w":147,"h":270},
	"sourceSize": {"w":147,"h":270},
	"pivot": {"x":0.5,"y":0.5}
},
{
	"filename": "ridl_drink0034.png",
	"frame": {"x":2,"y":546,"w":147,"h":270},
	"rotated": false,
	"trimmed": false,
	"spriteSourceSize": {"x":0,"y":0,"w":147,"h":270},
	"sourceSize": {"w":147,"h":270},
	"pivot": {"x":0.5,"y":0.5}
},
{
	"filename": "ridl_drink0035.png",
	"frame": {"x":2,"y":546,"w":147,"h":270},
	"rotated": false,
	"trimmed": false,
	"spriteSourceSize": {"x":0,"y":0,"w":147,"h":270},
	"sourceSize": {"w":147,"h":270},
	"pivot": {"x":0.5,"y":0.5}
},
{
	"filename": "ridl_drink0036.png",
	"frame": {"x":2,"y":546,"w":147,"h":270},
	"rotated": false,
	"trimmed": false,
	"spriteSourceSize": {"x":0,"y":0,"w":147,"h":270},
	"sourceSize": {"w":147,"h":270},
	"pivot": {"x":0.5,"y":0.5}
},
{
	"filename": "ridl_drink0037.png",
	"frame": {"x":2,"y":546,"w":147,"h":270},
	"rotated": false,
	"trimmed": false,
	"spriteSourceSize": {"x":0,"y":0,"w":147,"h":270},
	"sourceSize": {"w":147,"h":270},
	"pivot": {"x":0.5,"y":0.5}
},
{
	"filename": "ridl_drink0038.png",
	"frame": {"x":2,"y":546,"w":147,"h":270},
	"rotated": false,
	"trimmed": false,
	"spriteSourceSize": {"x":0,"y":0,"w":147,"h":270},
	"sourceSize": {"w":147,"h":270},
	"pivot": {"x":0.5,"y":0.5}
},
{
	"filename": "ridl_drink0039.png",
	"frame": {"x":2,"y":546,"w":147,"h":270},
	"rotated": false,
	"trimmed": false,
	"spriteSourceSize": {"x":0,"y":0,"w":147,"h":270},
	"sourceSize": {"w":147,"h":270},
	"pivot": {"x":0.5,"y":0.5}
},
{
	"filename": "ridl_drink0040.png",
	"frame": {"x":2,"y":546,"w":147,"h":270},
	"rotated": false,
	"trimmed": false,
	"spriteSourceSize": {"x":0,"y":0,"w":147,"h":270},
	"sourceSize": {"w":147,"h":270},
	"pivot": {"x":0.5,"y":0.5}
},
{
	"filename": "ridl_drink0041.png",
	"frame": {"x":2,"y":546,"w":147,"h":270},
	"rotated": false,
	"trimmed": false,
	"spriteSourceSize": {"x":0,"y":0,"w":147,"h":270},
	"sourceSize": {"w":147,"h":270},
	"pivot": {"x":0.5,"y":0.5}
},
{
	"filename": "ridl_drink0042.png",
	"frame": {"x":2,"y":546,"w":147,"h":270},
	"rotated": false,
	"trimmed": false,
	"spriteSourceSize": {"x":0,"y":0,"w":147,"h":270},
	"sourceSize": {"w":147,"h":270},
	"pivot": {"x":0.5,"y":0.5}
},
{
	"filename": "ridl_drink0043.png",
	"frame": {"x":2,"y":546,"w":147,"h":270},
	"rotated": false,
	"trimmed": false,
	"spriteSourceSize": {"x":0,"y":0,"w":147,"h":270},
	"sourceSize": {"w":147,"h":270},
	"pivot": {"x":0.5,"y":0.5}
},
{
	"filename": "ridl_drink0044.png",
	"frame": {"x":2,"y":546,"w":147,"h":270},
	"rotated": false,
	"trimmed": false,
	"spriteSourceSize": {"x":0,"y":0,"w":147,"h":270},
	"sourceSize": {"w":147,"h":270},
	"pivot": {"x":0.5,"y":0.5}
},
{
	"filename": "ridl_drink0045.png",
	"frame": {"x":2,"y":546,"w":147,"h":270},
	"rotated": false,
	"trimmed": false,
	"spriteSourceSize": {"x":0,"y":0,"w":147,"h":270},
	"sourceSize": {"w":147,"h":270},
	"pivot": {"x":0.5,"y":0.5}
},
{
	"filename": "ridl_drink0046.png",
	"frame": {"x":2,"y":546,"w":147,"h":270},
	"rotated": false,
	"trimmed": false,
	"spriteSourceSize": {"x":0,"y":0,"w":147,"h":270},
	"sourceSize": {"w":147,"h":270},
	"pivot": {"x":0.5,"y":0.5}
},
{
	"filename": "ridl_drink0047.png",
	"frame": {"x":2,"y":546,"w":147,"h":270},
	"rotated": false,
	"trimmed": false,
	"spriteSourceSize": {"x":0,"y":0,"w":147,"h":270},
	"sourceSize": {"w":147,"h":270},
	"pivot": {"x":0.5,"y":0.5}
},
{
	"filename": "ridl_drink0048.png",
	"frame": {"x":2,"y":546,"w":147,"h":270},
	"rotated": false,
	"trimmed": false,
	"spriteSourceSize": {"x":0,"y":0,"w":147,"h":270},
	"sourceSize": {"w":147,"h":270},
	"pivot": {"x":0.5,"y":0.5}
},
{
	"filename": "ridl_drink0049.png",
	"frame": {"x":2,"y":546,"w":147,"h":270},
	"rotated": false,
	"trimmed": false,
	"spriteSourceSize": {"x":0,"y":0,"w":147,"h":270},
	"sourceSize": {"w":147,"h":270},
	"pivot": {"x":0.5,"y":0.5}
},
{
	"filename": "ridl_drink0050.png",
	"frame": {"x":2,"y":546,"w":147,"h":270},
	"rotated": false,
	"trimmed": false,
	"spriteSourceSize": {"x":0,"y":0,"w":147,"h":270},
	"sourceSize": {"w":147,"h":270},
	"pivot": {"x":0.5,"y":0.5}
},
{
	"filename": "ridl_drink0051.png",
	"frame": {"x":2,"y":546,"w":147,"h":270},
	"rotated": false,
	"trimmed": false,
	"spriteSourceSize": {"x":0,"y":0,"w":147,"h":270},
	"sourceSize": {"w":147,"h":270},
	"pivot": {"x":0.5,"y":0.5}
},
{
	"filename": "ridl_drink0052.png",
	"frame": {"x":2,"y":546,"w":147,"h":270},
	"rotated": false,
	"trimmed": false,
	"spriteSourceSize": {"x":0,"y":0,"w":147,"h":270},
	"sourceSize": {"w":147,"h":270},
	"pivot": {"x":0.5,"y":0.5}
},
{
	"filename": "ridl_drink0053.png",
	"frame": {"x":2,"y":818,"w":147,"h":270},
	"rotated": false,
	"trimmed": false,
	"spriteSourceSize": {"x":0,"y":0,"w":147,"h":270},
	"sourceSize": {"w":147,"h":270},
	"pivot": {"x":0.5,"y":0.5}
},
{
	"filename": "ridl_drink0054.png",
	"frame": {"x":2,"y":1090,"w":147,"h":270},
	"rotated": false,
	"trimmed": false,
	"spriteSourceSize": {"x":0,"y":0,"w":147,"h":270},
	"sourceSize": {"w":147,"h":270},
	"pivot": {"x":0.5,"y":0.5}
},
{
	"filename": "ridl_drink0055.png",
	"frame": {"x":2,"y":1362,"w":147,"h":270},
	"rotated": false,
	"trimmed": false,
	"spriteSourceSize": {"x":0,"y":0,"w":147,"h":270},
	"sourceSize": {"w":147,"h":270},
	"pivot": {"x":0.5,"y":0.5}
},
{
	"filename": "ridl_drink0056.png",
	"frame": {"x":2,"y":1362,"w":147,"h":270},
	"rotated": false,
	"trimmed": false,
	"spriteSourceSize": {"x":0,"y":0,"w":147,"h":270},
	"sourceSize": {"w":147,"h":270},
	"pivot": {"x":0.5,"y":0.5}
},
{
	"filename": "ridl_drink0057.png",
	"frame": {"x":2,"y":1362,"w":147,"h":270},
	"rotated": false,
	"trimmed": false,
	"spriteSourceSize": {"x":0,"y":0,"w":147,"h":270},
	"sourceSize": {"w":147,"h":270},
	"pivot": {"x":0.5,"y":0.5}
},
{
	"filename": "ridl_drink0058.png",
	"frame": {"x":2,"y":1362,"w":147,"h":270},
	"rotated": false,
	"trimmed": false,
	"spriteSourceSize": {"x":0,"y":0,"w":147,"h":270},
	"sourceSize": {"w":147,"h":270},
	"pivot": {"x":0.5,"y":0.5}
},
{
	"filename": "ridl_drink0059.png",
	"frame": {"x":2,"y":1362,"w":147,"h":270},
	"rotated": false,
	"trimmed": false,
	"spriteSourceSize": {"x":0,"y":0,"w":147,"h":270},
	"sourceSize": {"w":147,"h":270},
	"pivot": {"x":0.5,"y":0.5}
},
{
	"filename": "ridl_drink0060.png",
	"frame": {"x":2,"y":1362,"w":147,"h":270},
	"rotated": false,
	"trimmed": false,
	"spriteSourceSize": {"x":0,"y":0,"w":147,"h":270},
	"sourceSize": {"w":147,"h":270},
	"pivot": {"x":0.5,"y":0.5}
}],
"meta": {
	"app": "http://www.codeandweb.com/texturepacker",
	"version": "1.0",
	"image": "ridl_drink.png",
	"format": "RGBA8888",
	"size": {"w":151,"h":1634},
	"scale": "1",
	"smartupdate": "$TexturePacker:SmartUpdate:5508002bc84c9fa354fc5edfe91b3531:437ac94a3fbc9eba4781d940ec889f4f:d94410c417eadf4c3fa228398762b2d4$"
}
}
