{"frames": [

{
	"filename": "ridl_towel0001.png",
	"frame": {"x":2,"y":2,"w":147,"h":270},
	"rotated": false,
	"trimmed": false,
	"spriteSourceSize": {"x":0,"y":0,"w":147,"h":270},
	"sourceSize": {"w":147,"h":270},
	"pivot": {"x":0.5,"y":0.5}
},
{
	"filename": "ridl_towel0002.png",
	"frame": {"x":2,"y":2,"w":147,"h":270},
	"rotated": false,
	"trimmed": false,
	"spriteSourceSize": {"x":0,"y":0,"w":147,"h":270},
	"sourceSize": {"w":147,"h":270},
	"pivot": {"x":0.5,"y":0.5}
},
{
	"filename": "ridl_towel0003.png",
	"frame": {"x":151,"y":2,"w":147,"h":270},
	"rotated": false,
	"trimmed": false,
	"spriteSourceSize": {"x":0,"y":0,"w":147,"h":270},
	"sourceSize": {"w":147,"h":270},
	"pivot": {"x":0.5,"y":0.5}
},
{
	"filename": "ridl_towel0004.png",
	"frame": {"x":151,"y":2,"w":147,"h":270},
	"rotated": false,
	"trimmed": false,
	"spriteSourceSize": {"x":0,"y":0,"w":147,"h":270},
	"sourceSize": {"w":147,"h":270},
	"pivot": {"x":0.5,"y":0.5}
},
{
	"filename": "ridl_towel0005.png",
	"frame": {"x":300,"y":2,"w":147,"h":270},
	"rotated": false,
	"trimmed": false,
	"spriteSourceSize": {"x":0,"y":0,"w":147,"h":270},
	"sourceSize": {"w":147,"h":270},
	"pivot": {"x":0.5,"y":0.5}
},
{
	"filename": "ridl_towel0006.png",
	"frame": {"x":300,"y":2,"w":147,"h":270},
	"rotated": false,
	"trimmed": false,
	"spriteSourceSize": {"x":0,"y":0,"w":147,"h":270},
	"sourceSize": {"w":147,"h":270},
	"pivot": {"x":0.5,"y":0.5}
},
{
	"filename": "ridl_towel0007.png",
	"frame": {"x":2,"y":274,"w":147,"h":270},
	"rotated": false,
	"trimmed": false,
	"spriteSourceSize": {"x":0,"y":0,"w":147,"h":270},
	"sourceSize": {"w":147,"h":270},
	"pivot": {"x":0.5,"y":0.5}
},
{
	"filename": "ridl_towel0008.png",
	"frame": {"x":2,"y":274,"w":147,"h":270},
	"rotated": false,
	"trimmed": false,
	"spriteSourceSize": {"x":0,"y":0,"w":147,"h":270},
	"sourceSize": {"w":147,"h":270},
	"pivot": {"x":0.5,"y":0.5}
},
{
	"filename": "ridl_towel0009.png",
	"frame": {"x":151,"y":274,"w":147,"h":270},
	"rotated": false,
	"trimmed": false,
	"spriteSourceSize": {"x":0,"y":0,"w":147,"h":270},
	"sourceSize": {"w":147,"h":270},
	"pivot": {"x":0.5,"y":0.5}
},
{
	"filename": "ridl_towel0010.png",
	"frame": {"x":151,"y":274,"w":147,"h":270},
	"rotated": false,
	"trimmed": false,
	"spriteSourceSize": {"x":0,"y":0,"w":147,"h":270},
	"sourceSize": {"w":147,"h":270},
	"pivot": {"x":0.5,"y":0.5}
},
{
	"filename": "ridl_towel0011.png",
	"frame": {"x":300,"y":274,"w":147,"h":270},
	"rotated": false,
	"trimmed": false,
	"spriteSourceSize": {"x":0,"y":0,"w":147,"h":270},
	"sourceSize": {"w":147,"h":270},
	"pivot": {"x":0.5,"y":0.5}
},
{
	"filename": "ridl_towel0012.png",
	"frame": {"x":300,"y":274,"w":147,"h":270},
	"rotated": false,
	"trimmed": false,
	"spriteSourceSize": {"x":0,"y":0,"w":147,"h":270},
	"sourceSize": {"w":147,"h":270},
	"pivot": {"x":0.5,"y":0.5}
},
{
	"filename": "ridl_towel0013.png",
	"frame": {"x":2,"y":546,"w":147,"h":270},
	"rotated": false,
	"trimmed": false,
	"spriteSourceSize": {"x":0,"y":0,"w":147,"h":270},
	"sourceSize": {"w":147,"h":270},
	"pivot": {"x":0.5,"y":0.5}
},
{
	"filename": "ridl_towel0014.png",
	"frame": {"x":2,"y":546,"w":147,"h":270},
	"rotated": false,
	"trimmed": false,
	"spriteSourceSize": {"x":0,"y":0,"w":147,"h":270},
	"sourceSize": {"w":147,"h":270},
	"pivot": {"x":0.5,"y":0.5}
},
{
	"filename": "ridl_towel0015.png",
	"frame": {"x":151,"y":546,"w":147,"h":270},
	"rotated": false,
	"trimmed": false,
	"spriteSourceSize": {"x":0,"y":0,"w":147,"h":270},
	"sourceSize": {"w":147,"h":270},
	"pivot": {"x":0.5,"y":0.5}
},
{
	"filename": "ridl_towel0016.png",
	"frame": {"x":2,"y":2,"w":147,"h":270},
	"rotated": false,
	"trimmed": false,
	"spriteSourceSize": {"x":0,"y":0,"w":147,"h":270},
	"sourceSize": {"w":147,"h":270},
	"pivot": {"x":0.5,"y":0.5}
},
{
	"filename": "ridl_towel0017.png",
	"frame": {"x":2,"y":2,"w":147,"h":270},
	"rotated": false,
	"trimmed": false,
	"spriteSourceSize": {"x":0,"y":0,"w":147,"h":270},
	"sourceSize": {"w":147,"h":270},
	"pivot": {"x":0.5,"y":0.5}
},
{
	"filename": "ridl_towel0018.png",
	"frame": {"x":2,"y":2,"w":147,"h":270},
	"rotated": false,
	"trimmed": false,
	"spriteSourceSize": {"x":0,"y":0,"w":147,"h":270},
	"sourceSize": {"w":147,"h":270},
	"pivot": {"x":0.5,"y":0.5}
},
{
	"filename": "ridl_towel0019.png",
	"frame": {"x":151,"y":2,"w":147,"h":270},
	"rotated": false,
	"trimmed": false,
	"spriteSourceSize": {"x":0,"y":0,"w":147,"h":270},
	"sourceSize": {"w":147,"h":270},
	"pivot": {"x":0.5,"y":0.5}
},
{
	"filename": "ridl_towel0020.png",
	"frame": {"x":151,"y":2,"w":147,"h":270},
	"rotated": false,
	"trimmed": false,
	"spriteSourceSize": {"x":0,"y":0,"w":147,"h":270},
	"sourceSize": {"w":147,"h":270},
	"pivot": {"x":0.5,"y":0.5}
},
{
	"filename": "ridl_towel0021.png",
	"frame": {"x":300,"y":2,"w":147,"h":270},
	"rotated": false,
	"trimmed": false,
	"spriteSourceSize": {"x":0,"y":0,"w":147,"h":270},
	"sourceSize": {"w":147,"h":270},
	"pivot": {"x":0.5,"y":0.5}
},
{
	"filename": "ridl_towel0022.png",
	"frame": {"x":300,"y":2,"w":147,"h":270},
	"rotated": false,
	"trimmed": false,
	"spriteSourceSize": {"x":0,"y":0,"w":147,"h":270},
	"sourceSize": {"w":147,"h":270},
	"pivot": {"x":0.5,"y":0.5}
},
{
	"filename": "ridl_towel0023.png",
	"frame": {"x":2,"y":274,"w":147,"h":270},
	"rotated": false,
	"trimmed": false,
	"spriteSourceSize": {"x":0,"y":0,"w":147,"h":270},
	"sourceSize": {"w":147,"h":270},
	"pivot": {"x":0.5,"y":0.5}
},
{
	"filename": "ridl_towel0024.png",
	"frame": {"x":2,"y":274,"w":147,"h":270},
	"rotated": false,
	"trimmed": false,
	"spriteSourceSize": {"x":0,"y":0,"w":147,"h":270},
	"sourceSize": {"w":147,"h":270},
	"pivot": {"x":0.5,"y":0.5}
},
{
	"filename": "ridl_towel0025.png",
	"frame": {"x":151,"y":274,"w":147,"h":270},
	"rotated": false,
	"trimmed": false,
	"spriteSourceSize": {"x":0,"y":0,"w":147,"h":270},
	"sourceSize": {"w":147,"h":270},
	"pivot": {"x":0.5,"y":0.5}
},
{
	"filename": "ridl_towel0026.png",
	"frame": {"x":151,"y":274,"w":147,"h":270},
	"rotated": false,
	"trimmed": false,
	"spriteSourceSize": {"x":0,"y":0,"w":147,"h":270},
	"sourceSize": {"w":147,"h":270},
	"pivot": {"x":0.5,"y":0.5}
},
{
	"filename": "ridl_towel0027.png",
	"frame": {"x":300,"y":274,"w":147,"h":270},
	"rotated": false,
	"trimmed": false,
	"spriteSourceSize": {"x":0,"y":0,"w":147,"h":270},
	"sourceSize": {"w":147,"h":270},
	"pivot": {"x":0.5,"y":0.5}
},
{
	"filename": "ridl_towel0028.png",
	"frame": {"x":300,"y":274,"w":147,"h":270},
	"rotated": false,
	"trimmed": false,
	"spriteSourceSize": {"x":0,"y":0,"w":147,"h":270},
	"sourceSize": {"w":147,"h":270},
	"pivot": {"x":0.5,"y":0.5}
},
{
	"filename": "ridl_towel0029.png",
	"frame": {"x":2,"y":546,"w":147,"h":270},
	"rotated": false,
	"trimmed": false,
	"spriteSourceSize": {"x":0,"y":0,"w":147,"h":270},
	"sourceSize": {"w":147,"h":270},
	"pivot": {"x":0.5,"y":0.5}
},
{
	"filename": "ridl_towel0030.png",
	"frame": {"x":2,"y":546,"w":147,"h":270},
	"rotated": false,
	"trimmed": false,
	"spriteSourceSize": {"x":0,"y":0,"w":147,"h":270},
	"sourceSize": {"w":147,"h":270},
	"pivot": {"x":0.5,"y":0.5}
}],
"meta": {
	"app": "http://www.codeandweb.com/texturepacker",
	"version": "1.0",
	"image": "ridl_towel.png",
	"format": "RGBA8888",
	"size": {"w":449,"h":818},
	"scale": "1",
	"smartupdate": "$TexturePacker:SmartUpdate:6474d8edbcffb57c1bb381fa52346f54:10216c51af5637816fc4a3ce14b7f7a1:684a9070a7b97f77e8dd10848cae8a09$"
}
}
