{"frames": [

{
	"filename": "KazButton0000",
	"frame": {"x":0,"y":0,"w":111,"h":236},
	"rotated": false,
	"trimmed": false,
	"spriteSourceSize": {"x":0,"y":0,"w":111,"h":236},
	"sourceSize": {"w":111,"h":236}
}
,{
	"filename": "KazButton0001",
	"frame": {"x":111,"y":0,"w":111,"h":236},
	"rotated": false,
	"trimmed": false,
	"spriteSourceSize": {"x":0,"y":0,"w":111,"h":236},
	"sourceSize": {"w":111,"h":236}
}
,{
	"filename": "KazButton0002",
	"frame": {"x":222,"y":0,"w":111,"h":236},
	"rotated": false,
	"trimmed": false,
	"spriteSourceSize": {"x":0,"y":0,"w":111,"h":236},
	"sourceSize": {"w":111,"h":236}
}
,{
	"filename": "KazButton0003",
	"frame": {"x":333,"y":0,"w":111,"h":236},
	"rotated": false,
	"trimmed": false,
	"spriteSourceSize": {"x":0,"y":0,"w":111,"h":236},
	"sourceSize": {"w":111,"h":236}
}
,{
	"filename": "KazButton0004",
	"frame": {"x":444,"y":0,"w":111,"h":236},
	"rotated": false,
	"trimmed": false,
	"spriteSourceSize": {"x":0,"y":0,"w":111,"h":236},
	"sourceSize": {"w":111,"h":236}
}
,{
	"filename": "KazButton0005",
	"frame": {"x":555,"y":0,"w":111,"h":236},
	"rotated": false,
	"trimmed": false,
	"spriteSourceSize": {"x":0,"y":0,"w":111,"h":236},
	"sourceSize": {"w":111,"h":236}
}
,{
	"filename": "KazButton0006",
	"frame": {"x":666,"y":0,"w":111,"h":236},
	"rotated": false,
	"trimmed": false,
	"spriteSourceSize": {"x":0,"y":0,"w":111,"h":236},
	"sourceSize": {"w":111,"h":236}
}
,{
	"filename": "KazButton0007",
	"frame": {"x":777,"y":0,"w":111,"h":236},
	"rotated": false,
	"trimmed": false,
	"spriteSourceSize": {"x":0,"y":0,"w":111,"h":236},
	"sourceSize": {"w":111,"h":236}
}
,{
	"filename": "KazButton0008",
	"frame": {"x":888,"y":0,"w":111,"h":236},
	"rotated": false,
	"trimmed": false,
	"spriteSourceSize": {"x":0,"y":0,"w":111,"h":236},
	"sourceSize": {"w":111,"h":236}
}
,{
	"filename": "KazButton0009",
	"frame": {"x":999,"y":0,"w":111,"h":236},
	"rotated": false,
	"trimmed": false,
	"spriteSourceSize": {"x":0,"y":0,"w":111,"h":236},
	"sourceSize": {"w":111,"h":236}
}
,{
	"filename": "KazButton0010",
	"frame": {"x":1110,"y":0,"w":111,"h":236},
	"rotated": false,
	"trimmed": false,
	"spriteSourceSize": {"x":0,"y":0,"w":111,"h":236},
	"sourceSize": {"w":111,"h":236}
}
,{
	"filename": "KazButton0011",
	"frame": {"x":1221,"y":0,"w":111,"h":236},
	"rotated": false,
	"trimmed": false,
	"spriteSourceSize": {"x":0,"y":0,"w":111,"h":236},
	"sourceSize": {"w":111,"h":236}
}
,{
	"filename": "KazButton0012",
	"frame": {"x":1332,"y":0,"w":111,"h":236},
	"rotated": false,
	"trimmed": false,
	"spriteSourceSize": {"x":0,"y":0,"w":111,"h":236},
	"sourceSize": {"w":111,"h":236}
}
,{
	"filename": "KazButton0013",
	"frame": {"x":1443,"y":0,"w":111,"h":236},
	"rotated": false,
	"trimmed": false,
	"spriteSourceSize": {"x":0,"y":0,"w":111,"h":236},
	"sourceSize": {"w":111,"h":236}
}
,{
	"filename": "KazButton0014",
	"frame": {"x":1554,"y":0,"w":111,"h":236},
	"rotated": false,
	"trimmed": false,
	"spriteSourceSize": {"x":0,"y":0,"w":111,"h":236},
	"sourceSize": {"w":111,"h":236}
}
,{
	"filename": "KazButton0015",
	"frame": {"x":1665,"y":0,"w":111,"h":236},
	"rotated": false,
	"trimmed": false,
	"spriteSourceSize": {"x":0,"y":0,"w":111,"h":236},
	"sourceSize": {"w":111,"h":236}
}
,{
	"filename": "KazButton0016",
	"frame": {"x":1776,"y":0,"w":111,"h":236},
	"rotated": false,
	"trimmed": false,
	"spriteSourceSize": {"x":0,"y":0,"w":111,"h":236},
	"sourceSize": {"w":111,"h":236}
}
,{
	"filename": "KazButton0017",
	"frame": {"x":1887,"y":0,"w":111,"h":236},
	"rotated": false,
	"trimmed": false,
	"spriteSourceSize": {"x":0,"y":0,"w":111,"h":236},
	"sourceSize": {"w":111,"h":236}
}
,{
	"filename": "KazButton0018",
	"frame": {"x":0,"y":236,"w":111,"h":236},
	"rotated": false,
	"trimmed": false,
	"spriteSourceSize": {"x":0,"y":0,"w":111,"h":236},
	"sourceSize": {"w":111,"h":236}
}
,{
	"filename": "KazButton0019",
	"frame": {"x":111,"y":236,"w":111,"h":236},
	"rotated": false,
	"trimmed": false,
	"spriteSourceSize": {"x":0,"y":0,"w":111,"h":236},
	"sourceSize": {"w":111,"h":236}
}
,{
	"filename": "KazButton0020",
	"frame": {"x":222,"y":236,"w":111,"h":236},
	"rotated": false,
	"trimmed": false,
	"spriteSourceSize": {"x":0,"y":0,"w":111,"h":236},
	"sourceSize": {"w":111,"h":236}
}
,{
	"filename": "KazButton0021",
	"frame": {"x":333,"y":236,"w":111,"h":236},
	"rotated": false,
	"trimmed": false,
	"spriteSourceSize": {"x":0,"y":0,"w":111,"h":236},
	"sourceSize": {"w":111,"h":236}
}
,{
	"filename": "KazButton0022",
	"frame": {"x":444,"y":236,"w":111,"h":236},
	"rotated": false,
	"trimmed": false,
	"spriteSourceSize": {"x":0,"y":0,"w":111,"h":236},
	"sourceSize": {"w":111,"h":236}
}
,{
	"filename": "KazButton0023",
	"frame": {"x":555,"y":236,"w":111,"h":236},
	"rotated": false,
	"trimmed": false,
	"spriteSourceSize": {"x":0,"y":0,"w":111,"h":236},
	"sourceSize": {"w":111,"h":236}
}
,{
	"filename": "KazButton0024",
	"frame": {"x":666,"y":236,"w":111,"h":236},
	"rotated": false,
	"trimmed": false,
	"spriteSourceSize": {"x":0,"y":0,"w":111,"h":236},
	"sourceSize": {"w":111,"h":236}
}
,{
	"filename": "KazButton0025",
	"frame": {"x":777,"y":236,"w":111,"h":236},
	"rotated": false,
	"trimmed": false,
	"spriteSourceSize": {"x":0,"y":0,"w":111,"h":236},
	"sourceSize": {"w":111,"h":236}
}
,{
	"filename": "KazButton0026",
	"frame": {"x":888,"y":236,"w":111,"h":236},
	"rotated": false,
	"trimmed": false,
	"spriteSourceSize": {"x":0,"y":0,"w":111,"h":236},
	"sourceSize": {"w":111,"h":236}
}
,{
	"filename": "KazButton0027",
	"frame": {"x":999,"y":236,"w":111,"h":236},
	"rotated": false,
	"trimmed": false,
	"spriteSourceSize": {"x":0,"y":0,"w":111,"h":236},
	"sourceSize": {"w":111,"h":236}
}
,{
	"filename": "KazButton0028",
	"frame": {"x":1110,"y":236,"w":111,"h":236},
	"rotated": false,
	"trimmed": false,
	"spriteSourceSize": {"x":0,"y":0,"w":111,"h":236},
	"sourceSize": {"w":111,"h":236}
}
,{
	"filename": "KazButton0029",
	"frame": {"x":1221,"y":236,"w":111,"h":236},
	"rotated": false,
	"trimmed": false,
	"spriteSourceSize": {"x":0,"y":0,"w":111,"h":236},
	"sourceSize": {"w":111,"h":236}
}
,{
	"filename": "KazButton0030",
	"frame": {"x":1332,"y":236,"w":111,"h":236},
	"rotated": false,
	"trimmed": false,
	"spriteSourceSize": {"x":0,"y":0,"w":111,"h":236},
	"sourceSize": {"w":111,"h":236}
}
,{
	"filename": "KazButton0031",
	"frame": {"x":1443,"y":236,"w":111,"h":236},
	"rotated": false,
	"trimmed": false,
	"spriteSourceSize": {"x":0,"y":0,"w":111,"h":236},
	"sourceSize": {"w":111,"h":236}
}
,{
	"filename": "KazButton0032",
	"frame": {"x":1554,"y":236,"w":111,"h":236},
	"rotated": false,
	"trimmed": false,
	"spriteSourceSize": {"x":0,"y":0,"w":111,"h":236},
	"sourceSize": {"w":111,"h":236}
}
,{
	"filename": "KazButton0033",
	"frame": {"x":1665,"y":236,"w":111,"h":236},
	"rotated": false,
	"trimmed": false,
	"spriteSourceSize": {"x":0,"y":0,"w":111,"h":236},
	"sourceSize": {"w":111,"h":236}
}
,{
	"filename": "KazButton0034",
	"frame": {"x":1776,"y":236,"w":111,"h":236},
	"rotated": false,
	"trimmed": false,
	"spriteSourceSize": {"x":0,"y":0,"w":111,"h":236},
	"sourceSize": {"w":111,"h":236}
}
,{
	"filename": "KazButton0035",
	"frame": {"x":1887,"y":236,"w":111,"h":236},
	"rotated": false,
	"trimmed": false,
	"spriteSourceSize": {"x":0,"y":0,"w":111,"h":236},
	"sourceSize": {"w":111,"h":236}
}
,{
	"filename": "KazButton0036",
	"frame": {"x":0,"y":472,"w":111,"h":236},
	"rotated": false,
	"trimmed": false,
	"spriteSourceSize": {"x":0,"y":0,"w":111,"h":236},
	"sourceSize": {"w":111,"h":236}
}
,{
	"filename": "KazButton0037",
	"frame": {"x":111,"y":472,"w":111,"h":236},
	"rotated": false,
	"trimmed": false,
	"spriteSourceSize": {"x":0,"y":0,"w":111,"h":236},
	"sourceSize": {"w":111,"h":236}
}
,{
	"filename": "KazButton0038",
	"frame": {"x":222,"y":472,"w":111,"h":236},
	"rotated": false,
	"trimmed": false,
	"spriteSourceSize": {"x":0,"y":0,"w":111,"h":236},
	"sourceSize": {"w":111,"h":236}
}
,{
	"filename": "KazButton0039",
	"frame": {"x":333,"y":472,"w":111,"h":236},
	"rotated": false,
	"trimmed": false,
	"spriteSourceSize": {"x":0,"y":0,"w":111,"h":236},
	"sourceSize": {"w":111,"h":236}
}
,{
	"filename": "KazButton0040",
	"frame": {"x":444,"y":472,"w":111,"h":236},
	"rotated": false,
	"trimmed": false,
	"spriteSourceSize": {"x":0,"y":0,"w":111,"h":236},
	"sourceSize": {"w":111,"h":236}
}
,{
	"filename": "KazButton0041",
	"frame": {"x":555,"y":472,"w":111,"h":236},
	"rotated": false,
	"trimmed": false,
	"spriteSourceSize": {"x":0,"y":0,"w":111,"h":236},
	"sourceSize": {"w":111,"h":236}
}
,{
	"filename": "KazButton0042",
	"frame": {"x":666,"y":472,"w":111,"h":236},
	"rotated": false,
	"trimmed": false,
	"spriteSourceSize": {"x":0,"y":0,"w":111,"h":236},
	"sourceSize": {"w":111,"h":236}
}
,{
	"filename": "KazButton0043",
	"frame": {"x":777,"y":472,"w":111,"h":236},
	"rotated": false,
	"trimmed": false,
	"spriteSourceSize": {"x":0,"y":0,"w":111,"h":236},
	"sourceSize": {"w":111,"h":236}
}
,{
	"filename": "KazButton0044",
	"frame": {"x":888,"y":472,"w":111,"h":236},
	"rotated": false,
	"trimmed": false,
	"spriteSourceSize": {"x":0,"y":0,"w":111,"h":236},
	"sourceSize": {"w":111,"h":236}
}
,{
	"filename": "KazButton0045",
	"frame": {"x":999,"y":472,"w":111,"h":236},
	"rotated": false,
	"trimmed": false,
	"spriteSourceSize": {"x":0,"y":0,"w":111,"h":236},
	"sourceSize": {"w":111,"h":236}
}
,{
	"filename": "KazButton0046",
	"frame": {"x":1110,"y":472,"w":111,"h":236},
	"rotated": false,
	"trimmed": false,
	"spriteSourceSize": {"x":0,"y":0,"w":111,"h":236},
	"sourceSize": {"w":111,"h":236}
}
,{
	"filename": "KazButton0047",
	"frame": {"x":1221,"y":472,"w":111,"h":236},
	"rotated": false,
	"trimmed": false,
	"spriteSourceSize": {"x":0,"y":0,"w":111,"h":236},
	"sourceSize": {"w":111,"h":236}
}
,{
	"filename": "KazButton0048",
	"frame": {"x":1332,"y":472,"w":111,"h":236},
	"rotated": false,
	"trimmed": false,
	"spriteSourceSize": {"x":0,"y":0,"w":111,"h":236},
	"sourceSize": {"w":111,"h":236}
}
,{
	"filename": "KazButton0049",
	"frame": {"x":1443,"y":472,"w":111,"h":236},
	"rotated": false,
	"trimmed": false,
	"spriteSourceSize": {"x":0,"y":0,"w":111,"h":236},
	"sourceSize": {"w":111,"h":236}
}
,{
	"filename": "KazButton0050",
	"frame": {"x":1554,"y":472,"w":111,"h":236},
	"rotated": false,
	"trimmed": false,
	"spriteSourceSize": {"x":0,"y":0,"w":111,"h":236},
	"sourceSize": {"w":111,"h":236}
}
,{
	"filename": "KazButton0051",
	"frame": {"x":1665,"y":472,"w":111,"h":236},
	"rotated": false,
	"trimmed": false,
	"spriteSourceSize": {"x":0,"y":0,"w":111,"h":236},
	"sourceSize": {"w":111,"h":236}
}
,{
	"filename": "KazButton0052",
	"frame": {"x":1776,"y":472,"w":111,"h":236},
	"rotated": false,
	"trimmed": false,
	"spriteSourceSize": {"x":0,"y":0,"w":111,"h":236},
	"sourceSize": {"w":111,"h":236}
}
,{
	"filename": "KazButton0053",
	"frame": {"x":1887,"y":472,"w":111,"h":236},
	"rotated": false,
	"trimmed": false,
	"spriteSourceSize": {"x":0,"y":0,"w":111,"h":236},
	"sourceSize": {"w":111,"h":236}
}
,{
	"filename": "KazButton0054",
	"frame": {"x":0,"y":708,"w":111,"h":236},
	"rotated": false,
	"trimmed": false,
	"spriteSourceSize": {"x":0,"y":0,"w":111,"h":236},
	"sourceSize": {"w":111,"h":236}
}
,{
	"filename": "KazButton0055",
	"frame": {"x":111,"y":708,"w":111,"h":236},
	"rotated": false,
	"trimmed": false,
	"spriteSourceSize": {"x":0,"y":0,"w":111,"h":236},
	"sourceSize": {"w":111,"h":236}
}
,{
	"filename": "KazButton0056",
	"frame": {"x":222,"y":708,"w":111,"h":236},
	"rotated": false,
	"trimmed": false,
	"spriteSourceSize": {"x":0,"y":0,"w":111,"h":236},
	"sourceSize": {"w":111,"h":236}
}
,{
	"filename": "KazButton0057",
	"frame": {"x":333,"y":708,"w":111,"h":236},
	"rotated": false,
	"trimmed": false,
	"spriteSourceSize": {"x":0,"y":0,"w":111,"h":236},
	"sourceSize": {"w":111,"h":236}
}
,{
	"filename": "KazButton0058",
	"frame": {"x":444,"y":708,"w":111,"h":236},
	"rotated": false,
	"trimmed": false,
	"spriteSourceSize": {"x":0,"y":0,"w":111,"h":236},
	"sourceSize": {"w":111,"h":236}
}
,{
	"filename": "KazButton0059",
	"frame": {"x":555,"y":708,"w":111,"h":236},
	"rotated": false,
	"trimmed": false,
	"spriteSourceSize": {"x":0,"y":0,"w":111,"h":236},
	"sourceSize": {"w":111,"h":236}
}
,{
	"filename": "KazButton0060",
	"frame": {"x":666,"y":708,"w":111,"h":236},
	"rotated": false,
	"trimmed": false,
	"spriteSourceSize": {"x":0,"y":0,"w":111,"h":236},
	"sourceSize": {"w":111,"h":236}
}
,{
	"filename": "KazButton0061",
	"frame": {"x":777,"y":708,"w":111,"h":236},
	"rotated": false,
	"trimmed": false,
	"spriteSourceSize": {"x":0,"y":0,"w":111,"h":236},
	"sourceSize": {"w":111,"h":236}
}
,{
	"filename": "KazButton0062",
	"frame": {"x":888,"y":708,"w":111,"h":236},
	"rotated": false,
	"trimmed": false,
	"spriteSourceSize": {"x":0,"y":0,"w":111,"h":236},
	"sourceSize": {"w":111,"h":236}
}
,{
	"filename": "KazButton0063",
	"frame": {"x":999,"y":708,"w":111,"h":236},
	"rotated": false,
	"trimmed": false,
	"spriteSourceSize": {"x":0,"y":0,"w":111,"h":236},
	"sourceSize": {"w":111,"h":236}
}
,{
	"filename": "KazButton0064",
	"frame": {"x":1110,"y":708,"w":111,"h":236},
	"rotated": false,
	"trimmed": false,
	"spriteSourceSize": {"x":0,"y":0,"w":111,"h":236},
	"sourceSize": {"w":111,"h":236}
}
,{
	"filename": "KazButton0065",
	"frame": {"x":1221,"y":708,"w":111,"h":236},
	"rotated": false,
	"trimmed": false,
	"spriteSourceSize": {"x":0,"y":0,"w":111,"h":236},
	"sourceSize": {"w":111,"h":236}
}
,{
	"filename": "KazButton0066",
	"frame": {"x":1332,"y":708,"w":111,"h":236},
	"rotated": false,
	"trimmed": false,
	"spriteSourceSize": {"x":0,"y":0,"w":111,"h":236},
	"sourceSize": {"w":111,"h":236}
}
,{
	"filename": "KazButton0067",
	"frame": {"x":1443,"y":708,"w":111,"h":236},
	"rotated": false,
	"trimmed": false,
	"spriteSourceSize": {"x":0,"y":0,"w":111,"h":236},
	"sourceSize": {"w":111,"h":236}
}
,{
	"filename": "KazButton0068",
	"frame": {"x":1554,"y":708,"w":111,"h":236},
	"rotated": false,
	"trimmed": false,
	"spriteSourceSize": {"x":0,"y":0,"w":111,"h":236},
	"sourceSize": {"w":111,"h":236}
}
,{
	"filename": "KazButton0069",
	"frame": {"x":1665,"y":708,"w":111,"h":236},
	"rotated": false,
	"trimmed": false,
	"spriteSourceSize": {"x":0,"y":0,"w":111,"h":236},
	"sourceSize": {"w":111,"h":236}
}
,{
	"filename": "KazButton0070",
	"frame": {"x":1776,"y":708,"w":111,"h":236},
	"rotated": false,
	"trimmed": false,
	"spriteSourceSize": {"x":0,"y":0,"w":111,"h":236},
	"sourceSize": {"w":111,"h":236}
}
,{
	"filename": "KazButton0071",
	"frame": {"x":1887,"y":708,"w":111,"h":236},
	"rotated": false,
	"trimmed": false,
	"spriteSourceSize": {"x":0,"y":0,"w":111,"h":236},
	"sourceSize": {"w":111,"h":236}
}
,{
	"filename": "KazButton0072",
	"frame": {"x":0,"y":944,"w":111,"h":236},
	"rotated": false,
	"trimmed": false,
	"spriteSourceSize": {"x":0,"y":0,"w":111,"h":236},
	"sourceSize": {"w":111,"h":236}
}
,{
	"filename": "KazButton0073",
	"frame": {"x":111,"y":944,"w":111,"h":236},
	"rotated": false,
	"trimmed": false,
	"spriteSourceSize": {"x":0,"y":0,"w":111,"h":236},
	"sourceSize": {"w":111,"h":236}
}
,{
	"filename": "KazButton0074",
	"frame": {"x":222,"y":944,"w":111,"h":236},
	"rotated": false,
	"trimmed": false,
	"spriteSourceSize": {"x":0,"y":0,"w":111,"h":236},
	"sourceSize": {"w":111,"h":236}
}
,{
	"filename": "KazButton0075",
	"frame": {"x":333,"y":944,"w":111,"h":236},
	"rotated": false,
	"trimmed": false,
	"spriteSourceSize": {"x":0,"y":0,"w":111,"h":236},
	"sourceSize": {"w":111,"h":236}
}
,{
	"filename": "KazButton0076",
	"frame": {"x":444,"y":944,"w":111,"h":236},
	"rotated": false,
	"trimmed": false,
	"spriteSourceSize": {"x":0,"y":0,"w":111,"h":236},
	"sourceSize": {"w":111,"h":236}
}
,{
	"filename": "KazButton0077",
	"frame": {"x":555,"y":944,"w":111,"h":236},
	"rotated": false,
	"trimmed": false,
	"spriteSourceSize": {"x":0,"y":0,"w":111,"h":236},
	"sourceSize": {"w":111,"h":236}
}
,{
	"filename": "KazButton0078",
	"frame": {"x":666,"y":944,"w":111,"h":236},
	"rotated": false,
	"trimmed": false,
	"spriteSourceSize": {"x":0,"y":0,"w":111,"h":236},
	"sourceSize": {"w":111,"h":236}
}],
"meta": {
	"app": "Adobe Flash CS6",
	"version": "12.0.0.481",
	"image": "kaz.png",
	"format": "RGBA8888",
	"size": {"w":2048,"h":2048},
	"scale": "1"
}
}
