{"frames": [

{
	"filename": "stars0001.png",
	"frame": {"x":2,"y":2,"w":57,"h":33},
	"rotated": false,
	"trimmed": false,
	"spriteSourceSize": {"x":0,"y":0,"w":57,"h":33},
	"sourceSize": {"w":57,"h":33},
	"pivot": {"x":0.5,"y":0.5}
},
{
	"filename": "stars0002.png",
	"frame": {"x":2,"y":37,"w":57,"h":33},
	"rotated": false,
	"trimmed": false,
	"spriteSourceSize": {"x":0,"y":0,"w":57,"h":33},
	"sourceSize": {"w":57,"h":33},
	"pivot": {"x":0.5,"y":0.5}
},
{
	"filename": "stars0003.png",
	"frame": {"x":2,"y":72,"w":57,"h":33},
	"rotated": false,
	"trimmed": false,
	"spriteSourceSize": {"x":0,"y":0,"w":57,"h":33},
	"sourceSize": {"w":57,"h":33},
	"pivot": {"x":0.5,"y":0.5}
},
{
	"filename": "stars0004.png",
	"frame": {"x":2,"y":107,"w":57,"h":33},
	"rotated": false,
	"trimmed": false,
	"spriteSourceSize": {"x":0,"y":0,"w":57,"h":33},
	"sourceSize": {"w":57,"h":33},
	"pivot": {"x":0.5,"y":0.5}
},
{
	"filename": "stars0005.png",
	"frame": {"x":2,"y":142,"w":57,"h":33},
	"rotated": false,
	"trimmed": false,
	"spriteSourceSize": {"x":0,"y":0,"w":57,"h":33},
	"sourceSize": {"w":57,"h":33},
	"pivot": {"x":0.5,"y":0.5}
},
{
	"filename": "stars0006.png",
	"frame": {"x":2,"y":177,"w":57,"h":33},
	"rotated": false,
	"trimmed": false,
	"spriteSourceSize": {"x":0,"y":0,"w":57,"h":33},
	"sourceSize": {"w":57,"h":33},
	"pivot": {"x":0.5,"y":0.5}
},
{
	"filename": "stars0007.png",
	"frame": {"x":2,"y":212,"w":57,"h":33},
	"rotated": false,
	"trimmed": false,
	"spriteSourceSize": {"x":0,"y":0,"w":57,"h":33},
	"sourceSize": {"w":57,"h":33},
	"pivot": {"x":0.5,"y":0.5}
},
{
	"filename": "stars0008.png",
	"frame": {"x":2,"y":247,"w":57,"h":33},
	"rotated": false,
	"trimmed": false,
	"spriteSourceSize": {"x":0,"y":0,"w":57,"h":33},
	"sourceSize": {"w":57,"h":33},
	"pivot": {"x":0.5,"y":0.5}
},
{
	"filename": "stars0009.png",
	"frame": {"x":2,"y":282,"w":57,"h":33},
	"rotated": false,
	"trimmed": false,
	"spriteSourceSize": {"x":0,"y":0,"w":57,"h":33},
	"sourceSize": {"w":57,"h":33},
	"pivot": {"x":0.5,"y":0.5}
},
{
	"filename": "stars0010.png",
	"frame": {"x":2,"y":317,"w":57,"h":33},
	"rotated": false,
	"trimmed": false,
	"spriteSourceSize": {"x":0,"y":0,"w":57,"h":33},
	"sourceSize": {"w":57,"h":33},
	"pivot": {"x":0.5,"y":0.5}
},
{
	"filename": "stars0011.png",
	"frame": {"x":2,"y":352,"w":57,"h":33},
	"rotated": false,
	"trimmed": false,
	"spriteSourceSize": {"x":0,"y":0,"w":57,"h":33},
	"sourceSize": {"w":57,"h":33},
	"pivot": {"x":0.5,"y":0.5}
},
{
	"filename": "stars0012.png",
	"frame": {"x":2,"y":387,"w":57,"h":33},
	"rotated": false,
	"trimmed": false,
	"spriteSourceSize": {"x":0,"y":0,"w":57,"h":33},
	"sourceSize": {"w":57,"h":33},
	"pivot": {"x":0.5,"y":0.5}
},
{
	"filename": "stars0013.png",
	"frame": {"x":2,"y":422,"w":57,"h":33},
	"rotated": false,
	"trimmed": false,
	"spriteSourceSize": {"x":0,"y":0,"w":57,"h":33},
	"sourceSize": {"w":57,"h":33},
	"pivot": {"x":0.5,"y":0.5}
},
{
	"filename": "stars0014.png",
	"frame": {"x":2,"y":457,"w":57,"h":33},
	"rotated": false,
	"trimmed": false,
	"spriteSourceSize": {"x":0,"y":0,"w":57,"h":33},
	"sourceSize": {"w":57,"h":33},
	"pivot": {"x":0.5,"y":0.5}
},
{
	"filename": "stars0015.png",
	"frame": {"x":2,"y":492,"w":57,"h":33},
	"rotated": false,
	"trimmed": false,
	"spriteSourceSize": {"x":0,"y":0,"w":57,"h":33},
	"sourceSize": {"w":57,"h":33},
	"pivot": {"x":0.5,"y":0.5}
},
{
	"filename": "stars0016.png",
	"frame": {"x":2,"y":527,"w":57,"h":33},
	"rotated": false,
	"trimmed": false,
	"spriteSourceSize": {"x":0,"y":0,"w":57,"h":33},
	"sourceSize": {"w":57,"h":33},
	"pivot": {"x":0.5,"y":0.5}
},
{
	"filename": "stars0017.png",
	"frame": {"x":2,"y":562,"w":57,"h":33},
	"rotated": false,
	"trimmed": false,
	"spriteSourceSize": {"x":0,"y":0,"w":57,"h":33},
	"sourceSize": {"w":57,"h":33},
	"pivot": {"x":0.5,"y":0.5}
},
{
	"filename": "stars0018.png",
	"frame": {"x":2,"y":597,"w":57,"h":33},
	"rotated": false,
	"trimmed": false,
	"spriteSourceSize": {"x":0,"y":0,"w":57,"h":33},
	"sourceSize": {"w":57,"h":33},
	"pivot": {"x":0.5,"y":0.5}
},
{
	"filename": "stars0019.png",
	"frame": {"x":2,"y":632,"w":57,"h":33},
	"rotated": false,
	"trimmed": false,
	"spriteSourceSize": {"x":0,"y":0,"w":57,"h":33},
	"sourceSize": {"w":57,"h":33},
	"pivot": {"x":0.5,"y":0.5}
},
{
	"filename": "stars0020.png",
	"frame": {"x":2,"y":667,"w":57,"h":33},
	"rotated": false,
	"trimmed": false,
	"spriteSourceSize": {"x":0,"y":0,"w":57,"h":33},
	"sourceSize": {"w":57,"h":33},
	"pivot": {"x":0.5,"y":0.5}
},
{
	"filename": "stars0021.png",
	"frame": {"x":2,"y":702,"w":57,"h":33},
	"rotated": false,
	"trimmed": false,
	"spriteSourceSize": {"x":0,"y":0,"w":57,"h":33},
	"sourceSize": {"w":57,"h":33},
	"pivot": {"x":0.5,"y":0.5}
},
{
	"filename": "stars0022.png",
	"frame": {"x":2,"y":737,"w":57,"h":33},
	"rotated": false,
	"trimmed": false,
	"spriteSourceSize": {"x":0,"y":0,"w":57,"h":33},
	"sourceSize": {"w":57,"h":33},
	"pivot": {"x":0.5,"y":0.5}
},
{
	"filename": "stars0023.png",
	"frame": {"x":2,"y":772,"w":57,"h":33},
	"rotated": false,
	"trimmed": false,
	"spriteSourceSize": {"x":0,"y":0,"w":57,"h":33},
	"sourceSize": {"w":57,"h":33},
	"pivot": {"x":0.5,"y":0.5}
},
{
	"filename": "stars0024.png",
	"frame": {"x":2,"y":807,"w":57,"h":33},
	"rotated": false,
	"trimmed": false,
	"spriteSourceSize": {"x":0,"y":0,"w":57,"h":33},
	"sourceSize": {"w":57,"h":33},
	"pivot": {"x":0.5,"y":0.5}
},
{
	"filename": "stars0025.png",
	"frame": {"x":2,"y":842,"w":57,"h":33},
	"rotated": false,
	"trimmed": false,
	"spriteSourceSize": {"x":0,"y":0,"w":57,"h":33},
	"sourceSize": {"w":57,"h":33},
	"pivot": {"x":0.5,"y":0.5}
},
{
	"filename": "stars0026.png",
	"frame": {"x":2,"y":877,"w":57,"h":33},
	"rotated": false,
	"trimmed": false,
	"spriteSourceSize": {"x":0,"y":0,"w":57,"h":33},
	"sourceSize": {"w":57,"h":33},
	"pivot": {"x":0.5,"y":0.5}
},
{
	"filename": "stars0027.png",
	"frame": {"x":2,"y":912,"w":57,"h":33},
	"rotated": false,
	"trimmed": false,
	"spriteSourceSize": {"x":0,"y":0,"w":57,"h":33},
	"sourceSize": {"w":57,"h":33},
	"pivot": {"x":0.5,"y":0.5}
},
{
	"filename": "stars0028.png",
	"frame": {"x":2,"y":947,"w":57,"h":33},
	"rotated": false,
	"trimmed": false,
	"spriteSourceSize": {"x":0,"y":0,"w":57,"h":33},
	"sourceSize": {"w":57,"h":33},
	"pivot": {"x":0.5,"y":0.5}
},
{
	"filename": "stars0029.png",
	"frame": {"x":2,"y":982,"w":57,"h":33},
	"rotated": false,
	"trimmed": false,
	"spriteSourceSize": {"x":0,"y":0,"w":57,"h":33},
	"sourceSize": {"w":57,"h":33},
	"pivot": {"x":0.5,"y":0.5}
},
{
	"filename": "stars0030.png",
	"frame": {"x":2,"y":1017,"w":57,"h":33},
	"rotated": false,
	"trimmed": false,
	"spriteSourceSize": {"x":0,"y":0,"w":57,"h":33},
	"sourceSize": {"w":57,"h":33},
	"pivot": {"x":0.5,"y":0.5}
},
{
	"filename": "stars0031.png",
	"frame": {"x":2,"y":1052,"w":57,"h":33},
	"rotated": false,
	"trimmed": false,
	"spriteSourceSize": {"x":0,"y":0,"w":57,"h":33},
	"sourceSize": {"w":57,"h":33},
	"pivot": {"x":0.5,"y":0.5}
},
{
	"filename": "stars0032.png",
	"frame": {"x":2,"y":1087,"w":57,"h":33},
	"rotated": false,
	"trimmed": false,
	"spriteSourceSize": {"x":0,"y":0,"w":57,"h":33},
	"sourceSize": {"w":57,"h":33},
	"pivot": {"x":0.5,"y":0.5}
},
{
	"filename": "stars0033.png",
	"frame": {"x":2,"y":1122,"w":57,"h":33},
	"rotated": false,
	"trimmed": false,
	"spriteSourceSize": {"x":0,"y":0,"w":57,"h":33},
	"sourceSize": {"w":57,"h":33},
	"pivot": {"x":0.5,"y":0.5}
},
{
	"filename": "stars0034.png",
	"frame": {"x":2,"y":1157,"w":57,"h":33},
	"rotated": false,
	"trimmed": false,
	"spriteSourceSize": {"x":0,"y":0,"w":57,"h":33},
	"sourceSize": {"w":57,"h":33},
	"pivot": {"x":0.5,"y":0.5}
},
{
	"filename": "stars0035.png",
	"frame": {"x":2,"y":1192,"w":57,"h":33},
	"rotated": false,
	"trimmed": false,
	"spriteSourceSize": {"x":0,"y":0,"w":57,"h":33},
	"sourceSize": {"w":57,"h":33},
	"pivot": {"x":0.5,"y":0.5}
},
{
	"filename": "stars0036.png",
	"frame": {"x":2,"y":1227,"w":57,"h":33},
	"rotated": false,
	"trimmed": false,
	"spriteSourceSize": {"x":0,"y":0,"w":57,"h":33},
	"sourceSize": {"w":57,"h":33},
	"pivot": {"x":0.5,"y":0.5}
},
{
	"filename": "stars0037.png",
	"frame": {"x":2,"y":1262,"w":57,"h":33},
	"rotated": false,
	"trimmed": false,
	"spriteSourceSize": {"x":0,"y":0,"w":57,"h":33},
	"sourceSize": {"w":57,"h":33},
	"pivot": {"x":0.5,"y":0.5}
},
{
	"filename": "stars0038.png",
	"frame": {"x":2,"y":1297,"w":57,"h":33},
	"rotated": false,
	"trimmed": false,
	"spriteSourceSize": {"x":0,"y":0,"w":57,"h":33},
	"sourceSize": {"w":57,"h":33},
	"pivot": {"x":0.5,"y":0.5}
},
{
	"filename": "stars0039.png",
	"frame": {"x":2,"y":1332,"w":57,"h":33},
	"rotated": false,
	"trimmed": false,
	"spriteSourceSize": {"x":0,"y":0,"w":57,"h":33},
	"sourceSize": {"w":57,"h":33},
	"pivot": {"x":0.5,"y":0.5}
},
{
	"filename": "stars0040.png",
	"frame": {"x":2,"y":1367,"w":57,"h":33},
	"rotated": false,
	"trimmed": false,
	"spriteSourceSize": {"x":0,"y":0,"w":57,"h":33},
	"sourceSize": {"w":57,"h":33},
	"pivot": {"x":0.5,"y":0.5}
},
{
	"filename": "stars0041.png",
	"frame": {"x":2,"y":1402,"w":57,"h":33},
	"rotated": false,
	"trimmed": false,
	"spriteSourceSize": {"x":0,"y":0,"w":57,"h":33},
	"sourceSize": {"w":57,"h":33},
	"pivot": {"x":0.5,"y":0.5}
},
{
	"filename": "stars0042.png",
	"frame": {"x":2,"y":1437,"w":57,"h":33},
	"rotated": false,
	"trimmed": false,
	"spriteSourceSize": {"x":0,"y":0,"w":57,"h":33},
	"sourceSize": {"w":57,"h":33},
	"pivot": {"x":0.5,"y":0.5}
},
{
	"filename": "stars0043.png",
	"frame": {"x":2,"y":1472,"w":57,"h":33},
	"rotated": false,
	"trimmed": false,
	"spriteSourceSize": {"x":0,"y":0,"w":57,"h":33},
	"sourceSize": {"w":57,"h":33},
	"pivot": {"x":0.5,"y":0.5}
},
{
	"filename": "stars0044.png",
	"frame": {"x":2,"y":1507,"w":57,"h":33},
	"rotated": false,
	"trimmed": false,
	"spriteSourceSize": {"x":0,"y":0,"w":57,"h":33},
	"sourceSize": {"w":57,"h":33},
	"pivot": {"x":0.5,"y":0.5}
},
{
	"filename": "stars0045.png",
	"frame": {"x":2,"y":1542,"w":57,"h":33},
	"rotated": false,
	"trimmed": false,
	"spriteSourceSize": {"x":0,"y":0,"w":57,"h":33},
	"sourceSize": {"w":57,"h":33},
	"pivot": {"x":0.5,"y":0.5}
},
{
	"filename": "stars0046.png",
	"frame": {"x":2,"y":1577,"w":57,"h":33},
	"rotated": false,
	"trimmed": false,
	"spriteSourceSize": {"x":0,"y":0,"w":57,"h":33},
	"sourceSize": {"w":57,"h":33},
	"pivot": {"x":0.5,"y":0.5}
},
{
	"filename": "stars0047.png",
	"frame": {"x":2,"y":1612,"w":57,"h":33},
	"rotated": false,
	"trimmed": false,
	"spriteSourceSize": {"x":0,"y":0,"w":57,"h":33},
	"sourceSize": {"w":57,"h":33},
	"pivot": {"x":0.5,"y":0.5}
},
{
	"filename": "stars0048.png",
	"frame": {"x":2,"y":1647,"w":57,"h":33},
	"rotated": false,
	"trimmed": false,
	"spriteSourceSize": {"x":0,"y":0,"w":57,"h":33},
	"sourceSize": {"w":57,"h":33},
	"pivot": {"x":0.5,"y":0.5}
},
{
	"filename": "stars0049.png",
	"frame": {"x":2,"y":1682,"w":57,"h":33},
	"rotated": false,
	"trimmed": false,
	"spriteSourceSize": {"x":0,"y":0,"w":57,"h":33},
	"sourceSize": {"w":57,"h":33},
	"pivot": {"x":0.5,"y":0.5}
}],
"meta": {
	"app": "http://www.codeandweb.com/texturepacker",
	"version": "1.0",
	"image": "stars.png",
	"format": "RGBA8888",
	"size": {"w":61,"h":1717},
	"scale": "1",
	"smartupdate": "$TexturePacker:SmartUpdate:2846a769b3bb5b8d632856c4ac268aa5:883e941d55eb2490fbc398ec7d6c4b24:35785538339b2ab69d61a4ffdc54ccf7$"
}
}
