{"frames": [

{
	"filename": "doneButton0000",
	"frame": {"x":0,"y":0,"w":102,"h":64},
	"rotated": false,
	"trimmed": false,
	"spriteSourceSize": {"x":0,"y":0,"w":102,"h":64},
	"sourceSize": {"w":102,"h":64}
}
,{
	"filename": "doneButton0001",
	"frame": {"x":0,"y":64,"w":102,"h":64},
	"rotated": false,
	"trimmed": false,
	"spriteSourceSize": {"x":0,"y":0,"w":102,"h":64},
	"sourceSize": {"w":102,"h":64}
}
,{
	"filename": "doneButton0002",
	"frame": {"x":0,"y":128,"w":102,"h":64},
	"rotated": false,
	"trimmed": false,
	"spriteSourceSize": {"x":0,"y":0,"w":102,"h":64},
	"sourceSize": {"w":102,"h":64}
}],
"meta": {
	"app": "Adobe Flash CS6",
	"version": "12.0.0.481",
	"image": "doneInGame.png",
	"format": "RGBA8888",
	"size": {"w":128,"h":256},
	"scale": "1"
}
}
