{"frames": [

{
	"filename": "gab_drink0001.png",
	"frame": {"x":2,"y":2,"w":84,"h":239},
	"rotated": false,
	"trimmed": false,
	"spriteSourceSize": {"x":0,"y":0,"w":84,"h":239},
	"sourceSize": {"w":84,"h":239},
	"pivot": {"x":0.5,"y":0.5}
},
{
	"filename": "gab_drink0002.png",
	"frame": {"x":2,"y":243,"w":84,"h":239},
	"rotated": false,
	"trimmed": false,
	"spriteSourceSize": {"x":0,"y":0,"w":84,"h":239},
	"sourceSize": {"w":84,"h":239},
	"pivot": {"x":0.5,"y":0.5}
},
{
	"filename": "gab_drink0003.png",
	"frame": {"x":2,"y":484,"w":84,"h":239},
	"rotated": false,
	"trimmed": false,
	"spriteSourceSize": {"x":0,"y":0,"w":84,"h":239},
	"sourceSize": {"w":84,"h":239},
	"pivot": {"x":0.5,"y":0.5}
},
{
	"filename": "gab_drink0004.png",
	"frame": {"x":2,"y":484,"w":84,"h":239},
	"rotated": false,
	"trimmed": false,
	"spriteSourceSize": {"x":0,"y":0,"w":84,"h":239},
	"sourceSize": {"w":84,"h":239},
	"pivot": {"x":0.5,"y":0.5}
},
{
	"filename": "gab_drink0005.png",
	"frame": {"x":2,"y":484,"w":84,"h":239},
	"rotated": false,
	"trimmed": false,
	"spriteSourceSize": {"x":0,"y":0,"w":84,"h":239},
	"sourceSize": {"w":84,"h":239},
	"pivot": {"x":0.5,"y":0.5}
},
{
	"filename": "gab_drink0006.png",
	"frame": {"x":2,"y":484,"w":84,"h":239},
	"rotated": false,
	"trimmed": false,
	"spriteSourceSize": {"x":0,"y":0,"w":84,"h":239},
	"sourceSize": {"w":84,"h":239},
	"pivot": {"x":0.5,"y":0.5}
},
{
	"filename": "gab_drink0007.png",
	"frame": {"x":2,"y":484,"w":84,"h":239},
	"rotated": false,
	"trimmed": false,
	"spriteSourceSize": {"x":0,"y":0,"w":84,"h":239},
	"sourceSize": {"w":84,"h":239},
	"pivot": {"x":0.5,"y":0.5}
},
{
	"filename": "gab_drink0008.png",
	"frame": {"x":2,"y":484,"w":84,"h":239},
	"rotated": false,
	"trimmed": false,
	"spriteSourceSize": {"x":0,"y":0,"w":84,"h":239},
	"sourceSize": {"w":84,"h":239},
	"pivot": {"x":0.5,"y":0.5}
},
{
	"filename": "gab_drink0009.png",
	"frame": {"x":2,"y":484,"w":84,"h":239},
	"rotated": false,
	"trimmed": false,
	"spriteSourceSize": {"x":0,"y":0,"w":84,"h":239},
	"sourceSize": {"w":84,"h":239},
	"pivot": {"x":0.5,"y":0.5}
},
{
	"filename": "gab_drink0010.png",
	"frame": {"x":2,"y":484,"w":84,"h":239},
	"rotated": false,
	"trimmed": false,
	"spriteSourceSize": {"x":0,"y":0,"w":84,"h":239},
	"sourceSize": {"w":84,"h":239},
	"pivot": {"x":0.5,"y":0.5}
},
{
	"filename": "gab_drink0011.png",
	"frame": {"x":2,"y":484,"w":84,"h":239},
	"rotated": false,
	"trimmed": false,
	"spriteSourceSize": {"x":0,"y":0,"w":84,"h":239},
	"sourceSize": {"w":84,"h":239},
	"pivot": {"x":0.5,"y":0.5}
},
{
	"filename": "gab_drink0012.png",
	"frame": {"x":2,"y":484,"w":84,"h":239},
	"rotated": false,
	"trimmed": false,
	"spriteSourceSize": {"x":0,"y":0,"w":84,"h":239},
	"sourceSize": {"w":84,"h":239},
	"pivot": {"x":0.5,"y":0.5}
},
{
	"filename": "gab_drink0013.png",
	"frame": {"x":2,"y":484,"w":84,"h":239},
	"rotated": false,
	"trimmed": false,
	"spriteSourceSize": {"x":0,"y":0,"w":84,"h":239},
	"sourceSize": {"w":84,"h":239},
	"pivot": {"x":0.5,"y":0.5}
},
{
	"filename": "gab_drink0014.png",
	"frame": {"x":2,"y":484,"w":84,"h":239},
	"rotated": false,
	"trimmed": false,
	"spriteSourceSize": {"x":0,"y":0,"w":84,"h":239},
	"sourceSize": {"w":84,"h":239},
	"pivot": {"x":0.5,"y":0.5}
},
{
	"filename": "gab_drink0015.png",
	"frame": {"x":2,"y":484,"w":84,"h":239},
	"rotated": false,
	"trimmed": false,
	"spriteSourceSize": {"x":0,"y":0,"w":84,"h":239},
	"sourceSize": {"w":84,"h":239},
	"pivot": {"x":0.5,"y":0.5}
},
{
	"filename": "gab_drink0016.png",
	"frame": {"x":2,"y":484,"w":84,"h":239},
	"rotated": false,
	"trimmed": false,
	"spriteSourceSize": {"x":0,"y":0,"w":84,"h":239},
	"sourceSize": {"w":84,"h":239},
	"pivot": {"x":0.5,"y":0.5}
},
{
	"filename": "gab_drink0017.png",
	"frame": {"x":2,"y":484,"w":84,"h":239},
	"rotated": false,
	"trimmed": false,
	"spriteSourceSize": {"x":0,"y":0,"w":84,"h":239},
	"sourceSize": {"w":84,"h":239},
	"pivot": {"x":0.5,"y":0.5}
},
{
	"filename": "gab_drink0018.png",
	"frame": {"x":2,"y":484,"w":84,"h":239},
	"rotated": false,
	"trimmed": false,
	"spriteSourceSize": {"x":0,"y":0,"w":84,"h":239},
	"sourceSize": {"w":84,"h":239},
	"pivot": {"x":0.5,"y":0.5}
},
{
	"filename": "gab_drink0019.png",
	"frame": {"x":2,"y":484,"w":84,"h":239},
	"rotated": false,
	"trimmed": false,
	"spriteSourceSize": {"x":0,"y":0,"w":84,"h":239},
	"sourceSize": {"w":84,"h":239},
	"pivot": {"x":0.5,"y":0.5}
},
{
	"filename": "gab_drink0020.png",
	"frame": {"x":2,"y":484,"w":84,"h":239},
	"rotated": false,
	"trimmed": false,
	"spriteSourceSize": {"x":0,"y":0,"w":84,"h":239},
	"sourceSize": {"w":84,"h":239},
	"pivot": {"x":0.5,"y":0.5}
},
{
	"filename": "gab_drink0021.png",
	"frame": {"x":2,"y":484,"w":84,"h":239},
	"rotated": false,
	"trimmed": false,
	"spriteSourceSize": {"x":0,"y":0,"w":84,"h":239},
	"sourceSize": {"w":84,"h":239},
	"pivot": {"x":0.5,"y":0.5}
},
{
	"filename": "gab_drink0022.png",
	"frame": {"x":2,"y":484,"w":84,"h":239},
	"rotated": false,
	"trimmed": false,
	"spriteSourceSize": {"x":0,"y":0,"w":84,"h":239},
	"sourceSize": {"w":84,"h":239},
	"pivot": {"x":0.5,"y":0.5}
},
{
	"filename": "gab_drink0023.png",
	"frame": {"x":2,"y":484,"w":84,"h":239},
	"rotated": false,
	"trimmed": false,
	"spriteSourceSize": {"x":0,"y":0,"w":84,"h":239},
	"sourceSize": {"w":84,"h":239},
	"pivot": {"x":0.5,"y":0.5}
},
{
	"filename": "gab_drink0024.png",
	"frame": {"x":2,"y":484,"w":84,"h":239},
	"rotated": false,
	"trimmed": false,
	"spriteSourceSize": {"x":0,"y":0,"w":84,"h":239},
	"sourceSize": {"w":84,"h":239},
	"pivot": {"x":0.5,"y":0.5}
},
{
	"filename": "gab_drink0025.png",
	"frame": {"x":2,"y":484,"w":84,"h":239},
	"rotated": false,
	"trimmed": false,
	"spriteSourceSize": {"x":0,"y":0,"w":84,"h":239},
	"sourceSize": {"w":84,"h":239},
	"pivot": {"x":0.5,"y":0.5}
},
{
	"filename": "gab_drink0026.png",
	"frame": {"x":2,"y":484,"w":84,"h":239},
	"rotated": false,
	"trimmed": false,
	"spriteSourceSize": {"x":0,"y":0,"w":84,"h":239},
	"sourceSize": {"w":84,"h":239},
	"pivot": {"x":0.5,"y":0.5}
},
{
	"filename": "gab_drink0027.png",
	"frame": {"x":2,"y":484,"w":84,"h":239},
	"rotated": false,
	"trimmed": false,
	"spriteSourceSize": {"x":0,"y":0,"w":84,"h":239},
	"sourceSize": {"w":84,"h":239},
	"pivot": {"x":0.5,"y":0.5}
},
{
	"filename": "gab_drink0028.png",
	"frame": {"x":2,"y":484,"w":84,"h":239},
	"rotated": false,
	"trimmed": false,
	"spriteSourceSize": {"x":0,"y":0,"w":84,"h":239},
	"sourceSize": {"w":84,"h":239},
	"pivot": {"x":0.5,"y":0.5}
},
{
	"filename": "gab_drink0029.png",
	"frame": {"x":2,"y":484,"w":84,"h":239},
	"rotated": false,
	"trimmed": false,
	"spriteSourceSize": {"x":0,"y":0,"w":84,"h":239},
	"sourceSize": {"w":84,"h":239},
	"pivot": {"x":0.5,"y":0.5}
},
{
	"filename": "gab_drink0030.png",
	"frame": {"x":2,"y":484,"w":84,"h":239},
	"rotated": false,
	"trimmed": false,
	"spriteSourceSize": {"x":0,"y":0,"w":84,"h":239},
	"sourceSize": {"w":84,"h":239},
	"pivot": {"x":0.5,"y":0.5}
},
{
	"filename": "gab_drink0031.png",
	"frame": {"x":2,"y":484,"w":84,"h":239},
	"rotated": false,
	"trimmed": false,
	"spriteSourceSize": {"x":0,"y":0,"w":84,"h":239},
	"sourceSize": {"w":84,"h":239},
	"pivot": {"x":0.5,"y":0.5}
},
{
	"filename": "gab_drink0032.png",
	"frame": {"x":2,"y":484,"w":84,"h":239},
	"rotated": false,
	"trimmed": false,
	"spriteSourceSize": {"x":0,"y":0,"w":84,"h":239},
	"sourceSize": {"w":84,"h":239},
	"pivot": {"x":0.5,"y":0.5}
},
{
	"filename": "gab_drink0033.png",
	"frame": {"x":2,"y":484,"w":84,"h":239},
	"rotated": false,
	"trimmed": false,
	"spriteSourceSize": {"x":0,"y":0,"w":84,"h":239},
	"sourceSize": {"w":84,"h":239},
	"pivot": {"x":0.5,"y":0.5}
},
{
	"filename": "gab_drink0034.png",
	"frame": {"x":2,"y":484,"w":84,"h":239},
	"rotated": false,
	"trimmed": false,
	"spriteSourceSize": {"x":0,"y":0,"w":84,"h":239},
	"sourceSize": {"w":84,"h":239},
	"pivot": {"x":0.5,"y":0.5}
},
{
	"filename": "gab_drink0035.png",
	"frame": {"x":2,"y":484,"w":84,"h":239},
	"rotated": false,
	"trimmed": false,
	"spriteSourceSize": {"x":0,"y":0,"w":84,"h":239},
	"sourceSize": {"w":84,"h":239},
	"pivot": {"x":0.5,"y":0.5}
},
{
	"filename": "gab_drink0036.png",
	"frame": {"x":2,"y":484,"w":84,"h":239},
	"rotated": false,
	"trimmed": false,
	"spriteSourceSize": {"x":0,"y":0,"w":84,"h":239},
	"sourceSize": {"w":84,"h":239},
	"pivot": {"x":0.5,"y":0.5}
},
{
	"filename": "gab_drink0037.png",
	"frame": {"x":2,"y":484,"w":84,"h":239},
	"rotated": false,
	"trimmed": false,
	"spriteSourceSize": {"x":0,"y":0,"w":84,"h":239},
	"sourceSize": {"w":84,"h":239},
	"pivot": {"x":0.5,"y":0.5}
},
{
	"filename": "gab_drink0038.png",
	"frame": {"x":2,"y":484,"w":84,"h":239},
	"rotated": false,
	"trimmed": false,
	"spriteSourceSize": {"x":0,"y":0,"w":84,"h":239},
	"sourceSize": {"w":84,"h":239},
	"pivot": {"x":0.5,"y":0.5}
},
{
	"filename": "gab_drink0039.png",
	"frame": {"x":2,"y":484,"w":84,"h":239},
	"rotated": false,
	"trimmed": false,
	"spriteSourceSize": {"x":0,"y":0,"w":84,"h":239},
	"sourceSize": {"w":84,"h":239},
	"pivot": {"x":0.5,"y":0.5}
},
{
	"filename": "gab_drink0040.png",
	"frame": {"x":2,"y":484,"w":84,"h":239},
	"rotated": false,
	"trimmed": false,
	"spriteSourceSize": {"x":0,"y":0,"w":84,"h":239},
	"sourceSize": {"w":84,"h":239},
	"pivot": {"x":0.5,"y":0.5}
},
{
	"filename": "gab_drink0041.png",
	"frame": {"x":2,"y":484,"w":84,"h":239},
	"rotated": false,
	"trimmed": false,
	"spriteSourceSize": {"x":0,"y":0,"w":84,"h":239},
	"sourceSize": {"w":84,"h":239},
	"pivot": {"x":0.5,"y":0.5}
},
{
	"filename": "gab_drink0042.png",
	"frame": {"x":2,"y":484,"w":84,"h":239},
	"rotated": false,
	"trimmed": false,
	"spriteSourceSize": {"x":0,"y":0,"w":84,"h":239},
	"sourceSize": {"w":84,"h":239},
	"pivot": {"x":0.5,"y":0.5}
},
{
	"filename": "gab_drink0043.png",
	"frame": {"x":2,"y":484,"w":84,"h":239},
	"rotated": false,
	"trimmed": false,
	"spriteSourceSize": {"x":0,"y":0,"w":84,"h":239},
	"sourceSize": {"w":84,"h":239},
	"pivot": {"x":0.5,"y":0.5}
},
{
	"filename": "gab_drink0044.png",
	"frame": {"x":2,"y":484,"w":84,"h":239},
	"rotated": false,
	"trimmed": false,
	"spriteSourceSize": {"x":0,"y":0,"w":84,"h":239},
	"sourceSize": {"w":84,"h":239},
	"pivot": {"x":0.5,"y":0.5}
},
{
	"filename": "gab_drink0045.png",
	"frame": {"x":2,"y":484,"w":84,"h":239},
	"rotated": false,
	"trimmed": false,
	"spriteSourceSize": {"x":0,"y":0,"w":84,"h":239},
	"sourceSize": {"w":84,"h":239},
	"pivot": {"x":0.5,"y":0.5}
},
{
	"filename": "gab_drink0046.png",
	"frame": {"x":2,"y":484,"w":84,"h":239},
	"rotated": false,
	"trimmed": false,
	"spriteSourceSize": {"x":0,"y":0,"w":84,"h":239},
	"sourceSize": {"w":84,"h":239},
	"pivot": {"x":0.5,"y":0.5}
},
{
	"filename": "gab_drink0047.png",
	"frame": {"x":2,"y":484,"w":84,"h":239},
	"rotated": false,
	"trimmed": false,
	"spriteSourceSize": {"x":0,"y":0,"w":84,"h":239},
	"sourceSize": {"w":84,"h":239},
	"pivot": {"x":0.5,"y":0.5}
},
{
	"filename": "gab_drink0048.png",
	"frame": {"x":2,"y":484,"w":84,"h":239},
	"rotated": false,
	"trimmed": false,
	"spriteSourceSize": {"x":0,"y":0,"w":84,"h":239},
	"sourceSize": {"w":84,"h":239},
	"pivot": {"x":0.5,"y":0.5}
},
{
	"filename": "gab_drink0049.png",
	"frame": {"x":2,"y":484,"w":84,"h":239},
	"rotated": false,
	"trimmed": false,
	"spriteSourceSize": {"x":0,"y":0,"w":84,"h":239},
	"sourceSize": {"w":84,"h":239},
	"pivot": {"x":0.5,"y":0.5}
},
{
	"filename": "gab_drink0050.png",
	"frame": {"x":2,"y":484,"w":84,"h":239},
	"rotated": false,
	"trimmed": false,
	"spriteSourceSize": {"x":0,"y":0,"w":84,"h":239},
	"sourceSize": {"w":84,"h":239},
	"pivot": {"x":0.5,"y":0.5}
},
{
	"filename": "gab_drink0051.png",
	"frame": {"x":2,"y":484,"w":84,"h":239},
	"rotated": false,
	"trimmed": false,
	"spriteSourceSize": {"x":0,"y":0,"w":84,"h":239},
	"sourceSize": {"w":84,"h":239},
	"pivot": {"x":0.5,"y":0.5}
},
{
	"filename": "gab_drink0052.png",
	"frame": {"x":2,"y":484,"w":84,"h":239},
	"rotated": false,
	"trimmed": false,
	"spriteSourceSize": {"x":0,"y":0,"w":84,"h":239},
	"sourceSize": {"w":84,"h":239},
	"pivot": {"x":0.5,"y":0.5}
},
{
	"filename": "gab_drink0053.png",
	"frame": {"x":2,"y":725,"w":84,"h":239},
	"rotated": false,
	"trimmed": false,
	"spriteSourceSize": {"x":0,"y":0,"w":84,"h":239},
	"sourceSize": {"w":84,"h":239},
	"pivot": {"x":0.5,"y":0.5}
},
{
	"filename": "gab_drink0054.png",
	"frame": {"x":2,"y":966,"w":84,"h":239},
	"rotated": false,
	"trimmed": false,
	"spriteSourceSize": {"x":0,"y":0,"w":84,"h":239},
	"sourceSize": {"w":84,"h":239},
	"pivot": {"x":0.5,"y":0.5}
},
{
	"filename": "gab_drink0055.png",
	"frame": {"x":2,"y":1207,"w":84,"h":239},
	"rotated": false,
	"trimmed": false,
	"spriteSourceSize": {"x":0,"y":0,"w":84,"h":239},
	"sourceSize": {"w":84,"h":239},
	"pivot": {"x":0.5,"y":0.5}
},
{
	"filename": "gab_drink0056.png",
	"frame": {"x":2,"y":1207,"w":84,"h":239},
	"rotated": false,
	"trimmed": false,
	"spriteSourceSize": {"x":0,"y":0,"w":84,"h":239},
	"sourceSize": {"w":84,"h":239},
	"pivot": {"x":0.5,"y":0.5}
},
{
	"filename": "gab_drink0057.png",
	"frame": {"x":2,"y":1207,"w":84,"h":239},
	"rotated": false,
	"trimmed": false,
	"spriteSourceSize": {"x":0,"y":0,"w":84,"h":239},
	"sourceSize": {"w":84,"h":239},
	"pivot": {"x":0.5,"y":0.5}
},
{
	"filename": "gab_drink0058.png",
	"frame": {"x":2,"y":1207,"w":84,"h":239},
	"rotated": false,
	"trimmed": false,
	"spriteSourceSize": {"x":0,"y":0,"w":84,"h":239},
	"sourceSize": {"w":84,"h":239},
	"pivot": {"x":0.5,"y":0.5}
},
{
	"filename": "gab_drink0059.png",
	"frame": {"x":2,"y":1207,"w":84,"h":239},
	"rotated": false,
	"trimmed": false,
	"spriteSourceSize": {"x":0,"y":0,"w":84,"h":239},
	"sourceSize": {"w":84,"h":239},
	"pivot": {"x":0.5,"y":0.5}
},
{
	"filename": "gab_drink0060.png",
	"frame": {"x":2,"y":1207,"w":84,"h":239},
	"rotated": false,
	"trimmed": false,
	"spriteSourceSize": {"x":0,"y":0,"w":84,"h":239},
	"sourceSize": {"w":84,"h":239},
	"pivot": {"x":0.5,"y":0.5}
}],
"meta": {
	"app": "http://www.codeandweb.com/texturepacker",
	"version": "1.0",
	"image": "gab_drink.png",
	"format": "RGBA8888",
	"size": {"w":88,"h":1448},
	"scale": "1",
	"smartupdate": "$TexturePacker:SmartUpdate:250debbcf91ed9f2f4f561d79c3c2bb4:ab4135749c6b6ee9491d2bffa6edf214:e0fd67495bb94f438bc676a3ba102c7b$"
}
}
